[2017.01.04 13:29:02] [0000m.00s.030ms] [0] WELCOME
[2017.01.04 13:29:02] [0000m.00s.030ms] [1] iCDB Server ver.2.200, jmoSXI5tfcQi0m1NxN3JKg, build:5060443 created 2016-08-17 14:30:24, sources stamp:jmoSXI5tfcQi0m1NxN3JKg
[2017.01.04 13:29:02] [0000m.00s.030ms] [1] Copyright 2016 Mentor Graphics Corporation.  All Rights Reserved.
[2017.01.04 13:29:02] [0000m.00s.030ms] [1] Base flow version [VX.2]
[2017.01.04 13:29:02] [0000m.00s.030ms] [1] Install Id [1409847], Flow Id [PADS Professional VX.2], Full Flow Name [PADS Professional VX.2], Exact Access Date [2016/05/01]
[2017.01.04 13:29:02] [0000m.00s.030ms] [1] Machine [DESKTOP-TJKR3AR]  User [branden.sheffield]  PID [3692]
[2017.01.04 13:29:02] [0000m.00s.031ms] [1] Operating system [Microsoft Enterprise Edition, 64-bit (build 9200)]
[2017.01.04 13:29:02] [0000m.00s.031ms] [1] Current working dir [C:\pd_repo\pd\_CITADEL\Mentor\Citadel_Right]
[2017.01.04 13:29:02] [0000m.00s.031ms] [1] PATH [C:\MentorGraphics\PADSProVX.2\SDD_HOME\common\win32\bin;C:\MentorGraphics\PADSProVX.2\SDD_HOME\common\win32\lib;C:\MentorGraphics\PADSProVX.2\MGC_HOME.ixn\bin;C:\MentorGraphics\PADSProVX.2\MGC_HOME.ixn\lib;C:\MentorGraphics\PADSProVX.2\SDD_HOME\wv\win32\bin;C:\Program Files (x86)\CSR\BlueSuite 2.5.8\DFU Tools;C:\Program Files (x86)\NVIDIA Corporation\PhysX\Common;C:\ProgramData\Oracle\Java\javapath;C:\WINDOWS\system32;C:\WINDOWS;C:\WINDOWS\System32\Wbem;C:\WINDOWS\System32\WindowsPowerShell\v1.0\;C:\Program Files (x86)\Skype\Phone\;C:\Program Files (x86)\Windows Kits\8.1\Windows Performance Toolkit\;C:\Program Files\TortoiseSVN\bin;C:\Users\branden.sheffield\AppData\Local\Microsoft\WindowsApps;]
[2017.01.04 13:29:02] [0000m.00s.031ms] [1] SDD_HOME [C:\MentorGraphics\PADSProVX.2\SDD_HOME] on file system [NTFS]
[2017.01.04 13:29:02] [0000m.00s.031ms] [1] SDD_PLATFORM [win32]
[2017.01.04 13:29:02] [0000m.00s.031ms] [1] WDIR [C:\WDIR\PADSProVX.2;C:\MentorGraphics\PADSProVX.2\SDD_HOME\standard;]
[2017.01.04 13:29:02] [0000m.00s.031ms] [1] Local iCDB working dir [C:\WDIR\PADSProVX.2\iCDB] on file system [NTFS]
[2017.01.04 13:29:02] [0000m.00s.031ms] [2] S: Loading config files
[2017.01.04 13:29:02] [0000m.00s.036ms] [1] Config file [C:\pd_repo\pd\_CITADEL\Mentor\Citadel_Right\database\cdbsvr\Server.cfg] not found
[2017.01.04 13:29:02] [0000m.00s.037ms] [3] S: Config loaded
[2017.01.04 13:29:02] [0000m.00s.047ms] [0] S: Project path [C:\pd_repo\pd\_CITADEL\Mentor\Citadel_Right\database] on file system [NTFS]
[2017.01.04 13:29:02] [0000m.00s.047ms] [0] S: Project file (.prj) path [C:\pd_repo\pd\_CITADEL\Mentor\Citadel_Right\Citadel_Right.prj] on file system [NTFS]
[2017.01.04 13:29:02] [0000m.00s.047ms] [1] S: WARNING: Database auto-repair support DISABLED
[2017.01.04 13:29:02] [0000m.00s.047ms] [0] S: Multi-user mode (config)
[2017.01.04 13:29:02] [0000m.00s.047ms] [0] S: Event polling mode autodetection
[2017.01.04 13:29:02] [0000m.00s.053ms] [0] S: Started up automatically by iCDB Client: DESKTOP-TJKR3AR:branden.sheffield:3676
[2017.01.04 13:29:02] [0000m.00s.053ms] [0] S: Auto close mode
[2017.01.04 13:29:02] [0000m.00s.053ms] [0] S: Database ID [2ca7-2038-c061-b6ba-8ae2-b48d-ae2b-4850-a8ad-99a8-a7e5-348b]
[2017.01.04 13:29:02] [0000m.00s.053ms] [0] PathTranslator: BEGIN dumping
[2017.01.04 13:29:02] [0000m.00s.053ms] [0] PathTranslator: Local -> global path prefix list
[2017.01.04 13:29:02] [0000m.00s.053ms] [0] PathTranslator: [Z:\] -> [\\izombie\shares\pd\]
[2017.01.04 13:29:02] [0000m.00s.053ms] [0] PathTranslator: Global -> local path prefix list
[2017.01.04 13:29:02] [0000m.00s.053ms] [0] PathTranslator: [\\izombie\shares\pd\] -> [Z:\]
[2017.01.04 13:29:02] [0000m.00s.053ms] [0] PathTranslator: END dumping
[2017.01.04 13:29:02] [0000m.00s.053ms] [0] S: START
[2017.01.04 13:29:02] [0000m.00s.053ms] [0] S: Server startup lock file created
[2017.01.04 13:29:02] [0000m.00s.054ms] [0] S: Listening for client connections on port [10001]
[2017.01.04 13:29:02] [0000m.00s.054ms] [0] S: Server network ID [DESKTOP-TJKR3AR:192.168.201.202,DESKTOP-TJKR3AR,DESKTOP-TJKR3AR.skullcandy.local:10001]
[2017.01.04 13:29:02] [0000m.00s.055ms] [0] S: Server GUID [3360-2451-f1cb-2d9c-e0b5-d683-1b5d-6850-54b3-9382-b152-d3a8]
[2017.01.04 13:29:02] [0000m.00s.055ms] [0] S: Project GUID [2ca7-2038-c061-b6ba-8ae2-b48d-ae2b-4850-a8ad-99a8-a7e5-348b]
[2017.01.04 13:29:02] [0000m.00s.058ms] [0] S: Wrote data to server address file
[2017.01.04 13:29:02] [0000m.00s.059ms] [0] S: Server startup lock file removed
[2017.01.04 13:29:02] [0000m.00s.059ms] [1] ProjectBackupManager: Setting project file (.prj) path: [C:\pd_repo\pd\_CITADEL\Mentor\Citadel_Right\Citadel_Right.prj]
[2017.01.04 13:29:03] [0000m.00s.146ms] [0] S: Plugins loaded: [PIM] [ENetGen70] 
[2017.01.04 13:29:03] [0000m.00s.146ms] [0] S: Local disc access time: 26 us
[2017.01.04 13:29:03] [0000m.00s.146ms] [0] S: File server access time: 26 us
[2017.01.04 13:29:03] [0000m.00s.153ms] [0] Single file [C:\pd_repo\pd\_CITADEL\Mentor\Citadel_Right\database\icdb.dat] size [490432 (478.9 kB)]
[2017.01.04 13:29:03] [0000m.00s.153ms] [1] Single file [C:\pd_repo\pd\_CITADEL\Mentor\Citadel_Right\database\icdb.dat] opened in read-write mode
[2017.01.04 13:29:03] [0000m.00s.153ms] [0] SingleFile: [0000-0000-0000-0000] SFI header version check [1009] [1009]
[2017.01.04 13:29:03] [0000m.00s.153ms] [0] Database GUARD OK: [490432]
[2017.01.04 13:29:03] [0000m.00s.154ms] [0] SingleFile: [0000-0000-0000-0000] SFI header version check [1009] [1009]
[2017.01.04 13:29:03] [0000m.00s.154ms] [0] Database GUARD OK: [490432]
[2017.01.04 13:29:03] [0000m.00s.154ms] [0] SingleFile: [0000-0000-0000-0000] SFI header version check [1009] [1009]
[2017.01.04 13:29:03] [0000m.00s.154ms] [0] Database GUARD OK: [490432]
[2017.01.04 13:29:03] [0000m.00s.154ms] [0] SingleFile: [0000-0000-0000-0000] SFI header version check [1009] [1009]
[2017.01.04 13:29:03] [0000m.00s.154ms] [0] Database GUARD OK: [490432]
[2017.01.04 13:29:03] [0000m.00s.155ms] [0] SingleFile: [0000-0000-0000-0000] SFI header version check [1009] [1009]
[2017.01.04 13:29:03] [0000m.00s.155ms] [0] Database GUARD OK: [490432]
[2017.01.04 13:29:03] [0000m.00s.155ms] [0] SingleFile: [4f38-7e5e-1772-3396] SFI version check [1009] [1009]
[2017.01.04 13:29:03] [0000m.00s.161ms] [0] SingleFile: [4f38-7e5e-1772-3396] Database SFI header has been read in [6ms 684us]
[2017.01.04 13:29:03] [0000m.00s.165ms] [0] iCDB Server PI: Server & plugin session [3060]
[2017.01.04 13:29:03] [0000m.00s.166ms] [0] iCDB Server PI: Opening database [C:\pd_repo\pd\_CITADEL\Mentor\Citadel_Right\database]
[2017.01.04 13:29:03] [0000m.00s.166ms] [0] iCDB Server PI: Database [C:\pd_repo\pd\_CITADEL\Mentor\Citadel_Right\database] opened
[2017.01.04 13:29:03] [0000m.00s.175ms] [0] iCDB Database: Checking existence of constraint definitions
[2017.01.04 13:29:03] [0000m.00s.175ms] [0] iCDB Database: Checking constraint definitions version
[2017.01.04 13:29:03] [0000m.00s.205ms] [1] iCDB Database: Constraint definitions version [ce_ee.cns=7.10.56] up to date
[2017.01.04 13:29:03] [0000m.00s.210ms] [0] iCDB Server PI: Initializing plugins
[2017.01.04 13:29:03] [0000m.00s.211ms] [0] iCDB Server PI: Plugins initialized
[2017.01.04 13:29:03] [0000m.00s.211ms] [0] S: iCDB database loaded
[2017.01.04 13:29:03] [0000m.00s.211ms] [0] S: Starting threads
[2017.01.04 13:29:03] [0000m.00s.212ms] [0] BT: Listening for broadcast messages on port [10000]
[2017.01.04 13:29:03] [0000m.00s.212ms] [1] CMT: There are no clients - waiting [10 seconds]
[2017.01.04 13:29:03] [0000m.00s.213ms] [0] IT: Session [3061] for host [DESKTOP-TJKR3AR] user [branden.sheffield] with process ID [3676] created
[2017.01.04 13:29:03] [0000m.00s.215ms] [1] SC[3061]: Registered sub-client [DxD] with ID [1] for session ID [3061] host [DESKTOP-TJKR3AR] user [branden.sheffield] process ID [3676]
[2017.01.04 13:29:03] [0000m.00s.215ms] [0] MWT: WindowProc: WM_NCCREATE
[2017.01.04 13:29:03] [0000m.00s.228ms] [1] DMT: There are [1] iCDB Server Monitor connected now
[2017.01.04 13:29:03] [0000m.00s.228ms] [0] IT: iCDB Server Monitor session [1] for host [DESKTOP-TJKR3AR] user [branden.sheffield] with process ID [9620] created
[2017.01.04 13:29:03] [0000m.00s.321ms] [1] CMT: There are [1] clients now: 3061
[2017.01.04 13:29:03] [0000m.00s.696ms] [1] SC[3061]: Registered sub-client [TransactionRollbackSubClient] with ID [2] for session ID [3061] host [DESKTOP-TJKR3AR] user [branden.sheffield] process ID [3676]
[2017.01.04 13:29:03] [0000m.00s.703ms] [1] SC[3061]: Registered sub-client [xprob] with ID [3] for session ID [3061] host [DESKTOP-TJKR3AR] user [branden.sheffield] process ID [3676]
[2017.01.04 13:29:05] [0000m.02s.571ms] [1] SC[3061]: Registered sub-client [SymbolEditor] with ID [4] for session ID [3061] host [DESKTOP-TJKR3AR] user [branden.sheffield] process ID [3676]
[2017.01.04 13:29:05] [0000m.02s.576ms] [1] SC[3061]: Registered sub-client [SelectionHolder] with ID [5] for session ID [3061] host [DESKTOP-TJKR3AR] user [branden.sheffield] process ID [3676]
[2017.01.04 13:29:05] [0000m.02s.592ms] [1] SC[3061]: Registered sub-client [EEVM_EEVM_237082260] with ID [6] for session ID [3061] host [DESKTOP-TJKR3AR] user [branden.sheffield] process ID [3676]
[2017.01.04 13:29:05] [0000m.02s.593ms] [1] SC[3061]: UnRegistered sub-client [EEVM_EEVM_237082260] with ID [6] for session ID [3061] host [DESKTOP-TJKR3AR] user [branden.sheffield] process ID [3676]
[2017.01.04 13:29:05] [0000m.02s.596ms] [1] SC[3061]: Registered sub-client [EEVM_EEVM_237082260] with ID [7] for session ID [3061] host [DESKTOP-TJKR3AR] user [branden.sheffield] process ID [3676]
[2017.01.04 13:29:05] [0000m.02s.616ms] [1] SC[3061]: UnRegistered sub-client [EEVM_EEVM_237082260] with ID [7] for session ID [3061] host [DESKTOP-TJKR3AR] user [branden.sheffield] process ID [3676]
[2017.01.04 13:29:05] [0000m.02s.620ms] [1] SC[3061]: Registered sub-client [EEVM_EEVM_237084988] with ID [8] for session ID [3061] host [DESKTOP-TJKR3AR] user [branden.sheffield] process ID [3676]
[2017.01.04 13:29:05] [0000m.02s.620ms] [1] SC[3061]: UnRegistered sub-client [EEVM_EEVM_237084988] with ID [8] for session ID [3061] host [DESKTOP-TJKR3AR] user [branden.sheffield] process ID [3676]
[2017.01.04 13:29:05] [0000m.02s.624ms] [1] SC[3061]: Registered sub-client [EEVM_EEVM_237084988] with ID [9] for session ID [3061] host [DESKTOP-TJKR3AR] user [branden.sheffield] process ID [3676]
[2017.01.04 13:29:05] [0000m.02s.638ms] [1] SC[3061]: UnRegistered sub-client [EEVM_EEVM_237084988] with ID [9] for session ID [3061] host [DESKTOP-TJKR3AR] user [branden.sheffield] process ID [3676]
[2017.01.04 13:29:05] [0000m.02s.881ms] [1] SC[3061]: Registered sub-client [SystemDesignDll] with ID [10] for session ID [3061] host [DESKTOP-TJKR3AR] user [branden.sheffield] process ID [3676]
[2017.01.04 13:29:05] [0000m.02s.905ms] [1] SC[3061]: UnRegistered sub-client [SystemDesignDll] with ID [10] for session ID [3061] host [DESKTOP-TJKR3AR] user [branden.sheffield] process ID [3676]
[2017.01.04 13:29:05] [0000m.02s.908ms] [1] SC[3061]: Registered sub-client [SystemDesignDll] with ID [11] for session ID [3061] host [DESKTOP-TJKR3AR] user [branden.sheffield] process ID [3676]
[2017.01.04 13:29:07] [0000m.04s.835ms] [1] SC[3061]: Registered sub-client [DesignSearcher2] with ID [12] for session ID [3061] host [DESKTOP-TJKR3AR] user [branden.sheffield] process ID [3676]
[2017.01.04 13:29:07] [0000m.04s.848ms] [1] SC[3061]: Registered sub-client [HdlProject] with ID [13] for session ID [3061] host [DESKTOP-TJKR3AR] user [branden.sheffield] process ID [3676]
[2017.01.04 13:29:07] [0000m.04s.857ms] [1] SC[3061]: Registered sub-client [Navigator] with ID [14] for session ID [3061] host [DESKTOP-TJKR3AR] user [branden.sheffield] process ID [3676]
[2017.01.04 13:29:07] [0000m.04s.866ms] [1] SC[3061]: Registered sub-client [OutputWindow] with ID [15] for session ID [3061] host [DESKTOP-TJKR3AR] user [branden.sheffield] process ID [3676]
[2017.01.04 13:29:07] [0000m.04s.870ms] [1] SC[3061]: Registered sub-client [PlaceDevice] with ID [16] for session ID [3061] host [DESKTOP-TJKR3AR] user [branden.sheffield] process ID [3676]
[2017.01.04 13:29:07] [0000m.05s.035ms] [1] SC[3061]: Registered sub-client [LocalSymbolsDataProvider] with ID [17] for session ID [3061] host [DESKTOP-TJKR3AR] user [branden.sheffield] process ID [3676]
[2017.01.04 13:29:07] [0000m.05s.039ms] [1] SC[3061]: Registered sub-client [FFSearch_Controller_5] with ID [18] for session ID [3061] host [DESKTOP-TJKR3AR] user [branden.sheffield] process ID [3676]
[2017.01.04 13:29:08] [0000m.05s.188ms] [1] SC[3061]: Registered sub-client [FFSearch_Controller_6] with ID [19] for session ID [3061] host [DESKTOP-TJKR3AR] user [branden.sheffield] process ID [3676]
[2017.01.04 13:29:08] [0000m.05s.313ms] [1] SC[3061]: Registered sub-client [FFSearch_Controller_7] with ID [20] for session ID [3061] host [DESKTOP-TJKR3AR] user [branden.sheffield] process ID [3676]
[2017.01.04 13:29:08] [0000m.05s.413ms] [1] SC[3061]: Registered sub-client [FFSearch_Controller_8] with ID [21] for session ID [3061] host [DESKTOP-TJKR3AR] user [branden.sheffield] process ID [3676]
[2017.01.04 13:29:08] [0000m.05s.533ms] [1] SC[3061]: Registered sub-client [FFSearch_Controller_9] with ID [22] for session ID [3061] host [DESKTOP-TJKR3AR] user [branden.sheffield] process ID [3676]
[2017.01.04 13:29:08] [0000m.05s.670ms] [1] SC[3061]: Registered sub-client [SAE] with ID [23] for session ID [3061] host [DESKTOP-TJKR3AR] user [branden.sheffield] process ID [3676]
[2017.01.04 13:29:08] [0000m.05s.674ms] [1] SC[3061]: Registered sub-client [CCZAddin] with ID [24] for session ID [3061] host [DESKTOP-TJKR3AR] user [branden.sheffield] process ID [3676]
[2017.01.04 13:29:08] [0000m.05s.677ms] [1] SC[3061]: Registered sub-client [DxThumbnails] with ID [25] for session ID [3061] host [DESKTOP-TJKR3AR] user [branden.sheffield] process ID [3676]
[2017.01.04 13:29:08] [0000m.05s.681ms] [1] SC[3061]: Registered sub-client [MyParts] with ID [26] for session ID [3061] host [DESKTOP-TJKR3AR] user [branden.sheffield] process ID [3676]
[2017.01.04 13:29:08] [0000m.05s.702ms] [1] SC[3061]: Registered sub-client [PinsList] with ID [27] for session ID [3061] host [DESKTOP-TJKR3AR] user [branden.sheffield] process ID [3676]
[2017.01.04 13:29:08] [0000m.05s.793ms] [1] SC[3061]: Registered sub-client [toolboxes] with ID [28] for session ID [3061] host [DESKTOP-TJKR3AR] user [branden.sheffield] process ID [3676]
[2017.01.04 13:29:08] [0000m.05s.826ms] [1] SC[3061]: Registered sub-client [ProjectIntegrationIcdbCacheDxD:398509176] with ID [29] for session ID [3061] host [DESKTOP-TJKR3AR] user [branden.sheffield] process ID [3676]
[2017.01.04 13:29:08] [0000m.05s.903ms] [1] SC[3061]: Registered sub-client [SheetConnectorsCacheDxD:1483561748] with ID [30] for session ID [3061] host [DESKTOP-TJKR3AR] user [branden.sheffield] process ID [3676]
[2017.01.04 13:29:08] [0000m.05s.921ms] [1] SC[3061]: Registered sub-client [NetsNamesCollectorDxD:1483561748] with ID [31] for session ID [3061] host [DESKTOP-TJKR3AR] user [branden.sheffield] process ID [3676]
[2017.01.04 13:29:08] [0000m.05s.935ms] [1] SC[3061]: Registered sub-client [PartReplaceUtils] with ID [32] for session ID [3061] host [DESKTOP-TJKR3AR] user [branden.sheffield] process ID [3676]
[2017.01.04 13:29:10] [0000m.07s.433ms] [1] PrjBackupMgr: Successfully created Project Backup [C:\pd_repo\pd\_CITADEL\Mentor\Citadel_Right\ProjectBackup\backups\2017-01-04 13.29.08 - auto.zip] with GUID [17d4-8fbc-adc0-bd94-41b5-d689-1b5d-6850-97e5-9382-b152-d3a8]
[2017.01.04 13:29:10] [0000m.07s.437ms] [0] PrjBackupMgr: Removing excessive backup:  BackupGUID[0e48-cfad-4e21-06b1-7c25-a48c-c25a-4850-e84b-9998-18e5-348b] CreationTime[Friday, December 09, 2016 06:44:23] Type[Autosave] Creator[iCDB Server (2016-12-08 23.44.18-3892)] ApplicationName[iCDB Server (2016-12-08 23.44.18-3892)] UserName[branden.sheffield] MachineName[DESKTOP-TJKR3AR] Description[Autosave] FullFlowName[PADS Professional VX.2] FlowId[PADSProVX.2] GBSInstallId[1409847] GBSBuildId[5060443] IcdbVersion[3100] ReferenceLogFilePath[] BackupFilePath[C:\pd_repo\pd\_CITADEL\Mentor\Citadel_Right\ProjectBackup\backups\2016-12-08 23.44.23 - auto.zip] BackupFileSize[9188071] Persistent[FALSE]
[2017.01.04 13:29:10] [0000m.07s.442ms] [0] PrjBackupMgr: Project Backup file [C:\pd_repo\pd\_CITADEL\Mentor\Citadel_Right\ProjectBackup\backups\2016-12-08 23.44.23 - auto.zip] with GUID [0e48-cfad-4e21-06b1-7c25-a48c-c25a-4850-e84b-9998-18e5-348b] removed
[2017.01.04 13:29:10] [0000m.07s.443ms] [0] PrjBackupEngine: Successfully created backup:  BackupGUID[17d4-8fbc-adc0-bd94-41b5-d689-1b5d-6850-97e5-9382-b152-d3a8] CreationTime[Wednesday, January 04, 2017 20:29:08] Type[Autosave] Creator[iCDB Server (2017-01-04 13.29.02-3692)] ApplicationName[iCDB Server (2017-01-04 13.29.02-3692)] UserName[branden.sheffield] MachineName[DESKTOP-TJKR3AR] Description[Autosave] FullFlowName[PADS Professional VX.2] FlowId[PADSProVX.2] GBSInstallId[1409847] GBSBuildId[5060443] IcdbVersion[3100] ReferenceLogFilePath[] BackupFilePath[C:\pd_repo\pd\_CITADEL\Mentor\Citadel_Right\ProjectBackup\backups\2017-01-04 13.29.08 - auto.zip] BackupFileSize[5801083] Persistent[FALSE]
[2017.01.04 13:29:11] [0000m.08s.849ms] [1] SC[3061]: Registered sub-client [ObjectHolder_523633344] with ID [33] for session ID [3061] host [DESKTOP-TJKR3AR] user [branden.sheffield] process ID [3676]
[2017.01.04 13:29:11] [0000m.08s.852ms] [1] SC[3061]: Registered sub-client [BlockCacheDxD:524629600] with ID [34] for session ID [3061] host [DESKTOP-TJKR3AR] user [branden.sheffield] process ID [3676]
[2017.01.04 13:29:11] [0000m.08s.855ms] [1] SC[3061]: Registered sub-client [GlobalNetAliasUpdater_519508712] with ID [35] for session ID [3061] host [DESKTOP-TJKR3AR] user [branden.sheffield] process ID [3676]
[2017.01.04 13:29:11] [0000m.08s.859ms] [1] SC[3061]: Registered sub-client [IcdbNetProcessorSubClientDxD:560193912] with ID [36] for session ID [3061] host [DESKTOP-TJKR3AR] user [branden.sheffield] process ID [3676]
[2017.01.04 13:29:12] [0000m.09s.326ms] [1] SC[3061]: Registered sub-client [DxDbSearch] with ID [37] for session ID [3061] host [DESKTOP-TJKR3AR] user [branden.sheffield] process ID [3676]
[2017.01.04 13:29:16] [0000m.13s.363ms] [1] SC[3061]: UnRegistered sub-client [SystemDesignDll] with ID [11] for session ID [3061] host [DESKTOP-TJKR3AR] user [branden.sheffield] process ID [3676]
[2017.01.04 13:29:16] [0000m.13s.400ms] [1] SC[3061]: UnRegistered sub-client [DesignSearcher2] with ID [12] for session ID [3061] host [DESKTOP-TJKR3AR] user [branden.sheffield] process ID [3676]
[2017.01.04 13:29:16] [0000m.13s.465ms] [1] SC[3061]: UnRegistered sub-client [GlobalNetAliasUpdater_519508712] with ID [35] for session ID [3061] host [DESKTOP-TJKR3AR] user [branden.sheffield] process ID [3676]
[2017.01.04 13:29:16] [0000m.13s.466ms] [1] SC[3061]: UnRegistered sub-client [BlockCacheDxD:524629600] with ID [34] for session ID [3061] host [DESKTOP-TJKR3AR] user [branden.sheffield] process ID [3676]
[2017.01.04 13:29:16] [0000m.13s.466ms] [1] SC[3061]: UnRegistered sub-client [ObjectHolder_523633344] with ID [33] for session ID [3061] host [DESKTOP-TJKR3AR] user [branden.sheffield] process ID [3676]
[2017.01.04 13:29:16] [0000m.13s.467ms] [1] SC[3061]: UnRegistered sub-client [IcdbNetProcessorSubClientDxD:560193912] with ID [36] for session ID [3061] host [DESKTOP-TJKR3AR] user [branden.sheffield] process ID [3676]
[2017.01.04 13:29:16] [0000m.13s.498ms] [1] SC[3061]: UnRegistered sub-client [Navigator] with ID [14] for session ID [3061] host [DESKTOP-TJKR3AR] user [branden.sheffield] process ID [3676]
[2017.01.04 13:29:16] [0000m.13s.500ms] [1] SC[3061]: UnRegistered sub-client [LocalSymbolsDataProvider] with ID [17] for session ID [3061] host [DESKTOP-TJKR3AR] user [branden.sheffield] process ID [3676]
[2017.01.04 13:29:16] [0000m.13s.502ms] [1] SC[3061]: UnRegistered sub-client [FFSearch_Controller_5] with ID [18] for session ID [3061] host [DESKTOP-TJKR3AR] user [branden.sheffield] process ID [3676]
[2017.01.04 13:29:16] [0000m.13s.503ms] [1] SC[3061]: UnRegistered sub-client [FFSearch_Controller_6] with ID [19] for session ID [3061] host [DESKTOP-TJKR3AR] user [branden.sheffield] process ID [3676]
[2017.01.04 13:29:16] [0000m.13s.504ms] [1] SC[3061]: UnRegistered sub-client [FFSearch_Controller_7] with ID [20] for session ID [3061] host [DESKTOP-TJKR3AR] user [branden.sheffield] process ID [3676]
[2017.01.04 13:29:16] [0000m.13s.505ms] [1] SC[3061]: UnRegistered sub-client [FFSearch_Controller_8] with ID [21] for session ID [3061] host [DESKTOP-TJKR3AR] user [branden.sheffield] process ID [3676]
[2017.01.04 13:29:16] [0000m.13s.506ms] [1] SC[3061]: UnRegistered sub-client [FFSearch_Controller_9] with ID [22] for session ID [3061] host [DESKTOP-TJKR3AR] user [branden.sheffield] process ID [3676]
[2017.01.04 13:29:16] [0000m.14s.004ms] [1] SC[3061]: UnRegistered sub-client [MyParts] with ID [26] for session ID [3061] host [DESKTOP-TJKR3AR] user [branden.sheffield] process ID [3676]
[2017.01.04 13:29:16] [0000m.14s.005ms] [1] SC[3061]: UnRegistered sub-client [toolboxes] with ID [28] for session ID [3061] host [DESKTOP-TJKR3AR] user [branden.sheffield] process ID [3676]
[2017.01.04 13:29:17] [0000m.14s.840ms] [1] SC[3061]: UnRegistered sub-client [SelectionHolder] with ID [5] for session ID [3061] host [DESKTOP-TJKR3AR] user [branden.sheffield] process ID [3676]
[2017.01.04 13:29:17] [0000m.14s.841ms] [1] SC[3061]: UnRegistered sub-client [PartReplaceUtils] with ID [32] for session ID [3061] host [DESKTOP-TJKR3AR] user [branden.sheffield] process ID [3676]
[2017.01.04 13:29:19] [0000m.16s.358ms] [1] SC[3061]: UnRegistered sub-client [ProjectIntegrationIcdbCacheDxD:398509176] with ID [29] for session ID [3061] host [DESKTOP-TJKR3AR] user [branden.sheffield] process ID [3676]
[2017.01.04 13:29:19] [0000m.16s.359ms] [1] SC[3061]: UnRegistered sub-client [SheetConnectorsCacheDxD:1483561748] with ID [30] for session ID [3061] host [DESKTOP-TJKR3AR] user [branden.sheffield] process ID [3676]
[2017.01.04 13:29:19] [0000m.16s.360ms] [1] SC[3061]: UnRegistered sub-client [NetsNamesCollectorDxD:1483561748] with ID [31] for session ID [3061] host [DESKTOP-TJKR3AR] user [branden.sheffield] process ID [3676]
[2017.01.04 13:29:19] [0000m.16s.361ms] [1] SC[3061]: UnRegistered sub-client [TransactionRollbackSubClient] with ID [2] for session ID [3061] host [DESKTOP-TJKR3AR] user [branden.sheffield] process ID [3676]
[2017.01.04 13:29:19] [0000m.16s.362ms] [1] SC[3061]: UnRegistered sub-client [DxD] with ID [1] for session ID [3061] host [DESKTOP-TJKR3AR] user [branden.sheffield] process ID [3676]
[2017.01.04 13:29:19] [0000m.16s.389ms] [1] SC[3061]: UnRegistered sub-client [xprob] with ID [3] for session ID [3061] host [DESKTOP-TJKR3AR] user [branden.sheffield] process ID [3676]
[2017.01.04 13:29:19] [0000m.16s.390ms] [1] SC[3061]: UnRegistered sub-client [SymbolEditor] with ID [4] for session ID [3061] host [DESKTOP-TJKR3AR] user [branden.sheffield] process ID [3676]
[2017.01.04 13:29:19] [0000m.16s.401ms] [1] SC[3061]: UnRegistered sub-client [OutputWindow] with ID [15] for session ID [3061] host [DESKTOP-TJKR3AR] user [branden.sheffield] process ID [3676]
[2017.01.04 13:29:19] [0000m.16s.407ms] [1] SC[3061]: UnRegistered sub-client [DxDbSearch] with ID [37] for session ID [3061] host [DESKTOP-TJKR3AR] user [branden.sheffield] process ID [3676]
[2017.01.04 13:29:19] [0000m.16s.441ms] [1] SC[3061]: UnRegistered sub-client [SAE] with ID [23] for session ID [3061] host [DESKTOP-TJKR3AR] user [branden.sheffield] process ID [3676]
[2017.01.04 13:29:19] [0000m.16s.456ms] [1] SC[3061]: UnRegistered sub-client [CCZAddin] with ID [24] for session ID [3061] host [DESKTOP-TJKR3AR] user [branden.sheffield] process ID [3676]
[2017.01.04 13:29:19] [0000m.16s.461ms] [1] SC[3061]: UnRegistered sub-client [DxThumbnails] with ID [25] for session ID [3061] host [DESKTOP-TJKR3AR] user [branden.sheffield] process ID [3676]
[2017.01.04 13:29:21] [0000m.18s.667ms] [1] SC[3061]: UnRegistered sub-client [PinsList] with ID [27] for session ID [3061] host [DESKTOP-TJKR3AR] user [branden.sheffield] process ID [3676]
[2017.01.04 13:29:21] [0000m.18s.702ms] [1] SC[3061]: UnRegistered sub-client [PlaceDevice] with ID [16] for session ID [3061] host [DESKTOP-TJKR3AR] user [branden.sheffield] process ID [3676]
[2017.01.04 13:29:21] [0000m.18s.719ms] [1] SC[3061]: UnRegistered sub-client [HdlProject] with ID [13] for session ID [3061] host [DESKTOP-TJKR3AR] user [branden.sheffield] process ID [3676]
[2017.01.04 13:29:21] [0000m.18s.750ms] [1] CMT: Removed client [3061]
[2017.01.04 13:29:21] [0000m.18s.750ms] [1] CMT: There are no clients left - waiting [1 seconds]
[2017.01.04 13:29:21] [0000m.19s.061ms] [1] SDL: The last connected iCDB Server Monitor [1] is waiting for server close
[2017.01.04 13:29:23] [0000m.20s.185ms] [0] CMT: Starting server auto-close
[2017.01.04 13:29:23] [0000m.20s.267ms] [0] S: Closing server
[2017.01.04 13:29:23] [0000m.20s.457ms] [0] iCDB Server PI: Closing plugins
[2017.01.04 13:29:23] [0000m.20s.457ms] [0] iCDB Server PI: Plugins closed
[2017.01.04 13:29:23] [0000m.20s.457ms] [0] iCDB Server PI: Unloading database
[2017.01.04 13:29:23] [0000m.20s.457ms] [0] iCDB Server PI: Saving storage
[2017.01.04 13:29:23] [0000m.20s.457ms] [0] iCDB Server PI: Closing database
[2017.01.04 13:29:23] [0000m.20s.459ms] [1] iCDB Server PI: Stats: Database defragmentation: max[2] avg[1] holes[0%] data[99%]
[2017.01.04 13:29:23] [0000m.20s.459ms] [1] iCDB Server PI: Stats: Database file size [541192 (528.5 kB)]
[2017.01.04 13:29:23] [0000m.20s.474ms] [0] iCDB Server PI: Database closed
[2017.01.04 13:29:23] [0000m.20s.474ms] [1] iCDB Server PI: Stats: Total iCDB execution time: [162641] ticks
[2017.01.04 13:29:23] [0000m.20s.474ms] [1] iCDB Server PI: Stats: Total iCDB execution time: [59310] microseconds
[2017.01.04 13:29:23] [0000m.20s.474ms] [1] iCDB Server PI: Stats: Total iCDB commands count: [75]
[2017.01.04 13:29:23] [0000m.20s.474ms] [1] iCDB Server PI: Stats: Average iCDB speed:        [1264] commands per second
[2017.01.04 13:29:23] [0000m.20s.478ms] [0] Single file [C:\pd_repo\pd\_CITADEL\Mentor\Citadel_Right\database\icdb.dat] closed with size [541192 (528.5 kB)]
[2017.01.04 13:29:23] [0000m.20s.504ms] [1] SD[1]: Removing the last connected iCDB Server Monitor [1]
[2017.01.04 13:29:23] [0000m.20s.635ms] [0] MWT: Destroy the shutdown block reason.
[2017.01.04 13:29:23] [0000m.20s.635ms] [0] MWT: STOP
[2017.01.04 13:29:23] [0000m.20s.636ms] [0] S: STOP
