=======================================================================
PADS Drawing Editor - Version 116.0.506.1217
=======================================================================

Job Directory:        C:\pd_repo\pd\_CITADEL\Mentor\Citadel\PCB\Drawing\Main\

 Drawing Validation Log: C:\pd_repo\pd\_CITADEL\Mentor\Citadel\PCB\Drawing\Main\LogFiles\DrawingValidation.txt

Wed Dec 28 15:33:31 2016

==============================================================================================================================================

Validating design: ..\..\Main.pcb [UP-TO-DATE]