[2016.09.14 11:31:54] [0006m.08s.935ms] [0] WELCOME
[2016.09.14 11:31:54] [0006m.08s.935ms] [1] iCDB Database ver.2.101, 3UDjJHMiCHg78unffLJcEw, build:673008 created 2015-03-11 13:21:12, sources stamp:3UDjJHMiCHg78unffLJcEw
[2016.09.14 11:31:54] [0006m.08s.935ms] [1] Copyright 2015 Mentor Graphics Corporation. All Rights Reserved.
[2016.09.14 11:31:54] [0006m.08s.935ms] [1] Base flow version [VX.1.1]
[2016.09.14 11:31:54] [0006m.08s.935ms] [1] GBS Install Id [43430], Flow Id [PADS-Pro VX.1.1], Full Flow Name [PADS Professional VX.1.1], Exact Access Date [Feb 1 2015]
[2016.09.14 11:31:54] [0006m.08s.936ms] [1] Machine [DESKTOP-TJKR3AR]  User [branden.sheffield]  PID [3016]
[2016.09.14 11:31:54] [0006m.08s.936ms] [1] Operating system [Microsoft Enterprise Edition, 64-bit (build 9200)]
[2016.09.14 11:31:54] [0006m.08s.936ms] [1] Current working dir [C:\Users\branden.sheffield\Documents\RedPeril\Mentor\RedPeril]
[2016.09.14 11:31:54] [0006m.08s.936ms] [1] PATH [C:\MentorGraphics\PADSProVX.1.1\SDD_HOME\common\win32\bin;C:\MentorGraphics\PADSProVX.1.1\SDD_HOME\common\win32\lib;C:\MentorGraphics\PADSProVX.1.1\MGC_HOME.ixn\bin;C:\MentorGraphics\PADSProVX.1.1\MGC_HOME.ixn\lib;C:\MentorGraphics\PADSProVX.1.1\SDD_HOME\wv\win32\bin;C:\Program Files (x86)\CSR\BlueSuite 2.5.8\DFU Tools;C:\Program Files (x86)\NVIDIA Corporation\PhysX\Common;C:\ProgramData\Oracle\Java\javapath;C:\WINDOWS\system32;C:\WINDOWS;C:\WINDOWS\System32\Wbem;C:\WINDOWS\System32\WindowsPowerShell\v1.0\;C:\Program Files (x86)\Skype\Phone\;C:\Program Files (x86)\Windows Kits\8.1\Windows Performance Toolkit\;C:\Program Files\TortoiseSVN\bin;C:\Users\branden.sheffield\AppData\Local\Microsoft\WindowsApps;]
[2016.09.14 11:31:54] [0006m.08s.936ms] [1] SDD_HOME [C:\MentorGraphics\PADSProVX.1.1\SDD_HOME] on file system [NTFS]
[2016.09.14 11:31:54] [0006m.08s.936ms] [1] SDD_PLATFORM [win32]
[2016.09.14 11:31:54] [0006m.08s.936ms] [1] WDIR [C:\WDIR\PADSProVX.1.1;C:\MentorGraphics\PADSProVX.1.1\SDD_HOME\standard;]
[2016.09.14 11:31:54] [0006m.08s.937ms] [1] Local iCDB working dir [C:\WDIR\PADSProVX.1.1\iCDB] on file system [NTFS]
[2016.09.14 11:31:54] [0006m.08s.937ms] [3] WARNING: Database [C:\Users\branden.sheffield\Documents\RedPeril\Mentor\RedPeril\database\icdb.dat] was manually copied
[2016.09.14 11:31:54] [0006m.08s.937ms] [3] File change time:        [2016-09-14 11.26.30]
[2016.09.14 11:31:54] [0006m.08s.937ms] [3] File modification time:  [2016-08-24 12.29.39]
[2016.09.14 11:31:54] [0006m.08s.937ms] [3] Last change time:        [2016-08-24 12.29.39]
[2016.09.14 11:31:54] [0006m.08s.937ms] [3] Last database open information:
[2016.09.14 11:31:54] [0006m.08s.937ms] [3] Time:             [2016-08-24 09.46.25]
[2016.09.14 11:31:54] [0006m.08s.937ms] [3] Location:         [C:\Users\branden.sheffield\Documents\LE30BT\Mentor\LE30BT\database\icdb.dat]
[2016.09.14 11:31:54] [0006m.08s.937ms] [3] Machine:          [DESKTOP-TJKR3AR]
[2016.09.14 11:31:54] [0006m.08s.937ms] [3] User:             [branden.sheffield]
[2016.09.14 11:31:54] [0006m.08s.937ms] [3] PID:              [14292]
[2016.09.14 11:31:54] [0006m.08s.937ms] [3] Application:      [iCDB Server]
[2016.09.14 11:31:54] [0006m.08s.937ms] [3] Operating system: [Microsoft Enterprise Edition, 64-bit (build 9200)]
[2016.09.14 11:31:54] [0006m.08s.937ms] [3] WARNING: Regenerating database GUID
[2016.09.14 11:31:54] [0006m.08s.937ms] [3] Previous database GUID [c3c2-0164-cd2a-99f3-1d28-bb76-d28b-b750-d3b4-9382-b182-d3a8]
[2016.09.14 11:31:54] [0006m.08s.937ms] [3] Current database GUID  [67ad-f179-375e-8e23-a898-9d7f-8989-d750-5705-8382-b1d2-b0a8]
[2016.09.14 11:31:54] [0006m.08s.937ms] [0] .
