[2017.01.03 13:24:51] [0000m.00s.022ms] [0] WELCOME
[2017.01.03 13:24:51] [0000m.00s.022ms] [1] iCDB Server ver.2.200, jmoSXI5tfcQi0m1NxN3JKg, build:5060443 created 2016-08-17 14:30:24, sources stamp:jmoSXI5tfcQi0m1NxN3JKg
[2017.01.03 13:24:51] [0000m.00s.022ms] [1] Copyright 2016 Mentor Graphics Corporation.  All Rights Reserved.
[2017.01.03 13:24:51] [0000m.00s.022ms] [1] Base flow version [VX.2]
[2017.01.03 13:24:51] [0000m.00s.022ms] [1] Install Id [1409847], Flow Id [PADS Professional VX.2], Full Flow Name [PADS Professional VX.2], Exact Access Date [2016/05/01]
[2017.01.03 13:24:51] [0000m.00s.022ms] [1] Machine [DESKTOP-TJKR3AR]  User [branden.sheffield]  PID [8056]
[2017.01.03 13:24:51] [0000m.00s.022ms] [1] Operating system [Microsoft Enterprise Edition, 64-bit (build 9200)]
[2017.01.03 13:24:51] [0000m.00s.022ms] [1] Current working dir [C:\pd_repo\pd\_CITADEL\Mentor\Citadel]
[2017.01.03 13:24:51] [0000m.00s.022ms] [1] PATH [C:\MentorGraphics\PADSProVX.2\SDD_HOME\common\win32\bin;C:\MentorGraphics\PADSProVX.2\SDD_HOME\common\win32\lib;C:\MentorGraphics\PADSProVX.2\MGC_HOME.ixn\bin;C:\MentorGraphics\PADSProVX.2\MGC_HOME.ixn\lib;C:\MentorGraphics\PADSProVX.2\SDD_HOME\wv\win32\bin;C:\Program Files (x86)\CSR\BlueSuite 2.5.8\DFU Tools;C:\Program Files (x86)\NVIDIA Corporation\PhysX\Common;C:\ProgramData\Oracle\Java\javapath;C:\WINDOWS\system32;C:\WINDOWS;C:\WINDOWS\System32\Wbem;C:\WINDOWS\System32\WindowsPowerShell\v1.0\;C:\Program Files (x86)\Skype\Phone\;C:\Program Files (x86)\Windows Kits\8.1\Windows Performance Toolkit\;C:\Program Files\TortoiseSVN\bin;C:\Users\branden.sheffield\AppData\Local\Microsoft\WindowsApps;]
[2017.01.03 13:24:51] [0000m.00s.022ms] [1] SDD_HOME [C:\MentorGraphics\PADSProVX.2\SDD_HOME] on file system [NTFS]
[2017.01.03 13:24:51] [0000m.00s.022ms] [1] SDD_PLATFORM [win32]
[2017.01.03 13:24:51] [0000m.00s.022ms] [1] WDIR [C:\WDIR\PADSProVX.2;C:\MentorGraphics\PADSProVX.2\SDD_HOME\standard;]
[2017.01.03 13:24:51] [0000m.00s.022ms] [1] Local iCDB working dir [C:\WDIR\PADSProVX.2\iCDB] on file system [NTFS]
[2017.01.03 13:24:51] [0000m.00s.022ms] [2] S: Loading config files
[2017.01.03 13:24:51] [0000m.00s.022ms] [1] Config file [C:\pd_repo\pd\_CITADEL\Mentor\Citadel\database\cdbsvr\Server.cfg] not found
[2017.01.03 13:24:51] [0000m.00s.037ms] [3] S: Config loaded
[2017.01.03 13:24:51] [0000m.00s.037ms] [0] S: Project path [C:\pd_repo\pd\_CITADEL\Mentor\Citadel\database] on file system [NTFS]
[2017.01.03 13:24:51] [0000m.00s.037ms] [0] S: Project file (.prj) path [C:\pd_repo\pd\_CITADEL\Mentor\Citadel\Citadel.prj] on file system [NTFS]
[2017.01.03 13:24:51] [0000m.00s.037ms] [1] S: WARNING: Database auto-repair support DISABLED
[2017.01.03 13:24:51] [0000m.00s.037ms] [0] S: Multi-user mode (config)
[2017.01.03 13:24:51] [0000m.00s.037ms] [0] S: Event polling mode autodetection
[2017.01.03 13:24:51] [0000m.00s.037ms] [0] S: Started up automatically by iCDB Client: DESKTOP-TJKR3AR:branden.sheffield:8120
[2017.01.03 13:24:51] [0000m.00s.037ms] [0] S: Auto close mode
[2017.01.03 13:24:51] [0000m.00s.037ms] [0] S: Database ID [3edb-f997-378d-3d57-11a5-2286-1a52-2850-5ff3-9382-b182-04a8]
[2017.01.03 13:24:51] [0000m.00s.037ms] [0] PathTranslator: BEGIN dumping
[2017.01.03 13:24:51] [0000m.00s.037ms] [0] PathTranslator: Local -> global path prefix list
[2017.01.03 13:24:51] [0000m.00s.037ms] [0] PathTranslator: Global -> local path prefix list
[2017.01.03 13:24:51] [0000m.00s.037ms] [0] PathTranslator: END dumping
[2017.01.03 13:24:51] [0000m.00s.037ms] [0] S: START
[2017.01.03 13:24:51] [0000m.00s.037ms] [0] S: Server startup lock file created
[2017.01.03 13:24:51] [0000m.00s.037ms] [0] S: Listening for client connections on port [10001]
[2017.01.03 13:24:51] [0000m.00s.037ms] [0] S: Server network ID [DESKTOP-TJKR3AR:192.168.11.103,192.168.5.140,DESKTOP-TJKR3AR,DESKTOP-TJKR3AR.skullcandy.local:10001]
[2017.01.03 13:24:51] [0000m.00s.037ms] [0] S: Server GUID [2f2a-8ec8-2dc5-d650-3980-c688-980c-6850-e33b-99d8-a7e5-348b]
[2017.01.03 13:24:51] [0000m.00s.037ms] [0] S: Project GUID [3edb-f997-378d-3d57-11a5-2286-1a52-2850-5ff3-9382-b182-04a8]
[2017.01.03 13:24:51] [0000m.00s.053ms] [0] S: Wrote data to server address file
[2017.01.03 13:24:51] [0000m.00s.053ms] [0] S: Server startup lock file removed
[2017.01.03 13:24:51] [0000m.00s.053ms] [1] ProjectBackupManager: Setting project file (.prj) path: [C:\pd_repo\pd\_CITADEL\Mentor\Citadel\Citadel.prj]
[2017.01.03 13:24:51] [0000m.00s.253ms] [0] S: Plugins loaded: [PIM] [ENetGen70] 
[2017.01.03 13:24:51] [0000m.00s.253ms] [0] S: Local disc access time: 27 us
[2017.01.03 13:24:51] [0000m.00s.253ms] [0] S: File server access time: 29 us
[2017.01.03 13:24:51] [0000m.00s.269ms] [0] Single file [C:\pd_repo\pd\_CITADEL\Mentor\Citadel\database\icdb.dat] size [770576 (752.5 kB)]
[2017.01.03 13:24:51] [0000m.00s.269ms] [1] Single file [C:\pd_repo\pd\_CITADEL\Mentor\Citadel\database\icdb.dat] opened in read-write mode
[2017.01.03 13:24:51] [0000m.00s.269ms] [0] SingleFile: [0000-0000-0000-0000] SFI header version check [1009] [1009]
[2017.01.03 13:24:51] [0000m.00s.269ms] [0] Database GUARD OK: [770576]
[2017.01.03 13:24:51] [0000m.00s.269ms] [0] SingleFile: [0000-0000-0000-0000] SFI header version check [1009] [1009]
[2017.01.03 13:24:51] [0000m.00s.269ms] [0] Database GUARD OK: [770576]
[2017.01.03 13:24:51] [0000m.00s.269ms] [0] SingleFile: [0000-0000-0000-0000] SFI header version check [1009] [1009]
[2017.01.03 13:24:51] [0000m.00s.269ms] [0] Database GUARD OK: [770576]
[2017.01.03 13:24:51] [0000m.00s.269ms] [0] SingleFile: [0000-0000-0000-0000] SFI header version check [1009] [1009]
[2017.01.03 13:24:51] [0000m.00s.269ms] [0] Database GUARD OK: [770576]
[2017.01.03 13:24:51] [0000m.00s.269ms] [0] SingleFile: [0000-0000-0000-0000] SFI header version check [1009] [1009]
[2017.01.03 13:24:51] [0000m.00s.269ms] [0] Database GUARD OK: [770576]
[2017.01.03 13:24:51] [0000m.00s.269ms] [0] SingleFile: [9e75-bf90-0362-6950] SFI version check [1009] [1009]
[2017.01.03 13:24:51] [0000m.00s.269ms] [0] SingleFile: [9e75-bf90-0362-6950] Database SFI header has been read in [6ms 462us]
[2017.01.03 13:24:51] [0000m.00s.269ms] [0] iCDB Server PI: Server & plugin session [3535]
[2017.01.03 13:24:51] [0000m.00s.269ms] [0] iCDB Server PI: Opening database [C:\pd_repo\pd\_CITADEL\Mentor\Citadel\database]
[2017.01.03 13:24:51] [0000m.00s.269ms] [0] iCDB Server PI: Database [C:\pd_repo\pd\_CITADEL\Mentor\Citadel\database] opened
[2017.01.03 13:24:51] [0000m.00s.322ms] [0] iCDB Database: Checking existence of constraint definitions
[2017.01.03 13:24:51] [0000m.00s.322ms] [0] iCDB Database: Checking constraint definitions version
[2017.01.03 13:24:51] [0000m.00s.353ms] [1] iCDB Database: Constraint definitions version [ce_ee.cns=7.10.56] up to date
[2017.01.03 13:24:51] [0000m.00s.369ms] [0] iCDB Server PI: Initializing plugins
[2017.01.03 13:24:51] [0000m.00s.369ms] [0] iCDB Server PI: Plugins initialized
[2017.01.03 13:24:51] [0000m.00s.369ms] [0] S: iCDB database loaded
[2017.01.03 13:24:51] [0000m.00s.385ms] [0] S: Starting threads
[2017.01.03 13:24:51] [0000m.00s.385ms] [0] BT: Listening for broadcast messages on port [10000]
[2017.01.03 13:24:51] [0000m.00s.385ms] [1] CMT: There are no clients - waiting [10 seconds]
[2017.01.03 13:24:51] [0000m.00s.385ms] [0] MWT: WindowProc: WM_NCCREATE
[2017.01.03 13:24:51] [0000m.00s.385ms] [0] IT: Session [3536] for host [DESKTOP-TJKR3AR] user [branden.sheffield] with process ID [8120] created
[2017.01.03 13:24:51] [0000m.00s.385ms] [1] SC[3536]: Registered sub-client [DxD] with ID [1] for session ID [3536] host [DESKTOP-TJKR3AR] user [branden.sheffield] process ID [8120]
[2017.01.03 13:24:51] [0000m.00s.400ms] [0] IT: iCDB Server Monitor session [1] for host [DESKTOP-TJKR3AR] user [branden.sheffield] with process ID [6628] created
[2017.01.03 13:24:51] [0000m.00s.400ms] [1] DMT: There are [1] iCDB Server Monitor connected now
[2017.01.03 13:24:51] [0000m.00s.501ms] [1] CMT: There are [1] clients now: 3536
[2017.01.03 13:24:51] [0000m.00s.501ms] [1] SC[3536]: Registered sub-client [TransactionRollbackSubClient] with ID [2] for session ID [3536] host [DESKTOP-TJKR3AR] user [branden.sheffield] process ID [8120]
[2017.01.03 13:24:51] [0000m.00s.501ms] [1] SC[3536]: Registered sub-client [xprob] with ID [3] for session ID [3536] host [DESKTOP-TJKR3AR] user [branden.sheffield] process ID [8120]
[2017.01.03 13:24:53] [0000m.02s.341ms] [1] SC[3536]: Registered sub-client [SymbolEditor] with ID [4] for session ID [3536] host [DESKTOP-TJKR3AR] user [branden.sheffield] process ID [8120]
[2017.01.03 13:24:53] [0000m.02s.341ms] [1] SC[3536]: Registered sub-client [SelectionHolder] with ID [5] for session ID [3536] host [DESKTOP-TJKR3AR] user [branden.sheffield] process ID [8120]
[2017.01.03 13:24:53] [0000m.02s.357ms] [1] SC[3536]: Registered sub-client [EEVM_EEVM_373524020] with ID [6] for session ID [3536] host [DESKTOP-TJKR3AR] user [branden.sheffield] process ID [8120]
[2017.01.03 13:24:53] [0000m.02s.357ms] [1] SC[3536]: UnRegistered sub-client [EEVM_EEVM_373524020] with ID [6] for session ID [3536] host [DESKTOP-TJKR3AR] user [branden.sheffield] process ID [8120]
[2017.01.03 13:24:53] [0000m.02s.357ms] [1] SC[3536]: Registered sub-client [EEVM_EEVM_373524020] with ID [7] for session ID [3536] host [DESKTOP-TJKR3AR] user [branden.sheffield] process ID [8120]
[2017.01.03 13:24:53] [0000m.02s.401ms] [1] SC[3536]: UnRegistered sub-client [EEVM_EEVM_373524020] with ID [7] for session ID [3536] host [DESKTOP-TJKR3AR] user [branden.sheffield] process ID [8120]
[2017.01.03 13:24:53] [0000m.02s.405ms] [1] SC[3536]: Registered sub-client [EEVM_EEVM_373521044] with ID [8] for session ID [3536] host [DESKTOP-TJKR3AR] user [branden.sheffield] process ID [8120]
[2017.01.03 13:24:53] [0000m.02s.405ms] [1] SC[3536]: UnRegistered sub-client [EEVM_EEVM_373521044] with ID [8] for session ID [3536] host [DESKTOP-TJKR3AR] user [branden.sheffield] process ID [8120]
[2017.01.03 13:24:53] [0000m.02s.409ms] [1] SC[3536]: Registered sub-client [EEVM_EEVM_373521044] with ID [9] for session ID [3536] host [DESKTOP-TJKR3AR] user [branden.sheffield] process ID [8120]
[2017.01.03 13:24:53] [0000m.02s.430ms] [1] SC[3536]: UnRegistered sub-client [EEVM_EEVM_373521044] with ID [9] for session ID [3536] host [DESKTOP-TJKR3AR] user [branden.sheffield] process ID [8120]
[2017.01.03 13:24:53] [0000m.02s.446ms] [1] SC[3536]: Registered sub-client [SystemDesignDll] with ID [10] for session ID [3536] host [DESKTOP-TJKR3AR] user [branden.sheffield] process ID [8120]
[2017.01.03 13:24:53] [0000m.02s.446ms] [1] SC[3536]: UnRegistered sub-client [SystemDesignDll] with ID [10] for session ID [3536] host [DESKTOP-TJKR3AR] user [branden.sheffield] process ID [8120]
[2017.01.03 13:24:53] [0000m.02s.461ms] [1] SC[3536]: Registered sub-client [SystemDesignDll] with ID [11] for session ID [3536] host [DESKTOP-TJKR3AR] user [branden.sheffield] process ID [8120]
[2017.01.03 13:24:55] [0000m.04s.506ms] [1] SC[3536]: Registered sub-client [DesignSearcher2] with ID [12] for session ID [3536] host [DESKTOP-TJKR3AR] user [branden.sheffield] process ID [8120]
[2017.01.03 13:24:55] [0000m.04s.543ms] [1] SC[3536]: Registered sub-client [HdlProject] with ID [13] for session ID [3536] host [DESKTOP-TJKR3AR] user [branden.sheffield] process ID [8120]
[2017.01.03 13:24:55] [0000m.04s.543ms] [1] SC[3536]: Registered sub-client [Navigator] with ID [14] for session ID [3536] host [DESKTOP-TJKR3AR] user [branden.sheffield] process ID [8120]
[2017.01.03 13:24:55] [0000m.04s.559ms] [1] SC[3536]: Registered sub-client [OutputWindow] with ID [15] for session ID [3536] host [DESKTOP-TJKR3AR] user [branden.sheffield] process ID [8120]
[2017.01.03 13:24:55] [0000m.04s.574ms] [1] SC[3536]: Registered sub-client [PlaceDevice] with ID [16] for session ID [3536] host [DESKTOP-TJKR3AR] user [branden.sheffield] process ID [8120]
[2017.01.03 13:24:55] [0000m.04s.606ms] [1] SC[3536]: Registered sub-client [DxDbSearch] with ID [17] for session ID [3536] host [DESKTOP-TJKR3AR] user [branden.sheffield] process ID [8120]
[2017.01.03 13:24:55] [0000m.04s.690ms] [1] SC[3536]: Registered sub-client [LocalSymbolsDataProvider] with ID [18] for session ID [3536] host [DESKTOP-TJKR3AR] user [branden.sheffield] process ID [8120]
[2017.01.03 13:24:55] [0000m.04s.705ms] [1] SC[3536]: Registered sub-client [FFSearch_Controller_0] with ID [19] for session ID [3536] host [DESKTOP-TJKR3AR] user [branden.sheffield] process ID [8120]
[2017.01.03 13:24:56] [0000m.04s.806ms] [1] SC[3536]: Registered sub-client [FFSearch_Controller_1] with ID [20] for session ID [3536] host [DESKTOP-TJKR3AR] user [branden.sheffield] process ID [8120]
[2017.01.03 13:24:56] [0000m.04s.890ms] [1] SC[3536]: Registered sub-client [FFSearch_Controller_2] with ID [21] for session ID [3536] host [DESKTOP-TJKR3AR] user [branden.sheffield] process ID [8120]
[2017.01.03 13:24:56] [0000m.04s.974ms] [1] SC[3536]: Registered sub-client [FFSearch_Controller_3] with ID [22] for session ID [3536] host [DESKTOP-TJKR3AR] user [branden.sheffield] process ID [8120]
[2017.01.03 13:24:56] [0000m.05s.126ms] [1] SC[3536]: Registered sub-client [FFSearch_Controller_4] with ID [23] for session ID [3536] host [DESKTOP-TJKR3AR] user [branden.sheffield] process ID [8120]
[2017.01.03 13:24:56] [0000m.05s.206ms] [1] SC[3536]: Registered sub-client [SAE] with ID [24] for session ID [3536] host [DESKTOP-TJKR3AR] user [branden.sheffield] process ID [8120]
[2017.01.03 13:24:56] [0000m.05s.206ms] [1] SC[3536]: Registered sub-client [CCZAddin] with ID [25] for session ID [3536] host [DESKTOP-TJKR3AR] user [branden.sheffield] process ID [8120]
[2017.01.03 13:24:56] [0000m.05s.206ms] [1] SC[3536]: Registered sub-client [DxThumbnails] with ID [26] for session ID [3536] host [DESKTOP-TJKR3AR] user [branden.sheffield] process ID [8120]
[2017.01.03 13:24:56] [0000m.05s.206ms] [1] SC[3536]: Registered sub-client [MyParts] with ID [27] for session ID [3536] host [DESKTOP-TJKR3AR] user [branden.sheffield] process ID [8120]
[2017.01.03 13:24:56] [0000m.05s.245ms] [1] SC[3536]: Registered sub-client [PinsList] with ID [28] for session ID [3536] host [DESKTOP-TJKR3AR] user [branden.sheffield] process ID [8120]
[2017.01.03 13:24:56] [0000m.05s.328ms] [1] SC[3536]: Registered sub-client [toolboxes] with ID [29] for session ID [3536] host [DESKTOP-TJKR3AR] user [branden.sheffield] process ID [8120]
[2017.01.03 13:24:56] [0000m.05s.391ms] [1] SC[3536]: Registered sub-client [ProjectIntegrationIcdbCacheDxD:494001664] with ID [30] for session ID [3536] host [DESKTOP-TJKR3AR] user [branden.sheffield] process ID [8120]
[2017.01.03 13:24:56] [0000m.05s.460ms] [1] SC[3536]: Registered sub-client [SheetConnectorsCacheDxD:1483475096] with ID [31] for session ID [3536] host [DESKTOP-TJKR3AR] user [branden.sheffield] process ID [8120]
[2017.01.03 13:24:56] [0000m.05s.528ms] [1] SC[3536]: Registered sub-client [NetsNamesCollectorDxD:1483475096] with ID [32] for session ID [3536] host [DESKTOP-TJKR3AR] user [branden.sheffield] process ID [8120]
[2017.01.03 13:24:56] [0000m.05s.544ms] [1] SC[3536]: Registered sub-client [PartReplaceUtils] with ID [33] for session ID [3536] host [DESKTOP-TJKR3AR] user [branden.sheffield] process ID [8120]
[2017.01.03 13:24:56] [0000m.05s.707ms] [1] SC[3536]: Registered sub-client [ObjectHolder_272722872] with ID [34] for session ID [3536] host [DESKTOP-TJKR3AR] user [branden.sheffield] process ID [8120]
[2017.01.03 13:24:56] [0000m.05s.724ms] [1] SC[3536]: Registered sub-client [BlockCacheDxD:502904440] with ID [35] for session ID [3536] host [DESKTOP-TJKR3AR] user [branden.sheffield] process ID [8120]
[2017.01.03 13:24:56] [0000m.05s.728ms] [1] SC[3536]: Registered sub-client [GlobalNetAliasUpdater_272724640] with ID [36] for session ID [3536] host [DESKTOP-TJKR3AR] user [branden.sheffield] process ID [8120]
[2017.01.03 13:24:56] [0000m.05s.728ms] [1] SC[3536]: Registered sub-client [IcdbNetProcessorSubClientDxD:500437000] with ID [37] for session ID [3536] host [DESKTOP-TJKR3AR] user [branden.sheffield] process ID [8120]
[2017.01.03 13:24:57] [0000m.05s.960ms] [1] SC[3536]: UnRegistered sub-client [DxDbSearch] with ID [17] for session ID [3536] host [DESKTOP-TJKR3AR] user [branden.sheffield] process ID [8120]
[2017.01.03 13:24:57] [0000m.05s.960ms] [1] SC[3536]: Registered sub-client [DxDbSearch] with ID [38] for session ID [3536] host [DESKTOP-TJKR3AR] user [branden.sheffield] process ID [8120]
[2017.01.03 13:25:08] [0000m.17s.081ms] [1] SC[3536]: UnRegistered sub-client [SystemDesignDll] with ID [11] for session ID [3536] host [DESKTOP-TJKR3AR] user [branden.sheffield] process ID [8120]
[2017.01.03 13:25:08] [0000m.17s.096ms] [1] SC[3536]: Registered sub-client [SystemDesignDll] with ID [39] for session ID [3536] host [DESKTOP-TJKR3AR] user [branden.sheffield] process ID [8120]
[2017.01.03 13:25:08] [0000m.17s.328ms] [1] SC[3536]: UnRegistered sub-client [GlobalNetAliasUpdater_272724640] with ID [36] for session ID [3536] host [DESKTOP-TJKR3AR] user [branden.sheffield] process ID [8120]
[2017.01.03 13:25:08] [0000m.17s.328ms] [1] SC[3536]: UnRegistered sub-client [BlockCacheDxD:502904440] with ID [35] for session ID [3536] host [DESKTOP-TJKR3AR] user [branden.sheffield] process ID [8120]
[2017.01.03 13:25:08] [0000m.17s.328ms] [1] SC[3536]: UnRegistered sub-client [ObjectHolder_272722872] with ID [34] for session ID [3536] host [DESKTOP-TJKR3AR] user [branden.sheffield] process ID [8120]
[2017.01.03 13:25:08] [0000m.17s.328ms] [1] SC[3536]: UnRegistered sub-client [IcdbNetProcessorSubClientDxD:500437000] with ID [37] for session ID [3536] host [DESKTOP-TJKR3AR] user [branden.sheffield] process ID [8120]
[2017.01.03 13:25:14] [0000m.23s.111ms] [1] SC[3536]: Registered sub-client [ObjectHolder_272722768] with ID [40] for session ID [3536] host [DESKTOP-TJKR3AR] user [branden.sheffield] process ID [8120]
[2017.01.03 13:25:14] [0000m.23s.111ms] [1] SC[3536]: Registered sub-client [BlockCacheDxD:502898200] with ID [41] for session ID [3536] host [DESKTOP-TJKR3AR] user [branden.sheffield] process ID [8120]
[2017.01.03 13:25:14] [0000m.23s.111ms] [1] SC[3536]: Registered sub-client [GlobalNetAliasUpdater_272723600] with ID [42] for session ID [3536] host [DESKTOP-TJKR3AR] user [branden.sheffield] process ID [8120]
[2017.01.03 13:25:14] [0000m.23s.111ms] [1] SC[3536]: Registered sub-client [IcdbNetProcessorSubClientDxD:499976960] with ID [43] for session ID [3536] host [DESKTOP-TJKR3AR] user [branden.sheffield] process ID [8120]
[2017.01.03 13:25:15] [0000m.24s.375ms] [1] SC[3536]: UnRegistered sub-client [LocalSymbolsDataProvider] with ID [18] for session ID [3536] host [DESKTOP-TJKR3AR] user [branden.sheffield] process ID [8120]
[2017.01.03 13:25:15] [0000m.24s.375ms] [1] SC[3536]: Registered sub-client [LocalSymbolsDataProvider] with ID [44] for session ID [3536] host [DESKTOP-TJKR3AR] user [branden.sheffield] process ID [8120]
[2017.01.03 13:25:24] [0000m.33s.424ms] [0] DFAMT: File server access time: 50 us
[2017.01.03 13:25:25] [0000m.34s.241ms] [1] SC[3536]: Registered sub-client [Dx2Exp_148156] with ID [45] for session ID [3536] host [DESKTOP-TJKR3AR] user [branden.sheffield] process ID [8120]
[2017.01.03 13:25:25] [0000m.34s.241ms] [1] SC[3536]: UnRegistered sub-client [Dx2Exp_148156] with ID [45] for session ID [3536] host [DESKTOP-TJKR3AR] user [branden.sheffield] process ID [8120]
[2017.01.03 13:25:36] [0000m.44s.984ms] [0] IT: Session [3537] for host [DESKTOP-TJKR3AR] user [branden.sheffield] with process ID [12852] created
[2017.01.03 13:25:36] [0000m.44s.984ms] [1] SC[3537]: Registered sub-client [Expedition PE_158875] with ID [1] for session ID [3537] host [DESKTOP-TJKR3AR] user [branden.sheffield] process ID [12852]
[2017.01.03 13:25:36] [0000m.45s.015ms] [1] CMT: There are [2] clients now: 3536, 3537
[2017.01.03 13:25:36] [0000m.45s.100ms] [1] SC[3537]: Registered sub-client [EEVM_EEVM_446646396] with ID [2] for session ID [3537] host [DESKTOP-TJKR3AR] user [branden.sheffield] process ID [12852]
[2017.01.03 13:25:36] [0000m.45s.133ms] [1] SC[3537]: UnRegistered sub-client [EEVM_EEVM_446646396] with ID [2] for session ID [3537] host [DESKTOP-TJKR3AR] user [branden.sheffield] process ID [12852]
[2017.01.03 13:25:36] [0000m.45s.136ms] [1] SC[3537]: Registered sub-client [EEVM_EEVM_446646396] with ID [3] for session ID [3537] host [DESKTOP-TJKR3AR] user [branden.sheffield] process ID [12852]
[2017.01.03 13:25:36] [0000m.45s.169ms] [1] SC[3537]: UnRegistered sub-client [EEVM_EEVM_446646396] with ID [3] for session ID [3537] host [DESKTOP-TJKR3AR] user [branden.sheffield] process ID [12852]
[2017.01.03 13:25:36] [0000m.45s.453ms] [1] SC[3537]: Registered sub-client [JobPrefsDBPI_159375] with ID [4] for session ID [3537] host [DESKTOP-TJKR3AR] user [branden.sheffield] process ID [12852]
[2017.01.03 13:25:36] [0000m.45s.469ms] [1] SC[3537]: UnRegistered sub-client [JobPrefsDBPI_159375] with ID [4] for session ID [3537] host [DESKTOP-TJKR3AR] user [branden.sheffield] process ID [12852]
[2017.01.03 13:25:39] [0000m.48s.577ms] [1] SC[3537]: Registered sub-client [ExpeditionCrossProber] with ID [5] for session ID [3537] host [DESKTOP-TJKR3AR] user [branden.sheffield] process ID [12852]
[2017.01.03 13:30:55] [0006m.04s.136ms] [1] SC[3536]: UnRegistered sub-client [DesignSearcher2] with ID [12] for session ID [3536] host [DESKTOP-TJKR3AR] user [branden.sheffield] process ID [8120]
[2017.01.03 13:30:55] [0006m.04s.236ms] [1] SC[3536]: Registered sub-client [DesignSearcher2] with ID [46] for session ID [3536] host [DESKTOP-TJKR3AR] user [branden.sheffield] process ID [8120]
[2017.01.03 13:34:16] [0009m.25s.423ms] [1] SC[3536]: UnRegistered sub-client [DesignSearcher2] with ID [46] for session ID [3536] host [DESKTOP-TJKR3AR] user [branden.sheffield] process ID [8120]
[2017.01.03 13:34:16] [0009m.25s.445ms] [1] SC[3536]: Registered sub-client [DesignSearcher2] with ID [47] for session ID [3536] host [DESKTOP-TJKR3AR] user [branden.sheffield] process ID [8120]
[2017.01.03 13:37:53] [0013m.01s.886ms] [1] PrjBackupMgr: Successfully created Project Backup [C:\pd_repo\pd\_CITADEL\Mentor\Citadel\ProjectBackup\backups\2017-01-03 13.37.51 - auto.zip] with GUID [7a37-8338-f0be-c34e-f9b0-c684-ab0c-6850-a089-99d8-a7e5-348b]
[2017.01.03 13:37:53] [0013m.01s.886ms] [0] PrjBackupMgr: Removing excessive backup:  BackupGUID[1258-4468-5c55-5cd4-692f-268b-92f2-6850-a09b-99a8-d7e5-348b] CreationTime[Tuesday, December 27, 2016 23:00:38] Type[Autosave] Creator[iCDB Server (2016-12-27 10.55.33-1296)] ApplicationName[iCDB Server (2016-12-27 10.55.33-1296)] UserName[branden.sheffield] MachineName[DESKTOP-TJKR3AR] Description[Autosave] FullFlowName[PADS Professional VX.2] FlowId[PADSProVX.2] GBSInstallId[1409847] GBSBuildId[5060443] IcdbVersion[3100] ReferenceLogFilePath[] BackupFilePath[C:\pd_repo\pd\_CITADEL\Mentor\Citadel\ProjectBackup\backups\2016-12-27 16.00.38 - auto.zip] BackupFileSize[9616178] Persistent[FALSE]
[2017.01.03 13:37:53] [0013m.01s.886ms] [0] PrjBackupMgr: Project Backup file [C:\pd_repo\pd\_CITADEL\Mentor\Citadel\ProjectBackup\backups\2016-12-27 16.00.38 - auto.zip] with GUID [1258-4468-5c55-5cd4-692f-268b-92f2-6850-a09b-99a8-d7e5-348b] removed
[2017.01.03 13:37:53] [0013m.01s.901ms] [0] PrjBackupEngine: Successfully created backup:  BackupGUID[7a37-8338-f0be-c34e-f9b0-c684-ab0c-6850-a089-99d8-a7e5-348b] CreationTime[Tuesday, January 03, 2017 20:37:51] Type[Autosave] Creator[iCDB Server (2017-01-03 13.24.51-8056)] ApplicationName[iCDB Server (2017-01-03 13.24.51-8056)] UserName[branden.sheffield] MachineName[DESKTOP-TJKR3AR] Description[Autosave] FullFlowName[PADS Professional VX.2] FlowId[PADSProVX.2] GBSInstallId[1409847] GBSBuildId[5060443] IcdbVersion[3100] ReferenceLogFilePath[] BackupFilePath[C:\pd_repo\pd\_CITADEL\Mentor\Citadel\ProjectBackup\backups\2017-01-03 13.37.51 - auto.zip] BackupFileSize[9738828] Persistent[FALSE]
[2017.01.03 13:38:39] [0013m.48s.041ms] [0] IT: Session [3538] for host [DESKTOP-TJKR3AR] user [branden.sheffield] with process ID [10728] created
[2017.01.03 13:38:39] [0013m.48s.057ms] [1] SC[3538]: Registered sub-client [CDBPackagerGUI] with ID [1] for session ID [3538] host [DESKTOP-TJKR3AR] user [branden.sheffield] process ID [10728]
[2017.01.03 13:38:39] [0013m.48s.088ms] [1] SC[3538]: UnRegistered sub-client [CDBPackagerGUI] with ID [1] for session ID [3538] host [DESKTOP-TJKR3AR] user [branden.sheffield] process ID [10728]
[2017.01.03 13:38:39] [0013m.48s.119ms] [1] CMT: There are [3] clients now: 3536, 3537, 3538
[2017.01.03 13:38:39] [0013m.48s.119ms] [1] CMT: Removed client [3538]
[2017.01.03 13:38:39] [0013m.48s.119ms] [1] CMT: There are [2] clients now: 3536, 3537
[2017.01.03 13:38:41] [0013m.50s.745ms] [0] IT: Session [3539] for host [DESKTOP-TJKR3AR] user [branden.sheffield] with process ID [7352] created
[2017.01.03 13:38:41] [0013m.50s.745ms] [1] SC[3539]: Registered sub-client [EEVM_EEVM_User_65538444] with ID [1] for session ID [3539] host [DESKTOP-TJKR3AR] user [branden.sheffield] process ID [7352]
[2017.01.03 13:38:42] [0013m.50s.823ms] [1] CMT: There are [3] clients now: 3536, 3537, 3539
[2017.01.03 13:38:42] [0013m.51s.062ms] [1] SC[3539]: Registered sub-client [Packager_944687] with ID [2] for session ID [3539] host [DESKTOP-TJKR3AR] user [branden.sheffield] process ID [7352]
[2017.01.03 13:38:43] [0013m.52s.379ms] [1] SC[3539]: UnRegistered sub-client [EEVM_EEVM_User_65538444] with ID [1] for session ID [3539] host [DESKTOP-TJKR3AR] user [branden.sheffield] process ID [7352]
[2017.01.03 13:38:43] [0013m.52s.395ms] [1] SC[3539]: UnRegistered sub-client [Packager_944687] with ID [2] for session ID [3539] host [DESKTOP-TJKR3AR] user [branden.sheffield] process ID [7352]
[2017.01.03 13:38:43] [0013m.52s.442ms] [1] CMT: Removed client [3539]
[2017.01.03 13:38:43] [0013m.52s.442ms] [1] CMT: There are [2] clients now: 3536, 3537
[2017.01.03 13:42:41] [0017m.50s.522ms] [1] SC[3536]: UnRegistered sub-client [DesignSearcher2] with ID [47] for session ID [3536] host [DESKTOP-TJKR3AR] user [branden.sheffield] process ID [8120]
[2017.01.03 13:42:41] [0017m.50s.538ms] [1] SC[3536]: Registered sub-client [DesignSearcher2] with ID [48] for session ID [3536] host [DESKTOP-TJKR3AR] user [branden.sheffield] process ID [8120]
[2017.01.03 13:43:02] [0018m.11s.001ms] [1] SC[3536]: UnRegistered sub-client [DesignSearcher2] with ID [48] for session ID [3536] host [DESKTOP-TJKR3AR] user [branden.sheffield] process ID [8120]
[2017.01.03 13:43:02] [0018m.11s.114ms] [1] SC[3536]: Registered sub-client [DesignSearcher2] with ID [49] for session ID [3536] host [DESKTOP-TJKR3AR] user [branden.sheffield] process ID [8120]
[2017.01.03 13:47:12] [0022m.21s.531ms] [1] SC[3537]: UnRegistered sub-client [ExpeditionCrossProber] with ID [5] for session ID [3537] host [DESKTOP-TJKR3AR] user [branden.sheffield] process ID [12852]
[2017.01.03 13:47:12] [0022m.21s.547ms] [1] SC[3537]: Registered sub-client [EEVM_EEVM_1700408] with ID [6] for session ID [3537] host [DESKTOP-TJKR3AR] user [branden.sheffield] process ID [12852]
[2017.01.03 13:47:12] [0022m.21s.547ms] [1] SC[3537]: UnRegistered sub-client [EEVM_EEVM_1700408] with ID [6] for session ID [3537] host [DESKTOP-TJKR3AR] user [branden.sheffield] process ID [12852]
[2017.01.03 13:47:13] [0022m.22s.702ms] [0] IT: Session [3540] for host [DESKTOP-TJKR3AR] user [branden.sheffield] with process ID [5912] created
[2017.01.03 13:47:13] [0022m.22s.702ms] [1] SC[3540]: Registered sub-client [EEVM_EEVM_User_65392604] with ID [1] for session ID [3540] host [DESKTOP-TJKR3AR] user [branden.sheffield] process ID [5912]
[2017.01.03 13:47:13] [0022m.22s.749ms] [1] CMT: There are [3] clients now: 3536, 3537, 3540
[2017.01.03 13:47:14] [0022m.22s.987ms] [1] SC[3540]: Registered sub-client [Packager_1456640] with ID [2] for session ID [3540] host [DESKTOP-TJKR3AR] user [branden.sheffield] process ID [5912]
[2017.01.03 13:47:15] [0022m.24s.188ms] [1] SC[3540]: UnRegistered sub-client [EEVM_EEVM_User_65392604] with ID [1] for session ID [3540] host [DESKTOP-TJKR3AR] user [branden.sheffield] process ID [5912]
[2017.01.03 13:47:15] [0022m.24s.204ms] [1] SC[3540]: UnRegistered sub-client [Packager_1456640] with ID [2] for session ID [3540] host [DESKTOP-TJKR3AR] user [branden.sheffield] process ID [5912]
[2017.01.03 13:47:15] [0022m.24s.304ms] [1] CMT: Removed client [3540]
[2017.01.03 13:47:15] [0022m.24s.304ms] [1] CMT: There are [2] clients now: 3536, 3537
[2017.01.03 13:47:16] [0022m.24s.937ms] [1] iCDB Storage Server: WARNING: Unloading CHANGED file [C:\pd_repo\pd\_CITADEL\Mentor\Citadel\database\s4\cdbcatlg\grpobj] - auto-saving it
[2017.01.03 13:47:16] [0022m.25s.260ms] [0] IT: Session [3541] for host [DESKTOP-TJKR3AR] user [branden.sheffield] with process ID [8528] created
[2017.01.03 13:47:16] [0022m.25s.261ms] [1] SC[3541]: Registered sub-client [Expedition_1458890] with ID [1] for session ID [3541] host [DESKTOP-TJKR3AR] user [branden.sheffield] process ID [8528]
[2017.01.03 13:47:16] [0022m.25s.307ms] [1] CMT: There are [3] clients now: 3536, 3537, 3541
[2017.01.03 13:47:16] [0022m.25s.611ms] [1] SC[3541]: UnRegistered sub-client [Expedition_1458890] with ID [1] for session ID [3541] host [DESKTOP-TJKR3AR] user [branden.sheffield] process ID [8528]
[2017.01.03 13:47:16] [0022m.25s.627ms] [1] CMT: Removed client [3541]
[2017.01.03 13:47:16] [0022m.25s.627ms] [1] CMT: There are [2] clients now: 3536, 3537
[2017.01.03 13:47:18] [0022m.26s.870ms] [0] IT: Session [3542] for host [DESKTOP-TJKR3AR] user [branden.sheffield] with process ID [8528] created
[2017.01.03 13:47:18] [0022m.26s.870ms] [1] SC[3542]: Registered sub-client [JobPrefsDBPI_1460500] with ID [1] for session ID [3542] host [DESKTOP-TJKR3AR] user [branden.sheffield] process ID [8528]
[2017.01.03 13:47:18] [0022m.26s.890ms] [1] SC[3542]: UnRegistered sub-client [JobPrefsDBPI_1460500] with ID [1] for session ID [3542] host [DESKTOP-TJKR3AR] user [branden.sheffield] process ID [8528]
[2017.01.03 13:47:18] [0022m.26s.969ms] [1] CMT: There are [3] clients now: 3536, 3537, 3542
[2017.01.03 13:47:18] [0022m.26s.969ms] [1] CMT: Removed client [3542]
[2017.01.03 13:47:18] [0022m.26s.969ms] [1] CMT: There are [2] clients now: 3536, 3537
[2017.01.03 13:47:31] [0022m.40s.350ms] [0] IT: Session [3543] for host [DESKTOP-TJKR3AR] user [branden.sheffield] with process ID [12424] created
[2017.01.03 13:47:31] [0022m.40s.350ms] [1] SC[3543]: Registered sub-client [JobPrefsDBPI_1473968] with ID [1] for session ID [3543] host [DESKTOP-TJKR3AR] user [branden.sheffield] process ID [12424]
[2017.01.03 13:47:31] [0022m.40s.405ms] [1] SC[3543]: Registered sub-client [Expedition_1474062] with ID [2] for session ID [3543] host [DESKTOP-TJKR3AR] user [branden.sheffield] process ID [12424]
[2017.01.03 13:47:31] [0022m.40s.423ms] [1] CMT: There are [3] clients now: 3536, 3537, 3543
[2017.01.03 13:47:31] [0022m.40s.551ms] [1] SC[3543]: UnRegistered sub-client [JobPrefsDBPI_1473968] with ID [1] for session ID [3543] host [DESKTOP-TJKR3AR] user [branden.sheffield] process ID [12424]
[2017.01.03 13:47:31] [0022m.40s.722ms] [1] SC[3543]: Registered sub-client [JobPrefsDBPI_1474359] with ID [3] for session ID [3543] host [DESKTOP-TJKR3AR] user [branden.sheffield] process ID [12424]
[2017.01.03 13:47:31] [0022m.40s.722ms] [1] SC[3543]: UnRegistered sub-client [JobPrefsDBPI_1474359] with ID [3] for session ID [3543] host [DESKTOP-TJKR3AR] user [branden.sheffield] process ID [12424]
[2017.01.03 13:47:31] [0022m.40s.722ms] [1] SC[3543]: UnRegistered sub-client [Expedition_1474062] with ID [2] for session ID [3543] host [DESKTOP-TJKR3AR] user [branden.sheffield] process ID [12424]
[2017.01.03 13:47:31] [0022m.40s.753ms] [1] CMT: Removed client [3543]
[2017.01.03 13:47:31] [0022m.40s.753ms] [1] CMT: There are [2] clients now: 3536, 3537
[2017.01.03 13:47:32] [0022m.41s.273ms] [1] SC[3537]: Registered sub-client [EEVM_EEVM_444403548] with ID [7] for session ID [3537] host [DESKTOP-TJKR3AR] user [branden.sheffield] process ID [12852]
[2017.01.03 13:47:32] [0022m.41s.319ms] [1] SC[3537]: UnRegistered sub-client [EEVM_EEVM_444403548] with ID [7] for session ID [3537] host [DESKTOP-TJKR3AR] user [branden.sheffield] process ID [12852]
[2017.01.03 13:47:32] [0022m.41s.322ms] [1] SC[3537]: Registered sub-client [EEVM_EEVM_444403548] with ID [8] for session ID [3537] host [DESKTOP-TJKR3AR] user [branden.sheffield] process ID [12852]
[2017.01.03 13:47:32] [0022m.41s.323ms] [1] SC[3537]: UnRegistered sub-client [EEVM_EEVM_444403548] with ID [8] for session ID [3537] host [DESKTOP-TJKR3AR] user [branden.sheffield] process ID [12852]
[2017.01.03 13:47:32] [0022m.41s.326ms] [1] SC[3537]: Registered sub-client [EEVM_EEVM_444402556] with ID [9] for session ID [3537] host [DESKTOP-TJKR3AR] user [branden.sheffield] process ID [12852]
[2017.01.03 13:47:32] [0022m.41s.353ms] [1] SC[3537]: UnRegistered sub-client [EEVM_EEVM_444402556] with ID [9] for session ID [3537] host [DESKTOP-TJKR3AR] user [branden.sheffield] process ID [12852]
[2017.01.03 13:47:32] [0022m.41s.718ms] [0] IT: Session [3544] for host [DESKTOP-TJKR3AR] user [branden.sheffield] with process ID [7720] created
[2017.01.03 13:47:32] [0022m.41s.719ms] [1] SC[3544]: Registered sub-client [icdb2ccz] with ID [1] for session ID [3544] host [DESKTOP-TJKR3AR] user [branden.sheffield] process ID [7720]
[2017.01.03 13:47:33] [0022m.41s.762ms] [1] CMT: There are [3] clients now: 3536, 3537, 3544
[2017.01.03 13:47:33] [0022m.42s.002ms] [1] SC[3544]: UnRegistered sub-client [icdb2ccz] with ID [1] for session ID [3544] host [DESKTOP-TJKR3AR] user [branden.sheffield] process ID [7720]
[2017.01.03 13:47:33] [0022m.42s.083ms] [1] CMT: Removed client [3544]
[2017.01.03 13:47:33] [0022m.42s.084ms] [1] CMT: There are [2] clients now: 3536, 3537
[2017.01.03 13:47:34] [0022m.43s.670ms] [1] SC[3537]: UnRegistered sub-client [Expedition PE_158875] with ID [1] for session ID [3537] host [DESKTOP-TJKR3AR] user [branden.sheffield] process ID [12852]
[2017.01.03 13:47:34] [0022m.43s.755ms] [1] CMT: Removed client [3537]
[2017.01.03 13:47:34] [0022m.43s.755ms] [1] CMT: There are [1] clients now: 3536
[2017.01.03 13:47:35] [0022m.43s.893ms] [0] IT: Session [3545] for host [DESKTOP-TJKR3AR] user [branden.sheffield] with process ID [12852] created
[2017.01.03 13:47:35] [0022m.43s.893ms] [1] SC[3545]: Registered sub-client [Expedition PE_1477531] with ID [1] for session ID [3545] host [DESKTOP-TJKR3AR] user [branden.sheffield] process ID [12852]
[2017.01.03 13:47:35] [0022m.43s.987ms] [1] CMT: There are [2] clients now: 3536, 3545
[2017.01.03 13:47:35] [0022m.44s.052ms] [1] SC[3545]: Registered sub-client [JobPrefsDBPI_1477718] with ID [2] for session ID [3545] host [DESKTOP-TJKR3AR] user [branden.sheffield] process ID [12852]
[2017.01.03 13:47:35] [0022m.44s.079ms] [1] SC[3545]: UnRegistered sub-client [JobPrefsDBPI_1477718] with ID [2] for session ID [3545] host [DESKTOP-TJKR3AR] user [branden.sheffield] process ID [12852]
[2017.01.03 13:47:42] [0022m.51s.235ms] [1] SC[3545]: Registered sub-client [ExpeditionCrossProber] with ID [3] for session ID [3545] host [DESKTOP-TJKR3AR] user [branden.sheffield] process ID [12852]
[2017.01.03 13:52:02] [0027m.11s.620ms] [1] SC[3536]: UnRegistered sub-client [DesignSearcher2] with ID [49] for session ID [3536] host [DESKTOP-TJKR3AR] user [branden.sheffield] process ID [8120]
[2017.01.03 13:52:03] [0027m.11s.760ms] [1] SC[3536]: Registered sub-client [DesignSearcher2] with ID [50] for session ID [3536] host [DESKTOP-TJKR3AR] user [branden.sheffield] process ID [8120]
[2017.01.03 13:52:04] [0027m.13s.702ms] [1] SC[3536]: UnRegistered sub-client [DesignSearcher2] with ID [50] for session ID [3536] host [DESKTOP-TJKR3AR] user [branden.sheffield] process ID [8120]
[2017.01.03 13:52:04] [0027m.13s.722ms] [1] SC[3536]: Registered sub-client [DesignSearcher2] with ID [51] for session ID [3536] host [DESKTOP-TJKR3AR] user [branden.sheffield] process ID [8120]
[2017.01.03 14:00:44] [0035m.53s.206ms] [1] SC[3545]: Registered sub-client [JobPrefsDBPI_2266859] with ID [4] for session ID [3545] host [DESKTOP-TJKR3AR] user [branden.sheffield] process ID [12852]
[2017.01.03 14:00:44] [0035m.53s.206ms] [1] SC[3545]: UnRegistered sub-client [JobPrefsDBPI_2266859] with ID [4] for session ID [3545] host [DESKTOP-TJKR3AR] user [branden.sheffield] process ID [12852]
[2017.01.03 14:00:44] [0035m.53s.316ms] [1] SC[3545]: Registered sub-client [NetClassDBPI_2266984] with ID [5] for session ID [3545] host [DESKTOP-TJKR3AR] user [branden.sheffield] process ID [12852]
[2017.01.03 14:00:44] [0035m.53s.335ms] [1] SC[3545]: UnRegistered sub-client [NetClassDBPI_2266984] with ID [5] for session ID [3545] host [DESKTOP-TJKR3AR] user [branden.sheffield] process ID [12852]
[2017.01.03 14:00:44] [0035m.53s.340ms] [1] SC[3545]: Registered sub-client [JobPrefsDBPI_2267000] with ID [6] for session ID [3545] host [DESKTOP-TJKR3AR] user [branden.sheffield] process ID [12852]
[2017.01.03 14:00:44] [0035m.53s.340ms] [1] SC[3545]: UnRegistered sub-client [JobPrefsDBPI_2267000] with ID [6] for session ID [3545] host [DESKTOP-TJKR3AR] user [branden.sheffield] process ID [12852]
[2017.01.03 14:00:45] [0035m.54s.737ms] [1] SC[3545]: Registered sub-client [JobPrefsDBPI_2268406] with ID [7] for session ID [3545] host [DESKTOP-TJKR3AR] user [branden.sheffield] process ID [12852]
[2017.01.03 14:00:46] [0035m.54s.774ms] [1] SC[3545]: UnRegistered sub-client [JobPrefsDBPI_2268406] with ID [7] for session ID [3545] host [DESKTOP-TJKR3AR] user [branden.sheffield] process ID [12852]
[2017.01.03 14:00:46] [0035m.55s.066ms] [0] IT: Session [3546] for host [DESKTOP-TJKR3AR] user [branden.sheffield] with process ID [6232] created
[2017.01.03 14:00:46] [0035m.55s.066ms] [1] SC[3546]: Registered sub-client [JobPrefsDBPI_2268640] with ID [1] for session ID [3546] host [DESKTOP-TJKR3AR] user [branden.sheffield] process ID [6232]
[2017.01.03 14:00:46] [0035m.55s.066ms] [0] IT: Session [3547] for host [DESKTOP-TJKR3AR] user [branden.sheffield] with process ID [6648] created
[2017.01.03 14:00:46] [0035m.55s.066ms] [1] SC[3547]: Registered sub-client [JobPrefsDBPI_2268640] with ID [1] for session ID [3547] host [DESKTOP-TJKR3AR] user [branden.sheffield] process ID [6648]
[2017.01.03 14:00:46] [0035m.55s.113ms] [1] CMT: There are [4] clients now: 3536, 3545, 3546, 3547
[2017.01.03 14:00:46] [0035m.55s.143ms] [1] SC[3546]: Registered sub-client [JobPrefsDBPI_2268812] with ID [2] for session ID [3546] host [DESKTOP-TJKR3AR] user [branden.sheffield] process ID [6232]
[2017.01.03 14:00:46] [0035m.55s.143ms] [1] SC[3547]: Registered sub-client [JobPrefsDBPI_2268812] with ID [2] for session ID [3547] host [DESKTOP-TJKR3AR] user [branden.sheffield] process ID [6648]
[2017.01.03 14:00:46] [0035m.55s.158ms] [1] SC[3546]: Registered sub-client [NetClassDBPI_2268828] with ID [3] for session ID [3546] host [DESKTOP-TJKR3AR] user [branden.sheffield] process ID [6232]
[2017.01.03 14:00:46] [0035m.55s.158ms] [1] SC[3547]: Registered sub-client [NetClassDBPI_2268828] with ID [3] for session ID [3547] host [DESKTOP-TJKR3AR] user [branden.sheffield] process ID [6648]
[2017.01.03 14:00:46] [0035m.55s.174ms] [1] SC[3547]: Registered sub-client [Expedition_2268828] with ID [4] for session ID [3547] host [DESKTOP-TJKR3AR] user [branden.sheffield] process ID [6648]
[2017.01.03 14:00:46] [0035m.55s.174ms] [1] SC[3547]: UnRegistered sub-client [Expedition_2268828] with ID [4] for session ID [3547] host [DESKTOP-TJKR3AR] user [branden.sheffield] process ID [6648]
[2017.01.03 14:00:46] [0035m.55s.174ms] [0] IT: Session [3548] for host [DESKTOP-TJKR3AR] user [branden.sheffield] with process ID [4496] created
[2017.01.03 14:00:46] [0035m.55s.190ms] [1] SC[3548]: Registered sub-client [JobPrefsDBPI_2268781] with ID [1] for session ID [3548] host [DESKTOP-TJKR3AR] user [branden.sheffield] process ID [4496]
[2017.01.03 14:00:46] [0035m.55s.221ms] [1] CMT: There are [5] clients now: 3536, 3545, 3546, 3547, 3548
[2017.01.03 14:00:46] [0035m.55s.221ms] [1] SC[3548]: Registered sub-client [NetClassDBPI_2268890] with ID [2] for session ID [3548] host [DESKTOP-TJKR3AR] user [branden.sheffield] process ID [4496]
[2017.01.03 14:00:46] [0035m.55s.274ms] [1] SC[3548]: Registered sub-client [JobPrefsDBPI_2268921] with ID [3] for session ID [3548] host [DESKTOP-TJKR3AR] user [branden.sheffield] process ID [4496]
[2017.01.03 14:00:47] [0035m.56s.069ms] [0] IT: Session [3549] for host [DESKTOP-TJKR3AR] user [branden.sheffield] with process ID [6532] created
[2017.01.03 14:00:47] [0035m.56s.070ms] [1] SC[3549]: Registered sub-client [JobPrefsDBPI_2269656] with ID [1] for session ID [3549] host [DESKTOP-TJKR3AR] user [branden.sheffield] process ID [6532]
[2017.01.03 14:00:47] [0035m.56s.107ms] [1] CMT: There are [6] clients now: 3536, 3545, 3546, 3547, 3548, 3549
[2017.01.03 14:00:47] [0035m.56s.158ms] [1] SC[3549]: Registered sub-client [JobPrefsDBPI_2269828] with ID [2] for session ID [3549] host [DESKTOP-TJKR3AR] user [branden.sheffield] process ID [6532]
[2017.01.03 14:00:47] [0035m.56s.167ms] [1] SC[3549]: Registered sub-client [NetClassDBPI_2269828] with ID [3] for session ID [3549] host [DESKTOP-TJKR3AR] user [branden.sheffield] process ID [6532]
[2017.01.03 14:00:47] [0035m.56s.572ms] [1] SC[3548]: Registered sub-client [Expedition_2270234] with ID [4] for session ID [3548] host [DESKTOP-TJKR3AR] user [branden.sheffield] process ID [4496]
[2017.01.03 14:00:48] [0035m.57s.241ms] [1] SC[3548]: UnRegistered sub-client [Expedition_2270234] with ID [4] for session ID [3548] host [DESKTOP-TJKR3AR] user [branden.sheffield] process ID [4496]
[2017.01.03 14:00:48] [0035m.57s.654ms] [1] SC[3548]: UnRegistered sub-client [JobPrefsDBPI_2268921] with ID [3] for session ID [3548] host [DESKTOP-TJKR3AR] user [branden.sheffield] process ID [4496]
[2017.01.03 14:00:48] [0035m.57s.655ms] [1] SC[3548]: UnRegistered sub-client [JobPrefsDBPI_2268781] with ID [1] for session ID [3548] host [DESKTOP-TJKR3AR] user [branden.sheffield] process ID [4496]
[2017.01.03 14:00:48] [0035m.57s.661ms] [1] SC[3548]: UnRegistered sub-client [NetClassDBPI_2268890] with ID [2] for session ID [3548] host [DESKTOP-TJKR3AR] user [branden.sheffield] process ID [4496]
[2017.01.03 14:00:48] [0035m.57s.662ms] [1] CMT: Removed client [3548]
[2017.01.03 14:00:48] [0035m.57s.662ms] [1] CMT: There are [5] clients now: 3536, 3545, 3546, 3547, 3549
[2017.01.03 14:00:50] [0035m.59s.575ms] [1] SC[3547]: UnRegistered sub-client [JobPrefsDBPI_2268812] with ID [2] for session ID [3547] host [DESKTOP-TJKR3AR] user [branden.sheffield] process ID [6648]
[2017.01.03 14:00:50] [0035m.59s.576ms] [1] SC[3547]: UnRegistered sub-client [JobPrefsDBPI_2268640] with ID [1] for session ID [3547] host [DESKTOP-TJKR3AR] user [branden.sheffield] process ID [6648]
[2017.01.03 14:00:50] [0035m.59s.582ms] [1] SC[3547]: UnRegistered sub-client [NetClassDBPI_2268828] with ID [3] for session ID [3547] host [DESKTOP-TJKR3AR] user [branden.sheffield] process ID [6648]
[2017.01.03 14:00:50] [0035m.59s.615ms] [1] CMT: Removed client [3547]
[2017.01.03 14:00:50] [0035m.59s.615ms] [1] CMT: There are [4] clients now: 3536, 3545, 3546, 3549
[2017.01.03 14:00:51] [0035m.59s.777ms] [1] SC[3549]: UnRegistered sub-client [JobPrefsDBPI_2269828] with ID [2] for session ID [3549] host [DESKTOP-TJKR3AR] user [branden.sheffield] process ID [6532]
[2017.01.03 14:00:51] [0035m.59s.777ms] [1] SC[3549]: UnRegistered sub-client [JobPrefsDBPI_2269656] with ID [1] for session ID [3549] host [DESKTOP-TJKR3AR] user [branden.sheffield] process ID [6532]
[2017.01.03 14:00:51] [0035m.59s.777ms] [1] SC[3549]: UnRegistered sub-client [NetClassDBPI_2269828] with ID [3] for session ID [3549] host [DESKTOP-TJKR3AR] user [branden.sheffield] process ID [6532]
[2017.01.03 14:00:51] [0035m.59s.847ms] [1] CMT: Removed client [3549]
[2017.01.03 14:00:51] [0035m.59s.847ms] [1] CMT: There are [3] clients now: 3536, 3545, 3546
[2017.01.03 14:00:51] [0036m.00s.047ms] [1] SC[3546]: UnRegistered sub-client [JobPrefsDBPI_2268812] with ID [2] for session ID [3546] host [DESKTOP-TJKR3AR] user [branden.sheffield] process ID [6232]
[2017.01.03 14:00:51] [0036m.00s.047ms] [1] SC[3546]: UnRegistered sub-client [JobPrefsDBPI_2268640] with ID [1] for session ID [3546] host [DESKTOP-TJKR3AR] user [branden.sheffield] process ID [6232]
[2017.01.03 14:00:51] [0036m.00s.047ms] [1] SC[3546]: UnRegistered sub-client [NetClassDBPI_2268828] with ID [3] for session ID [3546] host [DESKTOP-TJKR3AR] user [branden.sheffield] process ID [6232]
[2017.01.03 14:00:51] [0036m.00s.063ms] [1] CMT: Removed client [3546]
[2017.01.03 14:00:51] [0036m.00s.063ms] [1] CMT: There are [2] clients now: 3536, 3545
[2017.01.03 14:11:57] [0047m.06s.598ms] [1] SC[3545]: Registered sub-client [JobPrefsDBPI_2940265] with ID [8] for session ID [3545] host [DESKTOP-TJKR3AR] user [branden.sheffield] process ID [12852]
[2017.01.03 14:11:57] [0047m.06s.601ms] [1] SC[3545]: UnRegistered sub-client [JobPrefsDBPI_2940265] with ID [8] for session ID [3545] host [DESKTOP-TJKR3AR] user [branden.sheffield] process ID [12852]
[2017.01.03 14:11:57] [0047m.06s.671ms] [1] SC[3545]: Registered sub-client [NetClassDBPI_2940343] with ID [9] for session ID [3545] host [DESKTOP-TJKR3AR] user [branden.sheffield] process ID [12852]
[2017.01.03 14:11:57] [0047m.06s.688ms] [1] SC[3545]: UnRegistered sub-client [NetClassDBPI_2940343] with ID [9] for session ID [3545] host [DESKTOP-TJKR3AR] user [branden.sheffield] process ID [12852]
[2017.01.03 14:11:57] [0047m.06s.694ms] [1] SC[3545]: Registered sub-client [JobPrefsDBPI_2940359] with ID [10] for session ID [3545] host [DESKTOP-TJKR3AR] user [branden.sheffield] process ID [12852]
[2017.01.03 14:11:57] [0047m.06s.696ms] [1] SC[3545]: UnRegistered sub-client [JobPrefsDBPI_2940359] with ID [10] for session ID [3545] host [DESKTOP-TJKR3AR] user [branden.sheffield] process ID [12852]
[2017.01.03 14:11:59] [0047m.08s.420ms] [1] SC[3545]: Registered sub-client [JobPrefsDBPI_2942093] with ID [11] for session ID [3545] host [DESKTOP-TJKR3AR] user [branden.sheffield] process ID [12852]
[2017.01.03 14:11:59] [0047m.08s.467ms] [1] SC[3545]: UnRegistered sub-client [JobPrefsDBPI_2942093] with ID [11] for session ID [3545] host [DESKTOP-TJKR3AR] user [branden.sheffield] process ID [12852]
[2017.01.03 14:11:59] [0047m.08s.680ms] [0] IT: Session [3550] for host [DESKTOP-TJKR3AR] user [branden.sheffield] with process ID [9040] created
[2017.01.03 14:11:59] [0047m.08s.681ms] [1] SC[3550]: Registered sub-client [JobPrefsDBPI_2942265] with ID [1] for session ID [3550] host [DESKTOP-TJKR3AR] user [branden.sheffield] process ID [9040]
[2017.01.03 14:11:59] [0047m.08s.688ms] [0] IT: Session [3551] for host [DESKTOP-TJKR3AR] user [branden.sheffield] with process ID [9028] created
[2017.01.03 14:11:59] [0047m.08s.690ms] [1] SC[3551]: Registered sub-client [JobPrefsDBPI_2942265] with ID [1] for session ID [3551] host [DESKTOP-TJKR3AR] user [branden.sheffield] process ID [9028]
[2017.01.03 14:11:59] [0047m.08s.707ms] [0] IT: Session [3552] for host [DESKTOP-TJKR3AR] user [branden.sheffield] with process ID [7016] created
[2017.01.03 14:11:59] [0047m.08s.708ms] [1] SC[3552]: Registered sub-client [JobPrefsDBPI_2942296] with ID [1] for session ID [3552] host [DESKTOP-TJKR3AR] user [branden.sheffield] process ID [7016]
[2017.01.03 14:11:59] [0047m.08s.718ms] [1] CMT: There are [5] clients now: 3536, 3545, 3550, 3551, 3552
[2017.01.03 14:11:59] [0047m.08s.741ms] [0] IT: Session [3553] for host [DESKTOP-TJKR3AR] user [branden.sheffield] with process ID [8848] created
[2017.01.03 14:11:59] [0047m.08s.742ms] [1] SC[3553]: Registered sub-client [JobPrefsDBPI_2942328] with ID [1] for session ID [3553] host [DESKTOP-TJKR3AR] user [branden.sheffield] process ID [8848]
[2017.01.03 14:12:00] [0047m.08s.774ms] [1] SC[3550]: Registered sub-client [JobPrefsDBPI_2942437] with ID [2] for session ID [3550] host [DESKTOP-TJKR3AR] user [branden.sheffield] process ID [9040]
[2017.01.03 14:12:00] [0047m.08s.783ms] [1] SC[3550]: Registered sub-client [NetClassDBPI_2942453] with ID [3] for session ID [3550] host [DESKTOP-TJKR3AR] user [branden.sheffield] process ID [9040]
[2017.01.03 14:12:00] [0047m.08s.788ms] [1] SC[3551]: Registered sub-client [JobPrefsDBPI_2942453] with ID [2] for session ID [3551] host [DESKTOP-TJKR3AR] user [branden.sheffield] process ID [9028]
[2017.01.03 14:12:00] [0047m.08s.795ms] [1] SC[3553]: Registered sub-client [NetClassDBPI_2942468] with ID [2] for session ID [3553] host [DESKTOP-TJKR3AR] user [branden.sheffield] process ID [8848]
[2017.01.03 14:12:00] [0047m.08s.800ms] [1] SC[3551]: Registered sub-client [NetClassDBPI_2942468] with ID [3] for session ID [3551] host [DESKTOP-TJKR3AR] user [branden.sheffield] process ID [9028]
[2017.01.03 14:12:00] [0047m.08s.812ms] [1] SC[3552]: Registered sub-client [JobPrefsDBPI_2942484] with ID [2] for session ID [3552] host [DESKTOP-TJKR3AR] user [branden.sheffield] process ID [7016]
[2017.01.03 14:12:00] [0047m.08s.821ms] [1] SC[3552]: Registered sub-client [NetClassDBPI_2942484] with ID [3] for session ID [3552] host [DESKTOP-TJKR3AR] user [branden.sheffield] process ID [7016]
[2017.01.03 14:12:00] [0047m.08s.830ms] [1] SC[3552]: Registered sub-client [Expedition_2942500] with ID [4] for session ID [3552] host [DESKTOP-TJKR3AR] user [branden.sheffield] process ID [7016]
[2017.01.03 14:12:00] [0047m.08s.832ms] [1] CMT: There are [6] clients now: 3536, 3545, 3550, 3551, 3552, 3553
[2017.01.03 14:12:00] [0047m.08s.832ms] [1] SC[3552]: UnRegistered sub-client [Expedition_2942500] with ID [4] for session ID [3552] host [DESKTOP-TJKR3AR] user [branden.sheffield] process ID [7016]
[2017.01.03 14:12:00] [0047m.08s.851ms] [1] SC[3553]: Registered sub-client [JobPrefsDBPI_2942515] with ID [3] for session ID [3553] host [DESKTOP-TJKR3AR] user [branden.sheffield] process ID [8848]
[2017.01.03 14:12:01] [0047m.10s.210ms] [1] SC[3553]: Registered sub-client [Expedition_2943875] with ID [4] for session ID [3553] host [DESKTOP-TJKR3AR] user [branden.sheffield] process ID [8848]
[2017.01.03 14:12:02] [0047m.10s.845ms] [1] SC[3553]: UnRegistered sub-client [Expedition_2943875] with ID [4] for session ID [3553] host [DESKTOP-TJKR3AR] user [branden.sheffield] process ID [8848]
[2017.01.03 14:12:02] [0047m.11s.188ms] [1] SC[3553]: UnRegistered sub-client [JobPrefsDBPI_2942515] with ID [3] for session ID [3553] host [DESKTOP-TJKR3AR] user [branden.sheffield] process ID [8848]
[2017.01.03 14:12:02] [0047m.11s.189ms] [1] SC[3553]: UnRegistered sub-client [JobPrefsDBPI_2942328] with ID [1] for session ID [3553] host [DESKTOP-TJKR3AR] user [branden.sheffield] process ID [8848]
[2017.01.03 14:12:02] [0047m.11s.195ms] [1] SC[3553]: UnRegistered sub-client [NetClassDBPI_2942468] with ID [2] for session ID [3553] host [DESKTOP-TJKR3AR] user [branden.sheffield] process ID [8848]
[2017.01.03 14:12:02] [0047m.11s.204ms] [1] CMT: Removed client [3553]
[2017.01.03 14:12:02] [0047m.11s.204ms] [1] CMT: There are [5] clients now: 3536, 3545, 3550, 3551, 3552
[2017.01.03 14:12:03] [0047m.12s.575ms] [1] SC[3551]: UnRegistered sub-client [JobPrefsDBPI_2942453] with ID [2] for session ID [3551] host [DESKTOP-TJKR3AR] user [branden.sheffield] process ID [9028]
[2017.01.03 14:12:03] [0047m.12s.576ms] [1] SC[3551]: UnRegistered sub-client [JobPrefsDBPI_2942265] with ID [1] for session ID [3551] host [DESKTOP-TJKR3AR] user [branden.sheffield] process ID [9028]
[2017.01.03 14:12:03] [0047m.12s.580ms] [1] SC[3551]: UnRegistered sub-client [NetClassDBPI_2942468] with ID [3] for session ID [3551] host [DESKTOP-TJKR3AR] user [branden.sheffield] process ID [9028]
[2017.01.03 14:12:03] [0047m.12s.616ms] [1] CMT: Removed client [3551]
[2017.01.03 14:12:03] [0047m.12s.616ms] [1] CMT: There are [4] clients now: 3536, 3545, 3550, 3552
[2017.01.03 14:12:04] [0047m.13s.143ms] [1] SC[3552]: UnRegistered sub-client [JobPrefsDBPI_2942484] with ID [2] for session ID [3552] host [DESKTOP-TJKR3AR] user [branden.sheffield] process ID [7016]
[2017.01.03 14:12:04] [0047m.13s.143ms] [1] SC[3552]: UnRegistered sub-client [JobPrefsDBPI_2942296] with ID [1] for session ID [3552] host [DESKTOP-TJKR3AR] user [branden.sheffield] process ID [7016]
[2017.01.03 14:12:04] [0047m.13s.159ms] [1] SC[3552]: UnRegistered sub-client [NetClassDBPI_2942484] with ID [3] for session ID [3552] host [DESKTOP-TJKR3AR] user [branden.sheffield] process ID [7016]
[2017.01.03 14:12:04] [0047m.13s.243ms] [1] CMT: Removed client [3552]
[2017.01.03 14:12:04] [0047m.13s.243ms] [1] CMT: There are [3] clients now: 3536, 3545, 3550
[2017.01.03 14:12:04] [0047m.13s.698ms] [1] SC[3550]: UnRegistered sub-client [JobPrefsDBPI_2942437] with ID [2] for session ID [3550] host [DESKTOP-TJKR3AR] user [branden.sheffield] process ID [9040]
[2017.01.03 14:12:04] [0047m.13s.698ms] [1] SC[3550]: UnRegistered sub-client [JobPrefsDBPI_2942265] with ID [1] for session ID [3550] host [DESKTOP-TJKR3AR] user [branden.sheffield] process ID [9040]
[2017.01.03 14:12:04] [0047m.13s.698ms] [1] SC[3550]: UnRegistered sub-client [NetClassDBPI_2942453] with ID [3] for session ID [3550] host [DESKTOP-TJKR3AR] user [branden.sheffield] process ID [9040]
[2017.01.03 14:12:05] [0047m.13s.777ms] [1] CMT: Removed client [3550]
[2017.01.03 14:12:05] [0047m.13s.777ms] [1] CMT: There are [2] clients now: 3536, 3545
[2017.01.03 15:02:54] [0098m.03s.128ms] [1] SC[3536]: UnRegistered sub-client [DesignSearcher2] with ID [51] for session ID [3536] host [DESKTOP-TJKR3AR] user [branden.sheffield] process ID [8120]
[2017.01.03 15:02:54] [0098m.03s.159ms] [1] SC[3536]: Registered sub-client [DesignSearcher2] with ID [52] for session ID [3536] host [DESKTOP-TJKR3AR] user [branden.sheffield] process ID [8120]
[2017.01.03 15:04:36] [0099m.45s.453ms] [1] SC[3536]: UnRegistered sub-client [DesignSearcher2] with ID [52] for session ID [3536] host [DESKTOP-TJKR3AR] user [branden.sheffield] process ID [8120]
[2017.01.03 15:04:36] [0099m.45s.485ms] [1] SC[3536]: Registered sub-client [DesignSearcher2] with ID [53] for session ID [3536] host [DESKTOP-TJKR3AR] user [branden.sheffield] process ID [8120]
[2017.01.03 15:04:58] [0100m.07s.604ms] [1] SC[3536]: UnRegistered sub-client [DesignSearcher2] with ID [53] for session ID [3536] host [DESKTOP-TJKR3AR] user [branden.sheffield] process ID [8120]
[2017.01.03 15:04:58] [0100m.07s.634ms] [1] SC[3536]: Registered sub-client [DesignSearcher2] with ID [54] for session ID [3536] host [DESKTOP-TJKR3AR] user [branden.sheffield] process ID [8120]
[2017.01.03 15:05:01] [0100m.10s.709ms] [1] SC[3536]: UnRegistered sub-client [DesignSearcher2] with ID [54] for session ID [3536] host [DESKTOP-TJKR3AR] user [branden.sheffield] process ID [8120]
[2017.01.03 15:05:02] [0100m.10s.761ms] [1] SC[3536]: Registered sub-client [DesignSearcher2] with ID [55] for session ID [3536] host [DESKTOP-TJKR3AR] user [branden.sheffield] process ID [8120]
[2017.01.03 15:05:04] [0100m.13s.397ms] [1] SC[3536]: UnRegistered sub-client [DesignSearcher2] with ID [55] for session ID [3536] host [DESKTOP-TJKR3AR] user [branden.sheffield] process ID [8120]
[2017.01.03 15:05:04] [0100m.13s.613ms] [1] SC[3536]: Registered sub-client [DesignSearcher2] with ID [56] for session ID [3536] host [DESKTOP-TJKR3AR] user [branden.sheffield] process ID [8120]
[2017.01.03 15:05:24] [0100m.32s.836ms] [1] SC[3536]: UnRegistered sub-client [DesignSearcher2] with ID [56] for session ID [3536] host [DESKTOP-TJKR3AR] user [branden.sheffield] process ID [8120]
[2017.01.03 15:05:24] [0100m.33s.035ms] [1] SC[3536]: Registered sub-client [DesignSearcher2] with ID [57] for session ID [3536] host [DESKTOP-TJKR3AR] user [branden.sheffield] process ID [8120]
[2017.01.03 15:08:16] [0103m.25s.626ms] [1] SC[3545]: UnRegistered sub-client [ExpeditionCrossProber] with ID [3] for session ID [3545] host [DESKTOP-TJKR3AR] user [branden.sheffield] process ID [12852]
[2017.01.03 15:08:18] [0103m.27s.228ms] [1] SC[3545]: UnRegistered sub-client [Expedition PE_1477531] with ID [1] for session ID [3545] host [DESKTOP-TJKR3AR] user [branden.sheffield] process ID [12852]
[2017.01.03 15:08:18] [0103m.27s.289ms] [1] CMT: Removed client [3545]
[2017.01.03 15:08:18] [0103m.27s.289ms] [1] CMT: There are [1] clients now: 3536
[2017.01.03 15:08:19] [0103m.28s.214ms] [1] SC[3536]: UnRegistered sub-client [SystemDesignDll] with ID [39] for session ID [3536] host [DESKTOP-TJKR3AR] user [branden.sheffield] process ID [8120]
[2017.01.03 15:08:19] [0103m.28s.313ms] [1] SC[3536]: UnRegistered sub-client [DesignSearcher2] with ID [57] for session ID [3536] host [DESKTOP-TJKR3AR] user [branden.sheffield] process ID [8120]
[2017.01.03 15:08:19] [0103m.28s.486ms] [1] SC[3536]: UnRegistered sub-client [GlobalNetAliasUpdater_272723600] with ID [42] for session ID [3536] host [DESKTOP-TJKR3AR] user [branden.sheffield] process ID [8120]
[2017.01.03 15:08:19] [0103m.28s.486ms] [1] SC[3536]: UnRegistered sub-client [BlockCacheDxD:502898200] with ID [41] for session ID [3536] host [DESKTOP-TJKR3AR] user [branden.sheffield] process ID [8120]
[2017.01.03 15:08:19] [0103m.28s.486ms] [1] SC[3536]: UnRegistered sub-client [ObjectHolder_272722768] with ID [40] for session ID [3536] host [DESKTOP-TJKR3AR] user [branden.sheffield] process ID [8120]
[2017.01.03 15:08:19] [0103m.28s.486ms] [1] SC[3536]: UnRegistered sub-client [IcdbNetProcessorSubClientDxD:499976960] with ID [43] for session ID [3536] host [DESKTOP-TJKR3AR] user [branden.sheffield] process ID [8120]
[2017.01.03 15:08:19] [0103m.28s.548ms] [1] SC[3536]: UnRegistered sub-client [Navigator] with ID [14] for session ID [3536] host [DESKTOP-TJKR3AR] user [branden.sheffield] process ID [8120]
[2017.01.03 15:08:19] [0103m.28s.561ms] [1] SC[3536]: UnRegistered sub-client [LocalSymbolsDataProvider] with ID [44] for session ID [3536] host [DESKTOP-TJKR3AR] user [branden.sheffield] process ID [8120]
[2017.01.03 15:08:19] [0103m.28s.563ms] [1] SC[3536]: UnRegistered sub-client [FFSearch_Controller_0] with ID [19] for session ID [3536] host [DESKTOP-TJKR3AR] user [branden.sheffield] process ID [8120]
[2017.01.03 15:08:19] [0103m.28s.563ms] [1] SC[3536]: UnRegistered sub-client [FFSearch_Controller_1] with ID [20] for session ID [3536] host [DESKTOP-TJKR3AR] user [branden.sheffield] process ID [8120]
[2017.01.03 15:08:19] [0103m.28s.564ms] [1] SC[3536]: UnRegistered sub-client [FFSearch_Controller_2] with ID [21] for session ID [3536] host [DESKTOP-TJKR3AR] user [branden.sheffield] process ID [8120]
[2017.01.03 15:08:19] [0103m.28s.565ms] [1] SC[3536]: UnRegistered sub-client [FFSearch_Controller_3] with ID [22] for session ID [3536] host [DESKTOP-TJKR3AR] user [branden.sheffield] process ID [8120]
[2017.01.03 15:08:19] [0103m.28s.566ms] [1] SC[3536]: UnRegistered sub-client [FFSearch_Controller_4] with ID [23] for session ID [3536] host [DESKTOP-TJKR3AR] user [branden.sheffield] process ID [8120]
[2017.01.03 15:08:20] [0103m.28s.915ms] [1] SC[3536]: UnRegistered sub-client [MyParts] with ID [27] for session ID [3536] host [DESKTOP-TJKR3AR] user [branden.sheffield] process ID [8120]
[2017.01.03 15:08:20] [0103m.28s.915ms] [1] SC[3536]: UnRegistered sub-client [toolboxes] with ID [29] for session ID [3536] host [DESKTOP-TJKR3AR] user [branden.sheffield] process ID [8120]
[2017.01.03 15:08:20] [0103m.29s.716ms] [1] SC[3536]: UnRegistered sub-client [SelectionHolder] with ID [5] for session ID [3536] host [DESKTOP-TJKR3AR] user [branden.sheffield] process ID [8120]
[2017.01.03 15:08:20] [0103m.29s.716ms] [1] SC[3536]: UnRegistered sub-client [PartReplaceUtils] with ID [33] for session ID [3536] host [DESKTOP-TJKR3AR] user [branden.sheffield] process ID [8120]
[2017.01.03 15:08:22] [0103m.31s.113ms] [1] SC[3536]: UnRegistered sub-client [ProjectIntegrationIcdbCacheDxD:494001664] with ID [30] for session ID [3536] host [DESKTOP-TJKR3AR] user [branden.sheffield] process ID [8120]
[2017.01.03 15:08:22] [0103m.31s.113ms] [1] SC[3536]: UnRegistered sub-client [SheetConnectorsCacheDxD:1483475096] with ID [31] for session ID [3536] host [DESKTOP-TJKR3AR] user [branden.sheffield] process ID [8120]
[2017.01.03 15:08:22] [0103m.31s.113ms] [1] SC[3536]: UnRegistered sub-client [NetsNamesCollectorDxD:1483475096] with ID [32] for session ID [3536] host [DESKTOP-TJKR3AR] user [branden.sheffield] process ID [8120]
[2017.01.03 15:08:22] [0103m.31s.114ms] [1] SC[3536]: UnRegistered sub-client [TransactionRollbackSubClient] with ID [2] for session ID [3536] host [DESKTOP-TJKR3AR] user [branden.sheffield] process ID [8120]
[2017.01.03 15:08:22] [0103m.31s.114ms] [1] SC[3536]: UnRegistered sub-client [DxD] with ID [1] for session ID [3536] host [DESKTOP-TJKR3AR] user [branden.sheffield] process ID [8120]
[2017.01.03 15:08:22] [0103m.31s.119ms] [1] SC[3536]: UnRegistered sub-client [xprob] with ID [3] for session ID [3536] host [DESKTOP-TJKR3AR] user [branden.sheffield] process ID [8120]
[2017.01.03 15:08:22] [0103m.31s.119ms] [1] SC[3536]: UnRegistered sub-client [SymbolEditor] with ID [4] for session ID [3536] host [DESKTOP-TJKR3AR] user [branden.sheffield] process ID [8120]
[2017.01.03 15:08:22] [0103m.31s.135ms] [1] SC[3536]: UnRegistered sub-client [OutputWindow] with ID [15] for session ID [3536] host [DESKTOP-TJKR3AR] user [branden.sheffield] process ID [8120]
[2017.01.03 15:08:22] [0103m.31s.135ms] [1] SC[3536]: UnRegistered sub-client [DxDbSearch] with ID [38] for session ID [3536] host [DESKTOP-TJKR3AR] user [branden.sheffield] process ID [8120]
[2017.01.03 15:08:22] [0103m.31s.166ms] [1] SC[3536]: UnRegistered sub-client [SAE] with ID [24] for session ID [3536] host [DESKTOP-TJKR3AR] user [branden.sheffield] process ID [8120]
[2017.01.03 15:08:22] [0103m.31s.182ms] [1] SC[3536]: UnRegistered sub-client [CCZAddin] with ID [25] for session ID [3536] host [DESKTOP-TJKR3AR] user [branden.sheffield] process ID [8120]
[2017.01.03 15:08:22] [0103m.31s.182ms] [1] SC[3536]: UnRegistered sub-client [DxThumbnails] with ID [26] for session ID [3536] host [DESKTOP-TJKR3AR] user [branden.sheffield] process ID [8120]
[2017.01.03 15:08:25] [0103m.33s.822ms] [1] SC[3536]: UnRegistered sub-client [PinsList] with ID [28] for session ID [3536] host [DESKTOP-TJKR3AR] user [branden.sheffield] process ID [8120]
[2017.01.03 15:08:25] [0103m.33s.853ms] [1] SC[3536]: UnRegistered sub-client [PlaceDevice] with ID [16] for session ID [3536] host [DESKTOP-TJKR3AR] user [branden.sheffield] process ID [8120]
[2017.01.03 15:08:25] [0103m.33s.884ms] [1] SC[3536]: UnRegistered sub-client [HdlProject] with ID [13] for session ID [3536] host [DESKTOP-TJKR3AR] user [branden.sheffield] process ID [8120]
[2017.01.03 15:08:25] [0103m.33s.984ms] [1] CMT: Removed client [3536]
[2017.01.03 15:08:25] [0103m.33s.984ms] [1] CMT: There are no clients left - waiting [1 seconds]
[2017.01.03 15:08:25] [0103m.34s.240ms] [1] SDL: The last connected iCDB Server Monitor [1] is waiting for server close
[2017.01.03 15:08:27] [0103m.35s.821ms] [0] CMT: Starting server auto-close
[2017.01.03 15:08:27] [0103m.35s.917ms] [0] S: Closing server
[2017.01.03 15:08:27] [0103m.36s.086ms] [0] iCDB Server PI: Closing plugins
[2017.01.03 15:08:27] [0103m.36s.086ms] [0] iCDB Server PI: Plugins closed
[2017.01.03 15:08:27] [0103m.36s.086ms] [0] iCDB Server PI: Unloading database
[2017.01.03 15:08:27] [0103m.36s.086ms] [0] iCDB Server PI: Saving storage
[2017.01.03 15:08:27] [0103m.36s.086ms] [0] iCDB Server PI: Closing database
[2017.01.03 15:08:27] [0103m.36s.086ms] [1] iCDB Server PI: Stats: Database defragmentation: max[2] avg[1] holes[33%] data[95%]
[2017.01.03 15:08:27] [0103m.36s.086ms] [1] iCDB Server PI: Stats: Database file size [2239464 (2.1 MB)]
[2017.01.03 15:08:27] [0103m.36s.086ms] [1] iCDB Server PI: WARNING: Database needs defragmentation!
[2017.01.03 15:08:27] [0103m.36s.102ms] [0] iCDB Server PI: Database closed
[2017.01.03 15:08:27] [0103m.36s.102ms] [0] iCDB Server PI: Defragmenting database
[2017.01.03 15:08:27] [0103m.36s.102ms] [0] iCDB Server PI: Creating database [C:\pd_repo\pd\_CITADEL\Mentor\Citadel\database] backup to file [C:\pd_repo\pd\_CITADEL\Mentor\Citadel\database\cdbback\2017-01-03 15.08.27-8056-d.zip]
[2017.01.03 15:08:27] [0103m.36s.256ms] [0] iCDB Server PI: Database backup: DONE
[2017.01.03 15:08:27] [0103m.36s.287ms] [0] SingleFile: [0000-0000-0000-0000] SFI header version check [1009] [1009]
[2017.01.03 15:08:27] [0103m.36s.287ms] [0] Database GUARD OK: [2239464]
[2017.01.03 15:08:27] [0103m.36s.287ms] [0] SingleFile: [9e75-bf90-0362-6950] SFI version check [1009] [1009]
[2017.01.03 15:08:27] [0103m.36s.303ms] [0] SingleFile: [9e75-bf90-0362-6950] Database SFI header has been read in [14ms 282us]
[2017.01.03 15:08:27] [0103m.36s.402ms] [1] iCDB Server PI: Stats: Database file sizes: before[2239464 (2.1 MB)], after[1324992 (1.3 MB)], gain[914472 (893.0 kB)]
[2017.01.03 15:08:27] [0103m.36s.402ms] [0] Single file [C:\pd_repo\pd\_CITADEL\Mentor\Citadel\database\icdb.dat] closed with size [1324992 (1.3 MB)]
[2017.01.03 15:08:27] [0103m.36s.402ms] [0] iCDB Server PI: Database defragmentation completed successfully
[2017.01.03 15:08:27] [0103m.36s.402ms] [1] BackupTransaction: Removing database backup [C:\pd_repo\pd\_CITADEL\Mentor\Citadel\database\cdbback\2017-01-03 15.08.27-8056-d.zip]
[2017.01.03 15:08:27] [0103m.36s.402ms] [1] iCDB Server PI: Stats: Total iCDB execution time: [1706452] ticks
[2017.01.03 15:08:27] [0103m.36s.402ms] [1] iCDB Server PI: Stats: Total iCDB execution time: [622295] microseconds
[2017.01.03 15:08:27] [0103m.36s.402ms] [1] iCDB Server PI: Stats: Total iCDB commands count: [808]
[2017.01.03 15:08:27] [0103m.36s.402ms] [1] iCDB Server PI: Stats: Average iCDB speed:        [1298] commands per second
[2017.01.03 15:08:27] [0103m.36s.418ms] [1] SD[1]: Removing the last connected iCDB Server Monitor [1]
[2017.01.03 15:08:27] [0103m.36s.571ms] [0] MWT: Destroy the shutdown block reason.
[2017.01.03 15:08:27] [0103m.36s.571ms] [0] MWT: STOP
[2017.01.03 15:08:27] [0103m.36s.571ms] [0] S: STOP
