SECTION DesignInfo
LIST HdlSearchPaths
ENDLIST
KEY BorderSymbols "./borders.ini"
KEY Bus_Contents "./busconts.ini"
KEY CentralLibrary "Z:\MentorGraphics\Library\Xpedition_PE_Library\Xpedition_PE.lmc"
KEY DBCFile ""
KEY DxD_Version "PADSProVX.2"
KEY FrontEndSnapshot "DxD"
KEY HdlUtilsConfigFile "hdlutils.ini"
KEY Mode "PE_BASE"
KEY NumberingType "INDEPTH"
KEY OrderFileName ".\"
KEY PinComponents "./speccomp.ini"
KEY SheetsEditMode "1"
KEY PartListerCfg "PartsListerDefaults"
ENDSECTION
SECTION FlowSettings
KEY CreateDxDCCZOnFA "1"
KEY ExportExpCCZOnBA "1"
KEY FlowType "DX"
ENDSECTION
SECTION ICXProInfo
KEY ICXProDir "./HighSpeed/ICXPro"
KEY HighSpeedPathsVersion "1"
KEY ICXProDir_old "./Highspeed/ICXPro"
KEY IBISModelMgrDir "./HighSpeed/ICXPro/Model_Manager"
KEY VerifyDir "./HighSpeed/ICXPro/Verify"
KEY VerifyResultsDir "./HighSpeed/ICXPro/Verify/DataBases"
KEY VerifyLogFilesDir "./HighSpeed/ICXPro/Verify/LogFiles"
KEY VerifyWaveformsDir "./HighSpeed/ICXPro/Verify/Waveforms"
KEY VerifySandBoxDir "./HighSpeed/ICXPro/Verify"
KEY SimTemplatesDir "./HighSpeed/ICXPro/Simulation_Templates"
KEY PostLayoutExplorerDir "./HighSpeed/ICXPro/PostLayoutExplorer"
KEY PostLayoutLineSim "./HighSpeed/HyperLynx/PostLayoutLineSim"
KEY LocalModelsDir "./HighSpeed/ICXPro/Local_Models"
ENDSECTION
SECTION Main
KEY CADBackAnno "0"
KEY ConfigType "PCB"
KEY LayoutTemplate "4 Layer Template"
KEY RootBlock "Schematic1"
KEY SchematicConflict "FE"
KEY SchematicDesignBackAnno "0"
KEY SchematicDesignStatus "0"
KEY SearchPathScheme "(Default)"
KEY PCBDesignPath "PCB\Main.pcb"
KEY PCBForwardAnno "1"
KEY FwdAnnoExtractFlag "1"
KEY FwdAnnoRebuildFlag "0"
KEY FwdAnnoReplaceFlag "0"
KEY FwdAnnoCleanBuildFlag "0"
KEY UnusedPartsFlag "1"
KEY DisableBackAnnoChanges "0"
KEY DisableECOChanges "0"
KEY FanoutSinglePinNets "0"
KEY FwdAnnoSchematicRefDesChanges "1"
KEY FwdAnnoRemoveTraces "1"
KEY FwdAnnoRemoveHangers "1"
KEY AllowAlpha "0"
KEY UpdateJobPrefsDB "CAD"
KEY VMMode "Physical"
ENDSECTION
SECTION ProjectBackup
KEY ConfigFile ".\ProjectBackup\ProjectBackup.cfg"
ENDSECTION
SECTION Template_Design
KEY CADBackAnno "0"
KEY ConfigType "PCB"
KEY SchematicConflict "FE"
KEY SchematicDesignBackAnno "0"
KEY SchematicDesignStatus "0"
KEY SearchPathScheme "(Default)"
ENDSECTION
SECTION iCDB
LIST Designs
VALUE "Main"
ENDLIST
KEY DedicatedServerName ""
KEY iCDBDir ".\database"
ENDSECTION
SECTION PCBFwdAnnoOptions
KEY RootSchematicFile "Schematic1"
ENDSECTION
SECTION BackAnnoOptions
KEY ExportCellNames "1"
ENDSECTION
SECTION VBPCBDesignData
KEY VBPCBDesignPath "PCB\Main.pcb"
ENDSECTION
SECTION VBPCBIndicators
KEY VBPCBForwardAnno "0"
KEY SchematicDesignBackAnno "0"
KEY SchematicDesignStatus "0"
KEY CADBackAnno "0"
KEY FwdAnnoExtractFlag "1"
KEY FwdAnnoRebuildFlag "0"
KEY FwdAnnoReplaceFlag "0"
KEY FwdAnnoCleanBuildFlag "0"
KEY UnusedPartsFlag "0"
KEY DisableBackAnnoChanges "0"
KEY DisableECOChanges "0"
KEY FanoutSinglePinNets "0"
KEY FwdAnnoSchematicRefDesChanges "1"
KEY FwdAnnoRemoveTraces "1"
KEY FwdAnnoRemoveHangers "1"
KEY AllowAlpha "0"
ENDSECTION
