
Schematic Net Listing
-------------------------------- -------------------------------- --- --- ------ --- --- ------ ------ - -------------------- ---
Part                             Reference                        Sym Sub    Pin Eqv Sub   Pin     Pin Phantom    Net         Net
Number                           Designator                       Num Typ    Id  Cls Pak   Text    Num Flag       Name        Num
-------------------------------- -------------------------------- --- --- ------ --- --- ------ ------ - -------------------- ---
cap_0402                         C1                                 5   1      1   1   1 1           1 0 L_MICS              (2576-27-13)
cap_0402                         C1                                 5   1      2   2   1 2           2 0 AGND                (24-17-13)
CS7154B                          M1                                 1   1      1   1   1 2           2 0 LFF_MIC             (2576-24-13)
CS7154B                          M1                                 1   2      1   1   2 1           1 0 L_MICS              (2576-27-13)
CS7154B                          M1                                 1   3      1   1   3 4           4 0                     (0-0-0)
CS7154B                          M1                                 1   3      1   1   4 3           3 0 AGND                (24-17-13)
TP0.8x1.2                        TP1                                3   1      1   1   1 1           1 0 AGND                (24-17-13)
TP0.8x1.2                        TP2                                2   1      1   1   1 1           1 0 LFF_MIC             (2576-24-13)
TP0.8x1.2                        TP3                                4   1      1   1   1 1           1 0 L_MICS              (2576-27-13)
