
                                    DXFImport
                                    ---------

                       10:47 PM Thursday, January 05, 2017
       Job Name: C:\pd_repo\pd\_CITADEL\Mentor\Citadel_MicFF\PCB\Main.pcb

    DXFile "C:\pd_repo\pd\_CITADEL\ME\PCBfiles_1_5_17\citadel_ff_mic_pcb_parts.DXF" loaded successfully.
    

    DXF data has been imported onto a new layer. 
    To make this data visible select the checkbox for the new user layer in Display Control.    
    DXFile "C:\pd_repo\pd\_CITADEL\ME\PCBfiles_1_5_17\citadel_ff_mic_pcb_parts.DXF" imported successfully.
    
