=======================================================================
PADS Professional Layout - Version 2015.0.678.963
=======================================================================

RELOAD CELLS

Job Directory:  C:\Users\branden.sheffield\Documents\RedPeril\Mentor\RedPeril\PCB\


Design Units:(mm)

Replace Cell Log:   repCellLog54.txt

Mon Oct 03 13:16:39 2016

Reference Designator            Cell Name                         New Cell Name
===============================================================================


---------------  RELOAD CELLS  Mon Oct 03 13:16:39 2016  ---------------




---------------    Mon Oct 03 13:16:39 2016  ---------------




---------------    Mon Oct 03 13:34:40 2016  ---------------




---------------    Mon Oct 03 13:34:51 2016  ---------------




---------------    Mon Oct 03 13:35:21 2016  ---------------




---------------    Mon Oct 03 13:36:12 2016  ---------------




---------------    Mon Oct 03 13:36:22 2016  ---------------




---------------    Mon Oct 03 13:36:53 2016  ---------------




---------------    Mon Oct 03 13:41:28 2016  ---------------


