=======================================================================
PADS Professional Layout - Version 2015.0.678.963
=======================================================================

RELOAD CELLS

Job Directory:  C:\Users\branden.sheffield\Documents\Crusher3.0\Mentor\CrusherMain\PCB\


Design Units:(mm)

Replace Cell Log:   repCellLog06.txt

Sun Sep 20 14:53:16 2015

Reference Designator            Cell Name                         New Cell Name
===============================================================================


---------------  RELOAD CELLS  Sun Sep 20 14:53:16 2015  ---------------




---------------    Sun Sep 20 14:53:16 2015  ---------------




---------------    Sun Sep 20 14:57:40 2015  ---------------




---------------    Sun Sep 20 17:18:14 2015  ---------------




---------------    Sun Sep 20 17:18:20 2015  ---------------




---------------    Sun Sep 20 17:18:21 2015  ---------------




---------------    Sun Sep 20 17:18:21 2015  ---------------




---------------    Sun Sep 20 17:18:23 2015  ---------------




---------------    Sun Sep 20 17:18:23 2015  ---------------




---------------    Sun Sep 20 17:18:23 2015  ---------------


