=======================================================================
PADS Professional Layout - Version 2015.0.678.963
=======================================================================

RELOAD CELLS

Job Directory:  C:\Users\branden.sheffield\Documents\Crusher3.0\Mentor\CrusherMain\PCB\


Design Units:(mm)

Replace Cell Log:   repCellLog08.txt

Mon Sep 21 14:42:45 2015

Reference Designator            Cell Name                         New Cell Name
===============================================================================


---------------  RELOAD CELLS  Mon Sep 21 14:42:45 2015  ---------------




---------------    Mon Sep 21 14:42:45 2015  ---------------




---------------    Mon Sep 21 14:45:50 2015  ---------------




---------------    Mon Sep 21 14:45:52 2015  ---------------




---------------    Mon Sep 21 14:46:14 2015  ---------------




---------------    Mon Sep 21 14:46:14 2015  ---------------




---------------    Mon Sep 21 14:48:03 2015  ---------------




---------------    Mon Sep 21 14:48:03 2015  ---------------




---------------    Mon Sep 21 14:48:03 2015  ---------------




---------------    Mon Sep 21 14:48:03 2015  ---------------




---------------    Mon Sep 21 14:48:03 2015  ---------------




---------------    Mon Sep 21 14:48:03 2015  ---------------




---------------    Mon Sep 21 14:48:03 2015  ---------------




---------------    Mon Sep 21 14:48:03 2015  ---------------




---------------    Mon Sep 21 14:48:06 2015  ---------------




---------------    Mon Sep 21 14:48:06 2015  ---------------




---------------    Mon Sep 21 14:48:06 2015  ---------------




---------------    Mon Sep 21 14:48:10 2015  ---------------




---------------    Mon Sep 21 14:48:10 2015  ---------------




---------------    Mon Sep 21 14:48:10 2015  ---------------




---------------    Mon Sep 21 14:48:10 2015  ---------------




---------------    Mon Sep 21 14:48:10 2015  ---------------




---------------    Mon Sep 21 14:48:10 2015  ---------------




---------------    Mon Sep 21 14:48:10 2015  ---------------




---------------    Mon Sep 21 14:48:10 2015  ---------------




---------------    Mon Sep 21 14:48:10 2015  ---------------




---------------    Mon Sep 21 14:48:10 2015  ---------------




---------------    Mon Sep 21 14:48:10 2015  ---------------




---------------    Mon Sep 21 14:48:10 2015  ---------------




---------------    Mon Sep 21 14:48:10 2015  ---------------




---------------    Mon Sep 21 14:48:10 2015  ---------------




---------------    Mon Sep 21 14:48:10 2015  ---------------




---------------    Mon Sep 21 14:48:10 2015  ---------------




---------------    Mon Sep 21 14:48:10 2015  ---------------




---------------    Mon Sep 21 14:48:35 2015  ---------------




---------------    Mon Sep 21 14:48:35 2015  ---------------




---------------    Mon Sep 21 15:33:16 2015  ---------------




---------------    Mon Sep 21 15:33:16 2015  ---------------




---------------    Mon Sep 21 15:33:16 2015  ---------------




---------------    Mon Sep 21 15:33:18 2015  ---------------




---------------  RELOAD CELLS  Mon Sep 21 15:47:12 2015  ---------------




---------------    Mon Sep 21 15:47:12 2015  ---------------




---------------  RELOAD CELLS  Mon Sep 21 15:48:34 2015  ---------------




---------------    Mon Sep 21 15:48:34 2015  ---------------




---------------    Mon Sep 21 15:49:13 2015  ---------------




---------------    Mon Sep 21 15:49:15 2015  ---------------




---------------    Mon Sep 21 15:49:22 2015  ---------------




---------------    Mon Sep 21 15:49:24 2015  ---------------




---------------    Mon Sep 21 15:49:26 2015  ---------------




---------------    Mon Sep 21 15:49:30 2015  ---------------




---------------    Mon Sep 21 15:49:31 2015  ---------------




---------------    Mon Sep 21 15:49:34 2015  ---------------




---------------    Mon Sep 21 15:49:44 2015  ---------------




---------------    Mon Sep 21 15:49:44 2015  ---------------




---------------    Mon Sep 21 15:49:44 2015  ---------------




---------------    Mon Sep 21 15:49:47 2015  ---------------




---------------    Mon Sep 21 15:49:47 2015  ---------------




---------------    Mon Sep 21 15:49:47 2015  ---------------




---------------    Mon Sep 21 15:49:47 2015  ---------------




---------------    Mon Sep 21 15:49:47 2015  ---------------




---------------    Mon Sep 21 15:54:08 2015  ---------------




---------------    Mon Sep 21 15:54:10 2015  ---------------


