=======================================================================
PADS Professional Layout - Version 2015.0.678.963
=======================================================================

RELOAD CELLS

Job Directory:  C:\Users\branden.sheffield\Documents\Crusher3.0\Mentor\CrusherMain\PCB\


Design Units:(mm)

Replace Cell Log:   repCellLog13.txt

Wed Sep 23 19:20:42 2015

Reference Designator            Cell Name                         New Cell Name
===============================================================================


---------------  RELOAD CELLS  Wed Sep 23 19:20:42 2015  ---------------




---------------  RELOAD CELLS TMP  Wed Sep 23 19:20:42 2015  ---------------


                                DXF_Left_outline                  DXF_Left_outline                


---------------    Wed Sep 23 19:20:42 2015  ---------------




---------------    Wed Sep 23 19:20:42 2015  ---------------


