=======================================================================
PADS Professional Layout - Version 2015.0.678.963
=======================================================================

RELOAD CELLS

Job Directory:  C:\Users\branden.sheffield\Documents\RedPeril\Mentor\RedPeril\PCB\


Design Units:(mm)

Replace Cell Log:   repCellLog53.txt

Mon Oct 03 13:14:49 2016

Reference Designator            Cell Name                         New Cell Name
===============================================================================


---------------  RELOAD CELLS  Mon Oct 03 13:14:49 2016  ---------------




---------------    Mon Oct 03 13:14:49 2016  ---------------


