=======================================================================
PADS Professional Layout - Version 2015.0.678.963
=======================================================================

RELOAD CELLS

Job Directory:  C:\Users\branden.sheffield\Documents\Crusher3.0\Mentor\CrusherMain\PCB\


Design Units:(mm)

Replace Cell Log:   repCellLog03.txt

Fri Sep 18 09:54:34 2015

Reference Designator            Cell Name                         New Cell Name
===============================================================================


---------------  RELOAD CELLS  Fri Sep 18 09:54:34 2015  ---------------




---------------    Fri Sep 18 09:54:34 2015  ---------------




---------------  RELOAD CELLS  Fri Sep 18 10:09:57 2015  ---------------




---------------    Fri Sep 18 10:09:57 2015  ---------------




---------------  RELOAD CELLS  Fri Sep 18 10:15:25 2015  ---------------




---------------  RELOAD CELLS TMP  Fri Sep 18 10:15:25 2015  ---------------


                                DXF_Left_outline_R1               DXF_Left_outline_R1             


---------------    Fri Sep 18 10:15:25 2015  ---------------




---------------    Fri Sep 18 10:15:25 2015  ---------------




---------------  RELOAD CELLS  Fri Sep 18 10:19:25 2015  ---------------




---------------    Fri Sep 18 10:19:25 2015  ---------------




---------------  RELOAD CELLS  Fri Sep 18 10:22:47 2015  ---------------




---------------    Fri Sep 18 10:22:47 2015  ---------------




---------------  RELOAD CELLS  Fri Sep 18 10:25:42 2015  ---------------




---------------  RELOAD CELLS TMP  Fri Sep 18 10:25:42 2015  ---------------


                                DXF_Left_outline_14               DXF_Left_outline_14             


---------------    Fri Sep 18 10:25:42 2015  ---------------




---------------    Fri Sep 18 10:25:42 2015  ---------------




---------------  RELOAD CELLS  Fri Sep 18 10:27:21 2015  ---------------




---------------    Fri Sep 18 10:27:21 2015  ---------------




---------------  RELOAD CELLS  Fri Sep 18 10:35:48 2015  ---------------




---------------  RELOAD CELLS TMP  Fri Sep 18 10:35:48 2015  ---------------


ANT1                            BT_invF_small                     BT_invF_small                   


---------------    Fri Sep 18 10:35:48 2015  ---------------




---------------    Fri Sep 18 10:35:48 2015  ---------------




---------------    Fri Sep 18 13:06:09 2015  ---------------




---------------    Fri Sep 18 13:06:10 2015  ---------------




---------------    Fri Sep 18 13:06:11 2015  ---------------




---------------    Fri Sep 18 13:06:12 2015  ---------------




---------------    Fri Sep 18 13:30:38 2015  ---------------




---------------    Fri Sep 18 13:30:55 2015  ---------------




---------------  RELOAD CELLS  Fri Sep 18 13:31:08 2015  ---------------




---------------    Fri Sep 18 13:31:08 2015  ---------------




---------------    Fri Sep 18 13:34:33 2015  ---------------




---------------    Fri Sep 18 13:34:38 2015  ---------------




---------------    Fri Sep 18 13:34:46 2015  ---------------




---------------    Fri Sep 18 13:36:03 2015  ---------------




---------------    Fri Sep 18 13:36:27 2015  ---------------




---------------    Fri Sep 18 13:36:29 2015  ---------------




---------------    Fri Sep 18 13:36:49 2015  ---------------




---------------    Fri Sep 18 13:36:50 2015  ---------------




---------------    Fri Sep 18 13:37:18 2015  ---------------




---------------    Fri Sep 18 13:37:32 2015  ---------------




---------------    Fri Sep 18 13:37:51 2015  ---------------




---------------    Fri Sep 18 13:38:18 2015  ---------------




---------------    Fri Sep 18 13:38:45 2015  ---------------




---------------    Fri Sep 18 13:39:38 2015  ---------------




---------------    Fri Sep 18 13:40:02 2015  ---------------




---------------    Fri Sep 18 13:40:17 2015  ---------------




---------------    Fri Sep 18 13:40:30 2015  ---------------




---------------    Fri Sep 18 13:41:45 2015  ---------------




---------------    Fri Sep 18 13:42:03 2015  ---------------




---------------    Fri Sep 18 13:42:05 2015  ---------------




---------------    Fri Sep 18 13:42:05 2015  ---------------




---------------    Fri Sep 18 13:42:29 2015  ---------------




---------------    Fri Sep 18 13:42:38 2015  ---------------




---------------    Fri Sep 18 13:42:48 2015  ---------------




---------------    Fri Sep 18 13:42:58 2015  ---------------




---------------    Fri Sep 18 13:43:04 2015  ---------------




---------------    Fri Sep 18 13:43:12 2015  ---------------




---------------    Fri Sep 18 13:43:27 2015  ---------------




---------------    Fri Sep 18 13:44:24 2015  ---------------




---------------    Fri Sep 18 13:45:00 2015  ---------------




---------------    Fri Sep 18 13:45:01 2015  ---------------




---------------    Fri Sep 18 13:45:35 2015  ---------------




---------------    Fri Sep 18 13:45:52 2015  ---------------




---------------    Fri Sep 18 13:45:53 2015  ---------------




---------------    Fri Sep 18 13:45:54 2015  ---------------




---------------    Fri Sep 18 13:45:59 2015  ---------------




---------------    Fri Sep 18 13:46:02 2015  ---------------




---------------    Fri Sep 18 13:46:20 2015  ---------------




---------------    Fri Sep 18 13:46:26 2015  ---------------




---------------    Fri Sep 18 13:46:27 2015  ---------------




---------------    Fri Sep 18 13:46:28 2015  ---------------




---------------    Fri Sep 18 13:46:48 2015  ---------------




---------------    Fri Sep 18 13:46:51 2015  ---------------




---------------    Fri Sep 18 13:47:58 2015  ---------------




---------------    Fri Sep 18 13:48:00 2015  ---------------




---------------    Fri Sep 18 13:48:21 2015  ---------------




---------------    Fri Sep 18 13:48:21 2015  ---------------




---------------    Fri Sep 18 13:48:25 2015  ---------------




---------------    Fri Sep 18 13:48:27 2015  ---------------




---------------    Fri Sep 18 13:49:13 2015  ---------------




---------------    Fri Sep 18 13:49:14 2015  ---------------




---------------    Fri Sep 18 13:49:19 2015  ---------------




---------------    Fri Sep 18 13:49:22 2015  ---------------




---------------    Fri Sep 18 13:49:56 2015  ---------------




---------------    Fri Sep 18 13:50:40 2015  ---------------




---------------    Fri Sep 18 13:50:43 2015  ---------------




---------------    Fri Sep 18 13:51:01 2015  ---------------




---------------    Fri Sep 18 13:51:21 2015  ---------------




---------------    Fri Sep 18 13:54:10 2015  ---------------




---------------    Fri Sep 18 13:54:41 2015  ---------------




---------------    Fri Sep 18 13:55:32 2015  ---------------




---------------    Fri Sep 18 13:55:55 2015  ---------------




---------------    Fri Sep 18 13:55:56 2015  ---------------




---------------    Fri Sep 18 13:56:10 2015  ---------------




---------------    Fri Sep 18 13:56:18 2015  ---------------




---------------    Fri Sep 18 13:56:31 2015  ---------------




---------------    Fri Sep 18 13:56:46 2015  ---------------




---------------    Fri Sep 18 13:56:59 2015  ---------------




---------------    Fri Sep 18 13:57:00 2015  ---------------




---------------    Fri Sep 18 13:57:22 2015  ---------------




---------------    Fri Sep 18 13:57:38 2015  ---------------




---------------    Fri Sep 18 13:57:47 2015  ---------------




---------------    Fri Sep 18 13:57:56 2015  ---------------




---------------    Fri Sep 18 13:58:01 2015  ---------------




---------------    Fri Sep 18 13:58:10 2015  ---------------




---------------    Fri Sep 18 13:58:32 2015  ---------------




---------------    Fri Sep 18 13:58:35 2015  ---------------




---------------    Fri Sep 18 13:58:39 2015  ---------------




---------------    Fri Sep 18 13:58:42 2015  ---------------




---------------    Fri Sep 18 13:58:46 2015  ---------------




---------------    Fri Sep 18 13:58:50 2015  ---------------




---------------    Fri Sep 18 13:58:53 2015  ---------------




---------------    Fri Sep 18 13:58:58 2015  ---------------




---------------    Fri Sep 18 13:59:00 2015  ---------------




---------------    Fri Sep 18 13:59:09 2015  ---------------




---------------  RELOAD CELLS  Fri Sep 18 16:43:40 2015  ---------------




---------------    Fri Sep 18 16:43:40 2015  ---------------




---------------    Fri Sep 18 16:44:12 2015  ---------------




---------------    Fri Sep 18 16:44:17 2015  ---------------


