=======================================================================
PADS Professional Layout - Version 2015.0.678.963
=======================================================================

RELOAD CELLS

Job Directory:  C:\Users\branden.sheffield\Documents\Crusher3.0\Mentor\CrusherMain\PCB\


Design Units:(mm)

Replace Cell Log:   repCellLog11.txt

Tue Sep 22 13:11:23 2015

Reference Designator            Cell Name                         New Cell Name
===============================================================================


---------------  RELOAD CELLS  Tue Sep 22 13:11:23 2015  ---------------




---------------    Tue Sep 22 13:11:24 2015  ---------------




---------------    Tue Sep 22 15:29:50 2015  ---------------




---------------    Tue Sep 22 15:32:55 2015  ---------------




---------------    Tue Sep 22 15:33:56 2015  ---------------




---------------    Tue Sep 22 15:33:56 2015  ---------------




---------------    Tue Sep 22 15:34:33 2015  ---------------




---------------    Tue Sep 22 15:44:57 2015  ---------------




---------------    Tue Sep 22 15:44:57 2015  ---------------




---------------    Tue Sep 22 15:44:57 2015  ---------------




---------------    Tue Sep 22 15:44:57 2015  ---------------




---------------    Tue Sep 22 15:45:42 2015  ---------------




---------------    Tue Sep 22 15:45:42 2015  ---------------




---------------    Tue Sep 22 15:45:42 2015  ---------------




---------------    Tue Sep 22 15:45:42 2015  ---------------




---------------    Tue Sep 22 15:45:51 2015  ---------------




---------------    Tue Sep 22 15:45:51 2015  ---------------




---------------    Tue Sep 22 15:46:11 2015  ---------------




---------------    Tue Sep 22 15:46:11 2015  ---------------




---------------    Tue Sep 22 15:46:12 2015  ---------------




---------------    Tue Sep 22 15:46:12 2015  ---------------




---------------    Tue Sep 22 15:46:15 2015  ---------------




---------------    Tue Sep 22 15:46:19 2015  ---------------




---------------    Tue Sep 22 15:46:25 2015  ---------------




---------------    Tue Sep 22 15:46:31 2015  ---------------




---------------    Tue Sep 22 15:46:39 2015  ---------------




---------------    Tue Sep 22 15:46:45 2015  ---------------




---------------    Tue Sep 22 15:46:57 2015  ---------------




---------------    Tue Sep 22 15:46:57 2015  ---------------




---------------    Tue Sep 22 15:46:57 2015  ---------------




---------------    Tue Sep 22 15:46:57 2015  ---------------




---------------    Tue Sep 22 15:47:06 2015  ---------------




---------------    Tue Sep 22 15:47:08 2015  ---------------




---------------    Tue Sep 22 15:47:11 2015  ---------------




---------------  RELOAD CELLS  Tue Sep 22 16:11:24 2015  ---------------




---------------  RELOAD CELLS TMP  Tue Sep 22 16:11:24 2015  ---------------


R17                             0805                              0805                            


---------------    Tue Sep 22 16:11:24 2015  ---------------




---------------    Tue Sep 22 16:11:24 2015  ---------------




---------------    Tue Sep 22 16:15:29 2015  ---------------




---------------    Tue Sep 22 16:15:29 2015  ---------------




---------------    Tue Sep 22 16:15:29 2015  ---------------




---------------    Tue Sep 22 16:15:29 2015  ---------------




---------------    Tue Sep 22 16:15:50 2015  ---------------




---------------  RELOAD CELLS  Tue Sep 22 16:16:48 2015  ---------------




---------------    Tue Sep 22 16:16:48 2015  ---------------




---------------  RELOAD CELLS  Tue Sep 22 17:33:53 2015  ---------------




---------------  RELOAD CELLS TMP  Tue Sep 22 17:33:53 2015  ---------------


                                DXF_Skull_1                       DXF_Skull_1                     


---------------    Tue Sep 22 17:33:53 2015  ---------------




---------------    Tue Sep 22 17:33:53 2015  ---------------


