=======================================================================
PADS Professional Layout - Version 116.0.506.1217
=======================================================================

RELOAD CELLS

Job Directory:  C:\pd_repo\pd\_CITADEL\Mentor\Citadel\PCB\


Design Units:(mm)

Replace Cell Log:   repCellLog77.txt

Fri Dec 09 00:41:34 2016

Reference Designator            Cell Name                         New Cell Name
===============================================================================


---------------  RELOAD CELLS  Fri Dec 09 00:41:34 2016  ---------------




---------------  RELOAD CELLS TMP  Fri Dec 09 00:41:34 2016  ---------------




---------------    Fri Dec 09 00:41:34 2016  ---------------


U9                              TPA6141A2                         TPA6141A2                       


---------------    Fri Dec 09 00:41:34 2016  ---------------




---------------    Fri Dec 09 00:41:34 2016  ---------------




---------------    Fri Dec 09 01:32:54 2016  ---------------




---------------    Fri Dec 09 01:32:54 2016  ---------------




---------------    Fri Dec 09 01:32:54 2016  ---------------




---------------    Fri Dec 09 01:32:54 2016  ---------------




---------------    Fri Dec 09 01:32:54 2016  ---------------




---------------    Fri Dec 09 01:32:54 2016  ---------------




---------------    Fri Dec 09 01:32:54 2016  ---------------




---------------    Fri Dec 09 01:32:54 2016  ---------------




---------------    Fri Dec 09 01:32:54 2016  ---------------




---------------    Fri Dec 09 01:32:54 2016  ---------------




---------------    Fri Dec 09 01:32:54 2016  ---------------




---------------    Fri Dec 09 01:32:54 2016  ---------------




---------------    Fri Dec 09 01:32:54 2016  ---------------




---------------    Fri Dec 09 01:32:54 2016  ---------------




---------------    Fri Dec 09 01:32:54 2016  ---------------




---------------    Fri Dec 09 01:32:54 2016  ---------------




---------------    Fri Dec 09 01:33:01 2016  ---------------




---------------    Fri Dec 09 01:33:01 2016  ---------------




---------------    Fri Dec 09 01:33:01 2016  ---------------




---------------    Fri Dec 09 01:33:01 2016  ---------------




---------------    Fri Dec 09 01:33:01 2016  ---------------




---------------    Fri Dec 09 01:33:01 2016  ---------------




---------------    Fri Dec 09 01:33:01 2016  ---------------




---------------    Fri Dec 09 01:33:01 2016  ---------------




---------------    Fri Dec 09 01:33:01 2016  ---------------




---------------    Fri Dec 09 01:33:01 2016  ---------------




---------------    Fri Dec 09 01:33:01 2016  ---------------




---------------    Fri Dec 09 01:33:01 2016  ---------------




---------------    Fri Dec 09 01:33:01 2016  ---------------




---------------    Fri Dec 09 01:33:01 2016  ---------------




---------------    Fri Dec 09 01:33:01 2016  ---------------




---------------    Fri Dec 09 01:33:01 2016  ---------------




---------------    Fri Dec 09 01:33:01 2016  ---------------




---------------    Fri Dec 09 01:33:01 2016  ---------------




---------------    Fri Dec 09 01:33:01 2016  ---------------




---------------    Fri Dec 09 01:33:01 2016  ---------------




---------------    Fri Dec 09 01:33:01 2016  ---------------




---------------    Fri Dec 09 01:33:01 2016  ---------------




---------------    Fri Dec 09 01:33:01 2016  ---------------




---------------    Fri Dec 09 01:33:01 2016  ---------------




---------------    Fri Dec 09 01:33:01 2016  ---------------




---------------    Fri Dec 09 01:33:01 2016  ---------------




---------------    Fri Dec 09 01:33:01 2016  ---------------




---------------    Fri Dec 09 01:33:01 2016  ---------------




---------------    Fri Dec 09 01:33:01 2016  ---------------




---------------    Fri Dec 09 01:33:01 2016  ---------------




---------------    Fri Dec 09 01:33:01 2016  ---------------




---------------    Fri Dec 09 01:33:01 2016  ---------------




---------------    Fri Dec 09 01:33:01 2016  ---------------




---------------    Fri Dec 09 01:33:01 2016  ---------------




---------------    Fri Dec 09 01:33:01 2016  ---------------




---------------    Fri Dec 09 01:33:01 2016  ---------------




---------------    Fri Dec 09 01:33:01 2016  ---------------




---------------    Fri Dec 09 01:33:01 2016  ---------------




---------------    Fri Dec 09 01:33:01 2016  ---------------




---------------    Fri Dec 09 01:33:01 2016  ---------------




---------------    Fri Dec 09 01:33:01 2016  ---------------




---------------    Fri Dec 09 01:41:29 2016  ---------------


