Expedition PCB CAM Outputs 2000.5.0.2 - BetaSoft Interface
    1     0.739     0.581    2    0   0 res_0201         R56  
    1    -2.172     1.477    3    1   0 res_0402         R57  
    1     1.508     0.286    4    1   0 DETAS,Slide,Pot, R60  
    1    -2.232     1.502    3    1   0 res_0402         R58  
    1    -2.285     1.510    3    1   0 res_0402         R59  
    2     0.508     0.654    5    0   0 TP1.5            TP21 
    2     0.102     1.016    5    0   0 TP1.5            TP19 
    1    -2.069     1.822    6    0   0 TP2              TP41 
    1     0.770     0.492    6    0   0 TP2              TP29 
    1    -1.983     0.872    6    0   0 TP2              TP51 
    1    -2.001     1.909    6    0   0 TP2              TP39 
    2     0.405     0.705    5    1   0 TP1.5            TP61 
    1    -2.198     1.646    6    0   0 TP2              TP49 
    2     0.168     0.790    5    0   0 TP1.5            TP59 
    1    -1.836     0.308    7    1   0 ALPS_SKRT        SW1  
    1    -2.278     1.095    7    1   0 ALPS_SKRT        SW2  
    1    -2.139     0.609    7    1   0 ALPS_SKRT        SW3  
    2     0.515     0.542    5    0   0 TP1.5            TP22 
    2     0.603     0.904    8    0   0 TP1              TP32 
    1    -2.146     1.886    6    0   0 TP2              TP42 
    1    -2.073     1.079    6    1   0 TP2              TP52 
    2     0.377     0.425    5    0   0 TP1.5            TP62 
    1     0.310     1.164    9    1   0 BT_invF_small    ANT1 
    1     2.077     1.603    6    0   0 TP2              TP23 
    2     0.595     0.795    8    0   0 TP1              TP33 
    1    -1.811     2.366    6    1   0 TP2              TP43 
    1    -1.783     0.690    6    0   0 TP2              TP53 
    1     2.154     1.550    6    0   0 TP2              TP24 
    1    -1.825     2.125    6    0   0 TP2              TP34 
    1    -1.808     2.273    6    1   0 TP2              TP44 
    1    -2.132     1.362    6    0   0 TP2              TP54 
    1     1.791     2.006    6    0   0 TP2              TP15 
    1     1.807     1.604    6    0   0 TP2              TP25 
    1    -2.124     1.588    6    0   0 TP2              TP35 
    1    -1.606     2.374    6    1   0 TP2              TP45 
    2     1.723     1.008    5    0   0 TP1.5            TP55 
    1     0.294     0.661   10    1   0 cap_0402         C1   
    2     1.912     0.817   11    1   0 CUS520           D1   
    1     0.359     0.638   12    1   0 ind_0603         L1   
    2     1.942     1.745   13    1   0 BCX51            Q1   
    2     0.233     0.938    3    0   0 res_0402         R1   
    1     0.327     0.754   14    0   0 CSR8640          U1   
    1     0.120     0.822   15    0   0 TSX-3225         Y1   
    1     2.077     1.754    6    0   0 TP2              TP16 
    1     1.737     1.547    6    0   0 TP2              TP26 
    1    -1.898     2.194    6    0   0 TP2              TP36 
    1     0.419     0.668   10    1   0 cap_0402         C2   
    2     1.853     0.816   11    1   0 CUS520           D2   
    1    -1.604     2.277    6    1   0 TP2              TP46 
    2     0.254     0.773    5    0   0 TP1.5            TP56 
    1     0.479     0.695   12    0   0 ind_0603         L2   
    1     1.724     1.121   16    1   0 BC807            Q2   
    1     0.330     0.574    2    0   0 res_0201         R2   
    1     1.481     0.686   17    1   0 SGM4917          U2   
    1     0.390     1.015   18    1   0 LFB21_0805       FL1  
    1     0.597     0.659   10    1   0 cap_0402         C3   
    2     1.972     0.817   11    1   0 CUS520           D3   
    1     0.963     0.041   19    0   0 uUSB_molex10501  CONN1
    1     2.023     1.519   12    0   0 ind_0603         L3   
    1     0.278     0.532    2    1   0 res_0201         R3   
    2     0.277     0.469   20    0   0 SPK0415HM4H      U3   
    2     0.864    -0.045   21    1   0 3_5mm_sj1-352    CONN2
    1     0.422     0.615   10    0   0 cap_0402         C4   
    2     2.031     0.816   11    1   0 CUS520           D4   
    1     2.048     1.449   12    0   0 ind_0603         L4   
    2     0.331     0.703    2    0   0 res_0201         R4   
    1     0.249     0.943   22    0   0 cap_0201         C5   
    1    -2.382     1.389   23    0   0 C19HE1WT         D5   
    1     1.811     1.516   12    0   0 ind_0603         L5   
    1     0.456     0.490    2    0   0 res_0201         R5   
    1     1.911     1.408   24    1   0 MAX98303         U5   
    1     1.888     2.138    6    0   0 TP2              TP17 
    1     1.260     0.314    6    0   0 TP2              TP27 
    1    -1.906     2.056    6    0   0 TP2              TP37 
    1     0.282     1.007   22    1   0 cap_0201         C6   
    1    -2.035     2.366    6    1   0 TP2              TP47 
    2     0.127     0.892    5    0   0 TP1.5            TP57 
    1     1.782     1.449   12    0   0 ind_0603         L6   
    1     0.425     0.452    2    0   0 res_0201         R6   
    1     1.666     1.696   25    0   0 BAT54C           U6   
    1     0.250     0.790   22    0   0 cap_0201         C10  
    1     0.509     0.634   10    0   0 cap_0402         C7   
    1     0.602     0.732   22    0   0 cap_0201         C11  
    1     0.510     1.003   10    0   0 cap_0402         C12  
    1     2.061     2.010    6    0   0 TP2              TP1  
    1     0.417     1.183   10    0   0 cap_0402         C13  
    2     0.452     0.633    2    1   0 res_0201         R7   
    1     0.474     0.528    2    0   0 res_0201         R10  
    1     2.030     2.142    6    0   0 TP2              TP2  
    1     0.400     1.332   10    1   0 cap_0402         C14  
    2     1.697     0.509   26    0   0 TSV524           U7   
    1     1.678     0.813    3    1   0 res_0402         R11  
    1     1.917     2.018    6    0   0 TP2              TP3  
    1     0.417     1.236   10    1   0 cap_0402         C15  
    1     2.084     1.341    3    1   0 res_0402         R12  
    1     1.702     1.879    6    0   0 TP2              TP4  
    1     1.502     0.865   10    0   0 cap_0402         C16  
    1     1.847     1.878    6    0   0 TP2              TP5  
    1     2.085     1.375    3    0   0 res_0402         R13  
    1     1.590     0.856   10    1   0 cap_0402         C17  
    1     1.989     1.883    6    0   0 TP2              TP6  
    1     1.966     1.964    3    0   0 res_0402         R14  
    1     0.336     1.007   22    1   0 cap_0201         C8   
    1     1.446     0.806   10    1   0 cap_0402         C18  
    1     1.370     0.589   10    0   0 cap_0402         C20  
    1     2.098     1.892    6    0   0 TP2              TP7  
    1     0.515     1.070    3    1   0 res_0402         R15  
    1     1.626     1.751   10    1   0 cap_0402         C19  
    2     1.481     0.531   10    0   0 cap_0402         C21  
    2     2.022     2.002   27    1   0 res_1210         R16  
    2     1.455     0.585   10    0   0 cap_0402         C22  
    2     1.950     1.999   28    1   0 res_0805         R17  
    1     1.460     0.587   10    1   0 cap_0402         C23  
    2     1.696     0.678    3    1   0 res_0402         R20  
    2     0.462     0.495    2    1   0 res_0201         R8   
    1     2.090     1.249    3    1   0 res_0402         R18  
    1     2.023     1.341   10    1   0 cap_0402         C24  
    1     0.312     0.486   29    1   0 W25Q16DW_BY      U8   
    2     1.749     0.797    3    1   0 res_0402         R21  
    1     1.977     2.069   10    0   0 cap_0402         C25  
    1     1.809     1.351    3    1   0 res_0402         R22  
    1     0.336     0.431   22    1   0 cap_0201         C26  
    1     1.755     1.351    3    1   0 res_0402         R23  
    2     0.265     0.557   22    1   0 cap_0201         C27  
    1     2.143     1.258    3    1   0 res_0402         R24  
    1     1.932     1.492   22    0   0 cap_0201         C28  
    1     0.234     0.994   10    1   0 cap_0402         C9   
    2     1.643     0.600   10    1   0 cap_0402         C30  
    2     1.750     0.710   10    1   0 cap_0402         C31  
    1     2.030     2.254   30    0   0 cap_0603         C29  
    2     1.576     0.373    3    1   0 res_0402         R26  
    1     1.969     1.340   10    1   0 cap_0402         C32  
    2     1.596     0.320    3    0   0 res_0402         R27  
    1     1.862     1.341   10    1   0 cap_0402         C33  
    2     1.749     0.884    3    1   0 res_0402         R30  
    2     1.489     0.319    3    0   0 res_0402         R28  
    1     0.388     0.415    2    0   0 res_0201         R9   
    1     1.916     1.341   10    1   0 cap_0402         C34  
    1     0.155     1.035    5    1   0 TP1.5            TP20 
    2     1.695     0.856    3    1   0 res_0402         R31  
    2     1.489     0.373    3    0   0 res_0402         R29  
    2     1.873     1.966   10    1   0 cap_0402         C35  
    1     1.396     0.242    6    0   0 TP2              TP30 
    2     1.853     0.528    3    0   0 res_0402         R32  
    2     1.576     0.460   10    1   0 cap_0402         C36  
    2     0.804     0.367    5    0   0 TP1.5            TP18 
    1    -2.094     1.982    6    0   0 TP2              TP40 
    2     1.740     0.444    3    0   0 res_0402         R33  
    1     0.822     0.409    6    0   0 TP2              TP28 
    2     1.630     0.373   10    1   0 cap_0402         C37  
    1    -2.253     1.723    6    0   0 TP2              TP50 
    2     1.740     0.390    3    0   0 res_0402         R34  
    1    -1.977     2.130    6    0   0 TP2              TP38 
    2     1.936     0.960   10    1   0 cap_0402         C40  
    2     1.696     0.770   10    1   0 cap_0402         C38  
    2     0.198     0.726    5    0   0 TP1.5            TP60 
    2     1.827     0.475    3    0   0 res_0402         R35  
    1    -2.034     2.267    6    1   0 TP2              TP48 
    2     1.995     0.960   10    1   0 cap_0402         C41  
    2     1.489     0.426   10    0   0 cap_0402         C39  
    2     1.856     0.630    3    0   0 res_0402         R36  
    2     1.856     0.684   10    0   0 cap_0402         C42  
    2     0.224     0.633    5    0   0 TP1.5            TP58 
    2     1.856     0.737    3    0   0 res_0402         R37  
    1     1.882     1.260   10    0   0 cap_0402         C43  
    2     1.782     0.976    3    0   0 res_0402         R38  
    2     1.782     1.030    3    1   0 res_0402         R40  
    2     1.856     0.572   22    0   0 cap_0201         C44  
    1     1.375     0.512    2    0   0 res_0201         R41  
    1     1.828     1.254    3    1   0 res_0402         R39  
    1     1.929     1.543   10    0   0 cap_0402         C45  
    1     1.318     0.549    2    1   0 res_0201         R42  
    1     1.613     0.640   10    1   0 cap_0402         C46  
    2     1.429     0.508    2    1   0 res_0201         R43  
    1     0.244     0.751   10    0   0 cap_0402         C47  
    2     1.392     0.520    2    1   0 res_0201         R44  
    1     0.417     1.129   10    0   0 cap_0402         C48  
    1    -1.940     2.366   10    0   0 cap_0402         C50  
    2     1.486     0.629    2    0   0 res_0201         R45  
    1    -2.219     1.421   10    0   0 cap_0402         C49  
    2     1.567     0.534    2    0   0 res_0201         R46  
    1     1.407     0.649    2    1   0 res_0201         R47  
    1     1.448     0.673    2    1   0 res_0201         R48  
    2     1.550     0.599    2    1   0 res_0201         R50  
    1     0.235     0.670    2    1   0 res_0201         R51  
    1     1.408     0.728    2    1   0 res_0201         R49  
    2     0.235     0.876    2    0   0 res_0201         R52  
    2     0.235     0.838    2    0   0 res_0201         R53  
    1     1.244     0.371    2    1   0 res_0201         R54  
    1     0.880     0.338    2    0   0 res_0201         R55  


END
