[2017.01.10 12:14:52] [0000m.00s.036ms] [0] WELCOME
[2017.01.10 12:14:52] [0000m.00s.036ms] [1] iCDB Server ver.2.200, jmoSXI5tfcQi0m1NxN3JKg, build:5060443 created 2016-08-17 14:30:24, sources stamp:jmoSXI5tfcQi0m1NxN3JKg
[2017.01.10 12:14:52] [0000m.00s.036ms] [1] Copyright 2016 Mentor Graphics Corporation.  All Rights Reserved.
[2017.01.10 12:14:52] [0000m.00s.036ms] [1] Base flow version [VX.2]
[2017.01.10 12:14:52] [0000m.00s.036ms] [1] Install Id [1409847], Flow Id [PADS Professional VX.2], Full Flow Name [PADS Professional VX.2], Exact Access Date [2016/05/01]
[2017.01.10 12:14:52] [0000m.00s.036ms] [1] Machine [DESKTOP-TJKR3AR]  User [branden.sheffield]  PID [13656]
[2017.01.10 12:14:52] [0000m.00s.037ms] [1] Operating system [Microsoft Enterprise Edition, 64-bit (build 9200)]
[2017.01.10 12:14:52] [0000m.00s.037ms] [1] Current working dir [C:\pd_repo\pd\_CITADEL\Mentor\Citadel_MicFF]
[2017.01.10 12:14:52] [0000m.00s.037ms] [1] PATH [C:\MentorGraphics\PADSProVX.2\SDD_HOME\common\win32\bin;C:\MentorGraphics\PADSProVX.2\SDD_HOME\common\win32\lib;C:\MentorGraphics\PADSProVX.2\MGC_HOME.ixn\bin;C:\MentorGraphics\PADSProVX.2\MGC_HOME.ixn\lib;C:\MentorGraphics\PADSProVX.2\SDD_HOME\wv\win32\bin;C:\Program Files (x86)\CSR\BlueSuite 2.5.8\DFU Tools;C:\Program Files (x86)\NVIDIA Corporation\PhysX\Common;C:\ProgramData\Oracle\Java\javapath;C:\WINDOWS\system32;C:\WINDOWS;C:\WINDOWS\System32\Wbem;C:\WINDOWS\System32\WindowsPowerShell\v1.0\;C:\Program Files (x86)\Skype\Phone\;C:\Program Files (x86)\Windows Kits\8.1\Windows Performance Toolkit\;C:\Program Files\TortoiseSVN\bin;C:\Users\branden.sheffield\AppData\Local\Microsoft\WindowsApps;]
[2017.01.10 12:14:52] [0000m.00s.037ms] [1] SDD_HOME [C:\MentorGraphics\PADSProVX.2\SDD_HOME] on file system [NTFS]
[2017.01.10 12:14:52] [0000m.00s.037ms] [1] SDD_PLATFORM [win32]
[2017.01.10 12:14:52] [0000m.00s.037ms] [1] WDIR [C:\WDIR\PADSProVX.2;C:\MentorGraphics\PADSProVX.2\SDD_HOME\standard;]
[2017.01.10 12:14:52] [0000m.00s.037ms] [1] Local iCDB working dir [C:\WDIR\PADSProVX.2\iCDB] on file system [NTFS]
[2017.01.10 12:14:52] [0000m.00s.037ms] [2] S: Loading config files
[2017.01.10 12:14:52] [0000m.00s.037ms] [1] Config file [C:\pd_repo\pd\_CITADEL\Mentor\Citadel_MicFF\database\cdbsvr\Server.cfg] not found
[2017.01.10 12:14:52] [0000m.00s.037ms] [3] S: Config loaded
[2017.01.10 12:14:52] [0000m.00s.037ms] [0] S: Project path [C:\pd_repo\pd\_CITADEL\Mentor\Citadel_MicFF\database] on file system [NTFS]
[2017.01.10 12:14:52] [0000m.00s.037ms] [0] S: Project file (.prj) path [C:\pd_repo\pd\_CITADEL\Mentor\Citadel_MicFF\Citadel_MicFF.prj] on file system [NTFS]
[2017.01.10 12:14:52] [0000m.00s.037ms] [1] S: WARNING: Database auto-repair support DISABLED
[2017.01.10 12:14:52] [0000m.00s.037ms] [0] S: Multi-user mode (config)
[2017.01.10 12:14:52] [0000m.00s.037ms] [0] S: Event polling mode autodetection
[2017.01.10 12:14:52] [0000m.00s.053ms] [0] S: Started up automatically by iCDB Client: DESKTOP-TJKR3AR:branden.sheffield:6820
[2017.01.10 12:14:52] [0000m.00s.053ms] [0] S: Auto close mode
[2017.01.10 12:14:52] [0000m.00s.053ms] [0] S: Database ID [2ca7-2038-c061-b6ba-8ae2-b48d-ae2b-4850-a8ad-99a8-a7e5-348b]
[2017.01.10 12:14:52] [0000m.00s.053ms] [0] PathTranslator: BEGIN dumping
[2017.01.10 12:14:52] [0000m.00s.053ms] [0] PathTranslator: Local -> global path prefix list
[2017.01.10 12:14:52] [0000m.00s.053ms] [0] PathTranslator: [Z:\] -> [\\izombie\shares\pd\]
[2017.01.10 12:14:52] [0000m.00s.053ms] [0] PathTranslator: Global -> local path prefix list
[2017.01.10 12:14:52] [0000m.00s.053ms] [0] PathTranslator: [\\izombie\shares\pd\] -> [Z:\]
[2017.01.10 12:14:52] [0000m.00s.053ms] [0] PathTranslator: END dumping
[2017.01.10 12:14:52] [0000m.00s.053ms] [0] S: START
[2017.01.10 12:14:52] [0000m.00s.053ms] [0] S: Server startup lock file created
[2017.01.10 12:14:52] [0000m.00s.053ms] [0] S: Listening for client connections on port [10001]
[2017.01.10 12:14:52] [0000m.00s.053ms] [0] S: Server network ID [DESKTOP-TJKR3AR:192.168.200.237,DESKTOP-TJKR3AR,DESKTOP-TJKR3AR.skullcandy.local:10001]
[2017.01.10 12:14:52] [0000m.00s.053ms] [0] S: Server GUID [6b54-224c-7343-f713-ca23-5781-b235-7850-9c04-8382-b182-24a8]
[2017.01.10 12:14:52] [0000m.00s.053ms] [0] S: Project GUID [2ca7-2038-c061-b6ba-8ae2-b48d-ae2b-4850-a8ad-99a8-a7e5-348b]
[2017.01.10 12:14:52] [0000m.00s.053ms] [0] S: Wrote data to server address file
[2017.01.10 12:14:52] [0000m.00s.053ms] [0] S: Server startup lock file removed
[2017.01.10 12:14:52] [0000m.00s.053ms] [1] ProjectBackupManager: Setting project file (.prj) path: [C:\pd_repo\pd\_CITADEL\Mentor\Citadel_MicFF\Citadel_MicFF.prj]
[2017.01.10 12:14:52] [0000m.00s.137ms] [0] S: Plugins loaded: [PIM] [ENetGen70] 
[2017.01.10 12:14:52] [0000m.00s.137ms] [0] S: Local disc access time: 28 us
[2017.01.10 12:14:52] [0000m.00s.137ms] [0] S: File server access time: 28 us
[2017.01.10 12:14:52] [0000m.00s.137ms] [0] Single file [C:\pd_repo\pd\_CITADEL\Mentor\Citadel_MicFF\database\icdb.dat] size [447136 (436.7 kB)]
[2017.01.10 12:14:52] [0000m.00s.137ms] [1] Single file [C:\pd_repo\pd\_CITADEL\Mentor\Citadel_MicFF\database\icdb.dat] opened in read-write mode
[2017.01.10 12:14:52] [0000m.00s.137ms] [0] SingleFile: [0000-0000-0000-0000] SFI header version check [1009] [1009]
[2017.01.10 12:14:52] [0000m.00s.137ms] [0] Database GUARD OK: [447136]
[2017.01.10 12:14:52] [0000m.00s.137ms] [0] SingleFile: [0000-0000-0000-0000] SFI header version check [1009] [1009]
[2017.01.10 12:14:52] [0000m.00s.137ms] [0] Database GUARD OK: [447136]
[2017.01.10 12:14:52] [0000m.00s.137ms] [0] SingleFile: [0000-0000-0000-0000] SFI header version check [1009] [1009]
[2017.01.10 12:14:52] [0000m.00s.137ms] [0] Database GUARD OK: [447136]
[2017.01.10 12:14:52] [0000m.00s.137ms] [0] SingleFile: [0000-0000-0000-0000] SFI header version check [1009] [1009]
[2017.01.10 12:14:52] [0000m.00s.137ms] [0] Database GUARD OK: [447136]
[2017.01.10 12:14:52] [0000m.00s.137ms] [0] SingleFile: [0000-0000-0000-0000] SFI header version check [1009] [1009]
[2017.01.10 12:14:52] [0000m.00s.137ms] [0] Database GUARD OK: [447136]
[2017.01.10 12:14:52] [0000m.00s.137ms] [0] SingleFile: [4f38-7e5e-1772-3396] SFI version check [1009] [1009]
[2017.01.10 12:14:52] [0000m.00s.137ms] [0] SingleFile: [4f38-7e5e-1772-3396] Database SFI header has been read in [6ms 398us]
[2017.01.10 12:14:52] [0000m.00s.153ms] [0] iCDB Server PI: Server & plugin session [3156]
[2017.01.10 12:14:52] [0000m.00s.153ms] [0] iCDB Server PI: Opening database [C:\pd_repo\pd\_CITADEL\Mentor\Citadel_MicFF\database]
[2017.01.10 12:14:52] [0000m.00s.153ms] [0] iCDB Server PI: Database [C:\pd_repo\pd\_CITADEL\Mentor\Citadel_MicFF\database] opened
[2017.01.10 12:14:52] [0000m.00s.153ms] [0] iCDB Database: Checking existence of constraint definitions
[2017.01.10 12:14:52] [0000m.00s.153ms] [0] iCDB Database: Checking constraint definitions version
[2017.01.10 12:14:52] [0000m.00s.184ms] [1] iCDB Database: Constraint definitions version [ce_ee.cns=7.10.56] up to date
[2017.01.10 12:14:52] [0000m.00s.184ms] [0] iCDB Server PI: Initializing plugins
[2017.01.10 12:14:52] [0000m.00s.184ms] [0] iCDB Server PI: Plugins initialized
[2017.01.10 12:14:52] [0000m.00s.184ms] [0] S: iCDB database loaded
[2017.01.10 12:14:52] [0000m.00s.200ms] [0] S: Starting threads
[2017.01.10 12:14:52] [0000m.00s.200ms] [0] BT: Listening for broadcast messages on port [10000]
[2017.01.10 12:14:52] [0000m.00s.200ms] [1] CMT: There are no clients - waiting [10 seconds]
[2017.01.10 12:14:52] [0000m.00s.200ms] [0] IT: Session [3157] for host [DESKTOP-TJKR3AR] user [branden.sheffield] with process ID [6820] created
[2017.01.10 12:14:52] [0000m.00s.200ms] [1] SC[3157]: Registered sub-client [DxD] with ID [1] for session ID [3157] host [DESKTOP-TJKR3AR] user [branden.sheffield] process ID [6820]
[2017.01.10 12:14:52] [0000m.00s.200ms] [0] MWT: WindowProc: WM_NCCREATE
[2017.01.10 12:14:52] [0000m.00s.215ms] [0] IT: iCDB Server Monitor session [1] for host [DESKTOP-TJKR3AR] user [branden.sheffield] with process ID [9620] created
[2017.01.10 12:14:52] [0000m.00s.215ms] [1] DMT: There are [1] iCDB Server Monitor connected now
[2017.01.10 12:14:52] [0000m.00s.253ms] [1] SC[3157]: Registered sub-client [TransactionRollbackSubClient] with ID [2] for session ID [3157] host [DESKTOP-TJKR3AR] user [branden.sheffield] process ID [6820]
[2017.01.10 12:14:52] [0000m.00s.253ms] [1] SC[3157]: Registered sub-client [xprob] with ID [3] for session ID [3157] host [DESKTOP-TJKR3AR] user [branden.sheffield] process ID [6820]
[2017.01.10 12:14:52] [0000m.00s.316ms] [1] CMT: There are [1] clients now: 3157
[2017.01.10 12:14:54] [0000m.02s.139ms] [1] SC[3157]: Registered sub-client [SymbolEditor] with ID [4] for session ID [3157] host [DESKTOP-TJKR3AR] user [branden.sheffield] process ID [6820]
[2017.01.10 12:14:54] [0000m.02s.139ms] [1] SC[3157]: Registered sub-client [SelectionHolder] with ID [5] for session ID [3157] host [DESKTOP-TJKR3AR] user [branden.sheffield] process ID [6820]
[2017.01.10 12:14:54] [0000m.02s.154ms] [1] SC[3157]: Registered sub-client [EEVM_EEVM_402066300] with ID [6] for session ID [3157] host [DESKTOP-TJKR3AR] user [branden.sheffield] process ID [6820]
[2017.01.10 12:14:54] [0000m.02s.154ms] [1] SC[3157]: UnRegistered sub-client [EEVM_EEVM_402066300] with ID [6] for session ID [3157] host [DESKTOP-TJKR3AR] user [branden.sheffield] process ID [6820]
[2017.01.10 12:14:54] [0000m.02s.154ms] [1] SC[3157]: Registered sub-client [EEVM_EEVM_402066300] with ID [7] for session ID [3157] host [DESKTOP-TJKR3AR] user [branden.sheffield] process ID [6820]
[2017.01.10 12:14:54] [0000m.02s.170ms] [1] SC[3157]: UnRegistered sub-client [EEVM_EEVM_402066300] with ID [7] for session ID [3157] host [DESKTOP-TJKR3AR] user [branden.sheffield] process ID [6820]
[2017.01.10 12:14:54] [0000m.02s.170ms] [1] SC[3157]: Registered sub-client [EEVM_EEVM_402062828] with ID [8] for session ID [3157] host [DESKTOP-TJKR3AR] user [branden.sheffield] process ID [6820]
[2017.01.10 12:14:54] [0000m.02s.170ms] [1] SC[3157]: UnRegistered sub-client [EEVM_EEVM_402062828] with ID [8] for session ID [3157] host [DESKTOP-TJKR3AR] user [branden.sheffield] process ID [6820]
[2017.01.10 12:14:54] [0000m.02s.186ms] [1] SC[3157]: Registered sub-client [EEVM_EEVM_402062828] with ID [9] for session ID [3157] host [DESKTOP-TJKR3AR] user [branden.sheffield] process ID [6820]
[2017.01.10 12:14:54] [0000m.02s.186ms] [1] SC[3157]: UnRegistered sub-client [EEVM_EEVM_402062828] with ID [9] for session ID [3157] host [DESKTOP-TJKR3AR] user [branden.sheffield] process ID [6820]
[2017.01.10 12:14:54] [0000m.02s.288ms] [1] SC[3157]: Registered sub-client [SystemDesignDll] with ID [10] for session ID [3157] host [DESKTOP-TJKR3AR] user [branden.sheffield] process ID [6820]
[2017.01.10 12:14:54] [0000m.02s.320ms] [1] SC[3157]: UnRegistered sub-client [SystemDesignDll] with ID [10] for session ID [3157] host [DESKTOP-TJKR3AR] user [branden.sheffield] process ID [6820]
[2017.01.10 12:14:54] [0000m.02s.320ms] [1] SC[3157]: Registered sub-client [SystemDesignDll] with ID [11] for session ID [3157] host [DESKTOP-TJKR3AR] user [branden.sheffield] process ID [6820]
[2017.01.10 12:14:57] [0000m.04s.771ms] [1] SC[3157]: Registered sub-client [DesignSearcher2] with ID [12] for session ID [3157] host [DESKTOP-TJKR3AR] user [branden.sheffield] process ID [6820]
[2017.01.10 12:14:57] [0000m.04s.787ms] [1] SC[3157]: Registered sub-client [HdlProject] with ID [13] for session ID [3157] host [DESKTOP-TJKR3AR] user [branden.sheffield] process ID [6820]
[2017.01.10 12:14:57] [0000m.04s.802ms] [1] SC[3157]: Registered sub-client [Navigator] with ID [14] for session ID [3157] host [DESKTOP-TJKR3AR] user [branden.sheffield] process ID [6820]
[2017.01.10 12:14:57] [0000m.04s.815ms] [1] SC[3157]: Registered sub-client [OutputWindow] with ID [15] for session ID [3157] host [DESKTOP-TJKR3AR] user [branden.sheffield] process ID [6820]
[2017.01.10 12:14:57] [0000m.04s.816ms] [1] SC[3157]: Registered sub-client [PlaceDevice] with ID [16] for session ID [3157] host [DESKTOP-TJKR3AR] user [branden.sheffield] process ID [6820]
[2017.01.10 12:14:57] [0000m.04s.902ms] [1] SC[3157]: Registered sub-client [LocalSymbolsDataProvider] with ID [17] for session ID [3157] host [DESKTOP-TJKR3AR] user [branden.sheffield] process ID [6820]
[2017.01.10 12:14:57] [0000m.04s.902ms] [1] SC[3157]: Registered sub-client [FFSearch_Controller_0] with ID [18] for session ID [3157] host [DESKTOP-TJKR3AR] user [branden.sheffield] process ID [6820]
[2017.01.10 12:14:57] [0000m.05s.011ms] [1] SC[3157]: Registered sub-client [FFSearch_Controller_1] with ID [19] for session ID [3157] host [DESKTOP-TJKR3AR] user [branden.sheffield] process ID [6820]
[2017.01.10 12:14:57] [0000m.05s.115ms] [1] SC[3157]: Registered sub-client [FFSearch_Controller_2] with ID [20] for session ID [3157] host [DESKTOP-TJKR3AR] user [branden.sheffield] process ID [6820]
[2017.01.10 12:14:57] [0000m.05s.222ms] [1] SC[3157]: Registered sub-client [FFSearch_Controller_3] with ID [21] for session ID [3157] host [DESKTOP-TJKR3AR] user [branden.sheffield] process ID [6820]
[2017.01.10 12:14:57] [0000m.05s.340ms] [1] SC[3157]: Registered sub-client [FFSearch_Controller_4] with ID [22] for session ID [3157] host [DESKTOP-TJKR3AR] user [branden.sheffield] process ID [6820]
[2017.01.10 12:14:57] [0000m.05s.440ms] [1] SC[3157]: Registered sub-client [SAE] with ID [23] for session ID [3157] host [DESKTOP-TJKR3AR] user [branden.sheffield] process ID [6820]
[2017.01.10 12:14:57] [0000m.05s.440ms] [1] SC[3157]: Registered sub-client [CCZAddin] with ID [24] for session ID [3157] host [DESKTOP-TJKR3AR] user [branden.sheffield] process ID [6820]
[2017.01.10 12:14:57] [0000m.05s.440ms] [1] SC[3157]: Registered sub-client [DxThumbnails] with ID [25] for session ID [3157] host [DESKTOP-TJKR3AR] user [branden.sheffield] process ID [6820]
[2017.01.10 12:14:57] [0000m.05s.456ms] [1] SC[3157]: Registered sub-client [MyParts] with ID [26] for session ID [3157] host [DESKTOP-TJKR3AR] user [branden.sheffield] process ID [6820]
[2017.01.10 12:14:57] [0000m.05s.472ms] [1] SC[3157]: Registered sub-client [PinsList] with ID [27] for session ID [3157] host [DESKTOP-TJKR3AR] user [branden.sheffield] process ID [6820]
[2017.01.10 12:14:57] [0000m.05s.603ms] [1] SC[3157]: Registered sub-client [toolboxes] with ID [28] for session ID [3157] host [DESKTOP-TJKR3AR] user [branden.sheffield] process ID [6820]
[2017.01.10 12:14:58] [0000m.05s.636ms] [1] SC[3157]: Registered sub-client [ProjectIntegrationIcdbCacheDxD:399559920] with ID [29] for session ID [3157] host [DESKTOP-TJKR3AR] user [branden.sheffield] process ID [6820]
[2017.01.10 12:14:58] [0000m.05s.687ms] [1] SC[3157]: Registered sub-client [SheetConnectorsCacheDxD:1484075698] with ID [30] for session ID [3157] host [DESKTOP-TJKR3AR] user [branden.sheffield] process ID [6820]
[2017.01.10 12:14:58] [0000m.05s.703ms] [1] SC[3157]: Registered sub-client [NetsNamesCollectorDxD:1484075698] with ID [31] for session ID [3157] host [DESKTOP-TJKR3AR] user [branden.sheffield] process ID [6820]
[2017.01.10 12:14:58] [0000m.05s.718ms] [1] SC[3157]: Registered sub-client [PartReplaceUtils] with ID [32] for session ID [3157] host [DESKTOP-TJKR3AR] user [branden.sheffield] process ID [6820]
[2017.01.10 12:14:58] [0000m.06s.404ms] [1] SC[3157]: Registered sub-client [ObjectHolder_405594528] with ID [33] for session ID [3157] host [DESKTOP-TJKR3AR] user [branden.sheffield] process ID [6820]
[2017.01.10 12:14:58] [0000m.06s.404ms] [1] SC[3157]: Registered sub-client [BlockCacheDxD:514318752] with ID [34] for session ID [3157] host [DESKTOP-TJKR3AR] user [branden.sheffield] process ID [6820]
[2017.01.10 12:14:58] [0000m.06s.404ms] [1] SC[3157]: Registered sub-client [GlobalNetAliasUpdater_405595152] with ID [35] for session ID [3157] host [DESKTOP-TJKR3AR] user [branden.sheffield] process ID [6820]
[2017.01.10 12:14:58] [0000m.06s.420ms] [1] SC[3157]: Registered sub-client [IcdbNetProcessorSubClientDxD:250881728] with ID [36] for session ID [3157] host [DESKTOP-TJKR3AR] user [branden.sheffield] process ID [6820]
[2017.01.10 12:14:59] [0000m.06s.689ms] [1] SC[3157]: Registered sub-client [DxDbSearch] with ID [37] for session ID [3157] host [DESKTOP-TJKR3AR] user [branden.sheffield] process ID [6820]
[2017.01.10 12:15:02] [0000m.09s.645ms] [1] SC[3157]: Registered sub-client [Dx2Exp_600716640] with ID [38] for session ID [3157] host [DESKTOP-TJKR3AR] user [branden.sheffield] process ID [6820]
[2017.01.10 12:15:02] [0000m.09s.645ms] [1] SC[3157]: UnRegistered sub-client [Dx2Exp_600716640] with ID [38] for session ID [3157] host [DESKTOP-TJKR3AR] user [branden.sheffield] process ID [6820]
[2017.01.10 12:15:10] [0000m.18s.314ms] [0] IT: Session [3158] for host [DESKTOP-TJKR3AR] user [branden.sheffield] with process ID [6672] created
[2017.01.10 12:15:10] [0000m.18s.314ms] [1] SC[3158]: Registered sub-client [Expedition PE_600725312] with ID [1] for session ID [3158] host [DESKTOP-TJKR3AR] user [branden.sheffield] process ID [6672]
[2017.01.10 12:15:10] [0000m.18s.345ms] [1] CMT: There are [2] clients now: 3157, 3158
[2017.01.10 12:15:10] [0000m.18s.352ms] [1] SC[3158]: Registered sub-client [EEVM_EEVM_475438228] with ID [2] for session ID [3158] host [DESKTOP-TJKR3AR] user [branden.sheffield] process ID [6672]
[2017.01.10 12:15:10] [0000m.18s.367ms] [1] SC[3158]: UnRegistered sub-client [EEVM_EEVM_475438228] with ID [2] for session ID [3158] host [DESKTOP-TJKR3AR] user [branden.sheffield] process ID [6672]
[2017.01.10 12:15:10] [0000m.18s.367ms] [1] SC[3158]: Registered sub-client [EEVM_EEVM_475438228] with ID [3] for session ID [3158] host [DESKTOP-TJKR3AR] user [branden.sheffield] process ID [6672]
[2017.01.10 12:15:10] [0000m.18s.383ms] [1] SC[3158]: UnRegistered sub-client [EEVM_EEVM_475438228] with ID [3] for session ID [3158] host [DESKTOP-TJKR3AR] user [branden.sheffield] process ID [6672]
[2017.01.10 12:15:10] [0000m.18s.583ms] [1] SC[3158]: Registered sub-client [JobPrefsDBPI_600725609] with ID [4] for session ID [3158] host [DESKTOP-TJKR3AR] user [branden.sheffield] process ID [6672]
[2017.01.10 12:15:10] [0000m.18s.599ms] [1] SC[3158]: UnRegistered sub-client [JobPrefsDBPI_600725609] with ID [4] for session ID [3158] host [DESKTOP-TJKR3AR] user [branden.sheffield] process ID [6672]
[2017.01.10 12:15:12] [0000m.20s.321ms] [1] SC[3158]: Registered sub-client [ExpeditionCrossProber] with ID [5] for session ID [3158] host [DESKTOP-TJKR3AR] user [branden.sheffield] process ID [6672]
[2017.01.10 12:15:25] [0000m.33s.088ms] [0] DFAMT: File server access time: 57 us
[2017.01.10 12:16:13] [0001m.20s.784ms] [1] SC[3158]: UnRegistered sub-client [ExpeditionCrossProber] with ID [5] for session ID [3158] host [DESKTOP-TJKR3AR] user [branden.sheffield] process ID [6672]
[2017.01.10 12:16:14] [0001m.22s.089ms] [1] SC[3158]: UnRegistered sub-client [Expedition PE_600725312] with ID [1] for session ID [3158] host [DESKTOP-TJKR3AR] user [branden.sheffield] process ID [6672]
[2017.01.10 12:16:14] [0001m.22s.152ms] [1] CMT: Removed client [3158]
[2017.01.10 12:16:14] [0001m.22s.152ms] [1] CMT: There are [1] clients now: 3157
[2017.01.10 12:16:17] [0001m.25s.070ms] [1] SC[3157]: UnRegistered sub-client [PartReplaceUtils] with ID [32] for session ID [3157] host [DESKTOP-TJKR3AR] user [branden.sheffield] process ID [6820]
[2017.01.10 12:16:17] [0001m.25s.303ms] [1] SC[3157]: UnRegistered sub-client [DesignSearcher2] with ID [12] for session ID [3157] host [DESKTOP-TJKR3AR] user [branden.sheffield] process ID [6820]
[2017.01.10 12:16:17] [0001m.25s.303ms] [1] SC[3157]: UnRegistered sub-client [Navigator] with ID [14] for session ID [3157] host [DESKTOP-TJKR3AR] user [branden.sheffield] process ID [6820]
[2017.01.10 12:16:17] [0001m.25s.303ms] [1] SC[3157]: UnRegistered sub-client [OutputWindow] with ID [15] for session ID [3157] host [DESKTOP-TJKR3AR] user [branden.sheffield] process ID [6820]
[2017.01.10 12:16:17] [0001m.25s.303ms] [1] SC[3157]: UnRegistered sub-client [PlaceDevice] with ID [16] for session ID [3157] host [DESKTOP-TJKR3AR] user [branden.sheffield] process ID [6820]
[2017.01.10 12:16:17] [0001m.25s.318ms] [1] SC[3157]: UnRegistered sub-client [LocalSymbolsDataProvider] with ID [17] for session ID [3157] host [DESKTOP-TJKR3AR] user [branden.sheffield] process ID [6820]
[2017.01.10 12:16:17] [0001m.25s.318ms] [1] SC[3157]: UnRegistered sub-client [FFSearch_Controller_0] with ID [18] for session ID [3157] host [DESKTOP-TJKR3AR] user [branden.sheffield] process ID [6820]
[2017.01.10 12:16:17] [0001m.25s.318ms] [1] SC[3157]: UnRegistered sub-client [FFSearch_Controller_1] with ID [19] for session ID [3157] host [DESKTOP-TJKR3AR] user [branden.sheffield] process ID [6820]
[2017.01.10 12:16:17] [0001m.25s.318ms] [1] SC[3157]: UnRegistered sub-client [FFSearch_Controller_2] with ID [20] for session ID [3157] host [DESKTOP-TJKR3AR] user [branden.sheffield] process ID [6820]
[2017.01.10 12:16:17] [0001m.25s.318ms] [1] SC[3157]: UnRegistered sub-client [FFSearch_Controller_3] with ID [21] for session ID [3157] host [DESKTOP-TJKR3AR] user [branden.sheffield] process ID [6820]
[2017.01.10 12:16:17] [0001m.25s.318ms] [1] SC[3157]: UnRegistered sub-client [FFSearch_Controller_4] with ID [22] for session ID [3157] host [DESKTOP-TJKR3AR] user [branden.sheffield] process ID [6820]
[2017.01.10 12:16:17] [0001m.25s.318ms] [1] SC[3157]: UnRegistered sub-client [SAE] with ID [23] for session ID [3157] host [DESKTOP-TJKR3AR] user [branden.sheffield] process ID [6820]
[2017.01.10 12:16:17] [0001m.25s.318ms] [1] SC[3157]: UnRegistered sub-client [CCZAddin] with ID [24] for session ID [3157] host [DESKTOP-TJKR3AR] user [branden.sheffield] process ID [6820]
[2017.01.10 12:16:17] [0001m.25s.318ms] [1] SC[3157]: UnRegistered sub-client [DxThumbnails] with ID [25] for session ID [3157] host [DESKTOP-TJKR3AR] user [branden.sheffield] process ID [6820]
[2017.01.10 12:16:18] [0001m.25s.673ms] [1] SC[3157]: UnRegistered sub-client [MyParts] with ID [26] for session ID [3157] host [DESKTOP-TJKR3AR] user [branden.sheffield] process ID [6820]
[2017.01.10 12:16:18] [0001m.25s.673ms] [1] SC[3157]: UnRegistered sub-client [PinsList] with ID [27] for session ID [3157] host [DESKTOP-TJKR3AR] user [branden.sheffield] process ID [6820]
[2017.01.10 12:16:18] [0001m.25s.673ms] [1] SC[3157]: UnRegistered sub-client [toolboxes] with ID [28] for session ID [3157] host [DESKTOP-TJKR3AR] user [branden.sheffield] process ID [6820]
[2017.01.10 12:16:18] [0001m.26s.354ms] [1] SC[3157]: UnRegistered sub-client [DxDbSearch] with ID [37] for session ID [3157] host [DESKTOP-TJKR3AR] user [branden.sheffield] process ID [6820]
[2017.01.10 12:16:18] [0001m.26s.354ms] [1] SC[3157]: UnRegistered sub-client [HdlProject] with ID [13] for session ID [3157] host [DESKTOP-TJKR3AR] user [branden.sheffield] process ID [6820]
[2017.01.10 12:16:18] [0001m.26s.354ms] [1] SC[3157]: UnRegistered sub-client [SystemDesignDll] with ID [11] for session ID [3157] host [DESKTOP-TJKR3AR] user [branden.sheffield] process ID [6820]
[2017.01.10 12:16:18] [0001m.26s.419ms] [1] SC[3157]: UnRegistered sub-client [GlobalNetAliasUpdater_405595152] with ID [35] for session ID [3157] host [DESKTOP-TJKR3AR] user [branden.sheffield] process ID [6820]
[2017.01.10 12:16:18] [0001m.26s.419ms] [1] SC[3157]: UnRegistered sub-client [BlockCacheDxD:514318752] with ID [34] for session ID [3157] host [DESKTOP-TJKR3AR] user [branden.sheffield] process ID [6820]
[2017.01.10 12:16:18] [0001m.26s.419ms] [1] SC[3157]: UnRegistered sub-client [ObjectHolder_405594528] with ID [33] for session ID [3157] host [DESKTOP-TJKR3AR] user [branden.sheffield] process ID [6820]
[2017.01.10 12:16:18] [0001m.26s.419ms] [1] SC[3157]: UnRegistered sub-client [IcdbNetProcessorSubClientDxD:250881728] with ID [36] for session ID [3157] host [DESKTOP-TJKR3AR] user [branden.sheffield] process ID [6820]
[2017.01.10 12:16:20] [0001m.27s.696ms] [1] SC[3157]: UnRegistered sub-client [ProjectIntegrationIcdbCacheDxD:399559920] with ID [29] for session ID [3157] host [DESKTOP-TJKR3AR] user [branden.sheffield] process ID [6820]
[2017.01.10 12:16:20] [0001m.27s.696ms] [1] SC[3157]: UnRegistered sub-client [SelectionHolder] with ID [5] for session ID [3157] host [DESKTOP-TJKR3AR] user [branden.sheffield] process ID [6820]
[2017.01.10 12:16:20] [0001m.27s.696ms] [1] SC[3157]: UnRegistered sub-client [SheetConnectorsCacheDxD:1484075698] with ID [30] for session ID [3157] host [DESKTOP-TJKR3AR] user [branden.sheffield] process ID [6820]
[2017.01.10 12:16:20] [0001m.27s.696ms] [1] SC[3157]: UnRegistered sub-client [NetsNamesCollectorDxD:1484075698] with ID [31] for session ID [3157] host [DESKTOP-TJKR3AR] user [branden.sheffield] process ID [6820]
[2017.01.10 12:16:20] [0001m.27s.696ms] [1] SC[3157]: UnRegistered sub-client [TransactionRollbackSubClient] with ID [2] for session ID [3157] host [DESKTOP-TJKR3AR] user [branden.sheffield] process ID [6820]
[2017.01.10 12:16:20] [0001m.27s.696ms] [1] SC[3157]: UnRegistered sub-client [DxD] with ID [1] for session ID [3157] host [DESKTOP-TJKR3AR] user [branden.sheffield] process ID [6820]
[2017.01.10 12:16:20] [0001m.27s.727ms] [1] SC[3157]: UnRegistered sub-client [xprob] with ID [3] for session ID [3157] host [DESKTOP-TJKR3AR] user [branden.sheffield] process ID [6820]
[2017.01.10 12:16:20] [0001m.27s.727ms] [1] SC[3157]: UnRegistered sub-client [SymbolEditor] with ID [4] for session ID [3157] host [DESKTOP-TJKR3AR] user [branden.sheffield] process ID [6820]
[2017.01.10 12:16:20] [0001m.27s.813ms] [1] CMT: Removed client [3157]
[2017.01.10 12:16:20] [0001m.27s.813ms] [1] CMT: There are no clients left - waiting [1 seconds]
[2017.01.10 12:16:20] [0001m.28s.245ms] [1] SDL: The last connected iCDB Server Monitor [1] is waiting for server close
[2017.01.10 12:16:22] [0001m.29s.703ms] [0] CMT: Starting server auto-close
[2017.01.10 12:16:22] [0001m.29s.775ms] [0] S: Closing server
[2017.01.10 12:16:22] [0001m.29s.874ms] [0] iCDB Server PI: Closing plugins
[2017.01.10 12:16:22] [0001m.29s.874ms] [0] iCDB Server PI: Plugins closed
[2017.01.10 12:16:22] [0001m.29s.874ms] [0] iCDB Server PI: Unloading database
[2017.01.10 12:16:22] [0001m.29s.874ms] [0] iCDB Server PI: Saving storage
[2017.01.10 12:16:22] [0001m.29s.874ms] [0] iCDB Server PI: Closing database
[2017.01.10 12:16:22] [0001m.29s.878ms] [1] iCDB Server PI: Stats: Database defragmentation: max[3] avg[1] holes[0%] data[97%]
[2017.01.10 12:16:22] [0001m.29s.878ms] [1] iCDB Server PI: Stats: Database file size [447320 (436.8 kB)]
[2017.01.10 12:16:22] [0001m.29s.904ms] [0] iCDB Server PI: Database closed
[2017.01.10 12:16:22] [0001m.29s.904ms] [1] iCDB Server PI: Stats: Total iCDB execution time: [1665] ticks
[2017.01.10 12:16:22] [0001m.29s.904ms] [1] iCDB Server PI: Stats: Total iCDB execution time: [607] microseconds
[2017.01.10 12:16:22] [0001m.29s.904ms] [1] iCDB Server PI: Stats: Total iCDB commands count: [11]
[2017.01.10 12:16:22] [0001m.29s.904ms] [1] iCDB Server PI: Stats: Average iCDB speed:        [18116] commands per second
[2017.01.10 12:16:22] [0001m.29s.904ms] [0] Single file [C:\pd_repo\pd\_CITADEL\Mentor\Citadel_MicFF\database\icdb.dat] closed with size [447320 (436.8 kB)]
[2017.01.10 12:16:22] [0001m.30s.004ms] [1] SD[1]: Removing the last connected iCDB Server Monitor [1]
[2017.01.10 12:16:22] [0001m.30s.105ms] [0] MWT: Destroy the shutdown block reason.
[2017.01.10 12:16:22] [0001m.30s.105ms] [0] MWT: STOP
[2017.01.10 12:16:22] [0001m.30s.105ms] [0] S: STOP
