[2016.12.05 14:02:28] [0000m.00s.030ms] [0] WELCOME
[2016.12.05 14:02:28] [0000m.00s.030ms] [1] iCDB Server ver.2.200, jmoSXI5tfcQi0m1NxN3JKg, build:5060443 created 2016-08-17 14:30:24, sources stamp:jmoSXI5tfcQi0m1NxN3JKg
[2016.12.05 14:02:28] [0000m.00s.030ms] [1] Copyright 2016 Mentor Graphics Corporation.  All Rights Reserved.
[2016.12.05 14:02:28] [0000m.00s.030ms] [1] Base flow version [VX.2]
[2016.12.05 14:02:28] [0000m.00s.030ms] [1] Install Id [1409847], Flow Id [PADS Professional VX.2], Full Flow Name [PADS Professional VX.2], Exact Access Date [2016/05/01]
[2016.12.05 14:02:28] [0000m.00s.030ms] [1] Machine [DESKTOP-TJKR3AR]  User [branden.sheffield]  PID [19908]
[2016.12.05 14:02:28] [0000m.00s.031ms] [1] Operating system [Microsoft Enterprise Edition, 64-bit (build 9200)]
[2016.12.05 14:02:28] [0000m.00s.031ms] [1] Current working dir [C:\pd_repo\pd\_CITADEL\Mentor\Citadel]
[2016.12.05 14:02:28] [0000m.00s.031ms] [1] PATH [C:\MentorGraphics\PADSProVX.2\SDD_HOME\common\win32\bin;C:\MentorGraphics\PADSProVX.2\SDD_HOME\common\win32\lib;C:\MentorGraphics\PADSProVX.2\MGC_HOME.ixn\bin;C:\MentorGraphics\PADSProVX.2\MGC_HOME.ixn\lib;C:\MentorGraphics\PADSProVX.2\SDD_HOME\wv\win32\bin;C:\Program Files (x86)\CSR\BlueSuite 2.5.8\DFU Tools;C:\Program Files (x86)\NVIDIA Corporation\PhysX\Common;C:\ProgramData\Oracle\Java\javapath;C:\WINDOWS\system32;C:\WINDOWS;C:\WINDOWS\System32\Wbem;C:\WINDOWS\System32\WindowsPowerShell\v1.0\;C:\Program Files (x86)\Skype\Phone\;C:\Program Files (x86)\Windows Kits\8.1\Windows Performance Toolkit\;C:\Program Files\TortoiseSVN\bin;C:\Users\branden.sheffield\AppData\Local\Microsoft\WindowsApps;]
[2016.12.05 14:02:28] [0000m.00s.031ms] [1] SDD_HOME [C:\MentorGraphics\PADSProVX.2\SDD_HOME] on file system [NTFS]
[2016.12.05 14:02:28] [0000m.00s.031ms] [1] SDD_PLATFORM [win32]
[2016.12.05 14:02:28] [0000m.00s.031ms] [1] WDIR [C:\WDIR\PADSProVX.2;C:\MentorGraphics\PADSProVX.2\SDD_HOME\standard;]
[2016.12.05 14:02:28] [0000m.00s.031ms] [1] Local iCDB working dir [C:\WDIR\PADSProVX.2\iCDB] on file system [NTFS]
[2016.12.05 14:02:28] [0000m.00s.031ms] [2] S: Loading config files
[2016.12.05 14:02:28] [0000m.00s.038ms] [1] Config file [C:\pd_repo\pd\_CITADEL\Mentor\Citadel\database\cdbsvr\Server.cfg] not found
[2016.12.05 14:02:28] [0000m.00s.040ms] [3] S: Config loaded
[2016.12.05 14:02:28] [0000m.00s.049ms] [0] S: Project path [C:\pd_repo\pd\_CITADEL\Mentor\Citadel\database] on file system [NTFS]
[2016.12.05 14:02:28] [0000m.00s.049ms] [0] S: Project file (.prj) path [C:\pd_repo\pd\_CITADEL\Mentor\Citadel\Citadel.prj] on file system [NTFS]
[2016.12.05 14:02:28] [0000m.00s.050ms] [1] S: WARNING: Database auto-repair support DISABLED
[2016.12.05 14:02:28] [0000m.00s.050ms] [0] S: Multi-user mode (config)
[2016.12.05 14:02:28] [0000m.00s.050ms] [0] S: Event polling mode autodetection
[2016.12.05 14:02:28] [0000m.00s.056ms] [0] S: Started up automatically by iCDB Client: DESKTOP-TJKR3AR:branden.sheffield:8924
[2016.12.05 14:02:28] [0000m.00s.056ms] [0] S: Auto close mode
[2016.12.05 14:02:28] [0000m.00s.056ms] [0] S: Database ID [3edb-f997-378d-3d57-11a5-2286-1a52-2850-5ff3-9382-b182-04a8]
[2016.12.05 14:02:28] [0000m.00s.056ms] [0] PathTranslator: BEGIN dumping
[2016.12.05 14:02:28] [0000m.00s.056ms] [0] PathTranslator: Local -> global path prefix list
[2016.12.05 14:02:28] [0000m.00s.056ms] [0] PathTranslator: [R:\] -> [\\underground.skullcandy.com@SSL\DavWWWRoot\departments\pd\ACE\]
[2016.12.05 14:02:28] [0000m.00s.056ms] [0] PathTranslator: [X:\] -> [\\underground.skullcandy.com@SSL\DavWWWRoot\departments\pd\PD Projects\]
[2016.12.05 14:02:28] [0000m.00s.056ms] [0] PathTranslator: [Z:\] -> [\\izombie\shares\pd\]
[2016.12.05 14:02:28] [0000m.00s.056ms] [0] PathTranslator: Global -> local path prefix list
[2016.12.05 14:02:28] [0000m.00s.056ms] [0] PathTranslator: [\\underground.skullcandy.com@SSL\DavWWWRoot\departments\pd\PD Projects\] -> [X:\]
[2016.12.05 14:02:28] [0000m.00s.056ms] [0] PathTranslator: [\\underground.skullcandy.com@SSL\DavWWWRoot\departments\pd\ACE\] -> [R:\]
[2016.12.05 14:02:28] [0000m.00s.056ms] [0] PathTranslator: [\\izombie\shares\pd\] -> [Z:\]
[2016.12.05 14:02:28] [0000m.00s.057ms] [0] PathTranslator: END dumping
[2016.12.05 14:02:28] [0000m.00s.057ms] [0] S: START
[2016.12.05 14:02:28] [0000m.00s.057ms] [0] S: Server startup lock file created
[2016.12.05 14:02:28] [0000m.00s.057ms] [0] S: Listening for client connections on port [10001]
[2016.12.05 14:02:28] [0000m.00s.059ms] [0] S: Server network ID [DESKTOP-TJKR3AR:192.168.200.217,DESKTOP-TJKR3AR,DESKTOP-TJKR3AR.skullcandy.local:10001]
[2016.12.05 14:02:28] [0000m.00s.059ms] [0] S: Server GUID [df66-96f0-eddc-8b63-4e5d-5489-e5d5-4850-d464-8382-b162-24a8]
[2016.12.05 14:02:28] [0000m.00s.059ms] [0] S: Project GUID [3edb-f997-378d-3d57-11a5-2286-1a52-2850-5ff3-9382-b182-04a8]
[2016.12.05 14:02:28] [0000m.00s.063ms] [0] S: Wrote data to server address file
[2016.12.05 14:02:28] [0000m.00s.063ms] [0] S: Server startup lock file removed
[2016.12.05 14:02:28] [0000m.00s.064ms] [1] ProjectBackupManager: Setting project file (.prj) path: [C:\pd_repo\pd\_CITADEL\Mentor\Citadel\Citadel.prj]
[2016.12.05 14:02:28] [0000m.00s.212ms] [0] S: Plugins loaded: [PIM] [ENetGen70] 
[2016.12.05 14:02:28] [0000m.00s.212ms] [0] S: Local disc access time: 35 us
[2016.12.05 14:02:28] [0000m.00s.212ms] [0] S: File server access time: 36 us
[2016.12.05 14:02:28] [0000m.00s.213ms] [0] Single file [C:\pd_repo\pd\_CITADEL\Mentor\Citadel\database\icdb.dat] size [810624 (791.6 kB)]
[2016.12.05 14:02:28] [0000m.00s.213ms] [1] Single file [C:\pd_repo\pd\_CITADEL\Mentor\Citadel\database\icdb.dat] opened in read-write mode
[2016.12.05 14:02:28] [0000m.00s.213ms] [0] SingleFile: [0000-0000-0000-0000] SFI header version check [1009] [1009]
[2016.12.05 14:02:28] [0000m.00s.214ms] [0] Database GUARD OK: [810624]
[2016.12.05 14:02:28] [0000m.00s.215ms] [0] SingleFile: [0000-0000-0000-0000] SFI header version check [1009] [1009]
[2016.12.05 14:02:28] [0000m.00s.215ms] [0] Database GUARD OK: [810624]
[2016.12.05 14:02:28] [0000m.00s.215ms] [0] SingleFile: [0000-0000-0000-0000] SFI header version check [1009] [1009]
[2016.12.05 14:02:28] [0000m.00s.215ms] [0] Database GUARD OK: [810624]
[2016.12.05 14:02:28] [0000m.00s.215ms] [0] SingleFile: [0000-0000-0000-0000] SFI header version check [1009] [1009]
[2016.12.05 14:02:28] [0000m.00s.215ms] [0] Database GUARD OK: [810624]
[2016.12.05 14:02:28] [0000m.00s.215ms] [0] SingleFile: [0000-0000-0000-0000] SFI header version check [1009] [1009]
[2016.12.05 14:02:28] [0000m.00s.215ms] [0] Database GUARD OK: [810624]
[2016.12.05 14:02:28] [0000m.00s.215ms] [0] SingleFile: [9e75-bf90-0362-6950] SFI version check [1009] [1009]
[2016.12.05 14:02:28] [0000m.00s.224ms] [0] SingleFile: [9e75-bf90-0362-6950] Database SFI header has been read in [9ms 92us]
[2016.12.05 14:02:28] [0000m.00s.231ms] [0] iCDB Server PI: Server & plugin session [2846]
[2016.12.05 14:02:28] [0000m.00s.231ms] [0] iCDB Server PI: Opening database [C:\pd_repo\pd\_CITADEL\Mentor\Citadel\database]
[2016.12.05 14:02:28] [0000m.00s.231ms] [0] iCDB Server PI: Database [C:\pd_repo\pd\_CITADEL\Mentor\Citadel\database] opened
[2016.12.05 14:02:28] [0000m.00s.404ms] [0] iCDB Database: Checking existence of constraint definitions
[2016.12.05 14:02:28] [0000m.00s.404ms] [0] iCDB Database: Checking constraint definitions version
[2016.12.05 14:02:28] [0000m.00s.465ms] [1] iCDB Database: Constraint definitions version [ce_ee.cns=7.10.56] up to date
[2016.12.05 14:02:28] [0000m.00s.471ms] [0] iCDB Server PI: Initializing plugins
[2016.12.05 14:02:28] [0000m.00s.471ms] [0] iCDB Server PI: Plugins initialized
[2016.12.05 14:02:28] [0000m.00s.471ms] [0] S: iCDB database loaded
[2016.12.05 14:02:28] [0000m.00s.472ms] [0] S: Starting threads
[2016.12.05 14:02:28] [0000m.00s.473ms] [0] BT: Listening for broadcast messages on port [10000]
[2016.12.05 14:02:28] [0000m.00s.473ms] [1] CMT: There are no clients - waiting [10 seconds]
[2016.12.05 14:02:28] [0000m.00s.474ms] [0] IT: Session [2847] for host [DESKTOP-TJKR3AR] user [branden.sheffield] with process ID [8924] created
[2016.12.05 14:02:28] [0000m.00s.477ms] [1] SC[2847]: Registered sub-client [DxD] with ID [1] for session ID [2847] host [DESKTOP-TJKR3AR] user [branden.sheffield] process ID [8924]
[2016.12.05 14:02:28] [0000m.00s.484ms] [0] MWT: WindowProc: WM_NCCREATE
[2016.12.05 14:02:28] [0000m.00s.492ms] [0] IT: iCDB Server Monitor session [1] for host [DESKTOP-TJKR3AR] user [branden.sheffield] with process ID [6668] created
[2016.12.05 14:02:28] [0000m.00s.494ms] [1] DMT: There are [1] iCDB Server Monitor connected now
[2016.12.05 14:02:29] [0000m.00s.576ms] [1] CMT: There are [1] clients now: 2847
[2016.12.05 14:02:29] [0000m.00s.604ms] [1] SC[2847]: Registered sub-client [TransactionRollbackSubClient] with ID [2] for session ID [2847] host [DESKTOP-TJKR3AR] user [branden.sheffield] process ID [8924]
[2016.12.05 14:02:29] [0000m.00s.609ms] [1] SC[2847]: Registered sub-client [xprob] with ID [3] for session ID [2847] host [DESKTOP-TJKR3AR] user [branden.sheffield] process ID [8924]
[2016.12.05 14:02:32] [0000m.03s.941ms] [1] SC[2847]: Registered sub-client [SymbolEditor] with ID [4] for session ID [2847] host [DESKTOP-TJKR3AR] user [branden.sheffield] process ID [8924]
[2016.12.05 14:02:32] [0000m.03s.947ms] [1] SC[2847]: Registered sub-client [SelectionHolder] with ID [5] for session ID [2847] host [DESKTOP-TJKR3AR] user [branden.sheffield] process ID [8924]
[2016.12.05 14:02:32] [0000m.04s.052ms] [1] SC[2847]: Registered sub-client [EEVM_EEVM_558433708] with ID [6] for session ID [2847] host [DESKTOP-TJKR3AR] user [branden.sheffield] process ID [8924]
[2016.12.05 14:02:32] [0000m.04s.053ms] [1] SC[2847]: UnRegistered sub-client [EEVM_EEVM_558433708] with ID [6] for session ID [2847] host [DESKTOP-TJKR3AR] user [branden.sheffield] process ID [8924]
[2016.12.05 14:02:32] [0000m.04s.057ms] [1] SC[2847]: Registered sub-client [EEVM_EEVM_558433708] with ID [7] for session ID [2847] host [DESKTOP-TJKR3AR] user [branden.sheffield] process ID [8924]
[2016.12.05 14:02:32] [0000m.04s.103ms] [1] SC[2847]: UnRegistered sub-client [EEVM_EEVM_558433708] with ID [7] for session ID [2847] host [DESKTOP-TJKR3AR] user [branden.sheffield] process ID [8924]
[2016.12.05 14:02:32] [0000m.04s.107ms] [1] SC[2847]: Registered sub-client [EEVM_EEVM_558430236] with ID [8] for session ID [2847] host [DESKTOP-TJKR3AR] user [branden.sheffield] process ID [8924]
[2016.12.05 14:02:32] [0000m.04s.108ms] [1] SC[2847]: UnRegistered sub-client [EEVM_EEVM_558430236] with ID [8] for session ID [2847] host [DESKTOP-TJKR3AR] user [branden.sheffield] process ID [8924]
[2016.12.05 14:02:32] [0000m.04s.111ms] [1] SC[2847]: Registered sub-client [EEVM_EEVM_558430236] with ID [9] for session ID [2847] host [DESKTOP-TJKR3AR] user [branden.sheffield] process ID [8924]
[2016.12.05 14:02:32] [0000m.04s.149ms] [1] SC[2847]: UnRegistered sub-client [EEVM_EEVM_558430236] with ID [9] for session ID [2847] host [DESKTOP-TJKR3AR] user [branden.sheffield] process ID [8924]
[2016.12.05 14:02:32] [0000m.04s.289ms] [1] SC[2847]: Registered sub-client [SystemDesignDll] with ID [10] for session ID [2847] host [DESKTOP-TJKR3AR] user [branden.sheffield] process ID [8924]
[2016.12.05 14:02:32] [0000m.04s.336ms] [1] SC[2847]: UnRegistered sub-client [SystemDesignDll] with ID [10] for session ID [2847] host [DESKTOP-TJKR3AR] user [branden.sheffield] process ID [8924]
[2016.12.05 14:02:32] [0000m.04s.339ms] [1] SC[2847]: Registered sub-client [SystemDesignDll] with ID [11] for session ID [2847] host [DESKTOP-TJKR3AR] user [branden.sheffield] process ID [8924]
[2016.12.05 14:02:42] [0000m.13s.920ms] [1] SC[2847]: Registered sub-client [DesignSearcher2] with ID [12] for session ID [2847] host [DESKTOP-TJKR3AR] user [branden.sheffield] process ID [8924]
[2016.12.05 14:02:42] [0000m.13s.935ms] [1] SC[2847]: Registered sub-client [HdlProject] with ID [13] for session ID [2847] host [DESKTOP-TJKR3AR] user [branden.sheffield] process ID [8924]
[2016.12.05 14:02:42] [0000m.14s.003ms] [1] SC[2847]: Registered sub-client [Navigator] with ID [14] for session ID [2847] host [DESKTOP-TJKR3AR] user [branden.sheffield] process ID [8924]
[2016.12.05 14:02:42] [0000m.14s.060ms] [1] SC[2847]: Registered sub-client [OutputWindow] with ID [15] for session ID [2847] host [DESKTOP-TJKR3AR] user [branden.sheffield] process ID [8924]
[2016.12.05 14:02:42] [0000m.14s.065ms] [1] SC[2847]: Registered sub-client [PlaceDevice] with ID [16] for session ID [2847] host [DESKTOP-TJKR3AR] user [branden.sheffield] process ID [8924]
[2016.12.05 14:02:43] [0000m.15s.038ms] [1] SC[2847]: Registered sub-client [LocalSymbolsDataProvider] with ID [17] for session ID [2847] host [DESKTOP-TJKR3AR] user [branden.sheffield] process ID [8924]
[2016.12.05 14:02:43] [0000m.15s.129ms] [1] SC[2847]: Registered sub-client [SAE] with ID [18] for session ID [2847] host [DESKTOP-TJKR3AR] user [branden.sheffield] process ID [8924]
[2016.12.05 14:02:43] [0000m.15s.136ms] [1] SC[2847]: Registered sub-client [CCZAddin] with ID [19] for session ID [2847] host [DESKTOP-TJKR3AR] user [branden.sheffield] process ID [8924]
[2016.12.05 14:02:43] [0000m.15s.144ms] [1] SC[2847]: Registered sub-client [DxThumbnails] with ID [20] for session ID [2847] host [DESKTOP-TJKR3AR] user [branden.sheffield] process ID [8924]
[2016.12.05 14:02:43] [0000m.15s.148ms] [1] SC[2847]: Registered sub-client [MyParts] with ID [21] for session ID [2847] host [DESKTOP-TJKR3AR] user [branden.sheffield] process ID [8924]
[2016.12.05 14:02:43] [0000m.15s.306ms] [1] SC[2847]: Registered sub-client [PinsList] with ID [22] for session ID [2847] host [DESKTOP-TJKR3AR] user [branden.sheffield] process ID [8924]
[2016.12.05 14:02:44] [0000m.16s.061ms] [1] SC[2847]: Registered sub-client [toolboxes] with ID [23] for session ID [2847] host [DESKTOP-TJKR3AR] user [branden.sheffield] process ID [8924]
[2016.12.05 14:02:45] [0000m.16s.734ms] [1] SC[2847]: Registered sub-client [ProjectIntegrationIcdbCacheDxD:285594256] with ID [24] for session ID [2847] host [DESKTOP-TJKR3AR] user [branden.sheffield] process ID [8924]
[2016.12.05 14:02:46] [0000m.17s.823ms] [1] SC[2847]: Registered sub-client [SheetConnectorsCacheDxD:1480971766] with ID [25] for session ID [2847] host [DESKTOP-TJKR3AR] user [branden.sheffield] process ID [8924]
[2016.12.05 14:02:46] [0000m.18s.232ms] [1] SC[2847]: Registered sub-client [NetsNamesCollectorDxD:1480971766] with ID [26] for session ID [2847] host [DESKTOP-TJKR3AR] user [branden.sheffield] process ID [8924]
[2016.12.05 14:02:46] [0000m.18s.387ms] [1] SC[2847]: Registered sub-client [PartReplaceUtils] with ID [27] for session ID [2847] host [DESKTOP-TJKR3AR] user [branden.sheffield] process ID [8924]
[2016.12.05 14:02:47] [0000m.18s.867ms] [1] SC[2847]: Registered sub-client [DxDbSearch] with ID [28] for session ID [2847] host [DESKTOP-TJKR3AR] user [branden.sheffield] process ID [8924]
[2016.12.05 14:02:48] [0000m.19s.551ms] [0] IT: Session [2848] for host [DESKTOP-TJKR3AR] user [branden.sheffield] with process ID [13012] created
[2016.12.05 14:02:48] [0000m.19s.556ms] [1] SC[2848]: Registered sub-client [Expedition PE_1486884750] with ID [1] for session ID [2848] host [DESKTOP-TJKR3AR] user [branden.sheffield] process ID [13012]
[2016.12.05 14:02:48] [0000m.19s.558ms] [1] CMT: There are [2] clients now: 2847, 2848
[2016.12.05 14:02:48] [0000m.19s.776ms] [1] SC[2848]: Registered sub-client [ExpeditionCrossProber] with ID [2] for session ID [2848] host [DESKTOP-TJKR3AR] user [branden.sheffield] process ID [13012]
[2016.12.05 14:03:00] [0000m.32s.266ms] [0] DFAMT: File server access time: 77 us
[2016.12.05 14:09:55] [0007m.26s.890ms] [1] SC[2847]: Registered sub-client [ObjectHolder_523823464] with ID [29] for session ID [2847] host [DESKTOP-TJKR3AR] user [branden.sheffield] process ID [8924]
[2016.12.05 14:09:55] [0007m.26s.896ms] [1] SC[2847]: Registered sub-client [BlockCacheDxD:229718272] with ID [30] for session ID [2847] host [DESKTOP-TJKR3AR] user [branden.sheffield] process ID [8924]
[2016.12.05 14:09:55] [0007m.26s.900ms] [1] SC[2847]: Registered sub-client [GlobalNetAliasUpdater_523822320] with ID [31] for session ID [2847] host [DESKTOP-TJKR3AR] user [branden.sheffield] process ID [8924]
[2016.12.05 14:09:55] [0007m.26s.904ms] [1] SC[2847]: Registered sub-client [IcdbNetProcessorSubClientDxD:523606904] with ID [32] for session ID [2847] host [DESKTOP-TJKR3AR] user [branden.sheffield] process ID [8924]
[2016.12.05 14:15:30] [0013m.02s.544ms] [1] PrjBackupMgr: Successfully created Project Backup [C:\pd_repo\pd\_CITADEL\Mentor\Citadel\ProjectBackup\backups\2016-12-05 14.15.28 - auto.zip] with GUID [7613-0f19-0591-b687-0f8d-5485-f8d5-4850-d846-8382-b162-24a8]
[2016.12.05 14:15:30] [0013m.02s.550ms] [0] PrjBackupMgr: Removing excessive backup:  BackupGUID[c730-2c21-2926-e2bd-e046-0483-1460-4850-df15-9382-a192-e3a8] CreationTime[Thursday, December 01, 2016 17:55:26] Type[Autosave] Creator[iCDB Server (2016-12-01 10.42.26-11732)] ApplicationName[iCDB Server (2016-12-01 10.42.26-11732)] UserName[branden.sheffield] MachineName[DESKTOP-TJKR3AR] Description[Autosave] FullFlowName[PADS Professional VX.2] FlowId[PADSProVX.2] GBSInstallId[1409847] GBSBuildId[5060443] IcdbVersion[3100] ReferenceLogFilePath[] BackupFilePath[C:\pd_repo\pd\_CITADEL\Mentor\Citadel\ProjectBackup\backups\2016-12-01 10.55.26 - auto.zip] BackupFileSize[7025750] Persistent[FALSE]
[2016.12.05 14:15:31] [0013m.02s.555ms] [0] PrjBackupMgr: Project Backup file [C:\pd_repo\pd\_CITADEL\Mentor\Citadel\ProjectBackup\backups\2016-12-01 10.55.26 - auto.zip] with GUID [c730-2c21-2926-e2bd-e046-0483-1460-4850-df15-9382-a192-e3a8] removed
[2016.12.05 14:15:31] [0013m.02s.557ms] [0] PrjBackupEngine: Successfully created backup:  BackupGUID[7613-0f19-0591-b687-0f8d-5485-f8d5-4850-d846-8382-b162-24a8] CreationTime[Monday, December 05, 2016 21:15:28] Type[Autosave] Creator[iCDB Server (2016-12-05 14.02.28-19908)] ApplicationName[iCDB Server (2016-12-05 14.02.28-19908)] UserName[branden.sheffield] MachineName[DESKTOP-TJKR3AR] Description[Autosave] FullFlowName[PADS Professional VX.2] FlowId[PADSProVX.2] GBSInstallId[1409847] GBSBuildId[5060443] IcdbVersion[3100] ReferenceLogFilePath[] BackupFilePath[C:\pd_repo\pd\_CITADEL\Mentor\Citadel\ProjectBackup\backups\2016-12-05 14.15.28 - auto.zip] BackupFileSize[8711230] Persistent[FALSE]
[2016.12.05 15:04:12] [0061m.44s.449ms] [1] SC[2848]: Registered sub-client [JobPrefsDBPI_1490569500] with ID [3] for session ID [2848] host [DESKTOP-TJKR3AR] user [branden.sheffield] process ID [13012]
[2016.12.05 15:04:12] [0061m.44s.453ms] [1] SC[2848]: UnRegistered sub-client [JobPrefsDBPI_1490569500] with ID [3] for session ID [2848] host [DESKTOP-TJKR3AR] user [branden.sheffield] process ID [13012]
[2016.12.05 15:04:13] [0061m.44s.649ms] [1] SC[2848]: Registered sub-client [NetClassDBPI_1490569718] with ID [4] for session ID [2848] host [DESKTOP-TJKR3AR] user [branden.sheffield] process ID [13012]
[2016.12.05 15:04:13] [0061m.44s.688ms] [1] SC[2848]: UnRegistered sub-client [NetClassDBPI_1490569718] with ID [4] for session ID [2848] host [DESKTOP-TJKR3AR] user [branden.sheffield] process ID [13012]
[2016.12.05 15:04:13] [0061m.44s.693ms] [1] SC[2848]: Registered sub-client [JobPrefsDBPI_1490569750] with ID [5] for session ID [2848] host [DESKTOP-TJKR3AR] user [branden.sheffield] process ID [13012]
[2016.12.05 15:04:13] [0061m.44s.695ms] [1] SC[2848]: UnRegistered sub-client [JobPrefsDBPI_1490569750] with ID [5] for session ID [2848] host [DESKTOP-TJKR3AR] user [branden.sheffield] process ID [13012]
[2016.12.05 15:04:19] [0061m.51s.133ms] [1] SC[2848]: Registered sub-client [JobPrefsDBPI_1490576203] with ID [6] for session ID [2848] host [DESKTOP-TJKR3AR] user [branden.sheffield] process ID [13012]
[2016.12.05 15:04:19] [0061m.51s.187ms] [1] SC[2848]: UnRegistered sub-client [JobPrefsDBPI_1490576203] with ID [6] for session ID [2848] host [DESKTOP-TJKR3AR] user [branden.sheffield] process ID [13012]
[2016.12.05 15:04:20] [0061m.51s.798ms] [0] IT: Session [2849] for host [DESKTOP-TJKR3AR] user [branden.sheffield] with process ID [12256] created
[2016.12.05 15:04:20] [0061m.51s.801ms] [0] IT: Session [2850] for host [DESKTOP-TJKR3AR] user [branden.sheffield] with process ID [20824] created
[2016.12.05 15:04:20] [0061m.51s.802ms] [1] SC[2849]: Registered sub-client [JobPrefsDBPI_1490576703] with ID [1] for session ID [2849] host [DESKTOP-TJKR3AR] user [branden.sheffield] process ID [12256]
[2016.12.05 15:04:20] [0061m.51s.803ms] [1] SC[2850]: Registered sub-client [JobPrefsDBPI_1490576687] with ID [1] for session ID [2850] host [DESKTOP-TJKR3AR] user [branden.sheffield] process ID [20824]
[2016.12.05 15:04:20] [0061m.51s.810ms] [1] CMT: There are [4] clients now: 2847, 2848, 2849, 2850
[2016.12.05 15:04:20] [0061m.51s.911ms] [1] SC[2850]: Registered sub-client [JobPrefsDBPI_1490576968] with ID [2] for session ID [2850] host [DESKTOP-TJKR3AR] user [branden.sheffield] process ID [20824]
[2016.12.05 15:04:20] [0061m.51s.922ms] [1] SC[2849]: Registered sub-client [JobPrefsDBPI_1490576984] with ID [2] for session ID [2849] host [DESKTOP-TJKR3AR] user [branden.sheffield] process ID [12256]
[2016.12.05 15:04:20] [0061m.51s.922ms] [1] SC[2850]: Registered sub-client [NetClassDBPI_1490576984] with ID [3] for session ID [2850] host [DESKTOP-TJKR3AR] user [branden.sheffield] process ID [20824]
[2016.12.05 15:04:20] [0061m.51s.931ms] [1] SC[2850]: Registered sub-client [Expedition_1490577000] with ID [4] for session ID [2850] host [DESKTOP-TJKR3AR] user [branden.sheffield] process ID [20824]
[2016.12.05 15:04:20] [0061m.51s.933ms] [1] SC[2849]: Registered sub-client [NetClassDBPI_1490577000] with ID [3] for session ID [2849] host [DESKTOP-TJKR3AR] user [branden.sheffield] process ID [12256]
[2016.12.05 15:04:20] [0061m.51s.935ms] [1] SC[2850]: UnRegistered sub-client [Expedition_1490577000] with ID [4] for session ID [2850] host [DESKTOP-TJKR3AR] user [branden.sheffield] process ID [20824]
[2016.12.05 15:04:20] [0061m.52s.159ms] [0] IT: Session [2851] for host [DESKTOP-TJKR3AR] user [branden.sheffield] with process ID [15240] created
[2016.12.05 15:04:20] [0061m.52s.162ms] [1] SC[2851]: Registered sub-client [JobPrefsDBPI_1490577093] with ID [1] for session ID [2851] host [DESKTOP-TJKR3AR] user [branden.sheffield] process ID [15240]
[2016.12.05 15:04:20] [0061m.52s.233ms] [1] SC[2851]: Registered sub-client [NetClassDBPI_1490577296] with ID [2] for session ID [2851] host [DESKTOP-TJKR3AR] user [branden.sheffield] process ID [15240]
[2016.12.05 15:04:20] [0061m.52s.257ms] [1] CMT: There are [5] clients now: 2847, 2848, 2849, 2850, 2851
[2016.12.05 15:04:20] [0061m.52s.283ms] [1] SC[2851]: Registered sub-client [JobPrefsDBPI_1490577343] with ID [3] for session ID [2851] host [DESKTOP-TJKR3AR] user [branden.sheffield] process ID [15240]
[2016.12.05 15:04:21] [0061m.52s.798ms] [0] IT: Session [2852] for host [DESKTOP-TJKR3AR] user [branden.sheffield] with process ID [14528] created
[2016.12.05 15:04:21] [0061m.52s.837ms] [1] SC[2852]: Registered sub-client [JobPrefsDBPI_1490577687] with ID [1] for session ID [2852] host [DESKTOP-TJKR3AR] user [branden.sheffield] process ID [14528]
[2016.12.05 15:04:21] [0061m.52s.925ms] [1] CMT: There are [6] clients now: 2847, 2848, 2849, 2850, 2851, 2852
[2016.12.05 15:04:21] [0061m.53s.032ms] [1] SC[2852]: Registered sub-client [JobPrefsDBPI_1490578093] with ID [2] for session ID [2852] host [DESKTOP-TJKR3AR] user [branden.sheffield] process ID [14528]
[2016.12.05 15:04:21] [0061m.53s.043ms] [1] SC[2852]: Registered sub-client [NetClassDBPI_1490578109] with ID [3] for session ID [2852] host [DESKTOP-TJKR3AR] user [branden.sheffield] process ID [14528]
[2016.12.05 15:04:22] [0061m.54s.307ms] [1] SC[2851]: Registered sub-client [Expedition_1490579375] with ID [4] for session ID [2851] host [DESKTOP-TJKR3AR] user [branden.sheffield] process ID [15240]
[2016.12.05 15:04:22] [0061m.54s.342ms] [1] SC[2852]: UnRegistered sub-client [JobPrefsDBPI_1490578093] with ID [2] for session ID [2852] host [DESKTOP-TJKR3AR] user [branden.sheffield] process ID [14528]
[2016.12.05 15:04:22] [0061m.54s.344ms] [1] SC[2852]: UnRegistered sub-client [JobPrefsDBPI_1490577687] with ID [1] for session ID [2852] host [DESKTOP-TJKR3AR] user [branden.sheffield] process ID [14528]
[2016.12.05 15:04:22] [0061m.54s.351ms] [1] SC[2852]: UnRegistered sub-client [NetClassDBPI_1490578109] with ID [3] for session ID [2852] host [DESKTOP-TJKR3AR] user [branden.sheffield] process ID [14528]
[2016.12.05 15:04:22] [0061m.54s.380ms] [1] CMT: Removed client [2852]
[2016.12.05 15:04:22] [0061m.54s.380ms] [1] CMT: There are [5] clients now: 2847, 2848, 2849, 2850, 2851
[2016.12.05 15:04:22] [0061m.54s.404ms] [1] SC[2851]: UnRegistered sub-client [Expedition_1490579375] with ID [4] for session ID [2851] host [DESKTOP-TJKR3AR] user [branden.sheffield] process ID [15240]
[2016.12.05 15:04:23] [0061m.54s.570ms] [1] SC[2850]: UnRegistered sub-client [JobPrefsDBPI_1490576968] with ID [2] for session ID [2850] host [DESKTOP-TJKR3AR] user [branden.sheffield] process ID [20824]
[2016.12.05 15:04:23] [0061m.54s.572ms] [1] SC[2850]: UnRegistered sub-client [JobPrefsDBPI_1490576687] with ID [1] for session ID [2850] host [DESKTOP-TJKR3AR] user [branden.sheffield] process ID [20824]
[2016.12.05 15:04:23] [0061m.54s.579ms] [1] SC[2850]: UnRegistered sub-client [NetClassDBPI_1490576984] with ID [3] for session ID [2850] host [DESKTOP-TJKR3AR] user [branden.sheffield] process ID [20824]
[2016.12.05 15:04:23] [0061m.54s.605ms] [1] CMT: Removed client [2850]
[2016.12.05 15:04:23] [0061m.54s.605ms] [1] CMT: There are [4] clients now: 2847, 2848, 2849, 2851
[2016.12.05 15:04:23] [0061m.54s.794ms] [1] SC[2851]: UnRegistered sub-client [JobPrefsDBPI_1490577343] with ID [3] for session ID [2851] host [DESKTOP-TJKR3AR] user [branden.sheffield] process ID [15240]
[2016.12.05 15:04:23] [0061m.54s.796ms] [1] SC[2851]: UnRegistered sub-client [JobPrefsDBPI_1490577093] with ID [1] for session ID [2851] host [DESKTOP-TJKR3AR] user [branden.sheffield] process ID [15240]
[2016.12.05 15:04:23] [0061m.54s.803ms] [1] SC[2851]: UnRegistered sub-client [NetClassDBPI_1490577296] with ID [2] for session ID [2851] host [DESKTOP-TJKR3AR] user [branden.sheffield] process ID [15240]
[2016.12.05 15:04:23] [0061m.54s.818ms] [1] CMT: Removed client [2851]
[2016.12.05 15:04:23] [0061m.54s.818ms] [1] CMT: There are [3] clients now: 2847, 2848, 2849
[2016.12.05 15:04:23] [0061m.55s.397ms] [1] SC[2849]: UnRegistered sub-client [JobPrefsDBPI_1490576984] with ID [2] for session ID [2849] host [DESKTOP-TJKR3AR] user [branden.sheffield] process ID [12256]
[2016.12.05 15:04:23] [0061m.55s.399ms] [1] SC[2849]: UnRegistered sub-client [JobPrefsDBPI_1490576703] with ID [1] for session ID [2849] host [DESKTOP-TJKR3AR] user [branden.sheffield] process ID [12256]
[2016.12.05 15:04:23] [0061m.55s.405ms] [1] SC[2849]: UnRegistered sub-client [NetClassDBPI_1490577000] with ID [3] for session ID [2849] host [DESKTOP-TJKR3AR] user [branden.sheffield] process ID [12256]
[2016.12.05 15:04:23] [0061m.55s.448ms] [1] CMT: Removed client [2849]
[2016.12.05 15:04:23] [0061m.55s.448ms] [1] CMT: There are [2] clients now: 2847, 2848
[2016.12.05 15:46:11] [0103m.43s.092ms] [1] SC[2848]: Registered sub-client [JobPrefsDBPI_1493088187] with ID [7] for session ID [2848] host [DESKTOP-TJKR3AR] user [branden.sheffield] process ID [13012]
[2016.12.05 15:46:11] [0103m.43s.096ms] [1] SC[2848]: UnRegistered sub-client [JobPrefsDBPI_1493088187] with ID [7] for session ID [2848] host [DESKTOP-TJKR3AR] user [branden.sheffield] process ID [13012]
[2016.12.05 15:46:25] [0103m.56s.999ms] [1] SC[2848]: Registered sub-client [JobPrefsDBPI_1493102093] with ID [8] for session ID [2848] host [DESKTOP-TJKR3AR] user [branden.sheffield] process ID [13012]
[2016.12.05 15:46:25] [0103m.57s.021ms] [1] SC[2848]: Registered sub-client [JobPrefsDBPI_1493102125] with ID [9] for session ID [2848] host [DESKTOP-TJKR3AR] user [branden.sheffield] process ID [13012]
[2016.12.05 15:46:25] [0103m.57s.067ms] [1] SC[2848]: UnRegistered sub-client [JobPrefsDBPI_1493102093] with ID [8] for session ID [2848] host [DESKTOP-TJKR3AR] user [branden.sheffield] process ID [13012]
[2016.12.05 15:46:29] [0104m.01s.106ms] [1] SC[2848]: UnRegistered sub-client [ExpeditionCrossProber] with ID [2] for session ID [2848] host [DESKTOP-TJKR3AR] user [branden.sheffield] process ID [13012]
[2016.12.05 15:46:30] [0104m.02s.346ms] [1] SC[2848]: UnRegistered sub-client [Expedition PE_1486884750] with ID [1] for session ID [2848] host [DESKTOP-TJKR3AR] user [branden.sheffield] process ID [13012]
[2016.12.05 15:46:31] [0104m.02s.916ms] [1] SC[2848]: Registered sub-client [Expedition PE_1493108015] with ID [10] for session ID [2848] host [DESKTOP-TJKR3AR] user [branden.sheffield] process ID [13012]
[2016.12.05 15:46:31] [0104m.03s.045ms] [1] SC[2848]: Registered sub-client [JobPrefsDBPI_1493108140] with ID [11] for session ID [2848] host [DESKTOP-TJKR3AR] user [branden.sheffield] process ID [13012]
[2016.12.05 15:46:31] [0104m.03s.056ms] [1] SC[2848]: UnRegistered sub-client [JobPrefsDBPI_1493108140] with ID [11] for session ID [2848] host [DESKTOP-TJKR3AR] user [branden.sheffield] process ID [13012]
[2016.12.05 15:46:33] [0104m.05s.267ms] [1] SC[2848]: WARNING: Trying to get data for non existing sub-client [1]
[2016.12.05 15:46:33] [0104m.05s.267ms] [1] SC[2848]: WARNING: Trying to get data for non existing sub-client [1]
[2016.12.05 15:46:33] [0104m.05s.314ms] [1] SC[2848]: Registered sub-client [ExpeditionCrossProber] with ID [12] for session ID [2848] host [DESKTOP-TJKR3AR] user [branden.sheffield] process ID [13012]
[2016.12.05 15:46:49] [0104m.20s.565ms] [1] SC[2848]: UnRegistered sub-client [JobPrefsDBPI_1493102125] with ID [9] for session ID [2848] host [DESKTOP-TJKR3AR] user [branden.sheffield] process ID [13012]
[2016.12.05 15:46:49] [0104m.21s.138ms] [1] SC[2848]: WARNING: Trying to get data for non existing sub-client [1]
[2016.12.05 15:46:49] [0104m.21s.138ms] [1] SC[2848]: WARNING: Trying to get data for non existing sub-client [1]
[2016.12.05 15:47:26] [0104m.58s.428ms] [1] SC[2848]: Registered sub-client [JobPrefsDBPI_1493163531] with ID [13] for session ID [2848] host [DESKTOP-TJKR3AR] user [branden.sheffield] process ID [13012]
[2016.12.05 15:47:26] [0104m.58s.431ms] [1] SC[2848]: UnRegistered sub-client [JobPrefsDBPI_1493163531] with ID [13] for session ID [2848] host [DESKTOP-TJKR3AR] user [branden.sheffield] process ID [13012]
[2016.12.05 15:47:27] [0104m.58s.595ms] [1] SC[2848]: Registered sub-client [JobPrefsDBPI_1493163703] with ID [14] for session ID [2848] host [DESKTOP-TJKR3AR] user [branden.sheffield] process ID [13012]
[2016.12.05 15:47:27] [0104m.58s.643ms] [1] SC[2848]: Registered sub-client [JobPrefsDBPI_1493163750] with ID [15] for session ID [2848] host [DESKTOP-TJKR3AR] user [branden.sheffield] process ID [13012]
[2016.12.05 15:47:27] [0104m.58s.646ms] [1] SC[2848]: UnRegistered sub-client [JobPrefsDBPI_1493163750] with ID [15] for session ID [2848] host [DESKTOP-TJKR3AR] user [branden.sheffield] process ID [13012]
[2016.12.05 15:47:46] [0105m.18s.261ms] [1] SC[2848]: Registered sub-client [JobPrefsDBPI_1493183359] with ID [16] for session ID [2848] host [DESKTOP-TJKR3AR] user [branden.sheffield] process ID [13012]
[2016.12.05 15:47:46] [0105m.18s.263ms] [1] SC[2848]: UnRegistered sub-client [JobPrefsDBPI_1493183359] with ID [16] for session ID [2848] host [DESKTOP-TJKR3AR] user [branden.sheffield] process ID [13012]
[2016.12.05 15:47:46] [0105m.18s.448ms] [1] SC[2848]: UnRegistered sub-client [JobPrefsDBPI_1493163703] with ID [14] for session ID [2848] host [DESKTOP-TJKR3AR] user [branden.sheffield] process ID [13012]
[2016.12.05 15:47:52] [0105m.23s.766ms] [1] SC[2848]: WARNING: Trying to get data for non existing sub-client [1]
[2016.12.05 15:47:52] [0105m.23s.767ms] [1] SC[2848]: WARNING: Trying to get data for non existing sub-client [1]
[2016.12.05 15:50:56] [0108m.28s.532ms] [1] SC[2848]: Registered sub-client [JobPrefsDBPI_1493373640] with ID [17] for session ID [2848] host [DESKTOP-TJKR3AR] user [branden.sheffield] process ID [13012]
[2016.12.05 15:50:56] [0108m.28s.535ms] [1] SC[2848]: UnRegistered sub-client [JobPrefsDBPI_1493373640] with ID [17] for session ID [2848] host [DESKTOP-TJKR3AR] user [branden.sheffield] process ID [13012]
[2016.12.05 15:50:57] [0108m.28s.669ms] [1] SC[2848]: Registered sub-client [JobPrefsDBPI_1493373765] with ID [18] for session ID [2848] host [DESKTOP-TJKR3AR] user [branden.sheffield] process ID [13012]
[2016.12.05 15:50:57] [0108m.28s.715ms] [1] SC[2848]: Registered sub-client [JobPrefsDBPI_1493373812] with ID [19] for session ID [2848] host [DESKTOP-TJKR3AR] user [branden.sheffield] process ID [13012]
[2016.12.05 15:50:57] [0108m.28s.718ms] [1] SC[2848]: UnRegistered sub-client [JobPrefsDBPI_1493373812] with ID [19] for session ID [2848] host [DESKTOP-TJKR3AR] user [branden.sheffield] process ID [13012]
[2016.12.05 15:51:11] [0108m.42s.951ms] [1] SC[2848]: Registered sub-client [JobPrefsDBPI_1493388062] with ID [20] for session ID [2848] host [DESKTOP-TJKR3AR] user [branden.sheffield] process ID [13012]
[2016.12.05 15:51:11] [0108m.42s.954ms] [1] SC[2848]: UnRegistered sub-client [JobPrefsDBPI_1493388062] with ID [20] for session ID [2848] host [DESKTOP-TJKR3AR] user [branden.sheffield] process ID [13012]
[2016.12.05 15:51:11] [0108m.43s.108ms] [1] SC[2848]: UnRegistered sub-client [JobPrefsDBPI_1493373765] with ID [18] for session ID [2848] host [DESKTOP-TJKR3AR] user [branden.sheffield] process ID [13012]
[2016.12.05 15:51:13] [0108m.45s.383ms] [1] SC[2848]: WARNING: Trying to get data for non existing sub-client [1]
[2016.12.05 15:51:13] [0108m.45s.384ms] [1] SC[2848]: WARNING: Trying to get data for non existing sub-client [1]
[2016.12.05 15:53:49] [0111m.20s.557ms] [1] SC[2848]: WARNING: Trying to get data for non existing sub-client [1]
[2016.12.05 15:53:49] [0111m.20s.558ms] [1] SC[2848]: WARNING: Trying to get data for non existing sub-client [1]
[2016.12.05 15:55:14] [0112m.45s.827ms] [1] SC[2848]: WARNING: Trying to get data for non existing sub-client [1]
[2016.12.05 15:55:14] [0112m.45s.827ms] [1] SC[2848]: WARNING: Trying to get data for non existing sub-client [1]
[2016.12.05 15:55:22] [0112m.54s.283ms] [1] SC[2848]: WARNING: Trying to get data for non existing sub-client [1]
[2016.12.05 15:55:22] [0112m.54s.283ms] [1] SC[2848]: WARNING: Trying to get data for non existing sub-client [1]
[2016.12.05 15:55:48] [0113m.19s.644ms] [1] SC[2848]: WARNING: Trying to get data for non existing sub-client [1]
[2016.12.05 15:55:48] [0113m.19s.644ms] [1] SC[2848]: WARNING: Trying to get data for non existing sub-client [1]
[2016.12.05 15:56:32] [0114m.03s.558ms] [1] SC[2848]: WARNING: Trying to get data for non existing sub-client [1]
[2016.12.05 15:56:32] [0114m.03s.559ms] [1] SC[2848]: WARNING: Trying to get data for non existing sub-client [1]
[2016.12.05 15:56:35] [0114m.07s.518ms] [1] SC[2848]: WARNING: Trying to get data for non existing sub-client [1]
[2016.12.05 15:56:35] [0114m.07s.519ms] [1] SC[2848]: WARNING: Trying to get data for non existing sub-client [1]
[2016.12.05 15:57:06] [0114m.37s.658ms] [1] SC[2848]: WARNING: Trying to get data for non existing sub-client [1]
[2016.12.05 15:57:06] [0114m.37s.658ms] [1] SC[2848]: WARNING: Trying to get data for non existing sub-client [1]
[2016.12.05 15:57:20] [0114m.52s.047ms] [1] SC[2848]: WARNING: Trying to get data for non existing sub-client [1]
[2016.12.05 15:57:20] [0114m.52s.047ms] [1] SC[2848]: WARNING: Trying to get data for non existing sub-client [1]
[2016.12.05 15:57:59] [0115m.30s.962ms] [1] SC[2848]: Registered sub-client [3DView_1493796062] with ID [21] for session ID [2848] host [DESKTOP-TJKR3AR] user [branden.sheffield] process ID [13012]
[2016.12.05 15:57:59] [0115m.30s.966ms] [1] SC[2848]: UnRegistered sub-client [3DView_1493796062] with ID [21] for session ID [2848] host [DESKTOP-TJKR3AR] user [branden.sheffield] process ID [13012]
[2016.12.05 15:58:07] [0115m.38s.911ms] [1] SC[2848]: WARNING: Trying to get data for non existing sub-client [1]
[2016.12.05 15:58:07] [0115m.38s.911ms] [1] SC[2848]: WARNING: Trying to get data for non existing sub-client [1]
[2016.12.05 15:59:06] [0116m.37s.993ms] [1] SC[2848]: WARNING: Trying to get data for non existing sub-client [1]
[2016.12.05 15:59:06] [0116m.37s.994ms] [1] SC[2848]: WARNING: Trying to get data for non existing sub-client [1]
[2016.12.05 16:21:24] [0138m.56s.198ms] [1] SC[2848]: Registered sub-client [JobPrefsDBPI_1495201343] with ID [22] for session ID [2848] host [DESKTOP-TJKR3AR] user [branden.sheffield] process ID [13012]
[2016.12.05 16:21:24] [0138m.56s.201ms] [1] SC[2848]: UnRegistered sub-client [JobPrefsDBPI_1495201343] with ID [22] for session ID [2848] host [DESKTOP-TJKR3AR] user [branden.sheffield] process ID [13012]
[2016.12.05 16:21:24] [0138m.56s.319ms] [1] SC[2848]: Registered sub-client [JobPrefsDBPI_1495201468] with ID [23] for session ID [2848] host [DESKTOP-TJKR3AR] user [branden.sheffield] process ID [13012]
[2016.12.05 16:21:24] [0138m.56s.365ms] [1] SC[2848]: Registered sub-client [JobPrefsDBPI_1495201500] with ID [24] for session ID [2848] host [DESKTOP-TJKR3AR] user [branden.sheffield] process ID [13012]
[2016.12.05 16:21:24] [0138m.56s.368ms] [1] SC[2848]: UnRegistered sub-client [JobPrefsDBPI_1495201500] with ID [24] for session ID [2848] host [DESKTOP-TJKR3AR] user [branden.sheffield] process ID [13012]
[2016.12.05 16:22:38] [0140m.09s.849ms] [1] SC[2848]: Registered sub-client [JobPrefsDBPI_1495275000] with ID [25] for session ID [2848] host [DESKTOP-TJKR3AR] user [branden.sheffield] process ID [13012]
[2016.12.05 16:22:38] [0140m.09s.854ms] [1] SC[2848]: UnRegistered sub-client [JobPrefsDBPI_1495275000] with ID [25] for session ID [2848] host [DESKTOP-TJKR3AR] user [branden.sheffield] process ID [13012]
[2016.12.05 16:22:38] [0140m.09s.987ms] [1] SC[2848]: UnRegistered sub-client [JobPrefsDBPI_1495201468] with ID [23] for session ID [2848] host [DESKTOP-TJKR3AR] user [branden.sheffield] process ID [13012]
[2016.12.05 16:22:42] [0140m.14s.356ms] [1] SC[2848]: WARNING: Trying to get data for non existing sub-client [1]
[2016.12.05 16:22:42] [0140m.14s.356ms] [1] SC[2848]: WARNING: Trying to get data for non existing sub-client [1]
[2016.12.05 16:57:21] [0174m.53s.318ms] [1] SC[2848]: Registered sub-client [JobPrefsDBPI_1497358500] with ID [26] for session ID [2848] host [DESKTOP-TJKR3AR] user [branden.sheffield] process ID [13012]
[2016.12.05 16:57:21] [0174m.53s.321ms] [1] SC[2848]: UnRegistered sub-client [JobPrefsDBPI_1497358500] with ID [26] for session ID [2848] host [DESKTOP-TJKR3AR] user [branden.sheffield] process ID [13012]
[2016.12.05 16:57:21] [0174m.53s.445ms] [1] SC[2848]: Registered sub-client [NetClassDBPI_1497358625] with ID [27] for session ID [2848] host [DESKTOP-TJKR3AR] user [branden.sheffield] process ID [13012]
[2016.12.05 16:57:21] [0174m.53s.451ms] [1] SC[2848]: UnRegistered sub-client [NetClassDBPI_1497358625] with ID [27] for session ID [2848] host [DESKTOP-TJKR3AR] user [branden.sheffield] process ID [13012]
[2016.12.05 16:57:21] [0174m.53s.455ms] [1] SC[2848]: Registered sub-client [JobPrefsDBPI_1497358625] with ID [28] for session ID [2848] host [DESKTOP-TJKR3AR] user [branden.sheffield] process ID [13012]
[2016.12.05 16:57:21] [0174m.53s.458ms] [1] SC[2848]: UnRegistered sub-client [JobPrefsDBPI_1497358625] with ID [28] for session ID [2848] host [DESKTOP-TJKR3AR] user [branden.sheffield] process ID [13012]
[2016.12.05 16:57:25] [0174m.57s.025ms] [1] SC[2848]: Registered sub-client [JobPrefsDBPI_1497362203] with ID [29] for session ID [2848] host [DESKTOP-TJKR3AR] user [branden.sheffield] process ID [13012]
[2016.12.05 16:57:25] [0174m.57s.063ms] [1] SC[2848]: UnRegistered sub-client [JobPrefsDBPI_1497362203] with ID [29] for session ID [2848] host [DESKTOP-TJKR3AR] user [branden.sheffield] process ID [13012]
[2016.12.05 16:57:25] [0174m.57s.522ms] [0] IT: Session [2853] for host [DESKTOP-TJKR3AR] user [branden.sheffield] with process ID [20188] created
[2016.12.05 16:57:25] [0174m.57s.524ms] [0] IT: Session [2854] for host [DESKTOP-TJKR3AR] user [branden.sheffield] with process ID [4180] created
[2016.12.05 16:57:25] [0174m.57s.525ms] [0] IT: Session [2855] for host [DESKTOP-TJKR3AR] user [branden.sheffield] with process ID [10784] created
[2016.12.05 16:57:25] [0174m.57s.526ms] [1] SC[2853]: Registered sub-client [JobPrefsDBPI_1497362515] with ID [1] for session ID [2853] host [DESKTOP-TJKR3AR] user [branden.sheffield] process ID [20188]
[2016.12.05 16:57:25] [0174m.57s.526ms] [1] SC[2854]: Registered sub-client [JobPrefsDBPI_1497362531] with ID [1] for session ID [2854] host [DESKTOP-TJKR3AR] user [branden.sheffield] process ID [4180]
[2016.12.05 16:57:25] [0174m.57s.526ms] [1] SC[2855]: Registered sub-client [JobPrefsDBPI_1497362515] with ID [1] for session ID [2855] host [DESKTOP-TJKR3AR] user [branden.sheffield] process ID [10784]
[2016.12.05 16:57:25] [0174m.57s.534ms] [1] CMT: There are [5] clients now: 2847, 2848, 2853, 2854, 2855
[2016.12.05 16:57:26] [0174m.57s.617ms] [1] SC[2855]: Registered sub-client [JobPrefsDBPI_1497362796] with ID [2] for session ID [2855] host [DESKTOP-TJKR3AR] user [branden.sheffield] process ID [10784]
[2016.12.05 16:57:26] [0174m.57s.617ms] [1] SC[2853]: Registered sub-client [JobPrefsDBPI_1497362796] with ID [2] for session ID [2853] host [DESKTOP-TJKR3AR] user [branden.sheffield] process ID [20188]
[2016.12.05 16:57:26] [0174m.57s.620ms] [1] SC[2854]: Registered sub-client [JobPrefsDBPI_1497362796] with ID [2] for session ID [2854] host [DESKTOP-TJKR3AR] user [branden.sheffield] process ID [4180]
[2016.12.05 16:57:26] [0174m.57s.626ms] [1] SC[2855]: Registered sub-client [NetClassDBPI_1497362796] with ID [3] for session ID [2855] host [DESKTOP-TJKR3AR] user [branden.sheffield] process ID [10784]
[2016.12.05 16:57:26] [0174m.57s.627ms] [1] SC[2853]: Registered sub-client [NetClassDBPI_1497362796] with ID [3] for session ID [2853] host [DESKTOP-TJKR3AR] user [branden.sheffield] process ID [20188]
[2016.12.05 16:57:26] [0174m.57s.630ms] [1] SC[2854]: Registered sub-client [NetClassDBPI_1497362812] with ID [3] for session ID [2854] host [DESKTOP-TJKR3AR] user [branden.sheffield] process ID [4180]
[2016.12.05 16:57:26] [0174m.57s.635ms] [1] SC[2855]: Registered sub-client [Expedition_1497362812] with ID [4] for session ID [2855] host [DESKTOP-TJKR3AR] user [branden.sheffield] process ID [10784]
[2016.12.05 16:57:26] [0174m.57s.637ms] [1] SC[2855]: UnRegistered sub-client [Expedition_1497362812] with ID [4] for session ID [2855] host [DESKTOP-TJKR3AR] user [branden.sheffield] process ID [10784]
[2016.12.05 16:57:26] [0174m.57s.849ms] [0] IT: Session [2856] for host [DESKTOP-TJKR3AR] user [branden.sheffield] with process ID [4880] created
[2016.12.05 16:57:26] [0174m.57s.851ms] [1] SC[2856]: Registered sub-client [JobPrefsDBPI_1497362921] with ID [1] for session ID [2856] host [DESKTOP-TJKR3AR] user [branden.sheffield] process ID [4880]
[2016.12.05 16:57:26] [0174m.57s.877ms] [1] CMT: There are [6] clients now: 2847, 2848, 2853, 2854, 2855, 2856
[2016.12.05 16:57:26] [0174m.57s.899ms] [1] SC[2856]: Registered sub-client [NetClassDBPI_1497363078] with ID [2] for session ID [2856] host [DESKTOP-TJKR3AR] user [branden.sheffield] process ID [4880]
[2016.12.05 16:57:26] [0174m.57s.943ms] [1] SC[2856]: Registered sub-client [JobPrefsDBPI_1497363125] with ID [3] for session ID [2856] host [DESKTOP-TJKR3AR] user [branden.sheffield] process ID [4880]
[2016.12.05 16:57:26] [0174m.58s.509ms] [1] SC[2856]: Registered sub-client [Expedition_1497363687] with ID [4] for session ID [2856] host [DESKTOP-TJKR3AR] user [branden.sheffield] process ID [4880]
[2016.12.05 16:57:26] [0174m.58s.526ms] [1] SC[2856]: UnRegistered sub-client [Expedition_1497363687] with ID [4] for session ID [2856] host [DESKTOP-TJKR3AR] user [branden.sheffield] process ID [4880]
[2016.12.05 16:57:27] [0174m.58s.563ms] [1] SC[2854]: UnRegistered sub-client [JobPrefsDBPI_1497362796] with ID [2] for session ID [2854] host [DESKTOP-TJKR3AR] user [branden.sheffield] process ID [4180]
[2016.12.05 16:57:27] [0174m.58s.565ms] [1] SC[2854]: UnRegistered sub-client [JobPrefsDBPI_1497362531] with ID [1] for session ID [2854] host [DESKTOP-TJKR3AR] user [branden.sheffield] process ID [4180]
[2016.12.05 16:57:27] [0174m.58s.571ms] [1] SC[2854]: UnRegistered sub-client [NetClassDBPI_1497362812] with ID [3] for session ID [2854] host [DESKTOP-TJKR3AR] user [branden.sheffield] process ID [4180]
[2016.12.05 16:57:27] [0174m.58s.650ms] [1] CMT: Removed client [2854]
[2016.12.05 16:57:27] [0174m.58s.650ms] [1] CMT: There are [5] clients now: 2847, 2848, 2853, 2855, 2856
[2016.12.05 16:57:27] [0174m.58s.696ms] [1] SC[2856]: UnRegistered sub-client [JobPrefsDBPI_1497363125] with ID [3] for session ID [2856] host [DESKTOP-TJKR3AR] user [branden.sheffield] process ID [4880]
[2016.12.05 16:57:27] [0174m.58s.697ms] [1] SC[2856]: UnRegistered sub-client [JobPrefsDBPI_1497362921] with ID [1] for session ID [2856] host [DESKTOP-TJKR3AR] user [branden.sheffield] process ID [4880]
[2016.12.05 16:57:27] [0174m.58s.703ms] [1] SC[2856]: UnRegistered sub-client [NetClassDBPI_1497363078] with ID [2] for session ID [2856] host [DESKTOP-TJKR3AR] user [branden.sheffield] process ID [4880]
[2016.12.05 16:57:27] [0174m.58s.759ms] [1] CMT: Removed client [2856]
[2016.12.05 16:57:27] [0174m.58s.759ms] [1] CMT: There are [4] clients now: 2847, 2848, 2853, 2855
[2016.12.05 16:57:27] [0174m.59s.107ms] [1] SC[2855]: UnRegistered sub-client [JobPrefsDBPI_1497362796] with ID [2] for session ID [2855] host [DESKTOP-TJKR3AR] user [branden.sheffield] process ID [10784]
[2016.12.05 16:57:27] [0174m.59s.108ms] [1] SC[2855]: UnRegistered sub-client [JobPrefsDBPI_1497362515] with ID [1] for session ID [2855] host [DESKTOP-TJKR3AR] user [branden.sheffield] process ID [10784]
[2016.12.05 16:57:27] [0174m.59s.115ms] [1] SC[2855]: UnRegistered sub-client [NetClassDBPI_1497362796] with ID [3] for session ID [2855] host [DESKTOP-TJKR3AR] user [branden.sheffield] process ID [10784]
[2016.12.05 16:57:27] [0174m.59s.193ms] [1] CMT: Removed client [2855]
[2016.12.05 16:57:27] [0174m.59s.193ms] [1] CMT: There are [3] clients now: 2847, 2848, 2853
[2016.12.05 16:57:28] [0174m.59s.636ms] [1] SC[2853]: UnRegistered sub-client [JobPrefsDBPI_1497362796] with ID [2] for session ID [2853] host [DESKTOP-TJKR3AR] user [branden.sheffield] process ID [20188]
[2016.12.05 16:57:28] [0174m.59s.637ms] [1] SC[2853]: UnRegistered sub-client [JobPrefsDBPI_1497362515] with ID [1] for session ID [2853] host [DESKTOP-TJKR3AR] user [branden.sheffield] process ID [20188]
[2016.12.05 16:57:28] [0174m.59s.642ms] [1] SC[2853]: UnRegistered sub-client [NetClassDBPI_1497362796] with ID [3] for session ID [2853] host [DESKTOP-TJKR3AR] user [branden.sheffield] process ID [20188]
[2016.12.05 16:57:28] [0174m.59s.737ms] [1] CMT: Removed client [2853]
[2016.12.05 16:57:28] [0174m.59s.737ms] [1] CMT: There are [2] clients now: 2847, 2848
[2016.12.05 16:57:37] [0175m.08s.987ms] [1] SC[2848]: WARNING: Trying to get data for non existing sub-client [1]
[2016.12.05 16:57:37] [0175m.08s.987ms] [1] SC[2848]: WARNING: Trying to get data for non existing sub-client [1]
[2016.12.05 16:57:48] [0175m.20s.397ms] [1] SC[2848]: WARNING: Trying to get data for non existing sub-client [1]
[2016.12.05 16:57:48] [0175m.20s.397ms] [1] SC[2848]: WARNING: Trying to get data for non existing sub-client [1]
[2016.12.05 16:58:09] [0175m.41s.197ms] [1] SC[2848]: WARNING: Trying to get data for non existing sub-client [1]
[2016.12.05 16:58:09] [0175m.41s.198ms] [1] SC[2848]: WARNING: Trying to get data for non existing sub-client [1]
[2016.12.05 16:58:15] [0175m.46s.769ms] [1] SC[2848]: WARNING: Trying to get data for non existing sub-client [1]
[2016.12.05 16:58:15] [0175m.46s.769ms] [1] SC[2848]: WARNING: Trying to get data for non existing sub-client [1]
[2016.12.05 16:59:32] [0177m.03s.878ms] [1] SC[2848]: WARNING: Trying to get data for non existing sub-client [1]
[2016.12.05 16:59:32] [0177m.03s.879ms] [1] SC[2848]: WARNING: Trying to get data for non existing sub-client [1]
[2016.12.05 17:01:00] [0178m.32s.297ms] [1] SC[2848]: WARNING: Trying to get data for non existing sub-client [1]
[2016.12.05 17:01:00] [0178m.32s.298ms] [1] SC[2848]: WARNING: Trying to get data for non existing sub-client [1]
[2016.12.05 17:04:00] [0181m.31s.683ms] [1] SC[2848]: WARNING: Trying to get data for non existing sub-client [1]
[2016.12.05 17:04:00] [0181m.31s.684ms] [1] SC[2848]: WARNING: Trying to get data for non existing sub-client [1]
[2016.12.05 17:04:10] [0181m.41s.685ms] [1] SC[2848]: WARNING: Trying to get data for non existing sub-client [1]
[2016.12.05 17:04:10] [0181m.41s.686ms] [1] SC[2848]: WARNING: Trying to get data for non existing sub-client [1]
[2016.12.05 17:04:30] [0182m.02s.351ms] [1] SC[2848]: WARNING: Trying to get data for non existing sub-client [1]
[2016.12.05 17:04:30] [0182m.02s.352ms] [1] SC[2848]: WARNING: Trying to get data for non existing sub-client [1]
[2016.12.05 17:11:22] [0188m.54s.023ms] [1] SC[2848]: WARNING: Trying to get data for non existing sub-client [1]
[2016.12.05 17:11:22] [0188m.54s.024ms] [1] SC[2848]: WARNING: Trying to get data for non existing sub-client [1]
[2016.12.05 17:11:43] [0189m.14s.946ms] [1] SC[2848]: WARNING: Trying to get data for non existing sub-client [1]
[2016.12.05 17:11:43] [0189m.14s.947ms] [1] SC[2848]: WARNING: Trying to get data for non existing sub-client [1]
[2016.12.05 17:12:00] [0189m.32s.346ms] [1] SC[2848]: WARNING: Trying to get data for non existing sub-client [1]
[2016.12.05 17:12:00] [0189m.32s.347ms] [1] SC[2848]: WARNING: Trying to get data for non existing sub-client [1]
[2016.12.05 17:12:39] [0190m.10s.832ms] [1] SC[2848]: Registered sub-client [JobPrefsDBPI_1498276031] with ID [30] for session ID [2848] host [DESKTOP-TJKR3AR] user [branden.sheffield] process ID [13012]
[2016.12.05 17:12:39] [0190m.10s.835ms] [1] SC[2848]: UnRegistered sub-client [JobPrefsDBPI_1498276031] with ID [30] for session ID [2848] host [DESKTOP-TJKR3AR] user [branden.sheffield] process ID [13012]
[2016.12.05 17:12:39] [0190m.10s.976ms] [1] SC[2848]: Registered sub-client [NetClassDBPI_1498276171] with ID [31] for session ID [2848] host [DESKTOP-TJKR3AR] user [branden.sheffield] process ID [13012]
[2016.12.05 17:12:39] [0190m.10s.979ms] [1] SC[2848]: UnRegistered sub-client [NetClassDBPI_1498276171] with ID [31] for session ID [2848] host [DESKTOP-TJKR3AR] user [branden.sheffield] process ID [13012]
[2016.12.05 17:12:39] [0190m.10s.984ms] [1] SC[2848]: Registered sub-client [JobPrefsDBPI_1498276187] with ID [32] for session ID [2848] host [DESKTOP-TJKR3AR] user [branden.sheffield] process ID [13012]
[2016.12.05 17:12:39] [0190m.10s.987ms] [1] SC[2848]: UnRegistered sub-client [JobPrefsDBPI_1498276187] with ID [32] for session ID [2848] host [DESKTOP-TJKR3AR] user [branden.sheffield] process ID [13012]
[2016.12.05 17:12:41] [0190m.12s.624ms] [1] SC[2848]: Registered sub-client [JobPrefsDBPI_1498277828] with ID [33] for session ID [2848] host [DESKTOP-TJKR3AR] user [branden.sheffield] process ID [13012]
[2016.12.05 17:12:41] [0190m.12s.660ms] [1] SC[2848]: UnRegistered sub-client [JobPrefsDBPI_1498277828] with ID [33] for session ID [2848] host [DESKTOP-TJKR3AR] user [branden.sheffield] process ID [13012]
[2016.12.05 17:12:41] [0190m.12s.964ms] [0] IT: Session [2857] for host [DESKTOP-TJKR3AR] user [branden.sheffield] with process ID [196] created
[2016.12.05 17:12:41] [0190m.12s.965ms] [1] SC[2857]: Registered sub-client [JobPrefsDBPI_1498278015] with ID [1] for session ID [2857] host [DESKTOP-TJKR3AR] user [branden.sheffield] process ID [196]
[2016.12.05 17:12:41] [0190m.12s.980ms] [0] IT: Session [2858] for host [DESKTOP-TJKR3AR] user [branden.sheffield] with process ID [19160] created
[2016.12.05 17:12:41] [0190m.12s.981ms] [1] SC[2858]: Registered sub-client [JobPrefsDBPI_1498278015] with ID [1] for session ID [2858] host [DESKTOP-TJKR3AR] user [branden.sheffield] process ID [19160]
[2016.12.05 17:12:41] [0190m.13s.008ms] [0] IT: Session [2859] for host [DESKTOP-TJKR3AR] user [branden.sheffield] with process ID [12412] created
[2016.12.05 17:12:41] [0190m.13s.009ms] [1] CMT: There are [5] clients now: 2847, 2848, 2857, 2858, 2859
[2016.12.05 17:12:41] [0190m.13s.013ms] [0] IT: Session [2860] for host [DESKTOP-TJKR3AR] user [branden.sheffield] with process ID [10728] created
[2016.12.05 17:12:41] [0190m.13s.016ms] [1] SC[2859]: Registered sub-client [JobPrefsDBPI_1498278062] with ID [1] for session ID [2859] host [DESKTOP-TJKR3AR] user [branden.sheffield] process ID [12412]
[2016.12.05 17:12:41] [0190m.13s.019ms] [1] SC[2860]: Registered sub-client [JobPrefsDBPI_1498278062] with ID [1] for session ID [2860] host [DESKTOP-TJKR3AR] user [branden.sheffield] process ID [10728]
[2016.12.05 17:12:41] [0190m.13s.064ms] [1] SC[2857]: Registered sub-client [JobPrefsDBPI_1498278265] with ID [2] for session ID [2857] host [DESKTOP-TJKR3AR] user [branden.sheffield] process ID [196]
[2016.12.05 17:12:41] [0190m.13s.067ms] [1] SC[2860]: Registered sub-client [NetClassDBPI_1498278265] with ID [2] for session ID [2860] host [DESKTOP-TJKR3AR] user [branden.sheffield] process ID [10728]
[2016.12.05 17:12:41] [0190m.13s.078ms] [1] SC[2857]: Registered sub-client [NetClassDBPI_1498278281] with ID [3] for session ID [2857] host [DESKTOP-TJKR3AR] user [branden.sheffield] process ID [196]
[2016.12.05 17:12:41] [0190m.13s.090ms] [1] SC[2858]: Registered sub-client [JobPrefsDBPI_1498278281] with ID [2] for session ID [2858] host [DESKTOP-TJKR3AR] user [branden.sheffield] process ID [19160]
[2016.12.05 17:12:41] [0190m.13s.100ms] [1] SC[2858]: Registered sub-client [NetClassDBPI_1498278296] with ID [3] for session ID [2858] host [DESKTOP-TJKR3AR] user [branden.sheffield] process ID [19160]
[2016.12.05 17:12:41] [0190m.13s.113ms] [1] SC[2860]: Registered sub-client [JobPrefsDBPI_1498278312] with ID [3] for session ID [2860] host [DESKTOP-TJKR3AR] user [branden.sheffield] process ID [10728]
[2016.12.05 17:12:41] [0190m.13s.121ms] [1] SC[2859]: Registered sub-client [JobPrefsDBPI_1498278312] with ID [2] for session ID [2859] host [DESKTOP-TJKR3AR] user [branden.sheffield] process ID [12412]
[2016.12.05 17:12:41] [0190m.13s.132ms] [1] SC[2859]: Registered sub-client [NetClassDBPI_1498278328] with ID [3] for session ID [2859] host [DESKTOP-TJKR3AR] user [branden.sheffield] process ID [12412]
[2016.12.05 17:12:41] [0190m.13s.147ms] [1] SC[2859]: Registered sub-client [Expedition_1498278343] with ID [4] for session ID [2859] host [DESKTOP-TJKR3AR] user [branden.sheffield] process ID [12412]
[2016.12.05 17:12:41] [0190m.13s.150ms] [1] SC[2859]: UnRegistered sub-client [Expedition_1498278343] with ID [4] for session ID [2859] host [DESKTOP-TJKR3AR] user [branden.sheffield] process ID [12412]
[2016.12.05 17:12:41] [0190m.13s.157ms] [1] CMT: There are [6] clients now: 2847, 2848, 2857, 2858, 2859, 2860
[2016.12.05 17:12:42] [0190m.13s.681ms] [1] SC[2860]: Registered sub-client [Expedition_1498278875] with ID [4] for session ID [2860] host [DESKTOP-TJKR3AR] user [branden.sheffield] process ID [10728]
[2016.12.05 17:12:42] [0190m.13s.726ms] [1] SC[2860]: UnRegistered sub-client [Expedition_1498278875] with ID [4] for session ID [2860] host [DESKTOP-TJKR3AR] user [branden.sheffield] process ID [10728]
[2016.12.05 17:12:42] [0190m.14s.019ms] [1] SC[2858]: UnRegistered sub-client [JobPrefsDBPI_1498278281] with ID [2] for session ID [2858] host [DESKTOP-TJKR3AR] user [branden.sheffield] process ID [19160]
[2016.12.05 17:12:42] [0190m.14s.020ms] [1] SC[2858]: UnRegistered sub-client [JobPrefsDBPI_1498278015] with ID [1] for session ID [2858] host [DESKTOP-TJKR3AR] user [branden.sheffield] process ID [19160]
[2016.12.05 17:12:42] [0190m.14s.025ms] [1] SC[2858]: UnRegistered sub-client [NetClassDBPI_1498278296] with ID [3] for session ID [2858] host [DESKTOP-TJKR3AR] user [branden.sheffield] process ID [19160]
[2016.12.05 17:12:42] [0190m.14s.066ms] [1] CMT: Removed client [2858]
[2016.12.05 17:12:42] [0190m.14s.066ms] [1] CMT: There are [5] clients now: 2847, 2848, 2857, 2859, 2860
[2016.12.05 17:12:42] [0190m.14s.079ms] [1] SC[2860]: UnRegistered sub-client [JobPrefsDBPI_1498278312] with ID [3] for session ID [2860] host [DESKTOP-TJKR3AR] user [branden.sheffield] process ID [10728]
[2016.12.05 17:12:42] [0190m.14s.081ms] [1] SC[2860]: UnRegistered sub-client [JobPrefsDBPI_1498278062] with ID [1] for session ID [2860] host [DESKTOP-TJKR3AR] user [branden.sheffield] process ID [10728]
[2016.12.05 17:12:42] [0190m.14s.087ms] [1] SC[2860]: UnRegistered sub-client [NetClassDBPI_1498278265] with ID [2] for session ID [2860] host [DESKTOP-TJKR3AR] user [branden.sheffield] process ID [10728]
[2016.12.05 17:12:42] [0190m.14s.173ms] [1] CMT: Removed client [2860]
[2016.12.05 17:12:42] [0190m.14s.173ms] [1] CMT: There are [4] clients now: 2847, 2848, 2857, 2859
[2016.12.05 17:12:43] [0190m.14s.568ms] [1] SC[2859]: UnRegistered sub-client [JobPrefsDBPI_1498278312] with ID [2] for session ID [2859] host [DESKTOP-TJKR3AR] user [branden.sheffield] process ID [12412]
[2016.12.05 17:12:43] [0190m.14s.569ms] [1] SC[2859]: UnRegistered sub-client [JobPrefsDBPI_1498278062] with ID [1] for session ID [2859] host [DESKTOP-TJKR3AR] user [branden.sheffield] process ID [12412]
[2016.12.05 17:12:43] [0190m.14s.576ms] [1] SC[2859]: UnRegistered sub-client [NetClassDBPI_1498278328] with ID [3] for session ID [2859] host [DESKTOP-TJKR3AR] user [branden.sheffield] process ID [12412]
[2016.12.05 17:12:43] [0190m.14s.608ms] [1] CMT: Removed client [2859]
[2016.12.05 17:12:43] [0190m.14s.608ms] [1] CMT: There are [3] clients now: 2847, 2848, 2857
[2016.12.05 17:12:43] [0190m.15s.099ms] [1] SC[2857]: UnRegistered sub-client [JobPrefsDBPI_1498278265] with ID [2] for session ID [2857] host [DESKTOP-TJKR3AR] user [branden.sheffield] process ID [196]
[2016.12.05 17:12:43] [0190m.15s.101ms] [1] SC[2857]: UnRegistered sub-client [JobPrefsDBPI_1498278015] with ID [1] for session ID [2857] host [DESKTOP-TJKR3AR] user [branden.sheffield] process ID [196]
[2016.12.05 17:12:43] [0190m.15s.106ms] [1] SC[2857]: UnRegistered sub-client [NetClassDBPI_1498278281] with ID [3] for session ID [2857] host [DESKTOP-TJKR3AR] user [branden.sheffield] process ID [196]
[2016.12.05 17:12:43] [0190m.15s.152ms] [1] CMT: Removed client [2857]
[2016.12.05 17:12:43] [0190m.15s.152ms] [1] CMT: There are [2] clients now: 2847, 2848
[2016.12.05 17:18:26] [0195m.58s.333ms] [1] SC[2848]: WARNING: Trying to get data for non existing sub-client [1]
[2016.12.05 17:18:26] [0195m.58s.334ms] [1] SC[2848]: WARNING: Trying to get data for non existing sub-client [1]
[2016.12.05 17:33:39] [0211m.10s.782ms] [1] SC[2848]: WARNING: Trying to get data for non existing sub-client [1]
[2016.12.05 17:33:39] [0211m.10s.783ms] [1] SC[2848]: WARNING: Trying to get data for non existing sub-client [1]
[2016.12.05 17:35:51] [0213m.23s.358ms] [1] SC[2848]: UnRegistered sub-client [ExpeditionCrossProber] with ID [12] for session ID [2848] host [DESKTOP-TJKR3AR] user [branden.sheffield] process ID [13012]
[2016.12.05 17:35:54] [0213m.26s.206ms] [1] SC[2848]: UnRegistered sub-client [Expedition PE_1493108015] with ID [10] for session ID [2848] host [DESKTOP-TJKR3AR] user [branden.sheffield] process ID [13012]
[2016.12.05 17:35:54] [0213m.26s.255ms] [1] CMT: Removed client [2848]
[2016.12.05 17:35:54] [0213m.26s.255ms] [1] CMT: There are [1] clients now: 2847
[2016.12.05 17:36:02] [0213m.34s.407ms] [1] SC[2847]: UnRegistered sub-client [SystemDesignDll] with ID [11] for session ID [2847] host [DESKTOP-TJKR3AR] user [branden.sheffield] process ID [8924]
[2016.12.05 17:36:02] [0213m.34s.516ms] [1] SC[2847]: UnRegistered sub-client [DesignSearcher2] with ID [12] for session ID [2847] host [DESKTOP-TJKR3AR] user [branden.sheffield] process ID [8924]
[2016.12.05 17:36:03] [0213m.34s.770ms] [1] SC[2847]: UnRegistered sub-client [GlobalNetAliasUpdater_523822320] with ID [31] for session ID [2847] host [DESKTOP-TJKR3AR] user [branden.sheffield] process ID [8924]
[2016.12.05 17:36:03] [0213m.34s.770ms] [1] SC[2847]: UnRegistered sub-client [BlockCacheDxD:229718272] with ID [30] for session ID [2847] host [DESKTOP-TJKR3AR] user [branden.sheffield] process ID [8924]
[2016.12.05 17:36:03] [0213m.34s.771ms] [1] SC[2847]: UnRegistered sub-client [ObjectHolder_523823464] with ID [29] for session ID [2847] host [DESKTOP-TJKR3AR] user [branden.sheffield] process ID [8924]
[2016.12.05 17:36:03] [0213m.34s.771ms] [1] SC[2847]: UnRegistered sub-client [IcdbNetProcessorSubClientDxD:523606904] with ID [32] for session ID [2847] host [DESKTOP-TJKR3AR] user [branden.sheffield] process ID [8924]
[2016.12.05 17:36:03] [0213m.34s.881ms] [1] SC[2847]: UnRegistered sub-client [Navigator] with ID [14] for session ID [2847] host [DESKTOP-TJKR3AR] user [branden.sheffield] process ID [8924]
[2016.12.05 17:36:03] [0213m.34s.903ms] [1] SC[2847]: UnRegistered sub-client [LocalSymbolsDataProvider] with ID [17] for session ID [2847] host [DESKTOP-TJKR3AR] user [branden.sheffield] process ID [8924]
[2016.12.05 17:36:04] [0213m.36s.315ms] [1] SC[2847]: UnRegistered sub-client [MyParts] with ID [21] for session ID [2847] host [DESKTOP-TJKR3AR] user [branden.sheffield] process ID [8924]
[2016.12.05 17:36:04] [0213m.36s.325ms] [1] SC[2847]: UnRegistered sub-client [toolboxes] with ID [23] for session ID [2847] host [DESKTOP-TJKR3AR] user [branden.sheffield] process ID [8924]
[2016.12.05 17:36:08] [0213m.40s.001ms] [1] SC[2847]: UnRegistered sub-client [SelectionHolder] with ID [5] for session ID [2847] host [DESKTOP-TJKR3AR] user [branden.sheffield] process ID [8924]
[2016.12.05 17:36:08] [0213m.40s.002ms] [1] SC[2847]: UnRegistered sub-client [PartReplaceUtils] with ID [27] for session ID [2847] host [DESKTOP-TJKR3AR] user [branden.sheffield] process ID [8924]
[2016.12.05 17:36:09] [0213m.40s.673ms] [1] SC[2847]: UnRegistered sub-client [ProjectIntegrationIcdbCacheDxD:285594256] with ID [24] for session ID [2847] host [DESKTOP-TJKR3AR] user [branden.sheffield] process ID [8924]
[2016.12.05 17:36:09] [0213m.40s.674ms] [1] SC[2847]: UnRegistered sub-client [SheetConnectorsCacheDxD:1480971766] with ID [25] for session ID [2847] host [DESKTOP-TJKR3AR] user [branden.sheffield] process ID [8924]
[2016.12.05 17:36:09] [0213m.40s.674ms] [1] SC[2847]: UnRegistered sub-client [NetsNamesCollectorDxD:1480971766] with ID [26] for session ID [2847] host [DESKTOP-TJKR3AR] user [branden.sheffield] process ID [8924]
[2016.12.05 17:36:09] [0213m.40s.677ms] [1] SC[2847]: UnRegistered sub-client [TransactionRollbackSubClient] with ID [2] for session ID [2847] host [DESKTOP-TJKR3AR] user [branden.sheffield] process ID [8924]
[2016.12.05 17:36:09] [0213m.40s.678ms] [1] SC[2847]: UnRegistered sub-client [DxD] with ID [1] for session ID [2847] host [DESKTOP-TJKR3AR] user [branden.sheffield] process ID [8924]
[2016.12.05 17:36:09] [0213m.40s.705ms] [1] SC[2847]: UnRegistered sub-client [xprob] with ID [3] for session ID [2847] host [DESKTOP-TJKR3AR] user [branden.sheffield] process ID [8924]
[2016.12.05 17:36:09] [0213m.40s.705ms] [1] SC[2847]: UnRegistered sub-client [SymbolEditor] with ID [4] for session ID [2847] host [DESKTOP-TJKR3AR] user [branden.sheffield] process ID [8924]
[2016.12.05 17:36:09] [0213m.40s.715ms] [1] SC[2847]: UnRegistered sub-client [OutputWindow] with ID [15] for session ID [2847] host [DESKTOP-TJKR3AR] user [branden.sheffield] process ID [8924]
[2016.12.05 17:36:09] [0213m.40s.727ms] [1] SC[2847]: UnRegistered sub-client [DxDbSearch] with ID [28] for session ID [2847] host [DESKTOP-TJKR3AR] user [branden.sheffield] process ID [8924]
[2016.12.05 17:36:09] [0213m.40s.788ms] [1] SC[2847]: UnRegistered sub-client [SAE] with ID [18] for session ID [2847] host [DESKTOP-TJKR3AR] user [branden.sheffield] process ID [8924]
[2016.12.05 17:36:09] [0213m.40s.810ms] [1] SC[2847]: UnRegistered sub-client [CCZAddin] with ID [19] for session ID [2847] host [DESKTOP-TJKR3AR] user [branden.sheffield] process ID [8924]
[2016.12.05 17:36:09] [0213m.40s.815ms] [1] SC[2847]: UnRegistered sub-client [DxThumbnails] with ID [20] for session ID [2847] host [DESKTOP-TJKR3AR] user [branden.sheffield] process ID [8924]
[2016.12.05 17:36:11] [0213m.43s.017ms] [1] SC[2847]: UnRegistered sub-client [PinsList] with ID [22] for session ID [2847] host [DESKTOP-TJKR3AR] user [branden.sheffield] process ID [8924]
[2016.12.05 17:36:11] [0213m.43s.162ms] [1] SC[2847]: UnRegistered sub-client [PlaceDevice] with ID [16] for session ID [2847] host [DESKTOP-TJKR3AR] user [branden.sheffield] process ID [8924]
[2016.12.05 17:36:11] [0213m.43s.226ms] [1] SC[2847]: UnRegistered sub-client [HdlProject] with ID [13] for session ID [2847] host [DESKTOP-TJKR3AR] user [branden.sheffield] process ID [8924]
[2016.12.05 17:36:11] [0213m.43s.348ms] [1] CMT: Removed client [2847]
[2016.12.05 17:36:11] [0213m.43s.348ms] [1] CMT: There are no clients left - waiting [1 seconds]
[2016.12.05 17:36:12] [0213m.43s.620ms] [0] SD[1]: ERROR: Receiving command: Socket Exception: Category[Socket] Error[ConnectionClosed] Description[Connection closed] Message[]
[2016.12.05 17:36:12] [0213m.43s.621ms] [1] DMT: Removed iCDB Server Monitor [1]
[2016.12.05 17:36:13] [0213m.44s.655ms] [0] CMT: Starting server auto-close
[2016.12.05 17:36:13] [0213m.44s.767ms] [0] S: Closing server
[2016.12.05 17:36:13] [0213m.44s.922ms] [0] iCDB Server PI: Closing plugins
[2016.12.05 17:36:13] [0213m.44s.930ms] [0] iCDB Server PI: Plugins closed
[2016.12.05 17:36:13] [0213m.44s.931ms] [0] iCDB Server PI: Unloading database
[2016.12.05 17:36:13] [0213m.44s.931ms] [0] iCDB Server PI: Saving storage
[2016.12.05 17:36:13] [0213m.44s.932ms] [0] iCDB Server PI: Closing database
[2016.12.05 17:36:13] [0213m.44s.935ms] [1] iCDB Server PI: Stats: Database defragmentation: max[3] avg[1] holes[0%] data[99%]
[2016.12.05 17:36:13] [0213m.44s.935ms] [1] iCDB Server PI: Stats: Database file size [1111696 (1.1 MB)]
[2016.12.05 17:36:13] [0213m.44s.960ms] [0] iCDB Server PI: Database closed
[2016.12.05 17:36:13] [0213m.44s.960ms] [1] iCDB Server PI: Stats: Total iCDB execution time: [204541] ticks
[2016.12.05 17:36:13] [0213m.44s.960ms] [1] iCDB Server PI: Stats: Total iCDB execution time: [74590] microseconds
[2016.12.05 17:36:13] [0213m.44s.960ms] [1] iCDB Server PI: Stats: Total iCDB commands count: [192]
[2016.12.05 17:36:13] [0213m.44s.960ms] [1] iCDB Server PI: Stats: Average iCDB speed:        [2574] commands per second
[2016.12.05 17:36:13] [0213m.44s.970ms] [0] Single file [C:\pd_repo\pd\_CITADEL\Mentor\Citadel\database\icdb.dat] closed with size [1111696 (1.1 MB)]
[2016.12.05 17:36:13] [0213m.45s.116ms] [0] MWT: Destroy the shutdown block reason.
[2016.12.05 17:36:13] [0213m.45s.117ms] [0] MWT: STOP
[2016.12.05 17:36:13] [0213m.45s.118ms] [0] S: STOP
