SECTION VBPCBDesignData
KEY VBPCBDesignPath "Main.mdf"
ENDSECTION
SECTION DesignInfo
KEY CentralLibrary "C:\MentorGraphics\PADSProVX.1.1\SDD_HOME\standard\examples\Xpedition_PE_Library\Xpedition_PE.lmc"
ENDSECTION
SECTION ConfigurationInfo
LIST Configurations
VALUE "Default"
ENDLIST
KEY ActiveConfiguration "Default"
ENDSECTION
SECTION Default
LIST BlockViewMap
ENDLIST
LIST Types
VALUE "FPGA(*.fpk)"
VALUE "All(*.*)"
VALUE "Verilog(*.v)"
VALUE "VHDL(*.vhd)"
VALUE "BlockSymbols(*.blk)"
VALUE "TruthTables(*.tbl)"
VALUE "FlowCharts(*.sfc)"
VALUE "StateDiagrams(*.sdg)"
VALUE "Schematics(*.sbk)"
ENDLIST
LIST FPGA(*.fpk)
ENDLIST
LIST All(*.*)
ENDLIST
LIST Verilog(*.v)
ENDLIST
LIST VHDL(*.vhd)
ENDLIST
LIST BlockSymbols(*.blk)
ENDLIST
LIST TruthTables(*.tbl)
ENDLIST
LIST FlowCharts(*.sfc)
ENDLIST
LIST StateDiagrams(*.sdg)
ENDLIST
LIST Schematics(*.sbk)
ENDLIST
ENDSECTION
SECTION ICXProInfo
KEY HighSpeedPathsVersion "1"
KEY ICXProDir "./HighSpeed/ICXPro"
KEY IBISModelMgrDir "./HighSpeed/ICXPro/Model_Manager"
KEY VerifyDir "./HighSpeed/ICXPro/Verify"
KEY VerifyResultsDir "./HighSpeed/ICXPro/Verify/DataBases"
KEY VerifyLogFilesDir "./HighSpeed/ICXPro/Verify/LogFiles"
KEY VerifyWaveformsDir "./HighSpeed/ICXPro/Verify/Waveforms"
KEY VerifySandBoxDir "./HighSpeed/ICXPro/Verify"
KEY SimTemplatesDir "./HighSpeed/ICXPro/Simulation_Templates"
KEY PostLayoutExplorerDir "./HighSpeed/ICXPro/PostLayoutExplorer"
KEY PostLayoutLineSim "./HighSpeed/HyperLynx/PostLayoutLineSim"
ENDSECTION
