=======================================================================
PADS Professional Layout - Version 2015.0.678.963
=======================================================================

Job Directory:        C:\Users\branden.sheffield\Documents\Crusher3.0\Mentor\CrusherMain\PCB\

Design Status Report: C:\Users\branden.sheffield\Documents\Crusher3.0\Mentor\CrusherMain\PCB\LogFiles\DesignStatus_26.txt

Mon Nov 09 12:43:48 2015

=======================================================================
DESIGN STATUS
=======================================================================
Board Size Extents  ............ 55.97 X 61.11 (mm)
Route Border Extents  .......... 55.97 X 61.11 (mm)
Actual Board Area  ............. 1,674.55 (mm)
Actual Route Area  ............. 1,674.55 (mm)

Placement Areas: Name            Available         Required          Required/Available
                 Entire Board    3,349.1 Sq. (mm)  1,276.71 Sq. (mm) 38.12 %

Pins  .......................... 510
Pins per Route Area  ........... 0.3 Pins/Sq. (mm)

Layers  ........................ 4
    Layer 1 is a signal layer
        Trace Widths  .......... 0.1, 0.13, 0.13, 0.14, 0.16, 0.2, 0.23, 0.25, 0.25, 0.3, 0.35, 0.4, 0.5, 1, 1.5
    Layer 2 is a signal layer
        Trace Widths  .......... 0.2
    Layer 3 is a signal layer
        Trace Widths  .......... 0.1, 0.13, 0.13, 0.2, 0.3, 0.4
    Layer 4 is a signal layer
        Trace Widths  .......... 0.1, 0.13, 0.13, 0.2, 0.3, 0.4, 0.5, 0.7, 1.4

Nets  .......................... 134
Connections  ................... 406
Open Connections  .............. 97
Differential Pairs  ............ 0
Percent Routed  ................ 76.11 %

Netline Length  ................ 453.17 (mm)
Netline Manhattan Length  ...... 570.02 (mm)
Total Trace Length  ............ 1,909 (mm)

Trace Widths Used (mm)  ........ 0.1, 0.13, 0.13, 0.14, 0.16, 0.2, 0.23, 0.25, 0.25, 0.3, 0.35, 0.4, 0.5, 0.7, 1, 1.4, 1.5
Vias  .......................... 212
Via Span  Name                   Quantity
   1-4    026VIA                 11
          0.3Via0.15h            7
          0.3VIAh0.15            26
          0.38VIAh0.2            104
          0.38VIAh0.25           64

Teardrops....................... 0
    Pad Teardrops............... 0
    Trace Teardrops............. 0
    Custom Teardrops............ 0
Tracedrops...................... 0

Virtual Pins.................... 0
Guide Pins ..................... 0

Parts Placed  .................. 196
    Parts Mounted on Top  ...... 124
        SMD  ................... 80
        Through  ............... 4
        Test Points  ........... 40
        Mechanical  ............ 0
    Parts Mounted on Bottom  ... 72
        SMD  ................... 56
        Through  ............... 1
        Test Points  ........... 15
        Mechanical  ............ 0
    Embedded Components ........ 0
        Capacitors ............. 0
        Resistors .............. 0
    Edge Connector Parts  ...... 0

Parts not Placed  .............. 2

Nested Cells  .................. 0

Jumpers  ....................... 0

Through Holes  ................. 238
    Holes per Board Area  ...... 0.14 Holes/Sq. (mm)
Mounting Holes  ................ 17
