 ----------------------------
|      Drill Prefs Log       |
|          Started           |
|  Wed Dec 28 17:44:24 2016  |
 ----------------------------

 ----------------------------
|      Drill Prefs Log       |
|          Finished          |
|  Wed Dec 28 17:44:24 2016  |
 ----------------------------

