
                                   DXF Export
                                   ----------

                      06:03 PM Thursday, September 24, 2015
Job Name: C:\Users\branden.sheffield\Documents\Crusher3.0\Mentor\CrusherMain\PCB\Main.pcb



    DXF File: C:\Users\branden.sheffield\Documents\Crusher3.0\Mentor\CrusherMain\PCB\Output\TopMount.dxf


    Total - Export Element
    ----------------------------------------------------------------------

        40 - Assembly Outlines Top

       125 - Assembly Part Numbers Top

        85 - Assembly Ref Des Top

         1 - Board Outline

        49 - DXF_Board_outline

       282 - DXF_0

         4 - Default User Layer

        17 - Mounting Holes Layer 1

         9 - Part Holes Layer 1

         9 - Part Pads Layer 1

       294 - Part Pads SMD Top

        88 - Placement Outlines Top

       114 - Silkscreen Outlines Top

        85 - Silkscreen Ref Des Top

       355 - Soldermask Pads Top

       301 - Solderpaste Pads Top


    Successful Completion.



                        06:03 PM Thursday, September 24, 2015