 ----------------------------
|       EzPDF Output Log     |
|          Started           |
|  Wed May 25 11:45:15 2016  |
 ----------------------------


    Processing document ......
    Processing sheet Sheet1......
    Processing sheet Sheet2......
    Processing sheet Sheet3......
    Processing sheet Sheet4......
    Processing sheet Sheet5......
    Processing sheet Sheet6......
    Processing sheet Sheet7......
    Processing sheet Sheet8......
 ---------------------------
|       EzPDF Output Log     |
|          Finished          |
|  Wed May 25 11:45:17 2016  |
 ----------------------------
