=======================================================================
PADS Professional Layout - Version 116.0.506.1217
=======================================================================

RELOAD CELLS

Job Directory:  C:\pd_repo\pd\_CITADEL\Mentor\Citadel\PCB\


Design Units:(mm)

Replace Cell Log:   repCellLog70.txt

Thu Dec 01 14:13:52 2016

Reference Designator            Cell Name                         New Cell Name
===============================================================================


---------------  RELOAD CELLS  Thu Dec 01 14:13:52 2016  ---------------




---------------    Thu Dec 01 14:13:52 2016  ---------------




---------------    Thu Dec 01 14:14:42 2016  ---------------




---------------    Thu Dec 01 14:14:43 2016  ---------------


