
                       Update Local Cell And Padstack DBs
                       ----------------------------------

                      12:03 PM Wednesday, December 28, 2016
          Job Name: C:\pd_repo\pd\_CITADEL\Mentor\Citadel\PCB\Main.pcb


     Version:  99.01.00

The Local Cell And Padstack DBs have been updated with no errors or warnings.
Please proceed with your component Design.