[2016.11.09 17:09:00] [0000m.00s.431ms] [0] WELCOME
[2016.11.09 17:09:00] [0000m.00s.431ms] [1] iCDB Server ver.2.200, jmoSXI5tfcQi0m1NxN3JKg, build:5060443 created 2016-08-17 14:30:24, sources stamp:jmoSXI5tfcQi0m1NxN3JKg
[2016.11.09 17:09:00] [0000m.00s.431ms] [1] Copyright 2016 Mentor Graphics Corporation.  All Rights Reserved.
[2016.11.09 17:09:00] [0000m.00s.431ms] [1] Base flow version [VX.2]
[2016.11.09 17:09:00] [0000m.00s.431ms] [1] Install Id [1409847], Flow Id [PADS Professional VX.2], Full Flow Name [PADS Professional VX.2], Exact Access Date [2016/05/01]
[2016.11.09 17:09:00] [0000m.00s.431ms] [1] Machine [DESKTOP-TJKR3AR]  User [branden.sheffield]  PID [5692]
[2016.11.09 17:09:00] [0000m.00s.431ms] [1] Operating system [Microsoft Enterprise Edition, 64-bit (build 9200)]
[2016.11.09 17:09:00] [0000m.00s.431ms] [1] Current working dir [C:\pd_repo\pd\_CITADEL\Mentor\Citadel]
[2016.11.09 17:09:00] [0000m.00s.431ms] [1] PATH [C:\MentorGraphics\PADSProVX.2\SDD_HOME\common\win32\bin;C:\MentorGraphics\PADSProVX.2\SDD_HOME\common\win32\lib;C:\MentorGraphics\PADSProVX.2\MGC_HOME.ixn\bin;C:\MentorGraphics\PADSProVX.2\MGC_HOME.ixn\lib;C:\MentorGraphics\PADSProVX.2\SDD_HOME\wv\win32\bin;C:\Program Files (x86)\CSR\BlueSuite 2.5.8\DFU Tools;C:\Program Files (x86)\NVIDIA Corporation\PhysX\Common;C:\ProgramData\Oracle\Java\javapath;C:\WINDOWS\system32;C:\WINDOWS;C:\WINDOWS\System32\Wbem;C:\WINDOWS\System32\WindowsPowerShell\v1.0\;C:\Program Files (x86)\Skype\Phone\;C:\Program Files (x86)\Windows Kits\8.1\Windows Performance Toolkit\;C:\Program Files\TortoiseSVN\bin;C:\Users\branden.sheffield\AppData\Local\Microsoft\WindowsApps;]
[2016.11.09 17:09:00] [0000m.00s.431ms] [1] SDD_HOME [C:\MentorGraphics\PADSProVX.2\SDD_HOME] on file system [NTFS]
[2016.11.09 17:09:00] [0000m.00s.431ms] [1] SDD_PLATFORM [win32]
[2016.11.09 17:09:00] [0000m.00s.431ms] [1] WDIR [C:\WDIR\PADSProVX.2;C:\MentorGraphics\PADSProVX.2\SDD_HOME\standard;]
[2016.11.09 17:09:00] [0000m.00s.431ms] [1] Local iCDB working dir [C:\WDIR\PADSProVX.2\iCDB] on file system [NTFS]
[2016.11.09 17:09:00] [0000m.00s.431ms] [0] Creating database content backup before upgrade
[2016.11.09 17:09:00] [0000m.00s.500ms] [0] Database content backed up to [C:\pd_repo\pd\_CITADEL\Mentor\Citadel\database\cdbback\2016-11-09 17.09.00-5692.zip] of size [970 665 bytes (947.9 kB)] in [66ms 303us]
[2016.11.09 17:09:00] [0000m.00s.500ms] [0] Upgrading constraint definitions from version [ce_ee.cns=7.10.35]
[2016.11.09 17:09:00] [0000m.00s.516ms] [0] Upgrading snapshot [1:DxD] from version [2900]
[2016.11.09 17:09:00] [0000m.00s.569ms] [1] CORE: Upgrade snapshot DxD completed successfully.
[2016.11.09 17:09:00] [0000m.00s.569ms] [0] Snapshot [1:DxD] upgraded to version [3100] in [50ms 444us]
[2016.11.09 17:09:00] [0000m.00s.569ms] [0] Upgrading MinimalScheme constraints for snapshot [1:DxD]
[2016.11.09 17:09:00] [0000m.00s.569ms] [0] MinimalScheme constraints for snapshot [1:DxD] upgraded in [1ms 129us]
[2016.11.09 17:09:00] [0000m.00s.569ms] [0] Upgrading constraint definitions for snapshot [1:DxD]
[2016.11.09 17:09:00] [0000m.00s.679ms] [0] Constraint definitions for snapshot [1:DxD] upgraded in [111ms 949us]
[2016.11.09 17:09:00] [0000m.00s.679ms] [0] Saving upgraded snapshot [1:DxD]
[2016.11.09 17:09:00] [0000m.00s.726ms] [0] Upgraded snapshot [1:DxD] saved in [49ms 5us]
[2016.11.09 17:09:00] [0000m.00s.769ms] [0] Upgrading snapshot [2:__ise_DxD] from version [2900]
[2016.11.09 17:09:00] [0000m.00s.769ms] [1] CORE: Upgrade snapshot __ise_DxD completed successfully.
[2016.11.09 17:09:00] [0000m.00s.769ms] [0] Snapshot [2:__ise_DxD] upgraded to version [3100] in [982us]
[2016.11.09 17:09:00] [0000m.00s.769ms] [0] Upgrading MinimalScheme constraints for snapshot [2:__ise_DxD]
[2016.11.09 17:09:00] [0000m.00s.769ms] [0] MinimalScheme constraints for snapshot [2:__ise_DxD] upgraded in [0us]
[2016.11.09 17:09:00] [0000m.00s.769ms] [0] Upgrading constraint definitions for snapshot [2:__ise_DxD]
[2016.11.09 17:09:00] [0000m.00s.769ms] [0] Constraint definitions for snapshot [2:__ise_DxD] upgraded in [74us]
[2016.11.09 17:09:00] [0000m.00s.769ms] [0] Saving upgraded snapshot [2:__ise_DxD]
[2016.11.09 17:09:00] [0000m.00s.769ms] [0] Upgraded snapshot [2:__ise_DxD] saved in [371us]
[2016.11.09 17:09:00] [0000m.00s.769ms] [0] Upgrading snapshot [3:xIOPT] from version [2900]
[2016.11.09 17:09:00] [0000m.00s.769ms] [1] CORE: Upgrade snapshot xIOPT completed successfully.
[2016.11.09 17:09:00] [0000m.00s.769ms] [0] Snapshot [3:xIOPT] upgraded to version [3100] in [815us]
[2016.11.09 17:09:00] [0000m.00s.769ms] [0] Upgrading MinimalScheme constraints for snapshot [3:xIOPT]
[2016.11.09 17:09:00] [0000m.00s.769ms] [0] MinimalScheme constraints for snapshot [3:xIOPT] upgraded in [0us]
[2016.11.09 17:09:00] [0000m.00s.769ms] [0] Upgrading constraint definitions for snapshot [3:xIOPT]
[2016.11.09 17:09:00] [0000m.00s.769ms] [0] Constraint definitions for snapshot [3:xIOPT] upgraded in [55us]
[2016.11.09 17:09:00] [0000m.00s.769ms] [0] Saving upgraded snapshot [3:xIOPT]
[2016.11.09 17:09:00] [0000m.00s.769ms] [0] Upgraded snapshot [3:xIOPT] saved in [273us]
[2016.11.09 17:09:00] [0000m.00s.769ms] [0] Upgrading snapshot [4:Main_layout_temp] from version [2900]
[2016.11.09 17:09:00] [0000m.00s.785ms] [1] CORE: Upgrade snapshot Main_layout_temp completed successfully.
[2016.11.09 17:09:00] [0000m.00s.785ms] [0] Snapshot [4:Main_layout_temp] upgraded to version [3100] in [9ms 319us]
[2016.11.09 17:09:00] [0000m.00s.785ms] [0] Upgrading MinimalScheme constraints for snapshot [4:Main_layout_temp]
[2016.11.09 17:09:00] [0000m.00s.785ms] [0] MinimalScheme constraints for snapshot [4:Main_layout_temp] upgraded in [118us]
[2016.11.09 17:09:00] [0000m.00s.785ms] [0] Upgrading constraint definitions for snapshot [4:Main_layout_temp]
[2016.11.09 17:09:00] [0000m.00s.832ms] [0] Constraint definitions for snapshot [4:Main_layout_temp] upgraded in [55ms 980us]
[2016.11.09 17:09:00] [0000m.00s.832ms] [0] Saving upgraded snapshot [4:Main_layout_temp]
[2016.11.09 17:09:00] [0000m.00s.853ms] [0] Upgraded snapshot [4:Main_layout_temp] saved in [18ms 306us]
[2016.11.09 17:09:00] [0000m.00s.853ms] [0] Upgrading snapshot [5:Main] from version [2900]
[2016.11.09 17:09:00] [0000m.00s.869ms] [1] CORE: Upgrade snapshot Main completed successfully.
[2016.11.09 17:09:00] [0000m.00s.869ms] [0] Snapshot [5:Main] upgraded to version [3100] in [10ms 357us]
[2016.11.09 17:09:00] [0000m.00s.869ms] [0] Upgrading MinimalScheme constraints for snapshot [5:Main]
[2016.11.09 17:09:00] [0000m.00s.869ms] [0] MinimalScheme constraints for snapshot [5:Main] upgraded in [100us]
[2016.11.09 17:09:00] [0000m.00s.869ms] [0] Upgrading constraint definitions for snapshot [5:Main]
[2016.11.09 17:09:00] [0000m.00s.931ms] [0] Constraint definitions for snapshot [5:Main] upgraded in [57ms 356us]
[2016.11.09 17:09:00] [0000m.00s.931ms] [0] Saving upgraded snapshot [5:Main]
[2016.11.09 17:09:00] [0000m.00s.954ms] [0] Upgraded snapshot [5:Main] saved in [18ms 891us]
[2016.11.09 17:09:00] [0000m.00s.954ms] [0] Upgrading snapshot [6:Main_RefSync] from version [2900]
[2016.11.09 17:09:00] [0000m.00s.969ms] [1] CORE: Upgrade snapshot Main_RefSync completed successfully.
[2016.11.09 17:09:00] [0000m.00s.969ms] [0] Snapshot [6:Main_RefSync] upgraded to version [3100] in [19ms 539us]
[2016.11.09 17:09:00] [0000m.00s.969ms] [0] Upgrading MinimalScheme constraints for snapshot [6:Main_RefSync]
[2016.11.09 17:09:00] [0000m.00s.969ms] [0] MinimalScheme constraints for snapshot [6:Main_RefSync] upgraded in [154us]
[2016.11.09 17:09:00] [0000m.00s.969ms] [0] Upgrading constraint definitions for snapshot [6:Main_RefSync]
[2016.11.09 17:09:00] [0000m.01s.032ms] [0] Constraint definitions for snapshot [6:Main_RefSync] upgraded in [53ms 780us]
[2016.11.09 17:09:00] [0000m.01s.032ms] [0] Saving upgraded snapshot [6:Main_RefSync]
[2016.11.09 17:09:00] [0000m.01s.054ms] [0] Upgraded snapshot [6:Main_RefSync] saved in [19ms 70us]
[2016.11.09 17:09:00] [0000m.01s.054ms] [0] Upgrading snapshot [7:Main_LDDTemp] from version [2900]
[2016.11.09 17:09:00] [0000m.01s.069ms] [1] CORE: Upgrade snapshot Main_LDDTemp completed successfully.
[2016.11.09 17:09:00] [0000m.01s.085ms] [0] Snapshot [7:Main_LDDTemp] upgraded to version [3100] in [18ms 281us]
[2016.11.09 17:09:00] [0000m.01s.085ms] [0] Upgrading MinimalScheme constraints for snapshot [7:Main_LDDTemp]
[2016.11.09 17:09:00] [0000m.01s.085ms] [0] MinimalScheme constraints for snapshot [7:Main_LDDTemp] upgraded in [103us]
[2016.11.09 17:09:00] [0000m.01s.085ms] [0] Upgrading constraint definitions for snapshot [7:Main_LDDTemp]
[2016.11.09 17:09:00] [0000m.01s.132ms] [0] Constraint definitions for snapshot [7:Main_LDDTemp] upgraded in [51ms 935us]
[2016.11.09 17:09:00] [0000m.01s.132ms] [0] Saving upgraded snapshot [7:Main_LDDTemp]
[2016.11.09 17:09:00] [0000m.01s.154ms] [0] Upgraded snapshot [7:Main_LDDTemp] saved in [19ms 459us]
[2016.11.09 17:09:00] [0000m.01s.154ms] [0] Constraint definitions upgraded to version [ce_ee.cns=7.10.56]
[2016.11.09 17:09:00] [0000m.01s.170ms] [0] DONE
[2016.11.09 17:09:00] [0000m.01s.170ms] [0] .
