[2016.11.10 09:28:00] [0000m.00s.039ms] [0] WELCOME
[2016.11.10 09:28:00] [0000m.00s.040ms] [1] iCDB Server ver.2.200, jmoSXI5tfcQi0m1NxN3JKg, build:5060443 created 2016-08-17 14:30:24, sources stamp:jmoSXI5tfcQi0m1NxN3JKg
[2016.11.10 09:28:00] [0000m.00s.040ms] [1] Copyright 2016 Mentor Graphics Corporation.  All Rights Reserved.
[2016.11.10 09:28:00] [0000m.00s.040ms] [1] Base flow version [VX.2]
[2016.11.10 09:28:00] [0000m.00s.040ms] [1] Install Id [1409847], Flow Id [PADS Professional VX.2], Full Flow Name [PADS Professional VX.2], Exact Access Date [2016/05/01]
[2016.11.10 09:28:00] [0000m.00s.040ms] [1] Machine [DESKTOP-TJKR3AR]  User [branden.sheffield]  PID [10812]
[2016.11.10 09:28:00] [0000m.00s.040ms] [1] Operating system [Microsoft Enterprise Edition, 64-bit (build 9200)]
[2016.11.10 09:28:00] [0000m.00s.040ms] [1] Current working dir [C:\pd_repo\pd\_CITADEL\Mentor\Citadel]
[2016.11.10 09:28:00] [0000m.00s.040ms] [1] PATH [C:\MentorGraphics\PADSProVX.2\SDD_HOME\common\win32\bin;C:\MentorGraphics\PADSProVX.2\SDD_HOME\common\win32\lib;C:\MentorGraphics\PADSProVX.2\MGC_HOME.ixn\bin;C:\MentorGraphics\PADSProVX.2\MGC_HOME.ixn\lib;C:\MentorGraphics\PADSProVX.2\SDD_HOME\wv\win32\bin;C:\Program Files (x86)\CSR\BlueSuite 2.5.8\DFU Tools;C:\Program Files (x86)\NVIDIA Corporation\PhysX\Common;C:\ProgramData\Oracle\Java\javapath;C:\WINDOWS\system32;C:\WINDOWS;C:\WINDOWS\System32\Wbem;C:\WINDOWS\System32\WindowsPowerShell\v1.0\;C:\Program Files (x86)\Skype\Phone\;C:\Program Files (x86)\Windows Kits\8.1\Windows Performance Toolkit\;C:\Program Files\TortoiseSVN\bin;C:\Users\branden.sheffield\AppData\Local\Microsoft\WindowsApps;]
[2016.11.10 09:28:00] [0000m.00s.040ms] [1] SDD_HOME [C:\MentorGraphics\PADSProVX.2\SDD_HOME] on file system [NTFS]
[2016.11.10 09:28:00] [0000m.00s.040ms] [1] SDD_PLATFORM [win32]
[2016.11.10 09:28:00] [0000m.00s.040ms] [1] WDIR [C:\WDIR\PADSProVX.2;C:\MentorGraphics\PADSProVX.2\SDD_HOME\standard;]
[2016.11.10 09:28:00] [0000m.00s.040ms] [1] Local iCDB working dir [C:\WDIR\PADSProVX.2\iCDB] on file system [NTFS]
[2016.11.10 09:28:00] [0000m.00s.041ms] [2] S: Loading config files
[2016.11.10 09:28:00] [0000m.00s.045ms] [1] Config file [C:\pd_repo\pd\_CITADEL\Mentor\Citadel\database\cdbsvr\Server.cfg] not found
[2016.11.10 09:28:00] [0000m.00s.046ms] [3] S: Config loaded
[2016.11.10 09:28:00] [0000m.00s.056ms] [0] S: Project path [C:\pd_repo\pd\_CITADEL\Mentor\Citadel\database] on file system [NTFS]
[2016.11.10 09:28:00] [0000m.00s.056ms] [0] S: Project file (.prj) path [C:\pd_repo\pd\_CITADEL\Mentor\Citadel\Citadel.prj] on file system [NTFS]
[2016.11.10 09:28:00] [0000m.00s.056ms] [1] S: WARNING: Database auto-repair support DISABLED
[2016.11.10 09:28:00] [0000m.00s.056ms] [0] S: Multi-user mode (config)
[2016.11.10 09:28:00] [0000m.00s.056ms] [0] S: Event polling mode autodetection
[2016.11.10 09:28:00] [0000m.00s.066ms] [0] S: Started up automatically by iCDB Client: DESKTOP-TJKR3AR:branden.sheffield:8108
[2016.11.10 09:28:00] [0000m.00s.066ms] [0] S: Auto close mode
[2016.11.10 09:28:00] [0000m.00s.066ms] [0] S: Database ID [3edb-f997-378d-3d57-11a5-2286-1a52-2850-5ff3-9382-b182-04a8]
[2016.11.10 09:28:00] [0000m.00s.066ms] [0] PathTranslator: BEGIN dumping
[2016.11.10 09:28:00] [0000m.00s.066ms] [0] PathTranslator: Local -> global path prefix list
[2016.11.10 09:28:00] [0000m.00s.066ms] [0] PathTranslator: [Z:\] -> [\\izombie\shares\pd\]
[2016.11.10 09:28:00] [0000m.00s.066ms] [0] PathTranslator: Global -> local path prefix list
[2016.11.10 09:28:00] [0000m.00s.066ms] [0] PathTranslator: [\\izombie\shares\pd\] -> [Z:\]
[2016.11.10 09:28:00] [0000m.00s.066ms] [0] PathTranslator: END dumping
[2016.11.10 09:28:00] [0000m.00s.066ms] [0] S: START
[2016.11.10 09:28:00] [0000m.00s.066ms] [0] S: Server startup lock file created
[2016.11.10 09:28:00] [0000m.00s.068ms] [0] S: Listening for client connections on port [10001]
[2016.11.10 09:28:00] [0000m.00s.069ms] [0] S: Server network ID [DESKTOP-TJKR3AR:192.168.201.235,DESKTOP-TJKR3AR,DESKTOP-TJKR3AR.skullcandy.local:10001]
[2016.11.10 09:28:00] [0000m.00s.069ms] [0] S: Server GUID [ab05-2843-c566-0c5a-010a-4285-10a4-2850-9223-9382-b182-04a8]
[2016.11.10 09:28:00] [0000m.00s.069ms] [0] S: Project GUID [3edb-f997-378d-3d57-11a5-2286-1a52-2850-5ff3-9382-b182-04a8]
[2016.11.10 09:28:00] [0000m.00s.074ms] [0] S: Wrote data to server address file
[2016.11.10 09:28:00] [0000m.00s.075ms] [0] S: Server startup lock file removed
[2016.11.10 09:28:00] [0000m.00s.076ms] [1] ProjectBackupManager: Setting project file (.prj) path: [C:\pd_repo\pd\_CITADEL\Mentor\Citadel\Citadel.prj]
[2016.11.10 09:28:01] [0000m.00s.356ms] [0] S: Plugins loaded: [PIM] [ENetGen70] 
[2016.11.10 09:28:01] [0000m.00s.356ms] [0] S: Local disc access time: 32 us
[2016.11.10 09:28:01] [0000m.00s.356ms] [0] S: File server access time: 33 us
[2016.11.10 09:28:01] [0000m.00s.367ms] [0] Single file [C:\pd_repo\pd\_CITADEL\Mentor\Citadel\database\icdb.dat] size [974640 (951.8 kB)]
[2016.11.10 09:28:01] [0000m.00s.367ms] [1] Single file [C:\pd_repo\pd\_CITADEL\Mentor\Citadel\database\icdb.dat] opened in read-write mode
[2016.11.10 09:28:01] [0000m.00s.367ms] [0] SingleFile: [0000-0000-0000-0000] SFI header version check [1009] [1009]
[2016.11.10 09:28:01] [0000m.00s.367ms] [0] Database GUARD OK: [974640]
[2016.11.10 09:28:01] [0000m.00s.370ms] [0] SingleFile: [0000-0000-0000-0000] SFI header version check [1009] [1009]
[2016.11.10 09:28:01] [0000m.00s.370ms] [0] Database GUARD OK: [974640]
[2016.11.10 09:28:01] [0000m.00s.375ms] [0] SingleFile: [0000-0000-0000-0000] SFI header version check [1009] [1009]
[2016.11.10 09:28:01] [0000m.00s.375ms] [0] Database GUARD OK: [974640]
[2016.11.10 09:28:01] [0000m.00s.375ms] [0] SingleFile: [0000-0000-0000-0000] SFI header version check [1009] [1009]
[2016.11.10 09:28:01] [0000m.00s.375ms] [0] Database GUARD OK: [974640]
[2016.11.10 09:28:01] [0000m.00s.378ms] [0] SingleFile: [0000-0000-0000-0000] SFI header version check [1009] [1009]
[2016.11.10 09:28:01] [0000m.00s.378ms] [0] Database GUARD OK: [974640]
[2016.11.10 09:28:01] [0000m.00s.378ms] [0] SingleFile: [9e75-bf90-0362-6950] SFI version check [1009] [1009]
[2016.11.10 09:28:01] [0000m.00s.385ms] [0] SingleFile: [9e75-bf90-0362-6950] Database SFI header has been read in [7ms 103us]
[2016.11.10 09:28:01] [0000m.00s.392ms] [0] iCDB Server PI: Server & plugin session [2630]
[2016.11.10 09:28:01] [0000m.00s.392ms] [0] iCDB Server PI: Opening database [C:\pd_repo\pd\_CITADEL\Mentor\Citadel\database]
[2016.11.10 09:28:01] [0000m.00s.393ms] [0] iCDB Server PI: Database [C:\pd_repo\pd\_CITADEL\Mentor\Citadel\database] opened
[2016.11.10 09:28:01] [0000m.00s.440ms] [0] iCDB Database: Checking existence of constraint definitions
[2016.11.10 09:28:01] [0000m.00s.440ms] [0] iCDB Database: Checking constraint definitions version
[2016.11.10 09:28:01] [0000m.00s.480ms] [1] iCDB Database: Constraint definitions version [ce_ee.cns=7.10.56] up to date
[2016.11.10 09:28:01] [0000m.00s.487ms] [0] iCDB Server PI: Initializing plugins
[2016.11.10 09:28:01] [0000m.00s.489ms] [0] iCDB Server PI: Plugins initialized
[2016.11.10 09:28:01] [0000m.00s.489ms] [0] S: iCDB database loaded
[2016.11.10 09:28:01] [0000m.00s.491ms] [0] S: Starting threads
[2016.11.10 09:28:01] [0000m.00s.491ms] [0] BT: Listening for broadcast messages on port [10000]
[2016.11.10 09:28:01] [0000m.00s.491ms] [1] CMT: There are no clients - waiting [10 seconds]
[2016.11.10 09:28:01] [0000m.00s.494ms] [0] MWT: WindowProc: WM_NCCREATE
[2016.11.10 09:28:01] [0000m.00s.494ms] [0] IT: Session [2631] for host [DESKTOP-TJKR3AR] user [branden.sheffield] with process ID [8108] created
[2016.11.10 09:28:01] [0000m.00s.496ms] [1] SC[2631]: Registered sub-client [DxD] with ID [1] for session ID [2631] host [DESKTOP-TJKR3AR] user [branden.sheffield] process ID [8108]
[2016.11.10 09:28:01] [0000m.00s.501ms] [0] IT: iCDB Server Monitor session [1] for host [DESKTOP-TJKR3AR] user [branden.sheffield] with process ID [6940] created
[2016.11.10 09:28:01] [0000m.00s.501ms] [1] DMT: There are [1] iCDB Server Monitor connected now
[2016.11.10 09:28:01] [0000m.00s.581ms] [1] SC[2631]: Registered sub-client [TransactionRollbackSubClient] with ID [2] for session ID [2631] host [DESKTOP-TJKR3AR] user [branden.sheffield] process ID [8108]
[2016.11.10 09:28:01] [0000m.00s.584ms] [1] SC[2631]: Registered sub-client [xprob] with ID [3] for session ID [2631] host [DESKTOP-TJKR3AR] user [branden.sheffield] process ID [8108]
[2016.11.10 09:28:01] [0000m.00s.591ms] [1] CMT: There are [1] clients now: 2631
[2016.11.10 09:28:03] [0000m.02s.310ms] [1] SC[2631]: Registered sub-client [SymbolEditor] with ID [4] for session ID [2631] host [DESKTOP-TJKR3AR] user [branden.sheffield] process ID [8108]
[2016.11.10 09:28:03] [0000m.02s.314ms] [1] SC[2631]: Registered sub-client [SelectionHolder] with ID [5] for session ID [2631] host [DESKTOP-TJKR3AR] user [branden.sheffield] process ID [8108]
[2016.11.10 09:28:03] [0000m.02s.328ms] [1] SC[2631]: Registered sub-client [EEVM_EEVM_389998172] with ID [6] for session ID [2631] host [DESKTOP-TJKR3AR] user [branden.sheffield] process ID [8108]
[2016.11.10 09:28:03] [0000m.02s.329ms] [1] SC[2631]: UnRegistered sub-client [EEVM_EEVM_389998172] with ID [6] for session ID [2631] host [DESKTOP-TJKR3AR] user [branden.sheffield] process ID [8108]
[2016.11.10 09:28:03] [0000m.02s.333ms] [1] SC[2631]: Registered sub-client [EEVM_EEVM_389998172] with ID [7] for session ID [2631] host [DESKTOP-TJKR3AR] user [branden.sheffield] process ID [8108]
[2016.11.10 09:28:03] [0000m.02s.348ms] [1] SC[2631]: UnRegistered sub-client [EEVM_EEVM_389998172] with ID [7] for session ID [2631] host [DESKTOP-TJKR3AR] user [branden.sheffield] process ID [8108]
[2016.11.10 09:28:03] [0000m.02s.351ms] [1] SC[2631]: Registered sub-client [EEVM_EEVM_389998172] with ID [8] for session ID [2631] host [DESKTOP-TJKR3AR] user [branden.sheffield] process ID [8108]
[2016.11.10 09:28:03] [0000m.02s.352ms] [1] SC[2631]: UnRegistered sub-client [EEVM_EEVM_389998172] with ID [8] for session ID [2631] host [DESKTOP-TJKR3AR] user [branden.sheffield] process ID [8108]
[2016.11.10 09:28:03] [0000m.02s.355ms] [1] SC[2631]: Registered sub-client [EEVM_EEVM_389998172] with ID [9] for session ID [2631] host [DESKTOP-TJKR3AR] user [branden.sheffield] process ID [8108]
[2016.11.10 09:28:03] [0000m.02s.369ms] [1] SC[2631]: UnRegistered sub-client [EEVM_EEVM_389998172] with ID [9] for session ID [2631] host [DESKTOP-TJKR3AR] user [branden.sheffield] process ID [8108]
[2016.11.10 09:28:03] [0000m.03s.228ms] [1] SC[2631]: Registered sub-client [SystemDesignDll] with ID [10] for session ID [2631] host [DESKTOP-TJKR3AR] user [branden.sheffield] process ID [8108]
[2016.11.10 09:28:03] [0000m.03s.255ms] [1] SC[2631]: UnRegistered sub-client [SystemDesignDll] with ID [10] for session ID [2631] host [DESKTOP-TJKR3AR] user [branden.sheffield] process ID [8108]
[2016.11.10 09:28:03] [0000m.03s.258ms] [1] SC[2631]: Registered sub-client [SystemDesignDll] with ID [11] for session ID [2631] host [DESKTOP-TJKR3AR] user [branden.sheffield] process ID [8108]
[2016.11.10 09:28:05] [0000m.04s.966ms] [1] SC[2631]: Registered sub-client [DesignSearcher2] with ID [12] for session ID [2631] host [DESKTOP-TJKR3AR] user [branden.sheffield] process ID [8108]
[2016.11.10 09:28:05] [0000m.04s.982ms] [1] SC[2631]: Registered sub-client [HdlProject] with ID [13] for session ID [2631] host [DESKTOP-TJKR3AR] user [branden.sheffield] process ID [8108]
[2016.11.10 09:28:05] [0000m.04s.995ms] [1] SC[2631]: Registered sub-client [Navigator] with ID [14] for session ID [2631] host [DESKTOP-TJKR3AR] user [branden.sheffield] process ID [8108]
[2016.11.10 09:28:05] [0000m.05s.012ms] [1] SC[2631]: Registered sub-client [OutputWindow] with ID [15] for session ID [2631] host [DESKTOP-TJKR3AR] user [branden.sheffield] process ID [8108]
[2016.11.10 09:28:05] [0000m.05s.017ms] [1] SC[2631]: Registered sub-client [PlaceDevice] with ID [16] for session ID [2631] host [DESKTOP-TJKR3AR] user [branden.sheffield] process ID [8108]
[2016.11.10 09:28:05] [0000m.05s.135ms] [1] SC[2631]: Registered sub-client [LocalSymbolsDataProvider] with ID [17] for session ID [2631] host [DESKTOP-TJKR3AR] user [branden.sheffield] process ID [8108]
[2016.11.10 09:28:05] [0000m.05s.143ms] [1] SC[2631]: Registered sub-client [FFSearch_Controller_0] with ID [18] for session ID [2631] host [DESKTOP-TJKR3AR] user [branden.sheffield] process ID [8108]
[2016.11.10 09:28:05] [0000m.05s.264ms] [1] SC[2631]: Registered sub-client [FFSearch_Controller_1] with ID [19] for session ID [2631] host [DESKTOP-TJKR3AR] user [branden.sheffield] process ID [8108]
[2016.11.10 09:28:06] [0000m.05s.351ms] [1] SC[2631]: Registered sub-client [FFSearch_Controller_2] with ID [20] for session ID [2631] host [DESKTOP-TJKR3AR] user [branden.sheffield] process ID [8108]
[2016.11.10 09:28:06] [0000m.05s.435ms] [1] SC[2631]: Registered sub-client [FFSearch_Controller_3] with ID [21] for session ID [2631] host [DESKTOP-TJKR3AR] user [branden.sheffield] process ID [8108]
[2016.11.10 09:28:06] [0000m.05s.518ms] [1] SC[2631]: Registered sub-client [FFSearch_Controller_4] with ID [22] for session ID [2631] host [DESKTOP-TJKR3AR] user [branden.sheffield] process ID [8108]
[2016.11.10 09:28:06] [0000m.05s.638ms] [1] SC[2631]: Registered sub-client [SAE] with ID [23] for session ID [2631] host [DESKTOP-TJKR3AR] user [branden.sheffield] process ID [8108]
[2016.11.10 09:28:06] [0000m.05s.642ms] [1] SC[2631]: Registered sub-client [CCZAddin] with ID [24] for session ID [2631] host [DESKTOP-TJKR3AR] user [branden.sheffield] process ID [8108]
[2016.11.10 09:28:06] [0000m.05s.645ms] [1] SC[2631]: Registered sub-client [DxThumbnails] with ID [25] for session ID [2631] host [DESKTOP-TJKR3AR] user [branden.sheffield] process ID [8108]
[2016.11.10 09:28:06] [0000m.05s.649ms] [1] SC[2631]: Registered sub-client [MyParts] with ID [26] for session ID [2631] host [DESKTOP-TJKR3AR] user [branden.sheffield] process ID [8108]
[2016.11.10 09:28:06] [0000m.05s.694ms] [1] SC[2631]: Registered sub-client [PinsList] with ID [27] for session ID [2631] host [DESKTOP-TJKR3AR] user [branden.sheffield] process ID [8108]
[2016.11.10 09:28:06] [0000m.05s.830ms] [1] SC[2631]: Registered sub-client [toolboxes] with ID [28] for session ID [2631] host [DESKTOP-TJKR3AR] user [branden.sheffield] process ID [8108]
[2016.11.10 09:28:06] [0000m.06s.134ms] [1] SC[2631]: Registered sub-client [ProjectIntegrationIcdbCacheDxD:511321040] with ID [29] for session ID [2631] host [DESKTOP-TJKR3AR] user [branden.sheffield] process ID [8108]
[2016.11.10 09:28:06] [0000m.06s.188ms] [1] SC[2631]: Registered sub-client [SheetConnectorsCacheDxD:1478795286] with ID [30] for session ID [2631] host [DESKTOP-TJKR3AR] user [branden.sheffield] process ID [8108]
[2016.11.10 09:28:06] [0000m.06s.236ms] [1] SC[2631]: Registered sub-client [NetsNamesCollectorDxD:1478795286] with ID [31] for session ID [2631] host [DESKTOP-TJKR3AR] user [branden.sheffield] process ID [8108]
[2016.11.10 09:28:06] [0000m.06s.259ms] [1] SC[2631]: Registered sub-client [PartReplaceUtils] with ID [32] for session ID [2631] host [DESKTOP-TJKR3AR] user [branden.sheffield] process ID [8108]
[2016.11.10 09:28:09] [0000m.08s.629ms] [1] SC[2631]: Registered sub-client [ObjectHolder_510539176] with ID [33] for session ID [2631] host [DESKTOP-TJKR3AR] user [branden.sheffield] process ID [8108]
[2016.11.10 09:28:09] [0000m.08s.632ms] [1] SC[2631]: Registered sub-client [BlockCacheDxD:514285328] with ID [34] for session ID [2631] host [DESKTOP-TJKR3AR] user [branden.sheffield] process ID [8108]
[2016.11.10 09:28:09] [0000m.08s.636ms] [1] SC[2631]: Registered sub-client [GlobalNetAliasUpdater_510540216] with ID [35] for session ID [2631] host [DESKTOP-TJKR3AR] user [branden.sheffield] process ID [8108]
[2016.11.10 09:28:09] [0000m.08s.639ms] [1] SC[2631]: Registered sub-client [IcdbNetProcessorSubClientDxD:516478248] with ID [36] for session ID [2631] host [DESKTOP-TJKR3AR] user [branden.sheffield] process ID [8108]
[2016.11.10 09:28:20] [0000m.20s.239ms] [0] DFAMT: File server access time: 56 us
[2016.11.10 09:28:32] [0000m.32s.035ms] [1] PrjBackupMgr: Successfully created Project Backup [C:\pd_repo\pd\_CITADEL\Mentor\Citadel\ProjectBackup\backups\2016-11-10 09.28.31 - auto.zip] with GUID [defb-0f28-8d93-63b2-f20a-4284-30a4-2850-9664-9382-b182-04a8]
[2016.11.10 09:28:32] [0000m.32s.037ms] [0] PrjBackupMgr: Removing excessive backup:  BackupGUID[7d6d-c72c-3611-d895-52dc-a18a-2dca-1850-a69c-99c8-e746-348b] CreationTime[Thursday, November 03, 2016 05:37:41] Type[Autosave] Creator[iCDB Server (2016-11-02 22.32.36-6396)] ApplicationName[iCDB Server (2016-11-02 22.32.36-6396)] UserName[branden.sheffield] MachineName[DESKTOP-TJKR3AR] Description[Autosave] FullFlowName[PADS Professional VX.1.1] FlowId[PADS-Pro VX.1.1] GBSInstallId[43430] GBSBuildId[673008] IcdbVersion[2900] ReferenceLogFilePath[] BackupFilePath[C:\pd_repo\pd\_CITADEL\Mentor\Citadel\ProjectBackup\backups\2016-11-02 23.37.41 - auto.zip] BackupFileSize[4616035] Persistent[FALSE]
[2016.11.10 09:28:32] [0000m.32s.040ms] [0] PrjBackupMgr: Project Backup file [C:\pd_repo\pd\_CITADEL\Mentor\Citadel\ProjectBackup\backups\2016-11-02 23.37.41 - auto.zip] with GUID [7d6d-c72c-3611-d895-52dc-a18a-2dca-1850-a69c-99c8-e746-348b] removed
[2016.11.10 09:28:32] [0000m.32s.043ms] [0] PrjBackupEngine: Successfully created backup:  BackupGUID[defb-0f28-8d93-63b2-f20a-4284-30a4-2850-9664-9382-b182-04a8] CreationTime[Thursday, November 10, 2016 16:28:31] Type[Autosave] Creator[iCDB Server (2016-11-10 09.28.00-10812)] ApplicationName[iCDB Server (2016-11-10 09.28.00-10812)] UserName[branden.sheffield] MachineName[DESKTOP-TJKR3AR] Description[Autosave] FullFlowName[PADS Professional VX.2] FlowId[PADSProVX.2] GBSInstallId[1409847] GBSBuildId[5060443] IcdbVersion[3100] ReferenceLogFilePath[] BackupFilePath[C:\pd_repo\pd\_CITADEL\Mentor\Citadel\ProjectBackup\backups\2016-11-10 09.28.31 - auto.zip] BackupFileSize[4658109] Persistent[FALSE]
[2016.11.10 09:28:49] [0000m.48s.342ms] [1] SC[2631]: UnRegistered sub-client [DesignSearcher2] with ID [12] for session ID [2631] host [DESKTOP-TJKR3AR] user [branden.sheffield] process ID [8108]
[2016.11.10 09:28:49] [0000m.48s.372ms] [1] SC[2631]: Registered sub-client [DesignSearcher2] with ID [37] for session ID [2631] host [DESKTOP-TJKR3AR] user [branden.sheffield] process ID [8108]
[2016.11.10 09:29:05] [0001m.04s.740ms] [1] SC[2631]: UnRegistered sub-client [DesignSearcher2] with ID [37] for session ID [2631] host [DESKTOP-TJKR3AR] user [branden.sheffield] process ID [8108]
[2016.11.10 09:29:05] [0001m.04s.761ms] [1] SC[2631]: Registered sub-client [DesignSearcher2] with ID [38] for session ID [2631] host [DESKTOP-TJKR3AR] user [branden.sheffield] process ID [8108]
[2016.11.10 09:29:10] [0001m.09s.960ms] [1] SC[2631]: Registered sub-client [DxDbSearch] with ID [39] for session ID [2631] host [DESKTOP-TJKR3AR] user [branden.sheffield] process ID [8108]
[2016.11.10 09:44:22] [0016m.22s.214ms] [1] SC[2631]: Registered sub-client [DxSettings] with ID [40] for session ID [2631] host [DESKTOP-TJKR3AR] user [branden.sheffield] process ID [8108]
[2016.11.10 09:44:22] [0016m.22s.215ms] [1] SC[2631]: UnRegistered sub-client [DxSettings] with ID [40] for session ID [2631] host [DESKTOP-TJKR3AR] user [branden.sheffield] process ID [8108]
[2016.11.10 09:51:31] [0023m.31s.246ms] [1] SC[2631]: UnRegistered sub-client [DesignSearcher2] with ID [38] for session ID [2631] host [DESKTOP-TJKR3AR] user [branden.sheffield] process ID [8108]
[2016.11.10 09:51:31] [0023m.31s.277ms] [1] SC[2631]: Registered sub-client [DesignSearcher2] with ID [41] for session ID [2631] host [DESKTOP-TJKR3AR] user [branden.sheffield] process ID [8108]
[2016.11.10 09:51:48] [0023m.48s.111ms] [1] SC[2631]: UnRegistered sub-client [DesignSearcher2] with ID [41] for session ID [2631] host [DESKTOP-TJKR3AR] user [branden.sheffield] process ID [8108]
[2016.11.10 09:51:48] [0023m.48s.139ms] [1] SC[2631]: Registered sub-client [DesignSearcher2] with ID [42] for session ID [2631] host [DESKTOP-TJKR3AR] user [branden.sheffield] process ID [8108]
[2016.11.10 09:51:51] [0023m.50s.915ms] [1] SC[2631]: UnRegistered sub-client [DesignSearcher2] with ID [42] for session ID [2631] host [DESKTOP-TJKR3AR] user [branden.sheffield] process ID [8108]
[2016.11.10 09:51:51] [0023m.50s.949ms] [1] SC[2631]: Registered sub-client [DesignSearcher2] with ID [43] for session ID [2631] host [DESKTOP-TJKR3AR] user [branden.sheffield] process ID [8108]
[2016.11.10 09:52:52] [0024m.52s.068ms] [1] SC[2631]: UnRegistered sub-client [DesignSearcher2] with ID [43] for session ID [2631] host [DESKTOP-TJKR3AR] user [branden.sheffield] process ID [8108]
[2016.11.10 09:52:52] [0024m.52s.104ms] [1] SC[2631]: Registered sub-client [DesignSearcher2] with ID [44] for session ID [2631] host [DESKTOP-TJKR3AR] user [branden.sheffield] process ID [8108]
[2016.11.10 09:53:30] [0025m.29s.573ms] [1] SC[2631]: UnRegistered sub-client [DesignSearcher2] with ID [44] for session ID [2631] host [DESKTOP-TJKR3AR] user [branden.sheffield] process ID [8108]
[2016.11.10 09:53:30] [0025m.29s.603ms] [1] SC[2631]: Registered sub-client [DesignSearcher2] with ID [45] for session ID [2631] host [DESKTOP-TJKR3AR] user [branden.sheffield] process ID [8108]
[2016.11.10 09:53:34] [0025m.33s.721ms] [1] SC[2631]: UnRegistered sub-client [DesignSearcher2] with ID [45] for session ID [2631] host [DESKTOP-TJKR3AR] user [branden.sheffield] process ID [8108]
[2016.11.10 09:53:34] [0025m.33s.763ms] [1] SC[2631]: Registered sub-client [DesignSearcher2] with ID [46] for session ID [2631] host [DESKTOP-TJKR3AR] user [branden.sheffield] process ID [8108]
[2016.11.10 09:54:14] [0026m.14s.125ms] [1] SC[2631]: UnRegistered sub-client [DesignSearcher2] with ID [46] for session ID [2631] host [DESKTOP-TJKR3AR] user [branden.sheffield] process ID [8108]
[2016.11.10 09:54:14] [0026m.14s.150ms] [1] SC[2631]: Registered sub-client [DesignSearcher2] with ID [47] for session ID [2631] host [DESKTOP-TJKR3AR] user [branden.sheffield] process ID [8108]
[2016.11.10 09:55:10] [0027m.09s.878ms] [1] SC[2631]: UnRegistered sub-client [DesignSearcher2] with ID [47] for session ID [2631] host [DESKTOP-TJKR3AR] user [branden.sheffield] process ID [8108]
[2016.11.10 09:55:10] [0027m.09s.907ms] [1] SC[2631]: Registered sub-client [DesignSearcher2] with ID [48] for session ID [2631] host [DESKTOP-TJKR3AR] user [branden.sheffield] process ID [8108]
[2016.11.10 10:27:48] [0059m.47s.415ms] [1] SC[2631]: UnRegistered sub-client [DesignSearcher2] with ID [48] for session ID [2631] host [DESKTOP-TJKR3AR] user [branden.sheffield] process ID [8108]
[2016.11.10 10:27:48] [0059m.47s.447ms] [1] SC[2631]: Registered sub-client [DesignSearcher2] with ID [49] for session ID [2631] host [DESKTOP-TJKR3AR] user [branden.sheffield] process ID [8108]
[2016.11.10 10:30:37] [0062m.36s.659ms] [1] SC[2631]: UnRegistered sub-client [DesignSearcher2] with ID [49] for session ID [2631] host [DESKTOP-TJKR3AR] user [branden.sheffield] process ID [8108]
[2016.11.10 10:30:37] [0062m.36s.693ms] [1] SC[2631]: Registered sub-client [DesignSearcher2] with ID [50] for session ID [2631] host [DESKTOP-TJKR3AR] user [branden.sheffield] process ID [8108]
[2016.11.10 10:31:08] [0063m.08s.107ms] [1] SC[2631]: UnRegistered sub-client [DesignSearcher2] with ID [50] for session ID [2631] host [DESKTOP-TJKR3AR] user [branden.sheffield] process ID [8108]
[2016.11.10 10:31:08] [0063m.08s.128ms] [1] SC[2631]: Registered sub-client [DesignSearcher2] with ID [51] for session ID [2631] host [DESKTOP-TJKR3AR] user [branden.sheffield] process ID [8108]
[2016.11.10 10:31:09] [0063m.09s.031ms] [1] SC[2631]: UnRegistered sub-client [DesignSearcher2] with ID [51] for session ID [2631] host [DESKTOP-TJKR3AR] user [branden.sheffield] process ID [8108]
[2016.11.10 10:31:09] [0063m.09s.052ms] [1] SC[2631]: Registered sub-client [DesignSearcher2] with ID [52] for session ID [2631] host [DESKTOP-TJKR3AR] user [branden.sheffield] process ID [8108]
[2016.11.10 10:31:51] [0063m.50s.416ms] [1] SC[2631]: UnRegistered sub-client [DesignSearcher2] with ID [52] for session ID [2631] host [DESKTOP-TJKR3AR] user [branden.sheffield] process ID [8108]
[2016.11.10 10:31:51] [0063m.50s.446ms] [1] SC[2631]: Registered sub-client [DesignSearcher2] with ID [53] for session ID [2631] host [DESKTOP-TJKR3AR] user [branden.sheffield] process ID [8108]
[2016.11.10 10:32:14] [0064m.13s.523ms] [1] SC[2631]: UnRegistered sub-client [DesignSearcher2] with ID [53] for session ID [2631] host [DESKTOP-TJKR3AR] user [branden.sheffield] process ID [8108]
[2016.11.10 10:32:14] [0064m.13s.548ms] [1] SC[2631]: Registered sub-client [DesignSearcher2] with ID [54] for session ID [2631] host [DESKTOP-TJKR3AR] user [branden.sheffield] process ID [8108]
[2016.11.10 10:32:14] [0064m.14s.149ms] [1] SC[2631]: UnRegistered sub-client [DesignSearcher2] with ID [54] for session ID [2631] host [DESKTOP-TJKR3AR] user [branden.sheffield] process ID [8108]
[2016.11.10 10:32:14] [0064m.14s.182ms] [1] SC[2631]: Registered sub-client [DesignSearcher2] with ID [55] for session ID [2631] host [DESKTOP-TJKR3AR] user [branden.sheffield] process ID [8108]
[2016.11.10 10:32:15] [0064m.14s.763ms] [1] SC[2631]: UnRegistered sub-client [DesignSearcher2] with ID [55] for session ID [2631] host [DESKTOP-TJKR3AR] user [branden.sheffield] process ID [8108]
[2016.11.10 10:32:15] [0064m.14s.781ms] [1] SC[2631]: Registered sub-client [DesignSearcher2] with ID [56] for session ID [2631] host [DESKTOP-TJKR3AR] user [branden.sheffield] process ID [8108]
[2016.11.10 10:32:41] [0064m.41s.189ms] [1] SC[2631]: UnRegistered sub-client [DesignSearcher2] with ID [56] for session ID [2631] host [DESKTOP-TJKR3AR] user [branden.sheffield] process ID [8108]
[2016.11.10 10:32:41] [0064m.41s.218ms] [1] SC[2631]: Registered sub-client [DesignSearcher2] with ID [57] for session ID [2631] host [DESKTOP-TJKR3AR] user [branden.sheffield] process ID [8108]
[2016.11.10 10:32:43] [0064m.42s.314ms] [1] SC[2631]: UnRegistered sub-client [DesignSearcher2] with ID [57] for session ID [2631] host [DESKTOP-TJKR3AR] user [branden.sheffield] process ID [8108]
[2016.11.10 10:32:43] [0064m.42s.346ms] [1] SC[2631]: Registered sub-client [DesignSearcher2] with ID [58] for session ID [2631] host [DESKTOP-TJKR3AR] user [branden.sheffield] process ID [8108]
[2016.11.10 10:32:45] [0064m.44s.663ms] [1] SC[2631]: UnRegistered sub-client [DesignSearcher2] with ID [58] for session ID [2631] host [DESKTOP-TJKR3AR] user [branden.sheffield] process ID [8108]
[2016.11.10 10:32:45] [0064m.44s.703ms] [1] SC[2631]: Registered sub-client [DesignSearcher2] with ID [59] for session ID [2631] host [DESKTOP-TJKR3AR] user [branden.sheffield] process ID [8108]
[2016.11.10 10:32:46] [0064m.46s.113ms] [1] SC[2631]: UnRegistered sub-client [DesignSearcher2] with ID [59] for session ID [2631] host [DESKTOP-TJKR3AR] user [branden.sheffield] process ID [8108]
[2016.11.10 10:32:46] [0064m.46s.137ms] [1] SC[2631]: Registered sub-client [DesignSearcher2] with ID [60] for session ID [2631] host [DESKTOP-TJKR3AR] user [branden.sheffield] process ID [8108]
[2016.11.10 10:33:21] [0065m.21s.277ms] [1] SC[2631]: UnRegistered sub-client [DesignSearcher2] with ID [60] for session ID [2631] host [DESKTOP-TJKR3AR] user [branden.sheffield] process ID [8108]
[2016.11.10 10:33:22] [0065m.21s.305ms] [1] SC[2631]: Registered sub-client [DesignSearcher2] with ID [61] for session ID [2631] host [DESKTOP-TJKR3AR] user [branden.sheffield] process ID [8108]
[2016.11.10 10:37:28] [0069m.28s.237ms] [1] SC[2631]: UnRegistered sub-client [DesignSearcher2] with ID [61] for session ID [2631] host [DESKTOP-TJKR3AR] user [branden.sheffield] process ID [8108]
[2016.11.10 10:37:28] [0069m.28s.274ms] [1] SC[2631]: Registered sub-client [DesignSearcher2] with ID [62] for session ID [2631] host [DESKTOP-TJKR3AR] user [branden.sheffield] process ID [8108]
[2016.11.10 10:37:55] [0069m.54s.642ms] [1] SC[2631]: UnRegistered sub-client [DesignSearcher2] with ID [62] for session ID [2631] host [DESKTOP-TJKR3AR] user [branden.sheffield] process ID [8108]
[2016.11.10 10:37:55] [0069m.54s.669ms] [1] SC[2631]: Registered sub-client [DesignSearcher2] with ID [63] for session ID [2631] host [DESKTOP-TJKR3AR] user [branden.sheffield] process ID [8108]
[2016.11.10 10:38:32] [0070m.31s.303ms] [1] SC[2631]: UnRegistered sub-client [DesignSearcher2] with ID [63] for session ID [2631] host [DESKTOP-TJKR3AR] user [branden.sheffield] process ID [8108]
[2016.11.10 10:38:32] [0070m.31s.325ms] [1] SC[2631]: Registered sub-client [DesignSearcher2] with ID [64] for session ID [2631] host [DESKTOP-TJKR3AR] user [branden.sheffield] process ID [8108]
[2016.11.10 10:39:23] [0071m.22s.733ms] [1] SC[2631]: UnRegistered sub-client [DesignSearcher2] with ID [64] for session ID [2631] host [DESKTOP-TJKR3AR] user [branden.sheffield] process ID [8108]
[2016.11.10 10:39:23] [0071m.22s.756ms] [1] SC[2631]: Registered sub-client [DesignSearcher2] with ID [65] for session ID [2631] host [DESKTOP-TJKR3AR] user [branden.sheffield] process ID [8108]
[2016.11.10 10:39:24] [0071m.23s.864ms] [1] SC[2631]: UnRegistered sub-client [DesignSearcher2] with ID [65] for session ID [2631] host [DESKTOP-TJKR3AR] user [branden.sheffield] process ID [8108]
[2016.11.10 10:39:24] [0071m.23s.888ms] [1] SC[2631]: Registered sub-client [DesignSearcher2] with ID [66] for session ID [2631] host [DESKTOP-TJKR3AR] user [branden.sheffield] process ID [8108]
[2016.11.10 10:40:15] [0072m.14s.636ms] [1] SC[2631]: UnRegistered sub-client [DesignSearcher2] with ID [66] for session ID [2631] host [DESKTOP-TJKR3AR] user [branden.sheffield] process ID [8108]
[2016.11.10 10:40:15] [0072m.14s.656ms] [1] SC[2631]: Registered sub-client [DesignSearcher2] with ID [67] for session ID [2631] host [DESKTOP-TJKR3AR] user [branden.sheffield] process ID [8108]
[2016.11.10 10:40:52] [0072m.51s.818ms] [1] SC[2631]: UnRegistered sub-client [DesignSearcher2] with ID [67] for session ID [2631] host [DESKTOP-TJKR3AR] user [branden.sheffield] process ID [8108]
[2016.11.10 10:40:52] [0072m.51s.849ms] [1] SC[2631]: Registered sub-client [DesignSearcher2] with ID [68] for session ID [2631] host [DESKTOP-TJKR3AR] user [branden.sheffield] process ID [8108]
[2016.11.10 10:40:53] [0072m.52s.435ms] [1] SC[2631]: UnRegistered sub-client [DesignSearcher2] with ID [68] for session ID [2631] host [DESKTOP-TJKR3AR] user [branden.sheffield] process ID [8108]
[2016.11.10 10:40:53] [0072m.52s.470ms] [1] SC[2631]: Registered sub-client [DesignSearcher2] with ID [69] for session ID [2631] host [DESKTOP-TJKR3AR] user [branden.sheffield] process ID [8108]
[2016.11.10 10:40:53] [0072m.53s.053ms] [1] SC[2631]: UnRegistered sub-client [DesignSearcher2] with ID [69] for session ID [2631] host [DESKTOP-TJKR3AR] user [branden.sheffield] process ID [8108]
[2016.11.10 10:40:53] [0072m.53s.079ms] [1] SC[2631]: Registered sub-client [DesignSearcher2] with ID [70] for session ID [2631] host [DESKTOP-TJKR3AR] user [branden.sheffield] process ID [8108]
[2016.11.10 10:40:54] [0072m.53s.651ms] [1] SC[2631]: UnRegistered sub-client [DesignSearcher2] with ID [70] for session ID [2631] host [DESKTOP-TJKR3AR] user [branden.sheffield] process ID [8108]
[2016.11.10 10:40:54] [0072m.53s.680ms] [1] SC[2631]: Registered sub-client [DesignSearcher2] with ID [71] for session ID [2631] host [DESKTOP-TJKR3AR] user [branden.sheffield] process ID [8108]
[2016.11.10 10:40:54] [0072m.54s.273ms] [1] SC[2631]: UnRegistered sub-client [DesignSearcher2] with ID [71] for session ID [2631] host [DESKTOP-TJKR3AR] user [branden.sheffield] process ID [8108]
[2016.11.10 10:40:55] [0072m.54s.293ms] [1] SC[2631]: Registered sub-client [DesignSearcher2] with ID [72] for session ID [2631] host [DESKTOP-TJKR3AR] user [branden.sheffield] process ID [8108]
[2016.11.10 10:41:30] [0073m.29s.966ms] [1] SC[2631]: UnRegistered sub-client [DesignSearcher2] with ID [72] for session ID [2631] host [DESKTOP-TJKR3AR] user [branden.sheffield] process ID [8108]
[2016.11.10 10:41:30] [0073m.29s.991ms] [1] SC[2631]: Registered sub-client [DesignSearcher2] with ID [73] for session ID [2631] host [DESKTOP-TJKR3AR] user [branden.sheffield] process ID [8108]
[2016.11.10 10:42:33] [0074m.32s.473ms] [1] SC[2631]: UnRegistered sub-client [DesignSearcher2] with ID [73] for session ID [2631] host [DESKTOP-TJKR3AR] user [branden.sheffield] process ID [8108]
[2016.11.10 10:42:33] [0074m.32s.517ms] [1] SC[2631]: Registered sub-client [DesignSearcher2] with ID [74] for session ID [2631] host [DESKTOP-TJKR3AR] user [branden.sheffield] process ID [8108]
[2016.11.10 10:45:57] [0077m.57s.137ms] [1] SC[2631]: UnRegistered sub-client [DesignSearcher2] with ID [74] for session ID [2631] host [DESKTOP-TJKR3AR] user [branden.sheffield] process ID [8108]
[2016.11.10 10:45:57] [0077m.57s.162ms] [1] SC[2631]: Registered sub-client [DesignSearcher2] with ID [75] for session ID [2631] host [DESKTOP-TJKR3AR] user [branden.sheffield] process ID [8108]
[2016.11.10 10:46:20] [0078m.19s.759ms] [1] SC[2631]: UnRegistered sub-client [DesignSearcher2] with ID [75] for session ID [2631] host [DESKTOP-TJKR3AR] user [branden.sheffield] process ID [8108]
[2016.11.10 10:46:20] [0078m.19s.781ms] [1] SC[2631]: Registered sub-client [DesignSearcher2] with ID [76] for session ID [2631] host [DESKTOP-TJKR3AR] user [branden.sheffield] process ID [8108]
[2016.11.10 10:47:28] [0079m.27s.751ms] [1] SC[2631]: UnRegistered sub-client [DesignSearcher2] with ID [76] for session ID [2631] host [DESKTOP-TJKR3AR] user [branden.sheffield] process ID [8108]
[2016.11.10 10:47:28] [0079m.27s.786ms] [1] SC[2631]: Registered sub-client [DesignSearcher2] with ID [77] for session ID [2631] host [DESKTOP-TJKR3AR] user [branden.sheffield] process ID [8108]
[2016.11.10 10:47:29] [0079m.28s.382ms] [1] SC[2631]: UnRegistered sub-client [DesignSearcher2] with ID [77] for session ID [2631] host [DESKTOP-TJKR3AR] user [branden.sheffield] process ID [8108]
[2016.11.10 10:47:29] [0079m.28s.407ms] [1] SC[2631]: Registered sub-client [DesignSearcher2] with ID [78] for session ID [2631] host [DESKTOP-TJKR3AR] user [branden.sheffield] process ID [8108]
[2016.11.10 10:47:51] [0079m.50s.343ms] [1] SC[2631]: UnRegistered sub-client [DesignSearcher2] with ID [78] for session ID [2631] host [DESKTOP-TJKR3AR] user [branden.sheffield] process ID [8108]
[2016.11.10 10:47:51] [0079m.50s.373ms] [1] SC[2631]: Registered sub-client [DesignSearcher2] with ID [79] for session ID [2631] host [DESKTOP-TJKR3AR] user [branden.sheffield] process ID [8108]
[2016.11.10 10:48:51] [0080m.50s.548ms] [1] SC[2631]: UnRegistered sub-client [DesignSearcher2] with ID [79] for session ID [2631] host [DESKTOP-TJKR3AR] user [branden.sheffield] process ID [8108]
[2016.11.10 10:48:51] [0080m.50s.565ms] [1] SC[2631]: Registered sub-client [DesignSearcher2] with ID [80] for session ID [2631] host [DESKTOP-TJKR3AR] user [branden.sheffield] process ID [8108]
[2016.11.10 10:51:06] [0083m.06s.197ms] [1] SC[2631]: UnRegistered sub-client [DesignSearcher2] with ID [80] for session ID [2631] host [DESKTOP-TJKR3AR] user [branden.sheffield] process ID [8108]
[2016.11.10 10:51:06] [0083m.06s.229ms] [1] SC[2631]: Registered sub-client [DesignSearcher2] with ID [81] for session ID [2631] host [DESKTOP-TJKR3AR] user [branden.sheffield] process ID [8108]
[2016.11.10 10:54:11] [0086m.10s.719ms] [1] SC[2631]: UnRegistered sub-client [DesignSearcher2] with ID [81] for session ID [2631] host [DESKTOP-TJKR3AR] user [branden.sheffield] process ID [8108]
[2016.11.10 10:54:11] [0086m.10s.754ms] [1] SC[2631]: Registered sub-client [DesignSearcher2] with ID [82] for session ID [2631] host [DESKTOP-TJKR3AR] user [branden.sheffield] process ID [8108]
[2016.11.10 10:54:12] [0086m.11s.353ms] [1] SC[2631]: UnRegistered sub-client [DesignSearcher2] with ID [82] for session ID [2631] host [DESKTOP-TJKR3AR] user [branden.sheffield] process ID [8108]
[2016.11.10 10:54:12] [0086m.11s.383ms] [1] SC[2631]: Registered sub-client [DesignSearcher2] with ID [83] for session ID [2631] host [DESKTOP-TJKR3AR] user [branden.sheffield] process ID [8108]
[2016.11.10 10:54:26] [0086m.26s.259ms] [1] SC[2631]: UnRegistered sub-client [DesignSearcher2] with ID [83] for session ID [2631] host [DESKTOP-TJKR3AR] user [branden.sheffield] process ID [8108]
[2016.11.10 10:54:26] [0086m.26s.280ms] [1] SC[2631]: Registered sub-client [DesignSearcher2] with ID [84] for session ID [2631] host [DESKTOP-TJKR3AR] user [branden.sheffield] process ID [8108]
[2016.11.10 10:54:50] [0086m.49s.707ms] [1] SC[2631]: UnRegistered sub-client [DesignSearcher2] with ID [84] for session ID [2631] host [DESKTOP-TJKR3AR] user [branden.sheffield] process ID [8108]
[2016.11.10 10:54:50] [0086m.49s.735ms] [1] SC[2631]: Registered sub-client [DesignSearcher2] with ID [85] for session ID [2631] host [DESKTOP-TJKR3AR] user [branden.sheffield] process ID [8108]
[2016.11.10 10:58:03] [0090m.02s.386ms] [1] SC[2631]: Registered sub-client [Dx2Exp_66559984] with ID [86] for session ID [2631] host [DESKTOP-TJKR3AR] user [branden.sheffield] process ID [8108]
[2016.11.10 10:58:03] [0090m.02s.386ms] [1] SC[2631]: UnRegistered sub-client [Dx2Exp_66559984] with ID [86] for session ID [2631] host [DESKTOP-TJKR3AR] user [branden.sheffield] process ID [8108]
[2016.11.10 10:58:16] [0090m.16s.065ms] [0] IT: Session [2632] for host [DESKTOP-TJKR3AR] user [branden.sheffield] with process ID [11280] created
[2016.11.10 10:58:16] [0090m.16s.067ms] [1] SC[2632]: Registered sub-client [Expedition PE_66573640] with ID [1] for session ID [2632] host [DESKTOP-TJKR3AR] user [branden.sheffield] process ID [11280]
[2016.11.10 10:58:16] [0090m.16s.122ms] [1] SC[2632]: Registered sub-client [EEVM_EEVM_480784380] with ID [2] for session ID [2632] host [DESKTOP-TJKR3AR] user [branden.sheffield] process ID [11280]
[2016.11.10 10:58:16] [0090m.16s.139ms] [1] SC[2632]: UnRegistered sub-client [EEVM_EEVM_480784380] with ID [2] for session ID [2632] host [DESKTOP-TJKR3AR] user [branden.sheffield] process ID [11280]
[2016.11.10 10:58:16] [0090m.16s.142ms] [1] SC[2632]: Registered sub-client [EEVM_EEVM_480784380] with ID [3] for session ID [2632] host [DESKTOP-TJKR3AR] user [branden.sheffield] process ID [11280]
[2016.11.10 10:58:16] [0090m.16s.156ms] [1] SC[2632]: UnRegistered sub-client [EEVM_EEVM_480784380] with ID [3] for session ID [2632] host [DESKTOP-TJKR3AR] user [branden.sheffield] process ID [11280]
[2016.11.10 10:58:16] [0090m.16s.160ms] [1] CMT: There are [2] clients now: 2631, 2632
[2016.11.10 10:58:17] [0090m.16s.717ms] [1] SC[2632]: Registered sub-client [JobPrefsDBPI_66574312] with ID [4] for session ID [2632] host [DESKTOP-TJKR3AR] user [branden.sheffield] process ID [11280]
[2016.11.10 10:58:17] [0090m.16s.765ms] [1] SC[2632]: UnRegistered sub-client [JobPrefsDBPI_66574312] with ID [4] for session ID [2632] host [DESKTOP-TJKR3AR] user [branden.sheffield] process ID [11280]
[2016.11.10 10:58:20] [0090m.19s.649ms] [1] SC[2632]: Registered sub-client [ExpeditionCrossProber] with ID [5] for session ID [2632] host [DESKTOP-TJKR3AR] user [branden.sheffield] process ID [11280]
[2016.11.10 11:04:46] [0096m.45s.326ms] [1] SC[2632]: Registered sub-client [JobPrefsDBPI_66962921] with ID [6] for session ID [2632] host [DESKTOP-TJKR3AR] user [branden.sheffield] process ID [11280]
[2016.11.10 11:04:46] [0096m.45s.343ms] [1] SC[2632]: Registered sub-client [NetClassDBPI_66962937] with ID [7] for session ID [2632] host [DESKTOP-TJKR3AR] user [branden.sheffield] process ID [11280]
[2016.11.10 11:04:46] [0096m.45s.351ms] [1] SC[2632]: UnRegistered sub-client [JobPrefsDBPI_66962921] with ID [6] for session ID [2632] host [DESKTOP-TJKR3AR] user [branden.sheffield] process ID [11280]
[2016.11.10 11:04:46] [0096m.45s.352ms] [1] SC[2632]: UnRegistered sub-client [NetClassDBPI_66962937] with ID [7] for session ID [2632] host [DESKTOP-TJKR3AR] user [branden.sheffield] process ID [11280]
[2016.11.10 11:05:06] [0097m.05s.630ms] [1] SC[2632]: Registered sub-client [branden.sheffield (Stackup Editor)] with ID [8] for session ID [2632] host [DESKTOP-TJKR3AR] user [branden.sheffield] process ID [11280]
[2016.11.10 11:05:06] [0097m.05s.946ms] [1] SC[2632]: Registered sub-client [JobPrefsDBPI_66983546] with ID [9] for session ID [2632] host [DESKTOP-TJKR3AR] user [branden.sheffield] process ID [11280]
[2016.11.10 11:05:06] [0097m.05s.948ms] [1] SC[2632]: UnRegistered sub-client [JobPrefsDBPI_66983546] with ID [9] for session ID [2632] host [DESKTOP-TJKR3AR] user [branden.sheffield] process ID [11280]
[2016.11.10 11:05:11] [0097m.10s.459ms] [1] SC[2632]: UnRegistered sub-client [branden.sheffield (Stackup Editor)] with ID [8] for session ID [2632] host [DESKTOP-TJKR3AR] user [branden.sheffield] process ID [11280]
[2016.11.10 11:05:45] [0097m.44s.469ms] [1] SC[2632]: Registered sub-client [JobPrefsDBPI_67022062] with ID [10] for session ID [2632] host [DESKTOP-TJKR3AR] user [branden.sheffield] process ID [11280]
[2016.11.10 11:05:45] [0097m.44s.471ms] [1] SC[2632]: UnRegistered sub-client [JobPrefsDBPI_67022062] with ID [10] for session ID [2632] host [DESKTOP-TJKR3AR] user [branden.sheffield] process ID [11280]
[2016.11.10 11:09:32] [0101m.32s.238ms] [1] SC[2631]: UnRegistered sub-client [DesignSearcher2] with ID [85] for session ID [2631] host [DESKTOP-TJKR3AR] user [branden.sheffield] process ID [8108]
[2016.11.10 11:09:32] [0101m.32s.263ms] [1] SC[2631]: Registered sub-client [DesignSearcher2] with ID [87] for session ID [2631] host [DESKTOP-TJKR3AR] user [branden.sheffield] process ID [8108]
[2016.11.10 11:09:51] [0101m.50s.497ms] [1] SC[2631]: UnRegistered sub-client [DesignSearcher2] with ID [87] for session ID [2631] host [DESKTOP-TJKR3AR] user [branden.sheffield] process ID [8108]
[2016.11.10 11:09:51] [0101m.50s.515ms] [1] SC[2631]: Registered sub-client [DesignSearcher2] with ID [88] for session ID [2631] host [DESKTOP-TJKR3AR] user [branden.sheffield] process ID [8108]
[2016.11.10 11:09:58] [0101m.57s.672ms] [1] SC[2631]: UnRegistered sub-client [DesignSearcher2] with ID [88] for session ID [2631] host [DESKTOP-TJKR3AR] user [branden.sheffield] process ID [8108]
[2016.11.10 11:09:58] [0101m.57s.699ms] [1] SC[2631]: Registered sub-client [DesignSearcher2] with ID [89] for session ID [2631] host [DESKTOP-TJKR3AR] user [branden.sheffield] process ID [8108]
[2016.11.10 11:10:16] [0102m.15s.388ms] [1] SC[2631]: UnRegistered sub-client [DesignSearcher2] with ID [89] for session ID [2631] host [DESKTOP-TJKR3AR] user [branden.sheffield] process ID [8108]
[2016.11.10 11:10:16] [0102m.15s.416ms] [1] SC[2631]: Registered sub-client [DesignSearcher2] with ID [90] for session ID [2631] host [DESKTOP-TJKR3AR] user [branden.sheffield] process ID [8108]
[2016.11.10 11:10:25] [0102m.25s.090ms] [1] SC[2631]: UnRegistered sub-client [DesignSearcher2] with ID [90] for session ID [2631] host [DESKTOP-TJKR3AR] user [branden.sheffield] process ID [8108]
[2016.11.10 11:10:25] [0102m.25s.126ms] [1] SC[2631]: Registered sub-client [DesignSearcher2] with ID [91] for session ID [2631] host [DESKTOP-TJKR3AR] user [branden.sheffield] process ID [8108]
[2016.11.10 11:11:13] [0103m.12s.353ms] [1] SC[2631]: UnRegistered sub-client [DesignSearcher2] with ID [91] for session ID [2631] host [DESKTOP-TJKR3AR] user [branden.sheffield] process ID [8108]
[2016.11.10 11:11:13] [0103m.12s.390ms] [1] SC[2631]: Registered sub-client [DesignSearcher2] with ID [92] for session ID [2631] host [DESKTOP-TJKR3AR] user [branden.sheffield] process ID [8108]
[2016.11.10 11:11:32] [0103m.31s.966ms] [1] SC[2631]: UnRegistered sub-client [DesignSearcher2] with ID [92] for session ID [2631] host [DESKTOP-TJKR3AR] user [branden.sheffield] process ID [8108]
[2016.11.10 11:11:32] [0103m.31s.989ms] [1] SC[2631]: Registered sub-client [DesignSearcher2] with ID [93] for session ID [2631] host [DESKTOP-TJKR3AR] user [branden.sheffield] process ID [8108]
[2016.11.10 11:11:46] [0103m.45s.660ms] [1] SC[2631]: UnRegistered sub-client [DesignSearcher2] with ID [93] for session ID [2631] host [DESKTOP-TJKR3AR] user [branden.sheffield] process ID [8108]
[2016.11.10 11:11:46] [0103m.45s.685ms] [1] SC[2631]: Registered sub-client [DesignSearcher2] with ID [94] for session ID [2631] host [DESKTOP-TJKR3AR] user [branden.sheffield] process ID [8108]
[2016.11.10 11:11:56] [0103m.55s.860ms] [1] SC[2631]: UnRegistered sub-client [DesignSearcher2] with ID [94] for session ID [2631] host [DESKTOP-TJKR3AR] user [branden.sheffield] process ID [8108]
[2016.11.10 11:11:56] [0103m.55s.887ms] [1] SC[2631]: Registered sub-client [DesignSearcher2] with ID [95] for session ID [2631] host [DESKTOP-TJKR3AR] user [branden.sheffield] process ID [8108]
[2016.11.10 11:12:25] [0104m.24s.983ms] [1] SC[2631]: UnRegistered sub-client [DesignSearcher2] with ID [95] for session ID [2631] host [DESKTOP-TJKR3AR] user [branden.sheffield] process ID [8108]
[2016.11.10 11:12:25] [0104m.25s.009ms] [1] SC[2631]: Registered sub-client [DesignSearcher2] with ID [96] for session ID [2631] host [DESKTOP-TJKR3AR] user [branden.sheffield] process ID [8108]
[2016.11.10 11:12:36] [0104m.35s.666ms] [1] SC[2631]: UnRegistered sub-client [DesignSearcher2] with ID [96] for session ID [2631] host [DESKTOP-TJKR3AR] user [branden.sheffield] process ID [8108]
[2016.11.10 11:12:36] [0104m.35s.701ms] [1] SC[2631]: Registered sub-client [DesignSearcher2] with ID [97] for session ID [2631] host [DESKTOP-TJKR3AR] user [branden.sheffield] process ID [8108]
[2016.11.10 11:12:41] [0104m.40s.937ms] [1] SC[2631]: UnRegistered sub-client [DesignSearcher2] with ID [97] for session ID [2631] host [DESKTOP-TJKR3AR] user [branden.sheffield] process ID [8108]
[2016.11.10 11:12:41] [0104m.40s.959ms] [1] SC[2631]: Registered sub-client [DesignSearcher2] with ID [98] for session ID [2631] host [DESKTOP-TJKR3AR] user [branden.sheffield] process ID [8108]
[2016.11.10 11:12:48] [0104m.48s.123ms] [1] SC[2631]: UnRegistered sub-client [DesignSearcher2] with ID [98] for session ID [2631] host [DESKTOP-TJKR3AR] user [branden.sheffield] process ID [8108]
[2016.11.10 11:12:48] [0104m.48s.149ms] [1] SC[2631]: Registered sub-client [DesignSearcher2] with ID [99] for session ID [2631] host [DESKTOP-TJKR3AR] user [branden.sheffield] process ID [8108]
[2016.11.10 11:14:25] [0106m.24s.660ms] [1] SC[2631]: UnRegistered sub-client [DesignSearcher2] with ID [99] for session ID [2631] host [DESKTOP-TJKR3AR] user [branden.sheffield] process ID [8108]
[2016.11.10 11:14:25] [0106m.24s.683ms] [1] SC[2631]: Registered sub-client [DesignSearcher2] with ID [100] for session ID [2631] host [DESKTOP-TJKR3AR] user [branden.sheffield] process ID [8108]
[2016.11.10 11:14:39] [0106m.38s.861ms] [1] SC[2631]: UnRegistered sub-client [DesignSearcher2] with ID [100] for session ID [2631] host [DESKTOP-TJKR3AR] user [branden.sheffield] process ID [8108]
[2016.11.10 11:14:39] [0106m.38s.885ms] [1] SC[2631]: Registered sub-client [DesignSearcher2] with ID [101] for session ID [2631] host [DESKTOP-TJKR3AR] user [branden.sheffield] process ID [8108]
[2016.11.10 11:14:56] [0106m.56s.247ms] [1] SC[2631]: UnRegistered sub-client [DesignSearcher2] with ID [101] for session ID [2631] host [DESKTOP-TJKR3AR] user [branden.sheffield] process ID [8108]
[2016.11.10 11:14:56] [0106m.56s.267ms] [1] SC[2631]: Registered sub-client [DesignSearcher2] with ID [102] for session ID [2631] host [DESKTOP-TJKR3AR] user [branden.sheffield] process ID [8108]
[2016.11.10 11:14:58] [0106m.57s.603ms] [1] SC[2631]: UnRegistered sub-client [DesignSearcher2] with ID [102] for session ID [2631] host [DESKTOP-TJKR3AR] user [branden.sheffield] process ID [8108]
[2016.11.10 11:14:58] [0106m.57s.629ms] [1] SC[2631]: Registered sub-client [DesignSearcher2] with ID [103] for session ID [2631] host [DESKTOP-TJKR3AR] user [branden.sheffield] process ID [8108]
[2016.11.10 11:15:20] [0107m.20s.037ms] [1] SC[2631]: UnRegistered sub-client [DesignSearcher2] with ID [103] for session ID [2631] host [DESKTOP-TJKR3AR] user [branden.sheffield] process ID [8108]
[2016.11.10 11:15:20] [0107m.20s.070ms] [1] SC[2631]: Registered sub-client [DesignSearcher2] with ID [104] for session ID [2631] host [DESKTOP-TJKR3AR] user [branden.sheffield] process ID [8108]
[2016.11.10 11:15:46] [0107m.45s.674ms] [1] SC[2631]: UnRegistered sub-client [DesignSearcher2] with ID [104] for session ID [2631] host [DESKTOP-TJKR3AR] user [branden.sheffield] process ID [8108]
[2016.11.10 11:15:46] [0107m.45s.708ms] [1] SC[2631]: Registered sub-client [DesignSearcher2] with ID [105] for session ID [2631] host [DESKTOP-TJKR3AR] user [branden.sheffield] process ID [8108]
[2016.11.10 11:16:13] [0108m.12s.329ms] [1] SC[2631]: UnRegistered sub-client [DesignSearcher2] with ID [105] for session ID [2631] host [DESKTOP-TJKR3AR] user [branden.sheffield] process ID [8108]
[2016.11.10 11:16:13] [0108m.12s.363ms] [1] SC[2631]: Registered sub-client [DesignSearcher2] with ID [106] for session ID [2631] host [DESKTOP-TJKR3AR] user [branden.sheffield] process ID [8108]
[2016.11.10 11:16:36] [0108m.35s.789ms] [1] SC[2631]: UnRegistered sub-client [DesignSearcher2] with ID [106] for session ID [2631] host [DESKTOP-TJKR3AR] user [branden.sheffield] process ID [8108]
[2016.11.10 11:16:36] [0108m.35s.817ms] [1] SC[2631]: Registered sub-client [DesignSearcher2] with ID [107] for session ID [2631] host [DESKTOP-TJKR3AR] user [branden.sheffield] process ID [8108]
[2016.11.10 11:16:55] [0108m.54s.921ms] [1] SC[2631]: UnRegistered sub-client [DesignSearcher2] with ID [107] for session ID [2631] host [DESKTOP-TJKR3AR] user [branden.sheffield] process ID [8108]
[2016.11.10 11:16:55] [0108m.54s.924ms] [1] SC[2631]: Registered sub-client [DesignSearcher2] with ID [108] for session ID [2631] host [DESKTOP-TJKR3AR] user [branden.sheffield] process ID [8108]
[2016.11.10 11:21:11] [0113m.11s.218ms] [1] SC[2631]: UnRegistered sub-client [DesignSearcher2] with ID [108] for session ID [2631] host [DESKTOP-TJKR3AR] user [branden.sheffield] process ID [8108]
[2016.11.10 11:21:11] [0113m.11s.248ms] [1] SC[2631]: Registered sub-client [DesignSearcher2] with ID [109] for session ID [2631] host [DESKTOP-TJKR3AR] user [branden.sheffield] process ID [8108]
[2016.11.10 11:25:09] [0117m.09s.046ms] [1] SC[2631]: UnRegistered sub-client [DesignSearcher2] with ID [109] for session ID [2631] host [DESKTOP-TJKR3AR] user [branden.sheffield] process ID [8108]
[2016.11.10 11:25:09] [0117m.09s.072ms] [1] SC[2631]: Registered sub-client [DesignSearcher2] with ID [110] for session ID [2631] host [DESKTOP-TJKR3AR] user [branden.sheffield] process ID [8108]
[2016.11.10 11:25:24] [0117m.23s.940ms] [1] SC[2631]: UnRegistered sub-client [DesignSearcher2] with ID [110] for session ID [2631] host [DESKTOP-TJKR3AR] user [branden.sheffield] process ID [8108]
[2016.11.10 11:25:24] [0117m.23s.962ms] [1] SC[2631]: Registered sub-client [DesignSearcher2] with ID [111] for session ID [2631] host [DESKTOP-TJKR3AR] user [branden.sheffield] process ID [8108]
[2016.11.10 11:25:26] [0117m.25s.775ms] [1] SC[2631]: UnRegistered sub-client [DesignSearcher2] with ID [111] for session ID [2631] host [DESKTOP-TJKR3AR] user [branden.sheffield] process ID [8108]
[2016.11.10 11:25:26] [0117m.25s.805ms] [1] SC[2631]: Registered sub-client [DesignSearcher2] with ID [112] for session ID [2631] host [DESKTOP-TJKR3AR] user [branden.sheffield] process ID [8108]
[2016.11.10 11:25:27] [0117m.26s.432ms] [1] SC[2631]: UnRegistered sub-client [DesignSearcher2] with ID [112] for session ID [2631] host [DESKTOP-TJKR3AR] user [branden.sheffield] process ID [8108]
[2016.11.10 11:25:27] [0117m.26s.475ms] [1] SC[2631]: Registered sub-client [DesignSearcher2] with ID [113] for session ID [2631] host [DESKTOP-TJKR3AR] user [branden.sheffield] process ID [8108]
[2016.11.10 11:26:29] [0118m.28s.364ms] [1] SC[2631]: UnRegistered sub-client [DesignSearcher2] with ID [113] for session ID [2631] host [DESKTOP-TJKR3AR] user [branden.sheffield] process ID [8108]
[2016.11.10 11:26:29] [0118m.28s.410ms] [1] SC[2631]: Registered sub-client [DesignSearcher2] with ID [114] for session ID [2631] host [DESKTOP-TJKR3AR] user [branden.sheffield] process ID [8108]
[2016.11.10 11:27:18] [0119m.17s.686ms] [1] SC[2631]: UnRegistered sub-client [DesignSearcher2] with ID [114] for session ID [2631] host [DESKTOP-TJKR3AR] user [branden.sheffield] process ID [8108]
[2016.11.10 11:27:18] [0119m.17s.710ms] [1] SC[2631]: Registered sub-client [DesignSearcher2] with ID [115] for session ID [2631] host [DESKTOP-TJKR3AR] user [branden.sheffield] process ID [8108]
[2016.11.10 11:27:50] [0119m.49s.909ms] [1] SC[2631]: UnRegistered sub-client [DesignSearcher2] with ID [115] for session ID [2631] host [DESKTOP-TJKR3AR] user [branden.sheffield] process ID [8108]
[2016.11.10 11:27:50] [0119m.49s.935ms] [1] SC[2631]: Registered sub-client [DesignSearcher2] with ID [116] for session ID [2631] host [DESKTOP-TJKR3AR] user [branden.sheffield] process ID [8108]
[2016.11.10 11:29:59] [0121m.58s.529ms] [1] SC[2631]: UnRegistered sub-client [DesignSearcher2] with ID [116] for session ID [2631] host [DESKTOP-TJKR3AR] user [branden.sheffield] process ID [8108]
[2016.11.10 11:29:59] [0121m.58s.551ms] [1] SC[2631]: Registered sub-client [DesignSearcher2] with ID [117] for session ID [2631] host [DESKTOP-TJKR3AR] user [branden.sheffield] process ID [8108]
[2016.11.10 11:30:07] [0122m.06s.693ms] [1] SC[2631]: UnRegistered sub-client [DesignSearcher2] with ID [117] for session ID [2631] host [DESKTOP-TJKR3AR] user [branden.sheffield] process ID [8108]
[2016.11.10 11:30:07] [0122m.06s.713ms] [1] SC[2631]: Registered sub-client [DesignSearcher2] with ID [118] for session ID [2631] host [DESKTOP-TJKR3AR] user [branden.sheffield] process ID [8108]
[2016.11.10 11:32:34] [0124m.33s.851ms] [1] SC[2631]: UnRegistered sub-client [DesignSearcher2] with ID [118] for session ID [2631] host [DESKTOP-TJKR3AR] user [branden.sheffield] process ID [8108]
[2016.11.10 11:32:34] [0124m.33s.875ms] [1] SC[2631]: Registered sub-client [DesignSearcher2] with ID [119] for session ID [2631] host [DESKTOP-TJKR3AR] user [branden.sheffield] process ID [8108]
[2016.11.10 11:32:49] [0124m.48s.555ms] [1] SC[2631]: UnRegistered sub-client [DesignSearcher2] with ID [119] for session ID [2631] host [DESKTOP-TJKR3AR] user [branden.sheffield] process ID [8108]
[2016.11.10 11:32:49] [0124m.48s.580ms] [1] SC[2631]: Registered sub-client [DesignSearcher2] with ID [120] for session ID [2631] host [DESKTOP-TJKR3AR] user [branden.sheffield] process ID [8108]
[2016.11.10 11:35:56] [0127m.55s.320ms] [1] SC[2631]: UnRegistered sub-client [DesignSearcher2] with ID [120] for session ID [2631] host [DESKTOP-TJKR3AR] user [branden.sheffield] process ID [8108]
[2016.11.10 11:35:56] [0127m.55s.347ms] [1] SC[2631]: Registered sub-client [DesignSearcher2] with ID [121] for session ID [2631] host [DESKTOP-TJKR3AR] user [branden.sheffield] process ID [8108]
[2016.11.10 11:36:09] [0128m.08s.735ms] [1] SC[2631]: UnRegistered sub-client [DesignSearcher2] with ID [121] for session ID [2631] host [DESKTOP-TJKR3AR] user [branden.sheffield] process ID [8108]
[2016.11.10 11:36:09] [0128m.08s.783ms] [1] SC[2631]: Registered sub-client [DesignSearcher2] with ID [122] for session ID [2631] host [DESKTOP-TJKR3AR] user [branden.sheffield] process ID [8108]
[2016.11.10 11:36:37] [0128m.37s.221ms] [1] SC[2631]: UnRegistered sub-client [DesignSearcher2] with ID [122] for session ID [2631] host [DESKTOP-TJKR3AR] user [branden.sheffield] process ID [8108]
[2016.11.10 11:36:37] [0128m.37s.248ms] [1] SC[2631]: Registered sub-client [DesignSearcher2] with ID [123] for session ID [2631] host [DESKTOP-TJKR3AR] user [branden.sheffield] process ID [8108]
[2016.11.10 11:37:07] [0129m.06s.887ms] [1] SC[2631]: UnRegistered sub-client [DesignSearcher2] with ID [123] for session ID [2631] host [DESKTOP-TJKR3AR] user [branden.sheffield] process ID [8108]
[2016.11.10 11:37:07] [0129m.06s.915ms] [1] SC[2631]: Registered sub-client [DesignSearcher2] with ID [124] for session ID [2631] host [DESKTOP-TJKR3AR] user [branden.sheffield] process ID [8108]
[2016.11.10 11:37:23] [0129m.22s.787ms] [1] SC[2631]: UnRegistered sub-client [DesignSearcher2] with ID [124] for session ID [2631] host [DESKTOP-TJKR3AR] user [branden.sheffield] process ID [8108]
[2016.11.10 11:37:23] [0129m.22s.826ms] [1] SC[2631]: Registered sub-client [DesignSearcher2] with ID [125] for session ID [2631] host [DESKTOP-TJKR3AR] user [branden.sheffield] process ID [8108]
[2016.11.10 11:38:14] [0130m.13s.534ms] [1] SC[2631]: UnRegistered sub-client [DesignSearcher2] with ID [125] for session ID [2631] host [DESKTOP-TJKR3AR] user [branden.sheffield] process ID [8108]
[2016.11.10 11:38:14] [0130m.13s.568ms] [1] SC[2631]: Registered sub-client [DesignSearcher2] with ID [126] for session ID [2631] host [DESKTOP-TJKR3AR] user [branden.sheffield] process ID [8108]
[2016.11.10 11:38:30] [0130m.30s.251ms] [1] SC[2631]: UnRegistered sub-client [DesignSearcher2] with ID [126] for session ID [2631] host [DESKTOP-TJKR3AR] user [branden.sheffield] process ID [8108]
[2016.11.10 11:38:30] [0130m.30s.277ms] [1] SC[2631]: Registered sub-client [DesignSearcher2] with ID [127] for session ID [2631] host [DESKTOP-TJKR3AR] user [branden.sheffield] process ID [8108]
[2016.11.10 11:38:38] [0130m.38s.106ms] [1] SC[2631]: UnRegistered sub-client [DesignSearcher2] with ID [127] for session ID [2631] host [DESKTOP-TJKR3AR] user [branden.sheffield] process ID [8108]
[2016.11.10 11:38:38] [0130m.38s.132ms] [1] SC[2631]: Registered sub-client [DesignSearcher2] with ID [128] for session ID [2631] host [DESKTOP-TJKR3AR] user [branden.sheffield] process ID [8108]
[2016.11.10 11:38:48] [0130m.48s.274ms] [1] SC[2631]: UnRegistered sub-client [DesignSearcher2] with ID [128] for session ID [2631] host [DESKTOP-TJKR3AR] user [branden.sheffield] process ID [8108]
[2016.11.10 11:38:49] [0130m.48s.305ms] [1] SC[2631]: Registered sub-client [DesignSearcher2] with ID [129] for session ID [2631] host [DESKTOP-TJKR3AR] user [branden.sheffield] process ID [8108]
[2016.11.10 11:39:11] [0131m.10s.431ms] [1] SC[2631]: UnRegistered sub-client [DesignSearcher2] with ID [129] for session ID [2631] host [DESKTOP-TJKR3AR] user [branden.sheffield] process ID [8108]
[2016.11.10 11:39:11] [0131m.10s.460ms] [1] SC[2631]: Registered sub-client [DesignSearcher2] with ID [130] for session ID [2631] host [DESKTOP-TJKR3AR] user [branden.sheffield] process ID [8108]
[2016.11.10 11:39:12] [0131m.11s.380ms] [1] SC[2631]: UnRegistered sub-client [DesignSearcher2] with ID [130] for session ID [2631] host [DESKTOP-TJKR3AR] user [branden.sheffield] process ID [8108]
[2016.11.10 11:39:12] [0131m.11s.402ms] [1] SC[2631]: Registered sub-client [DesignSearcher2] with ID [131] for session ID [2631] host [DESKTOP-TJKR3AR] user [branden.sheffield] process ID [8108]
[2016.11.10 11:39:12] [0131m.12s.056ms] [1] SC[2631]: UnRegistered sub-client [DesignSearcher2] with ID [131] for session ID [2631] host [DESKTOP-TJKR3AR] user [branden.sheffield] process ID [8108]
[2016.11.10 11:39:12] [0131m.12s.101ms] [1] SC[2631]: Registered sub-client [DesignSearcher2] with ID [132] for session ID [2631] host [DESKTOP-TJKR3AR] user [branden.sheffield] process ID [8108]
[2016.11.10 11:39:13] [0131m.12s.567ms] [1] SC[2631]: UnRegistered sub-client [DesignSearcher2] with ID [132] for session ID [2631] host [DESKTOP-TJKR3AR] user [branden.sheffield] process ID [8108]
[2016.11.10 11:39:13] [0131m.12s.588ms] [1] SC[2631]: Registered sub-client [DesignSearcher2] with ID [133] for session ID [2631] host [DESKTOP-TJKR3AR] user [branden.sheffield] process ID [8108]
[2016.11.10 11:39:45] [0131m.45s.044ms] [1] SC[2631]: UnRegistered sub-client [DesignSearcher2] with ID [133] for session ID [2631] host [DESKTOP-TJKR3AR] user [branden.sheffield] process ID [8108]
[2016.11.10 11:39:45] [0131m.45s.071ms] [1] SC[2631]: Registered sub-client [DesignSearcher2] with ID [134] for session ID [2631] host [DESKTOP-TJKR3AR] user [branden.sheffield] process ID [8108]
[2016.11.10 11:41:08] [0133m.07s.298ms] [1] SC[2631]: UnRegistered sub-client [DesignSearcher2] with ID [134] for session ID [2631] host [DESKTOP-TJKR3AR] user [branden.sheffield] process ID [8108]
[2016.11.10 11:41:08] [0133m.07s.320ms] [1] SC[2631]: Registered sub-client [DesignSearcher2] with ID [135] for session ID [2631] host [DESKTOP-TJKR3AR] user [branden.sheffield] process ID [8108]
[2016.11.10 11:41:26] [0133m.25s.695ms] [1] SC[2631]: UnRegistered sub-client [DesignSearcher2] with ID [135] for session ID [2631] host [DESKTOP-TJKR3AR] user [branden.sheffield] process ID [8108]
[2016.11.10 11:41:26] [0133m.25s.723ms] [1] SC[2631]: Registered sub-client [DesignSearcher2] with ID [136] for session ID [2631] host [DESKTOP-TJKR3AR] user [branden.sheffield] process ID [8108]
[2016.11.10 11:42:59] [0134m.58s.629ms] [1] SC[2631]: UnRegistered sub-client [DesignSearcher2] with ID [136] for session ID [2631] host [DESKTOP-TJKR3AR] user [branden.sheffield] process ID [8108]
[2016.11.10 11:42:59] [0134m.58s.652ms] [1] SC[2631]: Registered sub-client [DesignSearcher2] with ID [137] for session ID [2631] host [DESKTOP-TJKR3AR] user [branden.sheffield] process ID [8108]
[2016.11.10 11:43:16] [0135m.16s.113ms] [1] SC[2631]: UnRegistered sub-client [DesignSearcher2] with ID [137] for session ID [2631] host [DESKTOP-TJKR3AR] user [branden.sheffield] process ID [8108]
[2016.11.10 11:43:16] [0135m.16s.151ms] [1] SC[2631]: Registered sub-client [DesignSearcher2] with ID [138] for session ID [2631] host [DESKTOP-TJKR3AR] user [branden.sheffield] process ID [8108]
[2016.11.10 11:47:42] [0139m.41s.953ms] [1] SC[2631]: UnRegistered sub-client [DesignSearcher2] with ID [138] for session ID [2631] host [DESKTOP-TJKR3AR] user [branden.sheffield] process ID [8108]
[2016.11.10 11:47:42] [0139m.41s.978ms] [1] SC[2631]: Registered sub-client [DesignSearcher2] with ID [139] for session ID [2631] host [DESKTOP-TJKR3AR] user [branden.sheffield] process ID [8108]
[2016.11.10 11:49:18] [0141m.17s.968ms] [1] SC[2631]: UnRegistered sub-client [DesignSearcher2] with ID [139] for session ID [2631] host [DESKTOP-TJKR3AR] user [branden.sheffield] process ID [8108]
[2016.11.10 11:49:18] [0141m.17s.993ms] [1] SC[2631]: Registered sub-client [DesignSearcher2] with ID [140] for session ID [2631] host [DESKTOP-TJKR3AR] user [branden.sheffield] process ID [8108]
[2016.11.10 11:49:20] [0141m.19s.299ms] [1] SC[2631]: UnRegistered sub-client [DesignSearcher2] with ID [140] for session ID [2631] host [DESKTOP-TJKR3AR] user [branden.sheffield] process ID [8108]
[2016.11.10 11:49:20] [0141m.19s.322ms] [1] SC[2631]: Registered sub-client [DesignSearcher2] with ID [141] for session ID [2631] host [DESKTOP-TJKR3AR] user [branden.sheffield] process ID [8108]
[2016.11.10 11:49:32] [0141m.31s.717ms] [1] SC[2631]: UnRegistered sub-client [DesignSearcher2] with ID [141] for session ID [2631] host [DESKTOP-TJKR3AR] user [branden.sheffield] process ID [8108]
[2016.11.10 11:49:32] [0141m.31s.744ms] [1] SC[2631]: Registered sub-client [DesignSearcher2] with ID [142] for session ID [2631] host [DESKTOP-TJKR3AR] user [branden.sheffield] process ID [8108]
[2016.11.10 11:49:46] [0141m.46s.114ms] [1] SC[2631]: UnRegistered sub-client [DesignSearcher2] with ID [142] for session ID [2631] host [DESKTOP-TJKR3AR] user [branden.sheffield] process ID [8108]
[2016.11.10 11:49:46] [0141m.46s.157ms] [1] SC[2631]: Registered sub-client [DesignSearcher2] with ID [143] for session ID [2631] host [DESKTOP-TJKR3AR] user [branden.sheffield] process ID [8108]
[2016.11.10 11:50:00] [0142m.00s.018ms] [1] SC[2631]: UnRegistered sub-client [DesignSearcher2] with ID [143] for session ID [2631] host [DESKTOP-TJKR3AR] user [branden.sheffield] process ID [8108]
[2016.11.10 11:50:00] [0142m.00s.046ms] [1] SC[2631]: Registered sub-client [DesignSearcher2] with ID [144] for session ID [2631] host [DESKTOP-TJKR3AR] user [branden.sheffield] process ID [8108]
[2016.11.10 11:50:10] [0142m.10s.173ms] [1] SC[2631]: UnRegistered sub-client [DesignSearcher2] with ID [144] for session ID [2631] host [DESKTOP-TJKR3AR] user [branden.sheffield] process ID [8108]
[2016.11.10 11:50:10] [0142m.10s.199ms] [1] SC[2631]: Registered sub-client [DesignSearcher2] with ID [145] for session ID [2631] host [DESKTOP-TJKR3AR] user [branden.sheffield] process ID [8108]
[2016.11.10 11:54:11] [0146m.11s.157ms] [1] SC[2631]: UnRegistered sub-client [DesignSearcher2] with ID [145] for session ID [2631] host [DESKTOP-TJKR3AR] user [branden.sheffield] process ID [8108]
[2016.11.10 11:54:11] [0146m.11s.179ms] [1] SC[2631]: Registered sub-client [DesignSearcher2] with ID [146] for session ID [2631] host [DESKTOP-TJKR3AR] user [branden.sheffield] process ID [8108]
[2016.11.10 13:28:32] [0240m.31s.862ms] [1] PrjBackupMgr: Successfully created Project Backup [C:\pd_repo\pd\_CITADEL\Mentor\Citadel\ProjectBackup\backups\2016-11-10 13.28.31 - auto.zip] with GUID [e240-670a-00b0-f42f-f68d-4284-78d4-2850-9664-9382-b182-04a8]
[2016.11.10 13:28:32] [0240m.31s.865ms] [0] PrjBackupMgr: Removing excessive backup:  BackupGUID[1f04-66fd-8bca-76b3-2596-2287-5962-2850-5f64-9382-b182-04a8] CreationTime[Wednesday, November 09, 2016 00:09:54] Type[Autosave] Creator[iCDB Server (2016-11-08 16.04.49-10648)] ApplicationName[iCDB Server (2016-11-08 16.04.49-10648)] UserName[branden.sheffield] MachineName[DESKTOP-TJKR3AR] Description[Autosave] FullFlowName[PADS Professional VX.1.1] FlowId[PADS-Pro VX.1.1] GBSInstallId[43430] GBSBuildId[673008] IcdbVersion[2900] ReferenceLogFilePath[] BackupFilePath[C:\pd_repo\pd\_CITADEL\Mentor\Citadel\ProjectBackup\backups\2016-11-08 17.09.54 - auto.zip] BackupFileSize[4649757] Persistent[FALSE]
[2016.11.10 13:28:32] [0240m.31s.869ms] [0] PrjBackupMgr: Project Backup file [C:\pd_repo\pd\_CITADEL\Mentor\Citadel\ProjectBackup\backups\2016-11-08 17.09.54 - auto.zip] with GUID [1f04-66fd-8bca-76b3-2596-2287-5962-2850-5f64-9382-b182-04a8] removed
[2016.11.10 13:28:32] [0240m.31s.870ms] [0] PrjBackupEngine: Successfully created backup:  BackupGUID[e240-670a-00b0-f42f-f68d-4284-78d4-2850-9664-9382-b182-04a8] CreationTime[Thursday, November 10, 2016 20:28:31] Type[Autosave] Creator[iCDB Server (2016-11-10 09.28.00-10812)] ApplicationName[iCDB Server (2016-11-10 09.28.00-10812)] UserName[branden.sheffield] MachineName[DESKTOP-TJKR3AR] Description[Autosave] FullFlowName[PADS Professional VX.2] FlowId[PADSProVX.2] GBSInstallId[1409847] GBSBuildId[5060443] IcdbVersion[3100] ReferenceLogFilePath[] BackupFilePath[C:\pd_repo\pd\_CITADEL\Mentor\Citadel\ProjectBackup\backups\2016-11-10 13.28.31 - auto.zip] BackupFileSize[4670792] Persistent[FALSE]
[2016.11.10 13:42:23] [0254m.22s.996ms] [1] SC[2632]: UnRegistered sub-client [ExpeditionCrossProber] with ID [5] for session ID [2632] host [DESKTOP-TJKR3AR] user [branden.sheffield] process ID [11280]
[2016.11.10 13:42:25] [0254m.24s.424ms] [1] SC[2632]: UnRegistered sub-client [Expedition PE_66573640] with ID [1] for session ID [2632] host [DESKTOP-TJKR3AR] user [branden.sheffield] process ID [11280]
[2016.11.10 13:42:25] [0254m.24s.524ms] [1] CMT: Removed client [2632]
[2016.11.10 13:42:25] [0254m.24s.524ms] [1] CMT: There are [1] clients now: 2631
[2016.11.10 13:42:26] [0254m.25s.405ms] [1] SC[2631]: UnRegistered sub-client [SystemDesignDll] with ID [11] for session ID [2631] host [DESKTOP-TJKR3AR] user [branden.sheffield] process ID [8108]
[2016.11.10 13:42:26] [0254m.25s.510ms] [1] SC[2631]: UnRegistered sub-client [DesignSearcher2] with ID [146] for session ID [2631] host [DESKTOP-TJKR3AR] user [branden.sheffield] process ID [8108]
[2016.11.10 13:42:26] [0254m.25s.788ms] [1] SC[2631]: UnRegistered sub-client [GlobalNetAliasUpdater_510540216] with ID [35] for session ID [2631] host [DESKTOP-TJKR3AR] user [branden.sheffield] process ID [8108]
[2016.11.10 13:42:26] [0254m.25s.793ms] [1] SC[2631]: UnRegistered sub-client [BlockCacheDxD:514285328] with ID [34] for session ID [2631] host [DESKTOP-TJKR3AR] user [branden.sheffield] process ID [8108]
[2016.11.10 13:42:26] [0254m.25s.799ms] [1] SC[2631]: UnRegistered sub-client [ObjectHolder_510539176] with ID [33] for session ID [2631] host [DESKTOP-TJKR3AR] user [branden.sheffield] process ID [8108]
[2016.11.10 13:42:26] [0254m.25s.799ms] [1] SC[2631]: UnRegistered sub-client [IcdbNetProcessorSubClientDxD:516478248] with ID [36] for session ID [2631] host [DESKTOP-TJKR3AR] user [branden.sheffield] process ID [8108]
[2016.11.10 13:42:26] [0254m.25s.859ms] [1] SC[2631]: UnRegistered sub-client [Navigator] with ID [14] for session ID [2631] host [DESKTOP-TJKR3AR] user [branden.sheffield] process ID [8108]
[2016.11.10 13:42:26] [0254m.25s.875ms] [1] SC[2631]: UnRegistered sub-client [LocalSymbolsDataProvider] with ID [17] for session ID [2631] host [DESKTOP-TJKR3AR] user [branden.sheffield] process ID [8108]
[2016.11.10 13:42:26] [0254m.25s.879ms] [1] SC[2631]: UnRegistered sub-client [FFSearch_Controller_0] with ID [18] for session ID [2631] host [DESKTOP-TJKR3AR] user [branden.sheffield] process ID [8108]
[2016.11.10 13:42:26] [0254m.25s.880ms] [1] SC[2631]: UnRegistered sub-client [FFSearch_Controller_1] with ID [19] for session ID [2631] host [DESKTOP-TJKR3AR] user [branden.sheffield] process ID [8108]
[2016.11.10 13:42:26] [0254m.25s.881ms] [1] SC[2631]: UnRegistered sub-client [FFSearch_Controller_2] with ID [20] for session ID [2631] host [DESKTOP-TJKR3AR] user [branden.sheffield] process ID [8108]
[2016.11.10 13:42:26] [0254m.25s.881ms] [1] SC[2631]: UnRegistered sub-client [FFSearch_Controller_3] with ID [21] for session ID [2631] host [DESKTOP-TJKR3AR] user [branden.sheffield] process ID [8108]
[2016.11.10 13:42:26] [0254m.25s.882ms] [1] SC[2631]: UnRegistered sub-client [FFSearch_Controller_4] with ID [22] for session ID [2631] host [DESKTOP-TJKR3AR] user [branden.sheffield] process ID [8108]
[2016.11.10 13:42:27] [0254m.26s.579ms] [1] SC[2631]: UnRegistered sub-client [MyParts] with ID [26] for session ID [2631] host [DESKTOP-TJKR3AR] user [branden.sheffield] process ID [8108]
[2016.11.10 13:42:27] [0254m.26s.583ms] [1] SC[2631]: UnRegistered sub-client [toolboxes] with ID [28] for session ID [2631] host [DESKTOP-TJKR3AR] user [branden.sheffield] process ID [8108]
[2016.11.10 13:42:28] [0254m.28s.074ms] [1] SC[2631]: UnRegistered sub-client [SelectionHolder] with ID [5] for session ID [2631] host [DESKTOP-TJKR3AR] user [branden.sheffield] process ID [8108]
[2016.11.10 13:42:28] [0254m.28s.076ms] [1] SC[2631]: UnRegistered sub-client [PartReplaceUtils] with ID [32] for session ID [2631] host [DESKTOP-TJKR3AR] user [branden.sheffield] process ID [8108]
[2016.11.10 13:42:29] [0254m.28s.633ms] [1] SC[2631]: UnRegistered sub-client [ProjectIntegrationIcdbCacheDxD:511321040] with ID [29] for session ID [2631] host [DESKTOP-TJKR3AR] user [branden.sheffield] process ID [8108]
[2016.11.10 13:42:29] [0254m.28s.633ms] [1] SC[2631]: UnRegistered sub-client [SheetConnectorsCacheDxD:1478795286] with ID [30] for session ID [2631] host [DESKTOP-TJKR3AR] user [branden.sheffield] process ID [8108]
[2016.11.10 13:42:29] [0254m.28s.634ms] [1] SC[2631]: UnRegistered sub-client [NetsNamesCollectorDxD:1478795286] with ID [31] for session ID [2631] host [DESKTOP-TJKR3AR] user [branden.sheffield] process ID [8108]
[2016.11.10 13:42:29] [0254m.28s.635ms] [1] SC[2631]: UnRegistered sub-client [TransactionRollbackSubClient] with ID [2] for session ID [2631] host [DESKTOP-TJKR3AR] user [branden.sheffield] process ID [8108]
[2016.11.10 13:42:29] [0254m.28s.636ms] [1] SC[2631]: UnRegistered sub-client [DxD] with ID [1] for session ID [2631] host [DESKTOP-TJKR3AR] user [branden.sheffield] process ID [8108]
[2016.11.10 13:42:29] [0254m.28s.651ms] [1] SC[2631]: UnRegistered sub-client [xprob] with ID [3] for session ID [2631] host [DESKTOP-TJKR3AR] user [branden.sheffield] process ID [8108]
[2016.11.10 13:42:29] [0254m.28s.651ms] [1] SC[2631]: UnRegistered sub-client [SymbolEditor] with ID [4] for session ID [2631] host [DESKTOP-TJKR3AR] user [branden.sheffield] process ID [8108]
[2016.11.10 13:42:29] [0254m.28s.659ms] [1] SC[2631]: UnRegistered sub-client [OutputWindow] with ID [15] for session ID [2631] host [DESKTOP-TJKR3AR] user [branden.sheffield] process ID [8108]
[2016.11.10 13:42:29] [0254m.28s.699ms] [1] SC[2631]: UnRegistered sub-client [DxDbSearch] with ID [39] for session ID [2631] host [DESKTOP-TJKR3AR] user [branden.sheffield] process ID [8108]
[2016.11.10 13:42:29] [0254m.28s.760ms] [1] SC[2631]: UnRegistered sub-client [SAE] with ID [23] for session ID [2631] host [DESKTOP-TJKR3AR] user [branden.sheffield] process ID [8108]
[2016.11.10 13:42:29] [0254m.28s.777ms] [1] SC[2631]: UnRegistered sub-client [CCZAddin] with ID [24] for session ID [2631] host [DESKTOP-TJKR3AR] user [branden.sheffield] process ID [8108]
[2016.11.10 13:42:29] [0254m.28s.780ms] [1] SC[2631]: UnRegistered sub-client [DxThumbnails] with ID [25] for session ID [2631] host [DESKTOP-TJKR3AR] user [branden.sheffield] process ID [8108]
[2016.11.10 13:42:31] [0254m.30s.917ms] [1] SC[2631]: UnRegistered sub-client [PinsList] with ID [27] for session ID [2631] host [DESKTOP-TJKR3AR] user [branden.sheffield] process ID [8108]
[2016.11.10 13:42:31] [0254m.31s.002ms] [1] SC[2631]: UnRegistered sub-client [PlaceDevice] with ID [16] for session ID [2631] host [DESKTOP-TJKR3AR] user [branden.sheffield] process ID [8108]
[2016.11.10 13:42:31] [0254m.31s.039ms] [1] SC[2631]: UnRegistered sub-client [HdlProject] with ID [13] for session ID [2631] host [DESKTOP-TJKR3AR] user [branden.sheffield] process ID [8108]
[2016.11.10 13:42:31] [0254m.31s.162ms] [1] CMT: Removed client [2631]
[2016.11.10 13:42:31] [0254m.31s.162ms] [1] CMT: There are no clients left - waiting [1 seconds]
[2016.11.10 13:42:31] [0254m.31s.202ms] [1] SDL: The last connected iCDB Server Monitor [1] is waiting for server close
[2016.11.10 13:42:33] [0254m.32s.343ms] [0] CMT: Starting server auto-close
[2016.11.10 13:42:33] [0254m.32s.447ms] [0] S: Closing server
[2016.11.10 13:42:33] [0254m.32s.600ms] [0] iCDB Server PI: Closing plugins
[2016.11.10 13:42:33] [0254m.32s.602ms] [0] iCDB Server PI: Plugins closed
[2016.11.10 13:42:33] [0254m.32s.602ms] [0] iCDB Server PI: Unloading database
[2016.11.10 13:42:33] [0254m.32s.602ms] [0] iCDB Server PI: Saving storage
[2016.11.10 13:42:33] [0254m.32s.602ms] [0] iCDB Server PI: Closing database
[2016.11.10 13:42:33] [0254m.32s.611ms] [1] iCDB Server PI: Stats: Database defragmentation: max[2] avg[1] holes[41%] data[93%]
[2016.11.10 13:42:33] [0254m.32s.611ms] [1] iCDB Server PI: Stats: Database file size [1252064 (1.2 MB)]
[2016.11.10 13:42:33] [0254m.32s.613ms] [1] iCDB Server PI: WARNING: Database needs defragmentation!
[2016.11.10 13:42:33] [0254m.32s.619ms] [0] iCDB Server PI: Database closed
[2016.11.10 13:42:33] [0254m.32s.619ms] [0] iCDB Server PI: Defragmenting database
[2016.11.10 13:42:33] [0254m.32s.619ms] [0] iCDB Server PI: Creating database [C:\pd_repo\pd\_CITADEL\Mentor\Citadel\database] backup to file [C:\pd_repo\pd\_CITADEL\Mentor\Citadel\database\cdbback\2016-11-10 13.42.33-10812-d.zip]
[2016.11.10 13:42:33] [0254m.32s.751ms] [0] iCDB Server PI: Database backup: DONE
[2016.11.10 13:42:33] [0254m.32s.763ms] [0] SingleFile: [0000-0000-0000-0000] SFI header version check [1009] [1009]
[2016.11.10 13:42:33] [0254m.32s.763ms] [0] Database GUARD OK: [1252064]
[2016.11.10 13:42:33] [0254m.32s.763ms] [0] SingleFile: [9e75-bf90-0362-6950] SFI version check [1009] [1009]
[2016.11.10 13:42:33] [0254m.32s.769ms] [0] SingleFile: [9e75-bf90-0362-6950] Database SFI header has been read in [6ms 32us]
[2016.11.10 13:42:33] [0254m.32s.818ms] [1] iCDB Server PI: Stats: Database file sizes: before[1252064 (1.2 MB)], after[754112 (736.4 kB)], gain[497952 (486.3 kB)]
[2016.11.10 13:42:33] [0254m.32s.823ms] [0] Single file [C:\pd_repo\pd\_CITADEL\Mentor\Citadel\database\icdb.dat] closed with size [754112 (736.4 kB)]
[2016.11.10 13:42:33] [0254m.32s.824ms] [0] iCDB Server PI: Database defragmentation completed successfully
[2016.11.10 13:42:33] [0254m.32s.824ms] [1] BackupTransaction: Removing database backup [C:\pd_repo\pd\_CITADEL\Mentor\Citadel\database\cdbback\2016-11-10 13.42.33-10812-d.zip]
[2016.11.10 13:42:33] [0254m.32s.829ms] [1] iCDB Server PI: Stats: Total iCDB execution time: [3725378] ticks
[2016.11.10 13:42:33] [0254m.32s.829ms] [1] iCDB Server PI: Stats: Total iCDB execution time: [1358538] microseconds
[2016.11.10 13:42:33] [0254m.32s.829ms] [1] iCDB Server PI: Stats: Total iCDB commands count: [2644]
[2016.11.10 13:42:33] [0254m.32s.829ms] [1] iCDB Server PI: Stats: Average iCDB speed:        [1946] commands per second
[2016.11.10 13:42:33] [0254m.32s.856ms] [1] SD[1]: Removing the last connected iCDB Server Monitor [1]
[2016.11.10 13:42:33] [0254m.32s.995ms] [0] MWT: Destroy the shutdown block reason.
[2016.11.10 13:42:33] [0254m.32s.997ms] [0] MWT: STOP
[2016.11.10 13:42:33] [0254m.32s.998ms] [0] S: STOP
