[2015.09.17 10:24:01] [0001m.21s.889ms] [0] WELCOME
[2015.09.17 10:24:01] [0001m.21s.889ms] [1] iCDB Database ver.2.101, 3UDjJHMiCHg78unffLJcEw, build:673008 created 2015-03-11 13:21:12, sources stamp:3UDjJHMiCHg78unffLJcEw
[2015.09.17 10:24:01] [0001m.21s.889ms] [1] Copyright 2015 Mentor Graphics Corporation. All Rights Reserved.
[2015.09.17 10:24:01] [0001m.21s.889ms] [1] Base flow version [VX.1.1]
[2015.09.17 10:24:01] [0001m.21s.889ms] [1] GBS Install Id [43430], Flow Id [PADS-Pro VX.1.1], Full Flow Name [PADS Professional VX.1.1], Exact Access Date [Feb 1 2015]
[2015.09.17 10:24:01] [0001m.21s.889ms] [1] Machine [PC-ENG2LJDFJKDS]  User [branden.sheffield]  PID [1628]
[2015.09.17 10:24:01] [0001m.21s.889ms] [1] Operating system [Microsoft Windows 7 Enterprise Edition, 64-bit Service Pack 1 (build 7601)]
[2015.09.17 10:24:01] [0001m.21s.889ms] [1] Current working dir [C:\Users\branden.sheffield\Documents\Crusher3.0\Mentor\CrusherMain]
[2015.09.17 10:24:01] [0001m.21s.889ms] [1] PATH [C:\MentorGraphics\PADSProVX.1.1\SDD_HOME\common\win32\bin;C:\MentorGraphics\PADSProVX.1.1\SDD_HOME\common\win32\lib;C:\MentorGraphics\PADSProVX.1.1\MGC_HOME.ixn\bin;C:\MentorGraphics\PADSProVX.1.1\MGC_HOME.ixn\lib;C:\MentorGraphics\PADSProVX.1.1\SDD_HOME\wv\win32\bin;C:\Program Files (x86)\CSR\BlueSuite 2.5.8\DFU Tools;C:\ProgramData\Oracle\Java\javapath;C:\Program Files (x86)\NVIDIA Corporation\PhysX\Common;C:\Windows\system32;C:\Windows;C:\Windows\System32\Wbem;C:\Windows\System32\WindowsPowerShell\v1.0\;C:\Program Files (x86)\Skype\Phone\]
[2015.09.17 10:24:01] [0001m.21s.889ms] [1] SDD_HOME [C:\MentorGraphics\PADSProVX.1.1\SDD_HOME] on file system [NTFS]
[2015.09.17 10:24:01] [0001m.21s.889ms] [1] SDD_PLATFORM [win32]
[2015.09.17 10:24:01] [0001m.21s.889ms] [1] WDIR [C:\WDIR\PADSProVX.1.1;C:\MentorGraphics\PADSProVX.1.1\SDD_HOME\standard;]
[2015.09.17 10:24:01] [0001m.21s.889ms] [1] Local iCDB working dir [C:\WDIR\PADSProVX.1.1\iCDB] on file system [NTFS]
[2015.09.17 10:24:01] [0001m.21s.889ms] [3] WARNING: Database [C:\Users\branden.sheffield\Documents\Crusher3.0\Mentor\CrusherMain\database\icdb.dat] was manually copied
[2015.09.17 10:24:01] [0001m.21s.889ms] [3] File change time:        [2015-09-16 17.44.31]
[2015.09.17 10:24:01] [0001m.21s.889ms] [3] File modification time:  [2015-09-17 10.17.44]
[2015.09.17 10:24:01] [0001m.21s.889ms] [3] Last change time:        [2015-09-16 21.06.07]
[2015.09.17 10:24:01] [0001m.21s.889ms] [3] Last database open information:
[2015.09.17 10:24:01] [0001m.21s.889ms] [3] Time:             [2015-09-16 21.06.07]
[2015.09.17 10:24:01] [0001m.21s.889ms] [3] Location:         [C:\Users\branden.sheffield\Documents\Crusher3.0\Mentor\CrusherMain\database\icdb.dat]
[2015.09.17 10:24:01] [0001m.21s.889ms] [3] Machine:          [PC-ENG2LJDFJKDS]
[2015.09.17 10:24:01] [0001m.21s.889ms] [3] User:             [branden.sheffield]
[2015.09.17 10:24:01] [0001m.21s.889ms] [3] PID:              [5048]
[2015.09.17 10:24:01] [0001m.21s.889ms] [3] Application:      [iCDB Server]
[2015.09.17 10:24:01] [0001m.21s.889ms] [3] Operating system: [Microsoft Windows 7 Enterprise Edition, 64-bit Service Pack 1 (build 7601)]
[2015.09.17 10:24:01] [0001m.21s.889ms] [3] WARNING: Regenerating database GUID
[2015.09.17 10:24:01] [0001m.21s.889ms] [3] Previous database GUID [f112-11fd-90e9-b20d-a284-0f5f-2840-f550-38c6-e2a5-c636-049c]
[2015.09.17 10:24:01] [0001m.21s.889ms] [3] Current database GUID  [4ed4-a331-4eb2-4fc5-129e-af56-29ea-f550-7117-d2a5-c646-649c]
[2015.09.17 10:24:01] [0001m.21s.889ms] [0] .
