[2015.09.09 08:55:19] [0000m.00s.670ms] [0] WELCOME
[2015.09.09 08:55:19] [0000m.00s.670ms] [1] iCDB Diagnostic ver.2.101, 3UDjJHMiCHg78unffLJcEw, build:673008 created 2015-03-11 13:21:12, sources stamp:3UDjJHMiCHg78unffLJcEw
[2015.09.09 08:55:19] [0000m.00s.670ms] [1] Copyright 2015 Mentor Graphics Corporation. All Rights Reserved.
[2015.09.09 08:55:19] [0000m.00s.670ms] [1] Base flow version [VX.1.1]
[2015.09.09 08:55:19] [0000m.00s.670ms] [1] GBS Install Id [43430], Flow Id [PADS-Pro VX.1.1], Full Flow Name [PADS Professional VX.1.1], Exact Access Date [Feb 1 2015]
[2015.09.09 08:55:19] [0000m.00s.670ms] [1] Machine [PC-ENG2LJDFJKDS]  User [branden.sheffield]  PID [3296]
[2015.09.09 08:55:19] [0000m.00s.670ms] [1] Operating system [Microsoft Windows 7 Enterprise Edition, 64-bit Service Pack 1 (build 7601)]
[2015.09.09 08:55:19] [0000m.00s.670ms] [1] Current working dir [C:\Users\branden.sheffield\Documents\Crusher3.0\Mentor\CrusherMain]
[2015.09.09 08:55:19] [0000m.00s.670ms] [1] PATH [C:\MentorGraphics\PADSProVX.1.1\SDD_HOME\common\win32\bin;C:\MentorGraphics\PADSProVX.1.1\SDD_HOME\common\win32\lib;C:\MentorGraphics\PADSProVX.1.1\MGC_HOME.ixn\bin;C:\MentorGraphics\PADSProVX.1.1\MGC_HOME.ixn\lib;C:\MentorGraphics\PADSProVX.1.1\SDD_HOME\wv\win32\bin;C:\ProgramData\Oracle\Java\javapath;C:\Program Files (x86)\NVIDIA Corporation\PhysX\Common;C:\Windows\system32;C:\Windows;C:\Windows\System32\Wbem;C:\Windows\System32\WindowsPowerShell\v1.0\;C:\Program Files (x86)\Skype\Phone\]
[2015.09.09 08:55:19] [0000m.00s.670ms] [1] SDD_HOME [C:\MentorGraphics\PADSProVX.1.1\SDD_HOME] on file system [NTFS]
[2015.09.09 08:55:19] [0000m.00s.670ms] [1] SDD_PLATFORM [win32]
[2015.09.09 08:55:19] [0000m.00s.670ms] [1] WDIR [C:\WDIR\PADSProVX.1.1;C:\MentorGraphics\PADSProVX.1.1\SDD_HOME\standard;]
[2015.09.09 08:55:19] [0000m.00s.670ms] [1] Local iCDB working dir [C:\WDIR\PADSProVX.1.1\iCDB] on file system [NTFS]
[2015.09.09 08:55:19] [0000m.00s.686ms] [2] Diagnostic: Snapshot: DxD
[2015.09.09 08:55:19] [0000m.00s.686ms] [2] Diagnostic: SnapshotCheck: CDBImplBlock
[2015.09.09 08:55:19] [0000m.00s.686ms] [2] Diagnostic: SnapshotCheck: CDBImplComp
[2015.09.09 08:55:19] [0000m.00s.686ms] [2] Diagnostic: SnapshotCheck: DxDCompView (cached)
[2015.09.09 08:55:19] [0000m.00s.686ms] [2] Diagnostic: DxDCheck: LineDxD
[2015.09.09 08:55:19] [0000m.00s.686ms] [2] Diagnostic: DxDCheck: CircleDxD
[2015.09.09 08:55:19] [0000m.00s.686ms] [2] Diagnostic: DxDCheck: ArcDxD
[2015.09.09 08:55:19] [0000m.00s.686ms] [2] Diagnostic: DxDCheck: RectDxD
[2015.09.09 08:55:19] [0000m.00s.686ms] [2] Diagnostic: DxDCheck: TextDxD
[2015.09.09 08:55:19] [0000m.00s.686ms] [2] Diagnostic: SnapshotCheck: CDBImplGroup
[2015.09.09 08:55:19] [0000m.00s.686ms] [2] Diagnostic: SnapshotCheck: CDBImplPin (regular)
[2015.09.09 08:55:19] [0000m.00s.686ms] [2] Diagnostic: SnapshotCheck: AttributesUtility (regular)
[2015.09.09 08:55:19] [0000m.00s.686ms] [2] Diagnostic: SnapshotCheck: CDBImplPin (cached)
[2015.09.09 08:55:19] [0000m.00s.686ms] [2] Diagnostic: SnapshotCheck: AttributesUtility (cached)
[2015.09.09 08:55:19] [0000m.00s.686ms] [2] Diagnostic: Block: Schematic1
[2015.09.09 08:55:19] [0000m.00s.686ms] [2] Diagnostic: BlockCheck: CDBImplNet
[2015.09.09 08:55:19] [0000m.00s.686ms] [2] Diagnostic: BlockCheck: CDBImplBus
[2015.09.09 08:55:19] [0000m.00s.686ms] [2] Diagnostic: BlockCheck: CDBImplPin
[2015.09.09 08:55:19] [0000m.00s.686ms] [2] Diagnostic: BlockCheck: CDBImplPort
[2015.09.09 08:55:19] [0000m.00s.686ms] [2] Diagnostic: BlockCheck: CDBImplComp
[2015.09.09 08:55:19] [0000m.00s.686ms] [2] Diagnostic: BlockCheck: AttributesUtility
[2015.09.09 08:55:19] [0000m.00s.686ms] [2] Diagnostic: BlockCheck: CDBImplBlockViewDxD
[2015.09.09 08:55:19] [0000m.00s.686ms] [2] Diagnostic: BlockViewDxDCheck: CDBImplNetDxD
[2015.09.09 08:55:19] [0000m.00s.686ms] [2] Diagnostic: BlockViewDxDCheck: CDBImplRipperDxD
[2015.09.09 08:55:19] [0000m.00s.686ms] [2] Diagnostic: CesConfigCheck: CesConstraint
[2015.09.09 08:55:19] [0000m.00s.686ms] [2] Diagnostic: CesConfigCheck: CesPin
[2015.09.09 08:55:19] [0000m.00s.686ms] [2] Diagnostic: CesConfigCheck: CesFromTo
[2015.09.09 08:55:19] [0000m.00s.686ms] [2] Diagnostic: CesConfigCheck: CesPhysicalNet
[2015.09.09 08:55:19] [0000m.00s.686ms] [2] Diagnostic: CesConfigCheck: CesPinPair
[2015.09.09 08:55:19] [0000m.00s.686ms] [2] Diagnostic: CesConfigCheck: CesElectricalNet
[2015.09.09 08:55:19] [0000m.00s.686ms] [2] Diagnostic: CesConfigCheck: CesDiffPair
[2015.09.09 08:55:19] [0000m.00s.686ms] [2] Diagnostic: CesConfigCheck: CesComponent
[2015.09.09 08:55:19] [0000m.00s.686ms] [2] Diagnostic: CesConfigCheck: CesPartPin
[2015.09.09 08:55:19] [0000m.00s.686ms] [2] Diagnostic: CesConfigCheck: CesPartPinPair
[2015.09.09 08:55:19] [0000m.00s.686ms] [2] Diagnostic: CesConfigCheck: CesPart
[2015.09.09 08:55:19] [0000m.00s.686ms] [2] Diagnostic: CesConfigCheck: CesDesign
[2015.09.09 08:55:19] [0000m.00s.686ms] [2] Diagnostic: CesConfigCheck: CesLayerClearRule
[2015.09.09 08:55:19] [0000m.00s.686ms] [2] Diagnostic: CesConfigCheck: CesSchemeClearRule
[2015.09.09 08:55:19] [0000m.00s.686ms] [2] Diagnostic: CesConfigCheck: CesViaAssign
[2015.09.09 08:55:19] [0000m.00s.686ms] [2] Diagnostic: CesConfigCheck: CesLayerRule
[2015.09.09 08:55:19] [0000m.00s.686ms] [2] Diagnostic: CesConfigCheck: CesSchemeNetClassRule
[2015.09.09 08:55:19] [0000m.00s.686ms] [2] Diagnostic: CesConfigCheck: CesScheme
[2015.09.09 08:55:19] [0000m.00s.686ms] [2] Diagnostic: CesConfigCheck: CesLayer
[2015.09.09 08:55:19] [0000m.00s.686ms] [2] Diagnostic: CesConfigCheck: CesNetClass
[2015.09.09 08:55:19] [0000m.00s.686ms] [2] Diagnostic: CesConfigCheck: CesClearRule
[2015.09.09 08:55:19] [0000m.00s.686ms] [2] Diagnostic: CesConfigCheck: CesConstraintClass
[2015.09.09 08:55:19] [0000m.00s.686ms] [2] Diagnostic: CesConfigCheck: CesViaSpan
[2015.09.09 08:55:19] [0000m.00s.686ms] [2] Diagnostic: CesConfigCheck: CesGenClear
[2015.09.09 08:55:19] [0000m.00s.686ms] [2] Diagnostic: CesConfigCheck: CesPartTech
[2015.09.09 08:55:19] [0000m.00s.686ms] [2] Diagnostic: CesConfigCheck: CesConstVar
[2015.09.09 08:55:19] [0000m.00s.686ms] [2] Diagnostic: CesConfigCheck: CesC2CClearRule
[2015.09.09 08:55:19] [0000m.00s.686ms] [2] Diagnostic: CesConfigCheck: CesPkgTypeClearRule
[2015.09.09 08:55:19] [0000m.00s.686ms] [2] Diagnostic: CesConfigCheck: CesP2PClearRule
[2015.09.09 08:55:19] [0000m.00s.686ms] [2] Diagnostic: CesConfigCheck: CesParRuleSection
[2015.09.09 08:55:19] [0000m.00s.686ms] [2] Diagnostic: CesConfigCheck: CesParRuleDef
[2015.09.09 08:55:19] [0000m.00s.686ms] [2] Diagnostic: CesConfigCheck: CesNoiseRule
[2015.09.09 08:55:19] [0000m.00s.686ms] [2] Diagnostic: CesConfigCheck: CesGenObj
[2015.09.09 08:55:19] [0000m.00s.686ms] [2] Diagnostic: CesConfigCheck: CesGenCompObj
[2015.09.09 08:55:19] [0000m.00s.686ms] [2] Diagnostic: CesConfigCheck: CesGenObjType
[2015.09.09 08:55:19] [0000m.00s.686ms] [2] Diagnostic: CesConfigCheck: CesVia
[2015.09.09 08:55:19] [0000m.00s.686ms] [2] Diagnostic: CesConfigCheck: CesZAxisLayerRule
[2015.09.09 08:55:19] [0000m.00s.686ms] [2] Diagnostic: CesConfigCheck: CesZAxisClearRule
[2015.09.09 08:55:19] [0000m.00s.686ms] [2] Diagnostic: ConfigCheck: CDBImplComp
[2015.09.09 08:55:19] [0000m.00s.686ms] [2] Diagnostic: ConfigCheck: CDBImplNet
[2015.09.09 08:55:19] [0000m.00s.686ms] [2] Diagnostic: ConfigCheck: CDBImplPin
[2015.09.09 08:55:19] [0000m.00s.686ms] [2] Diagnostic: Snapshot: DxD check finished.
[2015.09.09 08:55:19] [0000m.00s.686ms] [2] Diagnostic: Snapshot: __ise_DxD
[2015.09.09 08:55:19] [0000m.00s.686ms] [2] Diagnostic: SnapshotCheck: CDBImplBlock
[2015.09.09 08:55:19] [0000m.00s.686ms] [2] Diagnostic: SnapshotCheck: CDBImplComp
[2015.09.09 08:55:19] [0000m.00s.686ms] [2] Diagnostic: SnapshotCheck: CDBImplGroup
[2015.09.09 08:55:19] [0000m.00s.686ms] [2] Diagnostic: SnapshotCheck: CDBImplPin (regular)
[2015.09.09 08:55:19] [0000m.00s.686ms] [2] Diagnostic: SnapshotCheck: AttributesUtility (regular)
[2015.09.09 08:55:19] [0000m.00s.686ms] [2] Diagnostic: SnapshotCheck: CDBImplPin (cached)
[2015.09.09 08:55:19] [0000m.00s.686ms] [2] Diagnostic: SnapshotCheck: AttributesUtility (cached)
[2015.09.09 08:55:19] [0000m.00s.686ms] [2] Diagnostic: Snapshot: __ise_DxD check finished.
[2015.09.09 08:55:19] [0000m.00s.701ms] [2] Diagnostic: Snapshot: xIOPT
[2015.09.09 08:55:19] [0000m.00s.701ms] [2] Diagnostic: SnapshotCheck: CDBImplBlock
[2015.09.09 08:55:19] [0000m.00s.701ms] [2] Diagnostic: SnapshotCheck: CDBImplComp
[2015.09.09 08:55:19] [0000m.00s.701ms] [2] Diagnostic: SnapshotCheck: CDBImplGroup
[2015.09.09 08:55:19] [0000m.00s.701ms] [2] Diagnostic: SnapshotCheck: CDBImplPin (regular)
[2015.09.09 08:55:19] [0000m.00s.701ms] [2] Diagnostic: SnapshotCheck: AttributesUtility (regular)
[2015.09.09 08:55:19] [0000m.00s.701ms] [2] Diagnostic: SnapshotCheck: CDBImplPin (cached)
[2015.09.09 08:55:19] [0000m.00s.701ms] [2] Diagnostic: SnapshotCheck: AttributesUtility (cached)
[2015.09.09 08:55:19] [0000m.00s.701ms] [2] Diagnostic: Snapshot: xIOPT check finished.
[2015.09.09 08:55:19] [0000m.00s.701ms] [0] Diagnostic: FINISH
[2015.09.09 08:55:19] [0000m.00s.701ms] [0] .
