--------------------------------------------------------------------------------
 Project integration - START (2015-09-18 16:43:33) 
--------------------------------------------------------------------------------
FE snapshot name: DxD
BE snapshot name: Main_layout_temp
Top level block: (2-1-5)
Parameters: FAConnectivity,FAConstraints,FEWin,
--------------------------------------------------------------------------------
[OK] - Full snapshot copy 36.00 [ms]
--------------------------------------------------------------------------------
 Project integration - END (2015-09-18 16:43:33) 
--------------------------------------------------------------------------------
