[2016.12.09 15:22:32] [0000m.31s.010ms] [0] WELCOME
[2016.12.09 15:22:32] [0000m.31s.014ms] [1] iCDB Database ver.2.200, jmoSXI5tfcQi0m1NxN3JKg, build:5060443 created 2016-08-17 14:30:24, sources stamp:jmoSXI5tfcQi0m1NxN3JKg
[2016.12.09 15:22:32] [0000m.31s.014ms] [1] Copyright 2016 Mentor Graphics Corporation.  All Rights Reserved.
[2016.12.09 15:22:32] [0000m.31s.014ms] [1] Base flow version [VX.2]
[2016.12.09 15:22:32] [0000m.31s.014ms] [1] Install Id [1409847], Flow Id [PADS Professional VX.2], Full Flow Name [PADS Professional VX.2], Exact Access Date [2016/05/01]
[2016.12.09 15:22:32] [0000m.31s.014ms] [1] Machine [DESKTOP-TJKR3AR]  User [branden.sheffield]  PID [12800]
[2016.12.09 15:22:32] [0000m.31s.014ms] [1] Operating system [Microsoft Enterprise Edition, 64-bit (build 9200)]
[2016.12.09 15:22:32] [0000m.31s.014ms] [1] Current working dir [C:\pd_repo\pd\_CITADEL\Mentor\Citadel_Right]
[2016.12.09 15:22:32] [0000m.31s.014ms] [1] PATH [C:\MentorGraphics\PADSProVX.2\SDD_HOME\common\win32\bin;C:\MentorGraphics\PADSProVX.2\SDD_HOME\common\win32\lib;C:\MentorGraphics\PADSProVX.2\MGC_HOME.ixn\bin;C:\MentorGraphics\PADSProVX.2\MGC_HOME.ixn\lib;C:\MentorGraphics\PADSProVX.2\SDD_HOME\wv\win32\bin;C:\Program Files (x86)\CSR\BlueSuite 2.5.8\DFU Tools;C:\Program Files (x86)\NVIDIA Corporation\PhysX\Common;C:\ProgramData\Oracle\Java\javapath;C:\WINDOWS\system32;C:\WINDOWS;C:\WINDOWS\System32\Wbem;C:\WINDOWS\System32\WindowsPowerShell\v1.0\;C:\Program Files (x86)\Skype\Phone\;C:\Program Files (x86)\Windows Kits\8.1\Windows Performance Toolkit\;C:\Program Files\TortoiseSVN\bin;C:\Users\branden.sheffield\AppData\Local\Microsoft\WindowsApps;]
[2016.12.09 15:22:32] [0000m.31s.014ms] [1] SDD_HOME [C:\MentorGraphics\PADSProVX.2\SDD_HOME] on file system [NTFS]
[2016.12.09 15:22:32] [0000m.31s.014ms] [1] SDD_PLATFORM [win32]
[2016.12.09 15:22:32] [0000m.31s.014ms] [1] WDIR [C:\WDIR\PADSProVX.2;C:\MentorGraphics\PADSProVX.2\SDD_HOME\standard;]
[2016.12.09 15:22:32] [0000m.31s.014ms] [1] Local iCDB working dir [C:\WDIR\PADSProVX.2\iCDB] on file system [NTFS]
[2016.12.09 15:22:32] [0000m.31s.018ms] [3] WARNING: Database [C:\pd_repo\pd\_CITADEL\Mentor\Citadel_Right\database\icdb.dat] was manually copied
[2016.12.09 15:22:32] [0000m.31s.018ms] [3] File change time:        [2016-12-09 15.21.14]
[2016.12.09 15:22:32] [0000m.31s.018ms] [3] File modification time:  [2016-12-09 15.20.58]
[2016.12.09 15:22:32] [0000m.31s.018ms] [3] Last change time:        [2016-12-09 15.20.58]
[2016.12.09 15:22:32] [0000m.31s.018ms] [3] Last database open information:
[2016.12.09 15:22:32] [0000m.31s.018ms] [3] Time:             [2016-12-09 10.04.15]
[2016.12.09 15:22:32] [0000m.31s.018ms] [3] Location:         [C:\pd_repo\pd\_CITADEL\Mentor\Citadel\database\icdb.dat]
[2016.12.09 15:22:32] [0000m.31s.018ms] [3] Machine:          [DESKTOP-TJKR3AR]
[2016.12.09 15:22:32] [0000m.31s.018ms] [3] User:             [branden.sheffield]
[2016.12.09 15:22:32] [0000m.31s.018ms] [3] PID:              [15404]
[2016.12.09 15:22:32] [0000m.31s.018ms] [3] Application:      [iCDB Server]
[2016.12.09 15:22:32] [0000m.31s.018ms] [3] Operating system: [Microsoft Enterprise Edition, 64-bit (build 9200)]
[2016.12.09 15:22:32] [0000m.31s.018ms] [3] WARNING: Regenerating database GUID
[2016.12.09 15:22:32] [0000m.31s.018ms] [3] Previous database GUID [3edb-f997-378d-3d57-11a5-2286-1a52-2850-5ff3-9382-b182-04a8]
[2016.12.09 15:22:32] [0000m.31s.018ms] [3] Current database GUID  [2ca7-2038-c061-b6ba-8ae2-b48d-ae2b-4850-a8ad-99a8-a7e5-348b]
[2016.12.09 15:22:32] [0000m.31s.018ms] [0] .
