[2017.02.15 15:30:47] [0000m.00s.035ms] [0] WELCOME
[2017.02.15 15:30:47] [0000m.00s.036ms] [1] iCDB Server ver.2.200, jmoSXI5tfcQi0m1NxN3JKg, build:5060443 created 2016-08-17 14:30:24, sources stamp:jmoSXI5tfcQi0m1NxN3JKg
[2017.02.15 15:30:47] [0000m.00s.036ms] [1] Copyright 2016 Mentor Graphics Corporation.  All Rights Reserved.
[2017.02.15 15:30:47] [0000m.00s.036ms] [1] Base flow version [VX.2]
[2017.02.15 15:30:47] [0000m.00s.036ms] [1] Install Id [1409847], Flow Id [PADS Professional VX.2], Full Flow Name [PADS Professional VX.2], Exact Access Date [2016/05/01]
[2017.02.15 15:30:47] [0000m.00s.036ms] [1] Machine [DESKTOP-TJKR3AR]  User [branden.sheffield]  PID [6272]
[2017.02.15 15:30:47] [0000m.00s.036ms] [1] Operating system [Microsoft Enterprise Edition, 64-bit (build 9200)]
[2017.02.15 15:30:47] [0000m.00s.036ms] [1] Current working dir [C:\pd_repo\pd\_CITADEL\Mentor\Citadel_Right]
[2017.02.15 15:30:47] [0000m.00s.036ms] [1] PATH [C:\MentorGraphics\PADSProVX.2\SDD_HOME\common\win32\bin;C:\MentorGraphics\PADSProVX.2\SDD_HOME\common\win32\lib;C:\MentorGraphics\PADSProVX.2\MGC_HOME.ixn\bin;C:\MentorGraphics\PADSProVX.2\MGC_HOME.ixn\lib;C:\MentorGraphics\PADSProVX.2\SDD_HOME\wv\win32\bin;C:\Program Files (x86)\CSR\BlueSuite 2.5.8\DFU Tools;C:\Program Files (x86)\NVIDIA Corporation\PhysX\Common;C:\ProgramData\Oracle\Java\javapath;C:\WINDOWS\system32;C:\WINDOWS;C:\WINDOWS\System32\Wbem;C:\WINDOWS\System32\WindowsPowerShell\v1.0\;C:\Program Files (x86)\Skype\Phone\;C:\Program Files (x86)\Windows Kits\8.1\Windows Performance Toolkit\;C:\Program Files\TortoiseSVN\bin;C:\Users\branden.sheffield\AppData\Local\Microsoft\WindowsApps;]
[2017.02.15 15:30:47] [0000m.00s.036ms] [1] SDD_HOME [C:\MentorGraphics\PADSProVX.2\SDD_HOME] on file system [NTFS]
[2017.02.15 15:30:47] [0000m.00s.036ms] [1] SDD_PLATFORM [win32]
[2017.02.15 15:30:47] [0000m.00s.036ms] [1] WDIR [C:\WDIR\PADSProVX.2;C:\MentorGraphics\PADSProVX.2\SDD_HOME\standard;]
[2017.02.15 15:30:47] [0000m.00s.036ms] [1] Local iCDB working dir [C:\WDIR\PADSProVX.2\iCDB] on file system [NTFS]
[2017.02.15 15:30:47] [0000m.00s.036ms] [2] S: Loading config files
[2017.02.15 15:30:47] [0000m.00s.043ms] [1] Config file [C:\pd_repo\pd\_CITADEL\Mentor\Citadel_Right\database\cdbsvr\Server.cfg] not found
[2017.02.15 15:30:47] [0000m.00s.044ms] [3] S: Config loaded
[2017.02.15 15:30:47] [0000m.00s.065ms] [0] S: Project path [C:\pd_repo\pd\_CITADEL\Mentor\Citadel_Right\database] on file system [NTFS]
[2017.02.15 15:30:47] [0000m.00s.065ms] [0] S: Project file (.prj) path [C:\pd_repo\pd\_CITADEL\Mentor\Citadel_Right\Citadel_Right.prj] on file system [NTFS]
[2017.02.15 15:30:47] [0000m.00s.065ms] [1] S: WARNING: Database auto-repair support DISABLED
[2017.02.15 15:30:47] [0000m.00s.065ms] [0] S: Multi-user mode (config)
[2017.02.15 15:30:47] [0000m.00s.065ms] [0] S: Event polling mode autodetection
[2017.02.15 15:30:47] [0000m.00s.071ms] [0] S: Started up automatically by iCDB Client: DESKTOP-TJKR3AR:branden.sheffield:16596
[2017.02.15 15:30:47] [0000m.00s.071ms] [0] S: Auto close mode
[2017.02.15 15:30:47] [0000m.00s.071ms] [0] S: Database ID [2ca7-2038-c061-b6ba-8ae2-b48d-ae2b-4850-a8ad-99a8-a7e5-348b]
[2017.02.15 15:30:47] [0000m.00s.071ms] [0] PathTranslator: BEGIN dumping
[2017.02.15 15:30:47] [0000m.00s.071ms] [0] PathTranslator: Local -> global path prefix list
[2017.02.15 15:30:47] [0000m.00s.071ms] [0] PathTranslator: [R:\] -> [\\underground.skullcandy.com@SSL\DavWWWRoot\departments\pd\ACE\]
[2017.02.15 15:30:47] [0000m.00s.071ms] [0] PathTranslator: [T:\] -> [\\underground.skullcandy.com@SSL\DavWWWRoot\departments\pd\Packaging\]
[2017.02.15 15:30:47] [0000m.00s.071ms] [0] PathTranslator: [Z:\] -> [\\izombie\shares\pd\]
[2017.02.15 15:30:47] [0000m.00s.071ms] [0] PathTranslator: Global -> local path prefix list
[2017.02.15 15:30:47] [0000m.00s.071ms] [0] PathTranslator: [\\underground.skullcandy.com@SSL\DavWWWRoot\departments\pd\Packaging\] -> [T:\]
[2017.02.15 15:30:47] [0000m.00s.071ms] [0] PathTranslator: [\\underground.skullcandy.com@SSL\DavWWWRoot\departments\pd\ACE\] -> [R:\]
[2017.02.15 15:30:47] [0000m.00s.071ms] [0] PathTranslator: [\\izombie\shares\pd\] -> [Z:\]
[2017.02.15 15:30:47] [0000m.00s.071ms] [0] PathTranslator: END dumping
[2017.02.15 15:30:47] [0000m.00s.071ms] [0] S: START
[2017.02.15 15:30:47] [0000m.00s.071ms] [0] S: Server startup lock file created
[2017.02.15 15:30:47] [0000m.00s.072ms] [0] S: Listening for client connections on port [10001]
[2017.02.15 15:30:47] [0000m.00s.073ms] [0] S: Server network ID [DESKTOP-TJKR3AR:192.168.201.31,DESKTOP-TJKR3AR,DESKTOP-TJKR3AR.skullcandy.local:10001]
[2017.02.15 15:30:47] [0000m.00s.073ms] [0] S: Server GUID [87c1-6257-1a9d-4347-796d-4a8c-96d4-a850-5293-9382-c162-b0a8]
[2017.02.15 15:30:47] [0000m.00s.073ms] [0] S: Project GUID [2ca7-2038-c061-b6ba-8ae2-b48d-ae2b-4850-a8ad-99a8-a7e5-348b]
[2017.02.15 15:30:47] [0000m.00s.077ms] [0] S: Wrote data to server address file
[2017.02.15 15:30:47] [0000m.00s.077ms] [0] S: Server startup lock file removed
[2017.02.15 15:30:47] [0000m.00s.078ms] [1] ProjectBackupManager: Setting project file (.prj) path: [C:\pd_repo\pd\_CITADEL\Mentor\Citadel_Right\Citadel_Right.prj]
[2017.02.15 15:30:47] [0000m.00s.223ms] [0] S: Plugins loaded: [PIM] [ENetGen70] 
[2017.02.15 15:30:47] [0000m.00s.223ms] [0] S: Local disc access time: 42 us
[2017.02.15 15:30:47] [0000m.00s.223ms] [0] S: File server access time: 30 us
[2017.02.15 15:30:47] [0000m.00s.229ms] [0] Single file [C:\pd_repo\pd\_CITADEL\Mentor\Citadel_Right\database\icdb.dat] size [610768 (596.5 kB)]
[2017.02.15 15:30:47] [0000m.00s.230ms] [1] Single file [C:\pd_repo\pd\_CITADEL\Mentor\Citadel_Right\database\icdb.dat] opened in read-write mode
[2017.02.15 15:30:47] [0000m.00s.230ms] [0] SingleFile: [0000-0000-0000-0000] SFI header version check [1009] [1009]
[2017.02.15 15:30:47] [0000m.00s.230ms] [0] Database GUARD OK: [610768]
[2017.02.15 15:30:47] [0000m.00s.231ms] [0] SingleFile: [0000-0000-0000-0000] SFI header version check [1009] [1009]
[2017.02.15 15:30:47] [0000m.00s.231ms] [0] Database GUARD OK: [610768]
[2017.02.15 15:30:47] [0000m.00s.231ms] [0] SingleFile: [0000-0000-0000-0000] SFI header version check [1009] [1009]
[2017.02.15 15:30:47] [0000m.00s.231ms] [0] Database GUARD OK: [610768]
[2017.02.15 15:30:47] [0000m.00s.231ms] [0] SingleFile: [0000-0000-0000-0000] SFI header version check [1009] [1009]
[2017.02.15 15:30:47] [0000m.00s.231ms] [0] Database GUARD OK: [610768]
[2017.02.15 15:30:47] [0000m.00s.231ms] [0] SingleFile: [0000-0000-0000-0000] SFI header version check [1009] [1009]
[2017.02.15 15:30:47] [0000m.00s.231ms] [0] Database GUARD OK: [610768]
[2017.02.15 15:30:47] [0000m.00s.231ms] [0] SingleFile: [4f38-7e5e-1772-3396] SFI version check [1009] [1009]
[2017.02.15 15:30:47] [0000m.00s.238ms] [0] SingleFile: [4f38-7e5e-1772-3396] Database SFI header has been read in [6ms 635us]
[2017.02.15 15:30:47] [0000m.00s.244ms] [0] iCDB Server PI: Server & plugin session [3134]
[2017.02.15 15:30:47] [0000m.00s.244ms] [0] iCDB Server PI: Opening database [C:\pd_repo\pd\_CITADEL\Mentor\Citadel_Right\database]
[2017.02.15 15:30:47] [0000m.00s.244ms] [0] iCDB Server PI: Database [C:\pd_repo\pd\_CITADEL\Mentor\Citadel_Right\database] opened
[2017.02.15 15:30:47] [0000m.00s.299ms] [0] iCDB Database: Checking existence of constraint definitions
[2017.02.15 15:30:47] [0000m.00s.299ms] [0] iCDB Database: Checking constraint definitions version
[2017.02.15 15:30:47] [0000m.00s.343ms] [1] iCDB Database: Constraint definitions version [ce_ee.cns=7.10.56] up to date
[2017.02.15 15:30:47] [0000m.00s.350ms] [0] iCDB Server PI: Initializing plugins
[2017.02.15 15:30:47] [0000m.00s.351ms] [0] iCDB Server PI: Plugins initialized
[2017.02.15 15:30:47] [0000m.00s.351ms] [0] S: iCDB database loaded
[2017.02.15 15:30:47] [0000m.00s.352ms] [0] S: Starting threads
[2017.02.15 15:30:47] [0000m.00s.352ms] [0] BT: Listening for broadcast messages on port [10000]
[2017.02.15 15:30:47] [0000m.00s.352ms] [1] CMT: There are no clients - waiting [10 seconds]
[2017.02.15 15:30:47] [0000m.00s.354ms] [0] IT: Session [3135] for host [DESKTOP-TJKR3AR] user [branden.sheffield] with process ID [16596] created
[2017.02.15 15:30:47] [0000m.00s.356ms] [1] SC[3135]: Registered sub-client [DxD] with ID [1] for session ID [3135] host [DESKTOP-TJKR3AR] user [branden.sheffield] process ID [16596]
[2017.02.15 15:30:47] [0000m.00s.359ms] [0] MWT: WindowProc: WM_NCCREATE
[2017.02.15 15:30:47] [0000m.00s.363ms] [0] IT: iCDB Server Monitor session [1] for host [DESKTOP-TJKR3AR] user [branden.sheffield] with process ID [11916] created
[2017.02.15 15:30:47] [0000m.00s.363ms] [1] DMT: There are [1] iCDB Server Monitor connected now
[2017.02.15 15:30:47] [0000m.00s.399ms] [1] SC[3135]: Registered sub-client [TransactionRollbackSubClient] with ID [2] for session ID [3135] host [DESKTOP-TJKR3AR] user [branden.sheffield] process ID [16596]
[2017.02.15 15:30:47] [0000m.00s.402ms] [1] SC[3135]: Registered sub-client [xprob] with ID [3] for session ID [3135] host [DESKTOP-TJKR3AR] user [branden.sheffield] process ID [16596]
[2017.02.15 15:30:47] [0000m.00s.452ms] [1] CMT: There are [1] clients now: 3135
[2017.02.15 15:30:49] [0000m.02s.681ms] [1] SC[3135]: Registered sub-client [SymbolEditor] with ID [4] for session ID [3135] host [DESKTOP-TJKR3AR] user [branden.sheffield] process ID [16596]
[2017.02.15 15:30:49] [0000m.02s.688ms] [1] SC[3135]: Registered sub-client [SelectionHolder] with ID [5] for session ID [3135] host [DESKTOP-TJKR3AR] user [branden.sheffield] process ID [16596]
[2017.02.15 15:30:49] [0000m.02s.730ms] [1] SC[3135]: Registered sub-client [EEVM_EEVM_562539044] with ID [6] for session ID [3135] host [DESKTOP-TJKR3AR] user [branden.sheffield] process ID [16596]
[2017.02.15 15:30:49] [0000m.02s.731ms] [1] SC[3135]: UnRegistered sub-client [EEVM_EEVM_562539044] with ID [6] for session ID [3135] host [DESKTOP-TJKR3AR] user [branden.sheffield] process ID [16596]
[2017.02.15 15:30:49] [0000m.02s.735ms] [1] SC[3135]: Registered sub-client [EEVM_EEVM_562539044] with ID [7] for session ID [3135] host [DESKTOP-TJKR3AR] user [branden.sheffield] process ID [16596]
[2017.02.15 15:30:49] [0000m.02s.755ms] [1] SC[3135]: UnRegistered sub-client [EEVM_EEVM_562539044] with ID [7] for session ID [3135] host [DESKTOP-TJKR3AR] user [branden.sheffield] process ID [16596]
[2017.02.15 15:30:49] [0000m.02s.760ms] [1] SC[3135]: Registered sub-client [EEVM_EEVM_562540284] with ID [8] for session ID [3135] host [DESKTOP-TJKR3AR] user [branden.sheffield] process ID [16596]
[2017.02.15 15:30:49] [0000m.02s.760ms] [1] SC[3135]: UnRegistered sub-client [EEVM_EEVM_562540284] with ID [8] for session ID [3135] host [DESKTOP-TJKR3AR] user [branden.sheffield] process ID [16596]
[2017.02.15 15:30:49] [0000m.02s.764ms] [1] SC[3135]: Registered sub-client [EEVM_EEVM_562540284] with ID [9] for session ID [3135] host [DESKTOP-TJKR3AR] user [branden.sheffield] process ID [16596]
[2017.02.15 15:30:49] [0000m.02s.775ms] [1] SC[3135]: UnRegistered sub-client [EEVM_EEVM_562540284] with ID [9] for session ID [3135] host [DESKTOP-TJKR3AR] user [branden.sheffield] process ID [16596]
[2017.02.15 15:30:49] [0000m.02s.941ms] [1] SC[3135]: Registered sub-client [SystemDesignDll] with ID [10] for session ID [3135] host [DESKTOP-TJKR3AR] user [branden.sheffield] process ID [16596]
[2017.02.15 15:30:49] [0000m.02s.971ms] [1] SC[3135]: UnRegistered sub-client [SystemDesignDll] with ID [10] for session ID [3135] host [DESKTOP-TJKR3AR] user [branden.sheffield] process ID [16596]
[2017.02.15 15:30:49] [0000m.02s.974ms] [1] SC[3135]: Registered sub-client [SystemDesignDll] with ID [11] for session ID [3135] host [DESKTOP-TJKR3AR] user [branden.sheffield] process ID [16596]
[2017.02.15 15:30:53] [0000m.06s.439ms] [1] SC[3135]: Registered sub-client [DesignSearcher2] with ID [12] for session ID [3135] host [DESKTOP-TJKR3AR] user [branden.sheffield] process ID [16596]
[2017.02.15 15:30:53] [0000m.06s.453ms] [1] SC[3135]: Registered sub-client [HdlProject] with ID [13] for session ID [3135] host [DESKTOP-TJKR3AR] user [branden.sheffield] process ID [16596]
[2017.02.15 15:30:53] [0000m.06s.466ms] [1] SC[3135]: Registered sub-client [Navigator] with ID [14] for session ID [3135] host [DESKTOP-TJKR3AR] user [branden.sheffield] process ID [16596]
[2017.02.15 15:30:53] [0000m.06s.479ms] [1] SC[3135]: Registered sub-client [OutputWindow] with ID [15] for session ID [3135] host [DESKTOP-TJKR3AR] user [branden.sheffield] process ID [16596]
[2017.02.15 15:30:53] [0000m.06s.483ms] [1] SC[3135]: Registered sub-client [PlaceDevice] with ID [16] for session ID [3135] host [DESKTOP-TJKR3AR] user [branden.sheffield] process ID [16596]
[2017.02.15 15:30:53] [0000m.06s.634ms] [1] SC[3135]: Registered sub-client [LocalSymbolsDataProvider] with ID [17] for session ID [3135] host [DESKTOP-TJKR3AR] user [branden.sheffield] process ID [16596]
[2017.02.15 15:30:53] [0000m.06s.640ms] [1] SC[3135]: Registered sub-client [FFSearch_Controller_5] with ID [18] for session ID [3135] host [DESKTOP-TJKR3AR] user [branden.sheffield] process ID [16596]
[2017.02.15 15:30:53] [0000m.06s.802ms] [1] SC[3135]: Registered sub-client [FFSearch_Controller_6] with ID [19] for session ID [3135] host [DESKTOP-TJKR3AR] user [branden.sheffield] process ID [16596]
[2017.02.15 15:30:53] [0000m.06s.933ms] [1] SC[3135]: Registered sub-client [FFSearch_Controller_7] with ID [20] for session ID [3135] host [DESKTOP-TJKR3AR] user [branden.sheffield] process ID [16596]
[2017.02.15 15:30:54] [0000m.07s.079ms] [1] SC[3135]: Registered sub-client [FFSearch_Controller_8] with ID [21] for session ID [3135] host [DESKTOP-TJKR3AR] user [branden.sheffield] process ID [16596]
[2017.02.15 15:30:54] [0000m.07s.228ms] [1] SC[3135]: Registered sub-client [FFSearch_Controller_9] with ID [22] for session ID [3135] host [DESKTOP-TJKR3AR] user [branden.sheffield] process ID [16596]
[2017.02.15 15:30:54] [0000m.07s.398ms] [1] SC[3135]: Registered sub-client [SAE] with ID [23] for session ID [3135] host [DESKTOP-TJKR3AR] user [branden.sheffield] process ID [16596]
[2017.02.15 15:30:54] [0000m.07s.403ms] [1] SC[3135]: Registered sub-client [CCZAddin] with ID [24] for session ID [3135] host [DESKTOP-TJKR3AR] user [branden.sheffield] process ID [16596]
[2017.02.15 15:30:54] [0000m.07s.407ms] [1] SC[3135]: Registered sub-client [DxThumbnails] with ID [25] for session ID [3135] host [DESKTOP-TJKR3AR] user [branden.sheffield] process ID [16596]
[2017.02.15 15:30:54] [0000m.07s.412ms] [1] SC[3135]: Registered sub-client [MyParts] with ID [26] for session ID [3135] host [DESKTOP-TJKR3AR] user [branden.sheffield] process ID [16596]
[2017.02.15 15:30:54] [0000m.07s.441ms] [1] SC[3135]: Registered sub-client [PinsList] with ID [27] for session ID [3135] host [DESKTOP-TJKR3AR] user [branden.sheffield] process ID [16596]
[2017.02.15 15:30:54] [0000m.07s.560ms] [1] SC[3135]: Registered sub-client [toolboxes] with ID [28] for session ID [3135] host [DESKTOP-TJKR3AR] user [branden.sheffield] process ID [16596]
[2017.02.15 15:30:54] [0000m.07s.603ms] [1] SC[3135]: Registered sub-client [ProjectIntegrationIcdbCacheDxD:553442088] with ID [29] for session ID [3135] host [DESKTOP-TJKR3AR] user [branden.sheffield] process ID [16596]
[2017.02.15 15:30:54] [0000m.07s.704ms] [1] SC[3135]: Registered sub-client [SheetConnectorsCacheDxD:1487197854] with ID [30] for session ID [3135] host [DESKTOP-TJKR3AR] user [branden.sheffield] process ID [16596]
[2017.02.15 15:30:54] [0000m.07s.717ms] [1] SC[3135]: Registered sub-client [NetsNamesCollectorDxD:1487197854] with ID [31] for session ID [3135] host [DESKTOP-TJKR3AR] user [branden.sheffield] process ID [16596]
[2017.02.15 15:30:54] [0000m.07s.744ms] [1] SC[3135]: Registered sub-client [PartReplaceUtils] with ID [32] for session ID [3135] host [DESKTOP-TJKR3AR] user [branden.sheffield] process ID [16596]
[2017.02.15 15:30:56] [0000m.09s.452ms] [1] SC[3135]: Registered sub-client [ObjectHolder_513411168] with ID [33] for session ID [3135] host [DESKTOP-TJKR3AR] user [branden.sheffield] process ID [16596]
[2017.02.15 15:30:56] [0000m.09s.455ms] [1] SC[3135]: Registered sub-client [BlockCacheDxD:548183560] with ID [34] for session ID [3135] host [DESKTOP-TJKR3AR] user [branden.sheffield] process ID [16596]
[2017.02.15 15:30:56] [0000m.09s.460ms] [1] SC[3135]: Registered sub-client [GlobalNetAliasUpdater_513411480] with ID [35] for session ID [3135] host [DESKTOP-TJKR3AR] user [branden.sheffield] process ID [16596]
[2017.02.15 15:30:56] [0000m.09s.464ms] [1] SC[3135]: Registered sub-client [IcdbNetProcessorSubClientDxD:513286512] with ID [36] for session ID [3135] host [DESKTOP-TJKR3AR] user [branden.sheffield] process ID [16596]
[2017.02.15 15:30:56] [0000m.09s.989ms] [1] SC[3135]: Registered sub-client [DxDbSearch] with ID [37] for session ID [3135] host [DESKTOP-TJKR3AR] user [branden.sheffield] process ID [16596]
[2017.02.15 15:31:06] [0000m.19s.101ms] [1] SC[3135]: Registered sub-client [Dx2Exp_1725294062] with ID [38] for session ID [3135] host [DESKTOP-TJKR3AR] user [branden.sheffield] process ID [16596]
[2017.02.15 15:31:06] [0000m.19s.101ms] [1] SC[3135]: UnRegistered sub-client [Dx2Exp_1725294062] with ID [38] for session ID [3135] host [DESKTOP-TJKR3AR] user [branden.sheffield] process ID [16596]
[2017.02.15 15:31:11] [0000m.24s.215ms] [0] DFAMT: File server access time: 53 us
[2017.02.15 15:31:18] [0000m.31s.165ms] [0] IT: Session [3136] for host [DESKTOP-TJKR3AR] user [branden.sheffield] with process ID [16296] created
[2017.02.15 15:31:18] [0000m.31s.167ms] [1] SC[3136]: Registered sub-client [Expedition PE_1725306078] with ID [1] for session ID [3136] host [DESKTOP-TJKR3AR] user [branden.sheffield] process ID [16296]
[2017.02.15 15:31:18] [0000m.31s.171ms] [1] CMT: There are [2] clients now: 3135, 3136
[2017.02.15 15:31:18] [0000m.31s.218ms] [1] SC[3136]: Registered sub-client [EEVM_EEVM_275375044] with ID [2] for session ID [3136] host [DESKTOP-TJKR3AR] user [branden.sheffield] process ID [16296]
[2017.02.15 15:31:18] [0000m.31s.231ms] [1] SC[3136]: UnRegistered sub-client [EEVM_EEVM_275375044] with ID [2] for session ID [3136] host [DESKTOP-TJKR3AR] user [branden.sheffield] process ID [16296]
[2017.02.15 15:31:18] [0000m.31s.235ms] [1] SC[3136]: Registered sub-client [EEVM_EEVM_275375044] with ID [3] for session ID [3136] host [DESKTOP-TJKR3AR] user [branden.sheffield] process ID [16296]
[2017.02.15 15:31:18] [0000m.31s.247ms] [1] SC[3136]: UnRegistered sub-client [EEVM_EEVM_275375044] with ID [3] for session ID [3136] host [DESKTOP-TJKR3AR] user [branden.sheffield] process ID [16296]
[2017.02.15 15:31:18] [0000m.31s.449ms] [1] SC[3136]: Registered sub-client [JobPrefsDBPI_1725306406] with ID [4] for session ID [3136] host [DESKTOP-TJKR3AR] user [branden.sheffield] process ID [16296]
[2017.02.15 15:31:18] [0000m.31s.468ms] [1] SC[3136]: UnRegistered sub-client [JobPrefsDBPI_1725306406] with ID [4] for session ID [3136] host [DESKTOP-TJKR3AR] user [branden.sheffield] process ID [16296]
[2017.02.15 15:31:22] [0000m.35s.136ms] [1] SC[3136]: Registered sub-client [ExpeditionCrossProber] with ID [5] for session ID [3136] host [DESKTOP-TJKR3AR] user [branden.sheffield] process ID [16296]
[2017.02.15 15:31:51] [0001m.04s.351ms] [0] IT: Session [3137] for host [DESKTOP-TJKR3AR] user [branden.sheffield] with process ID [18612] created
[2017.02.15 15:31:51] [0001m.04s.353ms] [1] SC[3137]: Registered sub-client [JobPrefsDBPI_1725339265] with ID [1] for session ID [3137] host [DESKTOP-TJKR3AR] user [branden.sheffield] process ID [18612]
[2017.02.15 15:31:51] [0001m.04s.372ms] [1] SC[3137]: UnRegistered sub-client [JobPrefsDBPI_1725339265] with ID [1] for session ID [3137] host [DESKTOP-TJKR3AR] user [branden.sheffield] process ID [18612]
[2017.02.15 15:31:51] [0001m.04s.391ms] [1] CMT: There are [3] clients now: 3135, 3136, 3137
[2017.02.15 15:31:51] [0001m.04s.392ms] [1] CMT: Removed client [3137]
[2017.02.15 15:31:51] [0001m.04s.392ms] [1] CMT: There are [2] clients now: 3135, 3136
[2017.02.15 15:31:54] [0001m.07s.967ms] [1] SC[3136]: Registered sub-client [JobPrefsDBPI_1725342921] with ID [6] for session ID [3136] host [DESKTOP-TJKR3AR] user [branden.sheffield] process ID [16296]
[2017.02.15 15:31:54] [0001m.07s.974ms] [1] SC[3136]: UnRegistered sub-client [JobPrefsDBPI_1725342921] with ID [6] for session ID [3136] host [DESKTOP-TJKR3AR] user [branden.sheffield] process ID [16296]
[2017.02.15 15:31:55] [0001m.08s.643ms] [1] SC[3136]: Registered sub-client [3DView_1725343593] with ID [7] for session ID [3136] host [DESKTOP-TJKR3AR] user [branden.sheffield] process ID [16296]
[2017.02.15 15:31:55] [0001m.08s.644ms] [1] SC[3136]: UnRegistered sub-client [3DView_1725343593] with ID [7] for session ID [3136] host [DESKTOP-TJKR3AR] user [branden.sheffield] process ID [16296]
[2017.02.15 15:33:24] [0002m.37s.074ms] [1] PrjBackupMgr: Successfully created Project Backup [C:\pd_repo\pd\_CITADEL\Mentor\Citadel_Right\ProjectBackup\backups\2017-02-15 15.33.22 - auto.zip] with GUID [b0dd-dea4-d4fb-e843-237d-4a87-37d4-a850-15d2-9382-c162-b0a8]
[2017.02.15 15:33:24] [0002m.37s.077ms] [0] PrjBackupMgr: Removing excessive backup:  BackupGUID[0e48-cfad-4e21-06b1-7c25-a48c-c25a-4850-e84b-9998-18e5-348b] CreationTime[Friday, December 09, 2016 06:44:23] Type[Autosave] Creator[iCDB Server (2016-12-08 23.44.18-3892)] ApplicationName[iCDB Server (2016-12-08 23.44.18-3892)] UserName[branden.sheffield] MachineName[DESKTOP-TJKR3AR] Description[Autosave] FullFlowName[PADS Professional VX.2] FlowId[PADSProVX.2] GBSInstallId[1409847] GBSBuildId[5060443] IcdbVersion[3100] ReferenceLogFilePath[] BackupFilePath[C:\pd_repo\pd\_CITADEL\Mentor\Citadel_Right\ProjectBackup\backups\2016-12-08 23.44.23 - auto.zip] BackupFileSize[9188071] Persistent[FALSE]
[2017.02.15 15:33:24] [0002m.37s.081ms] [0] PrjBackupMgr: Project Backup file [C:\pd_repo\pd\_CITADEL\Mentor\Citadel_Right\ProjectBackup\backups\2016-12-08 23.44.23 - auto.zip] with GUID [0e48-cfad-4e21-06b1-7c25-a48c-c25a-4850-e84b-9998-18e5-348b] removed
[2017.02.15 15:33:24] [0002m.37s.086ms] [0] PrjBackupMgr: Removing excessive backup:  BackupGUID[098d-15fe-1712-5e28-053f-a485-53fa-4850-2e8c-99a8-a7e5-348b] CreationTime[Friday, December 09, 2016 18:09:20] Type[Autosave] Creator[iCDB Server (2016-12-09 10.04.15-15404)] ApplicationName[iCDB Server (2016-12-09 10.04.15-15404)] UserName[branden.sheffield] MachineName[DESKTOP-TJKR3AR] Description[Autosave] FullFlowName[PADS Professional VX.2] FlowId[PADSProVX.2] GBSInstallId[1409847] GBSBuildId[5060443] IcdbVersion[3100] ReferenceLogFilePath[] BackupFilePath[C:\pd_repo\pd\_CITADEL\Mentor\Citadel_Right\ProjectBackup\backups\2016-12-09 11.09.20 - auto.zip] BackupFileSize[9232619] Persistent[FALSE]
[2017.02.15 15:33:24] [0002m.37s.090ms] [0] PrjBackupMgr: Project Backup file [C:\pd_repo\pd\_CITADEL\Mentor\Citadel_Right\ProjectBackup\backups\2016-12-09 11.09.20 - auto.zip] with GUID [098d-15fe-1712-5e28-053f-a485-53fa-4850-2e8c-99a8-a7e5-348b] removed
[2017.02.15 15:33:24] [0002m.37s.094ms] [0] PrjBackupMgr: Removing excessive backup:  BackupGUID[cf8d-4d1c-f452-4044-09b2-b485-9b2b-4850-2e8c-99a8-a7e5-348b] CreationTime[Friday, December 09, 2016 22:09:20] Type[Autosave] Creator[iCDB Server (2016-12-09 10.04.15-15404)] ApplicationName[iCDB Server (2016-12-09 10.04.15-15404)] UserName[branden.sheffield] MachineName[DESKTOP-TJKR3AR] Description[Autosave] FullFlowName[PADS Professional VX.2] FlowId[PADSProVX.2] GBSInstallId[1409847] GBSBuildId[5060443] IcdbVersion[3100] ReferenceLogFilePath[] BackupFilePath[C:\pd_repo\pd\_CITADEL\Mentor\Citadel_Right\ProjectBackup\backups\2016-12-09 15.09.20 - auto.zip] BackupFileSize[9254459] Persistent[FALSE]
[2017.02.15 15:33:24] [0002m.37s.098ms] [0] PrjBackupMgr: Project Backup file [C:\pd_repo\pd\_CITADEL\Mentor\Citadel_Right\ProjectBackup\backups\2016-12-09 15.09.20 - auto.zip] with GUID [cf8d-4d1c-f452-4044-09b2-b485-9b2b-4850-2e8c-99a8-a7e5-348b] removed
[2017.02.15 15:33:24] [0002m.37s.102ms] [0] PrjBackupMgr: Removing excessive backup:  BackupGUID[17d4-8fbc-adc0-bd94-41b5-d689-1b5d-6850-97e5-9382-b152-d3a8] CreationTime[Wednesday, January 04, 2017 20:29:08] Type[Autosave] Creator[iCDB Server (2017-01-04 13.29.02-3692)] ApplicationName[iCDB Server (2017-01-04 13.29.02-3692)] UserName[branden.sheffield] MachineName[DESKTOP-TJKR3AR] Description[Autosave] FullFlowName[PADS Professional VX.2] FlowId[PADSProVX.2] GBSInstallId[1409847] GBSBuildId[5060443] IcdbVersion[3100] ReferenceLogFilePath[] BackupFilePath[C:\pd_repo\pd\_CITADEL\Mentor\Citadel_Right\ProjectBackup\backups\2017-01-04 13.29.08 - auto.zip] BackupFileSize[5801083] Persistent[FALSE]
[2017.02.15 15:33:24] [0002m.37s.106ms] [0] PrjBackupMgr: Project Backup file [C:\pd_repo\pd\_CITADEL\Mentor\Citadel_Right\ProjectBackup\backups\2017-01-04 13.29.08 - auto.zip] with GUID [17d4-8fbc-adc0-bd94-41b5-d689-1b5d-6850-97e5-9382-b152-d3a8] removed
[2017.02.15 15:33:24] [0002m.37s.108ms] [0] PrjBackupEngine: Successfully created backup:  BackupGUID[b0dd-dea4-d4fb-e843-237d-4a87-37d4-a850-15d2-9382-c162-b0a8] CreationTime[Wednesday, February 15, 2017 22:33:22] Type[Autosave] Creator[iCDB Server (2017-02-15 15.30.47-6272)] ApplicationName[iCDB Server (2017-02-15 15.30.47-6272)] UserName[branden.sheffield] MachineName[DESKTOP-TJKR3AR] Description[Autosave] FullFlowName[PADS Professional VX.2] FlowId[PADSProVX.2] GBSInstallId[1409847] GBSBuildId[5060443] IcdbVersion[3100] ReferenceLogFilePath[] BackupFilePath[C:\pd_repo\pd\_CITADEL\Mentor\Citadel_Right\ProjectBackup\backups\2017-02-15 15.33.22 - auto.zip] BackupFileSize[5089838] Persistent[FALSE]
[2017.02.15 15:35:30] [0004m.43s.321ms] [1] SC[3136]: Registered sub-client [JobPrefsDBPI_1725558281] with ID [8] for session ID [3136] host [DESKTOP-TJKR3AR] user [branden.sheffield] process ID [16296]
[2017.02.15 15:35:33] [0004m.46s.969ms] [0] IT: Session [3138] for host [DESKTOP-TJKR3AR] user [branden.sheffield] with process ID [15348] created
[2017.02.15 15:35:33] [0004m.46s.970ms] [1] CMT: There are [3] clients now: 3135, 3136, 3138
[2017.02.15 15:35:33] [0004m.46s.970ms] [1] SC[3138]: Registered sub-client [JobPrefsDBPI_1725561843] with ID [1] for session ID [3138] host [DESKTOP-TJKR3AR] user [branden.sheffield] process ID [15348]
[2017.02.15 15:35:34] [0004m.47s.017ms] [1] SC[3138]: Registered sub-client [JobPrefsDBPI_1725561984] with ID [2] for session ID [3138] host [DESKTOP-TJKR3AR] user [branden.sheffield] process ID [15348]
[2017.02.15 15:35:34] [0004m.47s.022ms] [1] SC[3138]: UnRegistered sub-client [JobPrefsDBPI_1725561843] with ID [1] for session ID [3138] host [DESKTOP-TJKR3AR] user [branden.sheffield] process ID [15348]
[2017.02.15 15:35:34] [0004m.47s.222ms] [1] SC[3138]: UnRegistered sub-client [JobPrefsDBPI_1725561984] with ID [2] for session ID [3138] host [DESKTOP-TJKR3AR] user [branden.sheffield] process ID [15348]
[2017.02.15 15:35:34] [0004m.47s.271ms] [1] CMT: Removed client [3138]
[2017.02.15 15:35:34] [0004m.47s.271ms] [1] CMT: There are [2] clients now: 3135, 3136
[2017.02.15 15:35:36] [0004m.49s.488ms] [1] SC[3136]: UnRegistered sub-client [JobPrefsDBPI_1725558281] with ID [8] for session ID [3136] host [DESKTOP-TJKR3AR] user [branden.sheffield] process ID [16296]
[2017.02.15 15:58:21] [0027m.34s.557ms] [1] SC[3136]: Registered sub-client [JobPrefsDBPI_1726929546] with ID [9] for session ID [3136] host [DESKTOP-TJKR3AR] user [branden.sheffield] process ID [16296]
[2017.02.15 15:58:23] [0027m.36s.288ms] [0] IT: Session [3139] for host [DESKTOP-TJKR3AR] user [branden.sheffield] with process ID [432] created
[2017.02.15 15:58:23] [0027m.36s.289ms] [1] SC[3139]: Registered sub-client [JobPrefsDBPI_1726931203] with ID [1] for session ID [3139] host [DESKTOP-TJKR3AR] user [branden.sheffield] process ID [432]
[2017.02.15 15:58:23] [0027m.36s.335ms] [1] SC[3139]: Registered sub-client [JobPrefsDBPI_1726931328] with ID [2] for session ID [3139] host [DESKTOP-TJKR3AR] user [branden.sheffield] process ID [432]
[2017.02.15 15:58:23] [0027m.36s.341ms] [1] SC[3139]: UnRegistered sub-client [JobPrefsDBPI_1726931203] with ID [1] for session ID [3139] host [DESKTOP-TJKR3AR] user [branden.sheffield] process ID [432]
[2017.02.15 15:58:23] [0027m.36s.366ms] [1] CMT: There are [3] clients now: 3135, 3136, 3139
[2017.02.15 15:58:23] [0027m.36s.502ms] [1] SC[3139]: UnRegistered sub-client [JobPrefsDBPI_1726931328] with ID [2] for session ID [3139] host [DESKTOP-TJKR3AR] user [branden.sheffield] process ID [432]
[2017.02.15 15:58:23] [0027m.36s.567ms] [1] CMT: Removed client [3139]
[2017.02.15 15:58:23] [0027m.36s.567ms] [1] CMT: There are [2] clients now: 3135, 3136
[2017.02.15 15:59:09] [0028m.22s.590ms] [1] SC[3136]: UnRegistered sub-client [JobPrefsDBPI_1726929546] with ID [9] for session ID [3136] host [DESKTOP-TJKR3AR] user [branden.sheffield] process ID [16296]
[2017.02.15 15:59:42] [0028m.55s.151ms] [1] SC[3136]: Registered sub-client [JobPrefsDBPI_1727010156] with ID [10] for session ID [3136] host [DESKTOP-TJKR3AR] user [branden.sheffield] process ID [16296]
[2017.02.15 15:59:42] [0028m.55s.155ms] [1] SC[3136]: UnRegistered sub-client [JobPrefsDBPI_1727010156] with ID [10] for session ID [3136] host [DESKTOP-TJKR3AR] user [branden.sheffield] process ID [16296]
[2017.02.15 15:59:42] [0028m.55s.263ms] [1] SC[3136]: Registered sub-client [NetClassDBPI_1727010265] with ID [11] for session ID [3136] host [DESKTOP-TJKR3AR] user [branden.sheffield] process ID [16296]
[2017.02.15 15:59:42] [0028m.55s.268ms] [1] SC[3136]: UnRegistered sub-client [NetClassDBPI_1727010265] with ID [11] for session ID [3136] host [DESKTOP-TJKR3AR] user [branden.sheffield] process ID [16296]
[2017.02.15 15:59:42] [0028m.55s.272ms] [1] SC[3136]: Registered sub-client [JobPrefsDBPI_1727010265] with ID [12] for session ID [3136] host [DESKTOP-TJKR3AR] user [branden.sheffield] process ID [16296]
[2017.02.15 15:59:42] [0028m.55s.275ms] [1] SC[3136]: UnRegistered sub-client [JobPrefsDBPI_1727010265] with ID [12] for session ID [3136] host [DESKTOP-TJKR3AR] user [branden.sheffield] process ID [16296]
[2017.02.15 15:59:44] [0028m.57s.493ms] [1] SC[3136]: Registered sub-client [JobPrefsDBPI_1727012484] with ID [13] for session ID [3136] host [DESKTOP-TJKR3AR] user [branden.sheffield] process ID [16296]
[2017.02.15 15:59:44] [0028m.57s.519ms] [1] SC[3136]: UnRegistered sub-client [JobPrefsDBPI_1727012484] with ID [13] for session ID [3136] host [DESKTOP-TJKR3AR] user [branden.sheffield] process ID [16296]
[2017.02.15 15:59:44] [0028m.57s.984ms] [0] IT: Session [3140] for host [DESKTOP-TJKR3AR] user [branden.sheffield] with process ID [12340] created
[2017.02.15 15:59:44] [0028m.57s.986ms] [1] SC[3140]: Registered sub-client [JobPrefsDBPI_1727012828] with ID [1] for session ID [3140] host [DESKTOP-TJKR3AR] user [branden.sheffield] process ID [12340]
[2017.02.15 15:59:44] [0028m.57s.993ms] [0] IT: Session [3141] for host [DESKTOP-TJKR3AR] user [branden.sheffield] with process ID [16488] created
[2017.02.15 15:59:44] [0028m.58s.000ms] [0] IT: Session [3142] for host [DESKTOP-TJKR3AR] user [branden.sheffield] with process ID [15404] created
[2017.02.15 15:59:44] [0028m.58s.001ms] [1] SC[3141]: Registered sub-client [JobPrefsDBPI_1727012828] with ID [1] for session ID [3141] host [DESKTOP-TJKR3AR] user [branden.sheffield] process ID [16488]
[2017.02.15 15:59:45] [0028m.58s.003ms] [1] SC[3142]: Registered sub-client [JobPrefsDBPI_1727012828] with ID [1] for session ID [3142] host [DESKTOP-TJKR3AR] user [branden.sheffield] process ID [15404]
[2017.02.15 15:59:45] [0028m.58s.012ms] [1] CMT: There are [5] clients now: 3135, 3136, 3140, 3141, 3142
[2017.02.15 15:59:45] [0028m.58s.043ms] [1] SC[3140]: Registered sub-client [JobPrefsDBPI_1727013046] with ID [2] for session ID [3140] host [DESKTOP-TJKR3AR] user [branden.sheffield] process ID [12340]
[2017.02.15 15:59:45] [0028m.58s.052ms] [1] SC[3140]: Registered sub-client [NetClassDBPI_1727013046] with ID [3] for session ID [3140] host [DESKTOP-TJKR3AR] user [branden.sheffield] process ID [12340]
[2017.02.15 15:59:45] [0028m.58s.060ms] [1] SC[3141]: Registered sub-client [JobPrefsDBPI_1727013062] with ID [2] for session ID [3141] host [DESKTOP-TJKR3AR] user [branden.sheffield] process ID [16488]
[2017.02.15 15:59:45] [0028m.58s.064ms] [1] SC[3142]: Registered sub-client [JobPrefsDBPI_1727013062] with ID [2] for session ID [3142] host [DESKTOP-TJKR3AR] user [branden.sheffield] process ID [15404]
[2017.02.15 15:59:45] [0028m.58s.069ms] [1] SC[3141]: Registered sub-client [NetClassDBPI_1727013062] with ID [3] for session ID [3141] host [DESKTOP-TJKR3AR] user [branden.sheffield] process ID [16488]
[2017.02.15 15:59:45] [0028m.58s.076ms] [1] SC[3142]: Registered sub-client [NetClassDBPI_1727013078] with ID [3] for session ID [3142] host [DESKTOP-TJKR3AR] user [branden.sheffield] process ID [15404]
[2017.02.15 15:59:45] [0028m.58s.082ms] [1] SC[3142]: Registered sub-client [Expedition_1727013078] with ID [4] for session ID [3142] host [DESKTOP-TJKR3AR] user [branden.sheffield] process ID [15404]
[2017.02.15 15:59:45] [0028m.58s.083ms] [1] SC[3142]: UnRegistered sub-client [Expedition_1727013078] with ID [4] for session ID [3142] host [DESKTOP-TJKR3AR] user [branden.sheffield] process ID [15404]
[2017.02.15 15:59:45] [0028m.58s.135ms] [0] IT: Session [3143] for host [DESKTOP-TJKR3AR] user [branden.sheffield] with process ID [15336] created
[2017.02.15 15:59:45] [0028m.58s.142ms] [1] CMT: There are [6] clients now: 3135, 3136, 3140, 3141, 3142, 3143
[2017.02.15 15:59:45] [0028m.58s.143ms] [1] SC[3143]: Registered sub-client [JobPrefsDBPI_1727013015] with ID [1] for session ID [3143] host [DESKTOP-TJKR3AR] user [branden.sheffield] process ID [15336]
[2017.02.15 15:59:45] [0028m.58s.170ms] [1] SC[3143]: Registered sub-client [NetClassDBPI_1727013171] with ID [2] for session ID [3143] host [DESKTOP-TJKR3AR] user [branden.sheffield] process ID [15336]
[2017.02.15 15:59:45] [0028m.58s.202ms] [1] SC[3143]: Registered sub-client [JobPrefsDBPI_1727013203] with ID [3] for session ID [3143] host [DESKTOP-TJKR3AR] user [branden.sheffield] process ID [15336]
[2017.02.15 15:59:45] [0028m.58s.263ms] [1] SC[3142]: UnRegistered sub-client [JobPrefsDBPI_1727013062] with ID [2] for session ID [3142] host [DESKTOP-TJKR3AR] user [branden.sheffield] process ID [15404]
[2017.02.15 15:59:45] [0028m.58s.265ms] [1] SC[3142]: UnRegistered sub-client [JobPrefsDBPI_1727012828] with ID [1] for session ID [3142] host [DESKTOP-TJKR3AR] user [branden.sheffield] process ID [15404]
[2017.02.15 15:59:45] [0028m.58s.268ms] [1] SC[3142]: UnRegistered sub-client [NetClassDBPI_1727013078] with ID [3] for session ID [3142] host [DESKTOP-TJKR3AR] user [branden.sheffield] process ID [15404]
[2017.02.15 15:59:45] [0028m.58s.271ms] [1] SC[3143]: Registered sub-client [Expedition_1727013265] with ID [4] for session ID [3143] host [DESKTOP-TJKR3AR] user [branden.sheffield] process ID [15336]
[2017.02.15 15:59:45] [0028m.58s.277ms] [1] SC[3143]: UnRegistered sub-client [Expedition_1727013265] with ID [4] for session ID [3143] host [DESKTOP-TJKR3AR] user [branden.sheffield] process ID [15336]
[2017.02.15 15:59:45] [0028m.58s.297ms] [1] SC[3143]: UnRegistered sub-client [JobPrefsDBPI_1727013203] with ID [3] for session ID [3143] host [DESKTOP-TJKR3AR] user [branden.sheffield] process ID [15336]
[2017.02.15 15:59:45] [0028m.58s.299ms] [1] SC[3143]: UnRegistered sub-client [JobPrefsDBPI_1727013015] with ID [1] for session ID [3143] host [DESKTOP-TJKR3AR] user [branden.sheffield] process ID [15336]
[2017.02.15 15:59:45] [0028m.58s.302ms] [1] SC[3143]: UnRegistered sub-client [NetClassDBPI_1727013171] with ID [2] for session ID [3143] host [DESKTOP-TJKR3AR] user [branden.sheffield] process ID [15336]
[2017.02.15 15:59:45] [0028m.58s.308ms] [1] SC[3141]: UnRegistered sub-client [JobPrefsDBPI_1727013062] with ID [2] for session ID [3141] host [DESKTOP-TJKR3AR] user [branden.sheffield] process ID [16488]
[2017.02.15 15:59:45] [0028m.58s.309ms] [1] SC[3141]: UnRegistered sub-client [JobPrefsDBPI_1727012828] with ID [1] for session ID [3141] host [DESKTOP-TJKR3AR] user [branden.sheffield] process ID [16488]
[2017.02.15 15:59:45] [0028m.58s.312ms] [1] SC[3141]: UnRegistered sub-client [NetClassDBPI_1727013062] with ID [3] for session ID [3141] host [DESKTOP-TJKR3AR] user [branden.sheffield] process ID [16488]
[2017.02.15 15:59:45] [0028m.58s.354ms] [1] SC[3140]: UnRegistered sub-client [JobPrefsDBPI_1727013046] with ID [2] for session ID [3140] host [DESKTOP-TJKR3AR] user [branden.sheffield] process ID [12340]
[2017.02.15 15:59:45] [0028m.58s.356ms] [1] SC[3140]: UnRegistered sub-client [JobPrefsDBPI_1727012828] with ID [1] for session ID [3140] host [DESKTOP-TJKR3AR] user [branden.sheffield] process ID [12340]
[2017.02.15 15:59:45] [0028m.58s.356ms] [1] CMT: Removed client [3141]
[2017.02.15 15:59:45] [0028m.58s.356ms] [1] CMT: Removed client [3142]
[2017.02.15 15:59:45] [0028m.58s.356ms] [1] CMT: Removed client [3143]
[2017.02.15 15:59:45] [0028m.58s.356ms] [1] CMT: There are [3] clients now: 3135, 3136, 3140
[2017.02.15 15:59:45] [0028m.58s.358ms] [1] SC[3140]: UnRegistered sub-client [NetClassDBPI_1727013046] with ID [3] for session ID [3140] host [DESKTOP-TJKR3AR] user [branden.sheffield] process ID [12340]
[2017.02.15 15:59:45] [0028m.58s.457ms] [1] CMT: Removed client [3140]
[2017.02.15 15:59:45] [0028m.58s.457ms] [1] CMT: There are [2] clients now: 3135, 3136
[2017.02.15 16:01:34] [0030m.47s.369ms] [1] SC[3136]: Registered sub-client [JobPrefsDBPI_1727122375] with ID [14] for session ID [3136] host [DESKTOP-TJKR3AR] user [branden.sheffield] process ID [16296]
[2017.02.15 16:01:34] [0030m.47s.411ms] [1] SC[3136]: Registered sub-client [JobPrefsDBPI_1727122406] with ID [15] for session ID [3136] host [DESKTOP-TJKR3AR] user [branden.sheffield] process ID [16296]
[2017.02.15 16:01:34] [0030m.47s.840ms] [1] SC[3136]: UnRegistered sub-client [JobPrefsDBPI_1727122375] with ID [14] for session ID [3136] host [DESKTOP-TJKR3AR] user [branden.sheffield] process ID [16296]
[2017.02.15 16:01:34] [0030m.47s.848ms] [1] SC[3136]: UnRegistered sub-client [JobPrefsDBPI_1727122406] with ID [15] for session ID [3136] host [DESKTOP-TJKR3AR] user [branden.sheffield] process ID [16296]
[2017.02.15 16:01:37] [0030m.50s.192ms] [1] SC[3136]: Registered sub-client [JobPrefsDBPI_1727125187] with ID [16] for session ID [3136] host [DESKTOP-TJKR3AR] user [branden.sheffield] process ID [16296]
[2017.02.15 16:01:37] [0030m.50s.198ms] [1] SC[3136]: UnRegistered sub-client [JobPrefsDBPI_1727125187] with ID [16] for session ID [3136] host [DESKTOP-TJKR3AR] user [branden.sheffield] process ID [16296]
[2017.02.15 16:01:37] [0030m.50s.238ms] [1] SC[3136]: Registered sub-client [JobPrefsDBPI_1727125234] with ID [17] for session ID [3136] host [DESKTOP-TJKR3AR] user [branden.sheffield] process ID [16296]
[2017.02.15 16:01:37] [0030m.50s.251ms] [1] SC[3136]: UnRegistered sub-client [JobPrefsDBPI_1727125234] with ID [17] for session ID [3136] host [DESKTOP-TJKR3AR] user [branden.sheffield] process ID [16296]
[2017.02.15 16:01:37] [0030m.50s.756ms] [0] IT: Session [3144] for host [DESKTOP-TJKR3AR] user [branden.sheffield] with process ID [11020] created
[2017.02.15 16:01:37] [0030m.50s.757ms] [1] SC[3144]: Registered sub-client [JobPrefsDBPI_1727125671] with ID [1] for session ID [3144] host [DESKTOP-TJKR3AR] user [branden.sheffield] process ID [11020]
[2017.02.15 16:01:37] [0030m.50s.758ms] [1] CMT: There are [3] clients now: 3135, 3136, 3144
[2017.02.15 16:01:37] [0030m.50s.776ms] [1] SC[3144]: UnRegistered sub-client [JobPrefsDBPI_1727125671] with ID [1] for session ID [3144] host [DESKTOP-TJKR3AR] user [branden.sheffield] process ID [11020]
[2017.02.15 16:01:37] [0030m.50s.859ms] [1] CMT: Removed client [3144]
[2017.02.15 16:01:37] [0030m.50s.859ms] [1] CMT: There are [2] clients now: 3135, 3136
[2017.02.15 16:01:38] [0030m.51s.365ms] [0] IT: Session [3145] for host [DESKTOP-TJKR3AR] user [branden.sheffield] with process ID [11020] created
[2017.02.15 16:01:38] [0030m.51s.366ms] [1] SC[3145]: Registered sub-client [JobPrefsDBPI_1727126328] with ID [1] for session ID [3145] host [DESKTOP-TJKR3AR] user [branden.sheffield] process ID [11020]
[2017.02.15 16:01:38] [0030m.51s.400ms] [1] SC[3145]: Registered sub-client [JobPrefsDBPI_1727126406] with ID [2] for session ID [3145] host [DESKTOP-TJKR3AR] user [branden.sheffield] process ID [11020]
[2017.02.15 16:01:38] [0030m.51s.411ms] [1] SC[3145]: UnRegistered sub-client [JobPrefsDBPI_1727126328] with ID [1] for session ID [3145] host [DESKTOP-TJKR3AR] user [branden.sheffield] process ID [11020]
[2017.02.15 16:01:38] [0030m.51s.414ms] [1] SC[3145]: UnRegistered sub-client [JobPrefsDBPI_1727126406] with ID [2] for session ID [3145] host [DESKTOP-TJKR3AR] user [branden.sheffield] process ID [11020]
[2017.02.15 16:01:38] [0030m.51s.462ms] [1] CMT: There are [3] clients now: 3135, 3136, 3145
[2017.02.15 16:01:38] [0030m.51s.462ms] [1] CMT: Removed client [3145]
[2017.02.15 16:01:38] [0030m.51s.462ms] [1] CMT: There are [2] clients now: 3135, 3136
[2017.02.15 16:01:38] [0030m.51s.972ms] [0] IT: Session [3146] for host [DESKTOP-TJKR3AR] user [branden.sheffield] with process ID [11020] created
[2017.02.15 16:01:38] [0030m.51s.973ms] [1] SC[3146]: Registered sub-client [JobPrefsDBPI_1727126937] with ID [1] for session ID [3146] host [DESKTOP-TJKR3AR] user [branden.sheffield] process ID [11020]
[2017.02.15 16:01:39] [0030m.52s.028ms] [1] SC[3146]: Registered sub-client [JobPrefsDBPI_1727127031] with ID [2] for session ID [3146] host [DESKTOP-TJKR3AR] user [branden.sheffield] process ID [11020]
[2017.02.15 16:01:39] [0030m.52s.064ms] [1] CMT: There are [3] clients now: 3135, 3136, 3146
[2017.02.15 16:01:39] [0030m.52s.509ms] [1] SC[3146]: UnRegistered sub-client [JobPrefsDBPI_1727127031] with ID [2] for session ID [3146] host [DESKTOP-TJKR3AR] user [branden.sheffield] process ID [11020]
[2017.02.15 16:01:39] [0030m.52s.512ms] [1] SC[3146]: UnRegistered sub-client [JobPrefsDBPI_1727126937] with ID [1] for session ID [3146] host [DESKTOP-TJKR3AR] user [branden.sheffield] process ID [11020]
[2017.02.15 16:01:39] [0030m.52s.566ms] [1] CMT: Removed client [3146]
[2017.02.15 16:01:39] [0030m.52s.566ms] [1] CMT: There are [2] clients now: 3135, 3136
[2017.02.15 16:01:40] [0030m.53s.012ms] [1] SC[3136]: Registered sub-client [JobPrefsDBPI_1727128015] with ID [18] for session ID [3136] host [DESKTOP-TJKR3AR] user [branden.sheffield] process ID [16296]
[2017.02.15 16:01:40] [0030m.53s.021ms] [1] SC[3136]: UnRegistered sub-client [JobPrefsDBPI_1727128015] with ID [18] for session ID [3136] host [DESKTOP-TJKR3AR] user [branden.sheffield] process ID [16296]
[2017.02.15 16:01:44] [0030m.57s.963ms] [1] SC[3136]: Registered sub-client [JobPrefsDBPI_1727132968] with ID [19] for session ID [3136] host [DESKTOP-TJKR3AR] user [branden.sheffield] process ID [16296]
[2017.02.15 16:01:45] [0030m.58s.977ms] [0] IT: Session [3147] for host [DESKTOP-TJKR3AR] user [branden.sheffield] with process ID [16632] created
[2017.02.15 16:01:45] [0030m.58s.978ms] [1] SC[3147]: Registered sub-client [JobPrefsDBPI_1727133906] with ID [1] for session ID [3147] host [DESKTOP-TJKR3AR] user [branden.sheffield] process ID [16632]
[2017.02.15 16:01:46] [0030m.59s.005ms] [1] SC[3147]: UnRegistered sub-client [JobPrefsDBPI_1727133906] with ID [1] for session ID [3147] host [DESKTOP-TJKR3AR] user [branden.sheffield] process ID [16632]
[2017.02.15 16:01:46] [0030m.59s.019ms] [1] CMT: There are [3] clients now: 3135, 3136, 3147
[2017.02.15 16:01:46] [0030m.59s.019ms] [1] CMT: Removed client [3147]
[2017.02.15 16:01:46] [0030m.59s.019ms] [1] CMT: There are [2] clients now: 3135, 3136
[2017.02.15 16:01:46] [0030m.59s.803ms] [0] IT: Session [3148] for host [DESKTOP-TJKR3AR] user [branden.sheffield] with process ID [16632] created
[2017.02.15 16:01:46] [0030m.59s.803ms] [1] SC[3148]: Registered sub-client [JobPrefsDBPI_1727134765] with ID [1] for session ID [3148] host [DESKTOP-TJKR3AR] user [branden.sheffield] process ID [16632]
[2017.02.15 16:01:46] [0030m.59s.821ms] [1] CMT: There are [3] clients now: 3135, 3136, 3148
[2017.02.15 16:01:46] [0030m.59s.876ms] [1] SC[3148]: UnRegistered sub-client [JobPrefsDBPI_1727134765] with ID [1] for session ID [3148] host [DESKTOP-TJKR3AR] user [branden.sheffield] process ID [16632]
[2017.02.15 16:01:46] [0030m.59s.922ms] [1] CMT: Removed client [3148]
[2017.02.15 16:01:46] [0030m.59s.922ms] [1] CMT: There are [2] clients now: 3135, 3136
[2017.02.15 16:01:49] [0031m.02s.842ms] [1] SC[3136]: Registered sub-client [JobPrefsDBPI_1727137843] with ID [20] for session ID [3136] host [DESKTOP-TJKR3AR] user [branden.sheffield] process ID [16296]
[2017.02.15 16:01:49] [0031m.02s.877ms] [1] SC[3136]: UnRegistered sub-client [JobPrefsDBPI_1727137843] with ID [20] for session ID [3136] host [DESKTOP-TJKR3AR] user [branden.sheffield] process ID [16296]
[2017.02.15 16:01:49] [0031m.02s.905ms] [1] SC[3136]: Registered sub-client [JobPrefsDBPI_1727137906] with ID [21] for session ID [3136] host [DESKTOP-TJKR3AR] user [branden.sheffield] process ID [16296]
[2017.02.15 16:01:49] [0031m.02s.915ms] [1] SC[3136]: UnRegistered sub-client [JobPrefsDBPI_1727137906] with ID [21] for session ID [3136] host [DESKTOP-TJKR3AR] user [branden.sheffield] process ID [16296]
[2017.02.15 16:01:52] [0031m.05s.894ms] [1] SC[3136]: UnRegistered sub-client [JobPrefsDBPI_1727132968] with ID [19] for session ID [3136] host [DESKTOP-TJKR3AR] user [branden.sheffield] process ID [16296]
[2017.02.15 16:03:37] [0032m.50s.833ms] [1] SC[3136]: UnRegistered sub-client [ExpeditionCrossProber] with ID [5] for session ID [3136] host [DESKTOP-TJKR3AR] user [branden.sheffield] process ID [16296]
[2017.02.15 16:03:39] [0032m.52s.447ms] [1] SC[3136]: UnRegistered sub-client [Expedition PE_1725306078] with ID [1] for session ID [3136] host [DESKTOP-TJKR3AR] user [branden.sheffield] process ID [16296]
[2017.02.15 16:03:39] [0032m.52s.538ms] [1] CMT: Removed client [3136]
[2017.02.15 16:03:39] [0032m.52s.538ms] [1] CMT: There are [1] clients now: 3135
[2017.02.15 16:08:28] [0037m.41s.355ms] [1] SC[3135]: UnRegistered sub-client [SystemDesignDll] with ID [11] for session ID [3135] host [DESKTOP-TJKR3AR] user [branden.sheffield] process ID [16596]
[2017.02.15 16:08:28] [0037m.41s.473ms] [1] SC[3135]: UnRegistered sub-client [DesignSearcher2] with ID [12] for session ID [3135] host [DESKTOP-TJKR3AR] user [branden.sheffield] process ID [16596]
[2017.02.15 16:08:28] [0037m.41s.646ms] [1] SC[3135]: UnRegistered sub-client [GlobalNetAliasUpdater_513411480] with ID [35] for session ID [3135] host [DESKTOP-TJKR3AR] user [branden.sheffield] process ID [16596]
[2017.02.15 16:08:28] [0037m.41s.646ms] [1] SC[3135]: UnRegistered sub-client [BlockCacheDxD:548183560] with ID [34] for session ID [3135] host [DESKTOP-TJKR3AR] user [branden.sheffield] process ID [16596]
[2017.02.15 16:08:28] [0037m.41s.647ms] [1] SC[3135]: UnRegistered sub-client [ObjectHolder_513411168] with ID [33] for session ID [3135] host [DESKTOP-TJKR3AR] user [branden.sheffield] process ID [16596]
[2017.02.15 16:08:28] [0037m.41s.647ms] [1] SC[3135]: UnRegistered sub-client [IcdbNetProcessorSubClientDxD:513286512] with ID [36] for session ID [3135] host [DESKTOP-TJKR3AR] user [branden.sheffield] process ID [16596]
[2017.02.15 16:08:28] [0037m.41s.789ms] [1] SC[3135]: UnRegistered sub-client [Navigator] with ID [14] for session ID [3135] host [DESKTOP-TJKR3AR] user [branden.sheffield] process ID [16596]
[2017.02.15 16:08:28] [0037m.41s.810ms] [1] SC[3135]: UnRegistered sub-client [LocalSymbolsDataProvider] with ID [17] for session ID [3135] host [DESKTOP-TJKR3AR] user [branden.sheffield] process ID [16596]
[2017.02.15 16:08:28] [0037m.41s.821ms] [1] SC[3135]: UnRegistered sub-client [FFSearch_Controller_5] with ID [18] for session ID [3135] host [DESKTOP-TJKR3AR] user [branden.sheffield] process ID [16596]
[2017.02.15 16:08:28] [0037m.41s.826ms] [1] SC[3135]: UnRegistered sub-client [FFSearch_Controller_6] with ID [19] for session ID [3135] host [DESKTOP-TJKR3AR] user [branden.sheffield] process ID [16596]
[2017.02.15 16:08:28] [0037m.41s.828ms] [1] SC[3135]: UnRegistered sub-client [FFSearch_Controller_7] with ID [20] for session ID [3135] host [DESKTOP-TJKR3AR] user [branden.sheffield] process ID [16596]
[2017.02.15 16:08:28] [0037m.41s.829ms] [1] SC[3135]: UnRegistered sub-client [FFSearch_Controller_8] with ID [21] for session ID [3135] host [DESKTOP-TJKR3AR] user [branden.sheffield] process ID [16596]
[2017.02.15 16:08:28] [0037m.41s.831ms] [1] SC[3135]: UnRegistered sub-client [FFSearch_Controller_9] with ID [22] for session ID [3135] host [DESKTOP-TJKR3AR] user [branden.sheffield] process ID [16596]
[2017.02.15 16:08:29] [0037m.42s.648ms] [1] SC[3135]: UnRegistered sub-client [MyParts] with ID [26] for session ID [3135] host [DESKTOP-TJKR3AR] user [branden.sheffield] process ID [16596]
[2017.02.15 16:08:29] [0037m.42s.654ms] [1] SC[3135]: UnRegistered sub-client [toolboxes] with ID [28] for session ID [3135] host [DESKTOP-TJKR3AR] user [branden.sheffield] process ID [16596]
[2017.02.15 16:08:32] [0037m.45s.245ms] [1] SC[3135]: UnRegistered sub-client [SelectionHolder] with ID [5] for session ID [3135] host [DESKTOP-TJKR3AR] user [branden.sheffield] process ID [16596]
[2017.02.15 16:08:32] [0037m.45s.245ms] [1] SC[3135]: UnRegistered sub-client [PartReplaceUtils] with ID [32] for session ID [3135] host [DESKTOP-TJKR3AR] user [branden.sheffield] process ID [16596]
[2017.02.15 16:08:32] [0037m.45s.802ms] [1] SC[3135]: UnRegistered sub-client [ProjectIntegrationIcdbCacheDxD:553442088] with ID [29] for session ID [3135] host [DESKTOP-TJKR3AR] user [branden.sheffield] process ID [16596]
[2017.02.15 16:08:32] [0037m.45s.803ms] [1] SC[3135]: UnRegistered sub-client [SheetConnectorsCacheDxD:1487197854] with ID [30] for session ID [3135] host [DESKTOP-TJKR3AR] user [branden.sheffield] process ID [16596]
[2017.02.15 16:08:32] [0037m.45s.803ms] [1] SC[3135]: UnRegistered sub-client [NetsNamesCollectorDxD:1487197854] with ID [31] for session ID [3135] host [DESKTOP-TJKR3AR] user [branden.sheffield] process ID [16596]
[2017.02.15 16:08:32] [0037m.45s.805ms] [1] SC[3135]: UnRegistered sub-client [TransactionRollbackSubClient] with ID [2] for session ID [3135] host [DESKTOP-TJKR3AR] user [branden.sheffield] process ID [16596]
[2017.02.15 16:08:32] [0037m.45s.806ms] [1] SC[3135]: UnRegistered sub-client [DxD] with ID [1] for session ID [3135] host [DESKTOP-TJKR3AR] user [branden.sheffield] process ID [16596]
[2017.02.15 16:08:32] [0037m.45s.829ms] [1] SC[3135]: UnRegistered sub-client [xprob] with ID [3] for session ID [3135] host [DESKTOP-TJKR3AR] user [branden.sheffield] process ID [16596]
[2017.02.15 16:08:32] [0037m.45s.830ms] [1] SC[3135]: UnRegistered sub-client [SymbolEditor] with ID [4] for session ID [3135] host [DESKTOP-TJKR3AR] user [branden.sheffield] process ID [16596]
[2017.02.15 16:08:32] [0037m.45s.844ms] [1] SC[3135]: UnRegistered sub-client [OutputWindow] with ID [15] for session ID [3135] host [DESKTOP-TJKR3AR] user [branden.sheffield] process ID [16596]
[2017.02.15 16:08:32] [0037m.45s.852ms] [1] SC[3135]: UnRegistered sub-client [DxDbSearch] with ID [37] for session ID [3135] host [DESKTOP-TJKR3AR] user [branden.sheffield] process ID [16596]
[2017.02.15 16:08:32] [0037m.45s.913ms] [1] SC[3135]: UnRegistered sub-client [SAE] with ID [23] for session ID [3135] host [DESKTOP-TJKR3AR] user [branden.sheffield] process ID [16596]
[2017.02.15 16:08:32] [0037m.45s.933ms] [1] SC[3135]: UnRegistered sub-client [CCZAddin] with ID [24] for session ID [3135] host [DESKTOP-TJKR3AR] user [branden.sheffield] process ID [16596]
[2017.02.15 16:08:32] [0037m.45s.937ms] [1] SC[3135]: UnRegistered sub-client [DxThumbnails] with ID [25] for session ID [3135] host [DESKTOP-TJKR3AR] user [branden.sheffield] process ID [16596]
[2017.02.15 16:08:36] [0037m.49s.044ms] [1] SC[3135]: UnRegistered sub-client [PinsList] with ID [27] for session ID [3135] host [DESKTOP-TJKR3AR] user [branden.sheffield] process ID [16596]
[2017.02.15 16:08:36] [0037m.49s.133ms] [1] SC[3135]: UnRegistered sub-client [PlaceDevice] with ID [16] for session ID [3135] host [DESKTOP-TJKR3AR] user [branden.sheffield] process ID [16596]
[2017.02.15 16:08:36] [0037m.49s.169ms] [1] SC[3135]: UnRegistered sub-client [HdlProject] with ID [13] for session ID [3135] host [DESKTOP-TJKR3AR] user [branden.sheffield] process ID [16596]
[2017.02.15 16:08:36] [0037m.49s.205ms] [1] CMT: Removed client [3135]
[2017.02.15 16:08:36] [0037m.49s.205ms] [1] CMT: There are no clients left - waiting [1 seconds]
[2017.02.15 16:08:36] [0037m.49s.633ms] [1] SDL: The last connected iCDB Server Monitor [1] is waiting for server close
[2017.02.15 16:08:38] [0037m.51s.016ms] [0] CMT: Starting server auto-close
[2017.02.15 16:08:38] [0037m.51s.069ms] [0] S: Closing server
[2017.02.15 16:08:38] [0037m.51s.132ms] [0] iCDB Server PI: Closing plugins
[2017.02.15 16:08:38] [0037m.51s.136ms] [0] iCDB Server PI: Plugins closed
[2017.02.15 16:08:38] [0037m.51s.136ms] [0] iCDB Server PI: Unloading database
[2017.02.15 16:08:38] [0037m.51s.136ms] [0] iCDB Server PI: Saving storage
[2017.02.15 16:08:38] [0037m.51s.136ms] [0] iCDB Server PI: Closing database
[2017.02.15 16:08:38] [0037m.51s.144ms] [1] iCDB Server PI: Stats: Database defragmentation: max[1] avg[1] holes[0%] data[98%]
[2017.02.15 16:08:38] [0037m.51s.144ms] [1] iCDB Server PI: Stats: Database file size [618200 (603.7 kB)]
[2017.02.15 16:08:38] [0037m.51s.155ms] [0] iCDB Server PI: Database closed
[2017.02.15 16:08:38] [0037m.51s.155ms] [1] iCDB Server PI: Stats: Total iCDB execution time: [67690] ticks
[2017.02.15 16:08:38] [0037m.51s.155ms] [1] iCDB Server PI: Stats: Total iCDB execution time: [24684] microseconds
[2017.02.15 16:08:38] [0037m.51s.155ms] [1] iCDB Server PI: Stats: Total iCDB commands count: [194]
[2017.02.15 16:08:38] [0037m.51s.155ms] [1] iCDB Server PI: Stats: Average iCDB speed:        [7859] commands per second
[2017.02.15 16:08:38] [0037m.51s.164ms] [0] Single file [C:\pd_repo\pd\_CITADEL\Mentor\Citadel_Right\database\icdb.dat] closed with size [618200 (603.7 kB)]
[2017.02.15 16:08:38] [0037m.51s.193ms] [1] SD[1]: Removing the last connected iCDB Server Monitor [1]
[2017.02.15 16:08:38] [0037m.51s.297ms] [0] MWT: Destroy the shutdown block reason.
[2017.02.15 16:08:38] [0037m.51s.299ms] [0] MWT: STOP
[2017.02.15 16:08:38] [0037m.51s.299ms] [0] S: STOP
