[2016.11.09 17:09:00] [0000m.00s.500ms] [0] WELCOME
[2016.11.09 17:09:00] [0000m.00s.500ms] [1] iCDB Diagnostic ver.2.200, jmoSXI5tfcQi0m1NxN3JKg, build:5060443 created 2016-08-17 14:30:24, sources stamp:jmoSXI5tfcQi0m1NxN3JKg
[2016.11.09 17:09:00] [0000m.00s.500ms] [1] Copyright 2016 Mentor Graphics Corporation.  All Rights Reserved.
[2016.11.09 17:09:00] [0000m.00s.500ms] [1] Base flow version [VX.2]
[2016.11.09 17:09:00] [0000m.00s.500ms] [1] Install Id [1409847], Flow Id [PADS Professional VX.2], Full Flow Name [PADS Professional VX.2], Exact Access Date [2016/05/01]
[2016.11.09 17:09:00] [0000m.00s.500ms] [1] Machine [DESKTOP-TJKR3AR]  User [branden.sheffield]  PID [5692]
[2016.11.09 17:09:00] [0000m.00s.500ms] [1] Operating system [Microsoft Enterprise Edition, 64-bit (build 9200)]
[2016.11.09 17:09:00] [0000m.00s.500ms] [1] Current working dir [C:\pd_repo\pd\_CITADEL\Mentor\Citadel]
[2016.11.09 17:09:00] [0000m.00s.500ms] [1] PATH [C:\MentorGraphics\PADSProVX.2\SDD_HOME\common\win32\bin;C:\MentorGraphics\PADSProVX.2\SDD_HOME\common\win32\lib;C:\MentorGraphics\PADSProVX.2\MGC_HOME.ixn\bin;C:\MentorGraphics\PADSProVX.2\MGC_HOME.ixn\lib;C:\MentorGraphics\PADSProVX.2\SDD_HOME\wv\win32\bin;C:\Program Files (x86)\CSR\BlueSuite 2.5.8\DFU Tools;C:\Program Files (x86)\NVIDIA Corporation\PhysX\Common;C:\ProgramData\Oracle\Java\javapath;C:\WINDOWS\system32;C:\WINDOWS;C:\WINDOWS\System32\Wbem;C:\WINDOWS\System32\WindowsPowerShell\v1.0\;C:\Program Files (x86)\Skype\Phone\;C:\Program Files (x86)\Windows Kits\8.1\Windows Performance Toolkit\;C:\Program Files\TortoiseSVN\bin;C:\Users\branden.sheffield\AppData\Local\Microsoft\WindowsApps;]
[2016.11.09 17:09:00] [0000m.00s.500ms] [1] SDD_HOME [C:\MentorGraphics\PADSProVX.2\SDD_HOME] on file system [NTFS]
[2016.11.09 17:09:00] [0000m.00s.500ms] [1] SDD_PLATFORM [win32]
[2016.11.09 17:09:00] [0000m.00s.500ms] [1] WDIR [C:\WDIR\PADSProVX.2;C:\MentorGraphics\PADSProVX.2\SDD_HOME\standard;]
[2016.11.09 17:09:00] [0000m.00s.500ms] [1] Local iCDB working dir [C:\WDIR\PADSProVX.2\iCDB] on file system [NTFS]
[2016.11.09 17:09:00] [0000m.00s.726ms] [2] Diagnostic: Checking snapshot [1:DxD] integrity
[2016.11.09 17:09:00] [0000m.00s.726ms] [2] Diagnostic: SnapshotCheck: CDBImplBlock
[2016.11.09 17:09:00] [0000m.00s.726ms] [2] Diagnostic: SnapshotCheck: CDBImplComp
[2016.11.09 17:09:00] [0000m.00s.726ms] [2] Diagnostic: SnapshotCheck: DxDCompView (cached)
[2016.11.09 17:09:00] [0000m.00s.726ms] [2] Diagnostic: DxDCheck: LineDxD
[2016.11.09 17:09:00] [0000m.00s.726ms] [2] Diagnostic: DxDCheck: CircleDxD
[2016.11.09 17:09:00] [0000m.00s.726ms] [2] Diagnostic: DxDCheck: ArcDxD
[2016.11.09 17:09:00] [0000m.00s.726ms] [1] Diagnostic: Warning: {[ArcDxD] [4] } --> UID does not exist
[2016.11.09 17:09:00] [0000m.00s.726ms] [2] Diagnostic: DxDCheck: RectDxD
[2016.11.09 17:09:00] [0000m.00s.726ms] [2] Diagnostic: DxDCheck: TextDxD
[2016.11.09 17:09:00] [0000m.00s.726ms] [2] Diagnostic: SnapshotCheck: CDBImplGroup
[2016.11.09 17:09:00] [0000m.00s.726ms] [2] Diagnostic: SnapshotCheck: CDBImplPin (regular)
[2016.11.09 17:09:00] [0000m.00s.726ms] [2] Diagnostic: SnapshotCheck: AttributesUtility (regular)
[2016.11.09 17:09:00] [0000m.00s.726ms] [2] Diagnostic: SnapshotCheck: CDBImplPin (cached)
[2016.11.09 17:09:00] [0000m.00s.726ms] [2] Diagnostic: SnapshotCheck: AttributesUtility (cached)
[2016.11.09 17:09:00] [0000m.00s.726ms] [2] Diagnostic: Block: Schematic1
[2016.11.09 17:09:00] [0000m.00s.726ms] [2] Diagnostic: BlockCheck: CDBImplNet
[2016.11.09 17:09:00] [0000m.00s.726ms] [2] Diagnostic: BlockCheck: CDBImplBus
[2016.11.09 17:09:00] [0000m.00s.742ms] [2] Diagnostic: BlockCheck: CDBImplPin
[2016.11.09 17:09:00] [0000m.00s.743ms] [2] Diagnostic: BlockCheck: CDBImplPort
[2016.11.09 17:09:00] [0000m.00s.743ms] [2] Diagnostic: BlockCheck: CDBImplComp
[2016.11.09 17:09:00] [0000m.00s.744ms] [2] Diagnostic: BlockCheck: AttributesUtility
[2016.11.09 17:09:00] [0000m.00s.744ms] [2] Diagnostic: BlockCheck: CDBImplBlockViewDxD
[2016.11.09 17:09:00] [0000m.00s.746ms] [2] Diagnostic: BlockViewDxDCheck: CDBImplNetDxD
[2016.11.09 17:09:00] [0000m.00s.746ms] [2] Diagnostic: BlockViewDxDCheck: CDBImplRipperDxD
[2016.11.09 17:09:00] [0000m.00s.747ms] [2] Diagnostic: CesConfigCheck: CesConstraint
[2016.11.09 17:09:00] [0000m.00s.753ms] [2] Diagnostic: CesConfigCheck: CesPin
[2016.11.09 17:09:00] [0000m.00s.753ms] [2] Diagnostic: CesConfigCheck: CesFromTo
[2016.11.09 17:09:00] [0000m.00s.753ms] [2] Diagnostic: CesConfigCheck: CesPhysicalNet
[2016.11.09 17:09:00] [0000m.00s.753ms] [2] Diagnostic: CesConfigCheck: CesPinPair
[2016.11.09 17:09:00] [0000m.00s.753ms] [2] Diagnostic: CesConfigCheck: CesElectricalNet
[2016.11.09 17:09:00] [0000m.00s.753ms] [2] Diagnostic: CesConfigCheck: CesDiffPair
[2016.11.09 17:09:00] [0000m.00s.753ms] [2] Diagnostic: CesConfigCheck: CesComponent
[2016.11.09 17:09:00] [0000m.00s.753ms] [2] Diagnostic: CesConfigCheck: CesPartPin
[2016.11.09 17:09:00] [0000m.00s.753ms] [2] Diagnostic: CesConfigCheck: CesPartPinPair
[2016.11.09 17:09:00] [0000m.00s.753ms] [2] Diagnostic: CesConfigCheck: CesPart
[2016.11.09 17:09:00] [0000m.00s.753ms] [2] Diagnostic: CesConfigCheck: CesDesign
[2016.11.09 17:09:00] [0000m.00s.753ms] [2] Diagnostic: CesConfigCheck: CesLayerClearRule
[2016.11.09 17:09:00] [0000m.00s.753ms] [2] Diagnostic: CesConfigCheck: CesSchemeClearRule
[2016.11.09 17:09:00] [0000m.00s.753ms] [2] Diagnostic: CesConfigCheck: CesViaAssign
[2016.11.09 17:09:00] [0000m.00s.753ms] [2] Diagnostic: CesConfigCheck: CesLayerRule
[2016.11.09 17:09:00] [0000m.00s.753ms] [2] Diagnostic: CesConfigCheck: CesSchemeNetClassRule
[2016.11.09 17:09:00] [0000m.00s.753ms] [2] Diagnostic: CesConfigCheck: CesScheme
[2016.11.09 17:09:00] [0000m.00s.753ms] [2] Diagnostic: CesConfigCheck: CesLayer
[2016.11.09 17:09:00] [0000m.00s.753ms] [2] Diagnostic: CesConfigCheck: CesNetClass
[2016.11.09 17:09:00] [0000m.00s.753ms] [2] Diagnostic: CesConfigCheck: CesClearRule
[2016.11.09 17:09:00] [0000m.00s.753ms] [2] Diagnostic: CesConfigCheck: CesConstraintClass
[2016.11.09 17:09:00] [0000m.00s.753ms] [2] Diagnostic: CesConfigCheck: CesViaSpan
[2016.11.09 17:09:00] [0000m.00s.753ms] [2] Diagnostic: CesConfigCheck: CesGenClear
[2016.11.09 17:09:00] [0000m.00s.753ms] [2] Diagnostic: CesConfigCheck: CesPartTech
[2016.11.09 17:09:00] [0000m.00s.753ms] [2] Diagnostic: CesConfigCheck: CesConstVar
[2016.11.09 17:09:00] [0000m.00s.753ms] [2] Diagnostic: CesConfigCheck: CesC2CClearRule
[2016.11.09 17:09:00] [0000m.00s.753ms] [2] Diagnostic: CesConfigCheck: CesPkgTypeClearRule
[2016.11.09 17:09:00] [0000m.00s.753ms] [2] Diagnostic: CesConfigCheck: CesP2PClearRule
[2016.11.09 17:09:00] [0000m.00s.753ms] [2] Diagnostic: CesConfigCheck: CesParRuleSection
[2016.11.09 17:09:00] [0000m.00s.753ms] [2] Diagnostic: CesConfigCheck: CesParRuleDef
[2016.11.09 17:09:00] [0000m.00s.753ms] [2] Diagnostic: CesConfigCheck: CesNoiseRule
[2016.11.09 17:09:00] [0000m.00s.753ms] [2] Diagnostic: CesConfigCheck: CesGenObj
[2016.11.09 17:09:00] [0000m.00s.753ms] [2] Diagnostic: CesConfigCheck: CesGenCompObj
[2016.11.09 17:09:00] [0000m.00s.753ms] [2] Diagnostic: CesConfigCheck: CesGenObjType
[2016.11.09 17:09:00] [0000m.00s.753ms] [2] Diagnostic: CesConfigCheck: CesVia
[2016.11.09 17:09:00] [0000m.00s.753ms] [2] Diagnostic: CesConfigCheck: CesZAxisLayerRule
[2016.11.09 17:09:00] [0000m.00s.753ms] [2] Diagnostic: CesConfigCheck: CesZAxisClearRule
[2016.11.09 17:09:00] [0000m.00s.753ms] [2] Diagnostic: ConfigCheck: CDBImplComp
[2016.11.09 17:09:00] [0000m.00s.753ms] [2] Diagnostic: ConfigCheck: CDBImplNet
[2016.11.09 17:09:00] [0000m.00s.753ms] [2] Diagnostic: ConfigCheck: CDBImplPin
[2016.11.09 17:09:00] [0000m.00s.753ms] [1] Diagnostic: Snapshot [1:DxD] integrity check FAILED
[2016.11.09 17:09:00] [0000m.00s.769ms] [2] Diagnostic: Checking snapshot [2:__ise_DxD] integrity
[2016.11.09 17:09:00] [0000m.00s.769ms] [2] Diagnostic: SnapshotCheck: CDBImplBlock
[2016.11.09 17:09:00] [0000m.00s.769ms] [2] Diagnostic: SnapshotCheck: CDBImplComp
[2016.11.09 17:09:00] [0000m.00s.769ms] [2] Diagnostic: SnapshotCheck: CDBImplGroup
[2016.11.09 17:09:00] [0000m.00s.769ms] [2] Diagnostic: SnapshotCheck: CDBImplPin (regular)
[2016.11.09 17:09:00] [0000m.00s.769ms] [2] Diagnostic: SnapshotCheck: AttributesUtility (regular)
[2016.11.09 17:09:00] [0000m.00s.769ms] [2] Diagnostic: SnapshotCheck: CDBImplPin (cached)
[2016.11.09 17:09:00] [0000m.00s.769ms] [2] Diagnostic: SnapshotCheck: AttributesUtility (cached)
[2016.11.09 17:09:00] [0000m.00s.769ms] [2] Diagnostic: Snapshot [2:__ise_DxD] integrity check PASSED in [369us]
[2016.11.09 17:09:00] [0000m.00s.769ms] [2] Diagnostic: Checking snapshot [3:xIOPT] integrity
[2016.11.09 17:09:00] [0000m.00s.769ms] [2] Diagnostic: SnapshotCheck: CDBImplBlock
[2016.11.09 17:09:00] [0000m.00s.769ms] [2] Diagnostic: SnapshotCheck: CDBImplComp
[2016.11.09 17:09:00] [0000m.00s.769ms] [2] Diagnostic: SnapshotCheck: CDBImplGroup
[2016.11.09 17:09:00] [0000m.00s.769ms] [2] Diagnostic: SnapshotCheck: CDBImplPin (regular)
[2016.11.09 17:09:00] [0000m.00s.769ms] [2] Diagnostic: SnapshotCheck: AttributesUtility (regular)
[2016.11.09 17:09:00] [0000m.00s.769ms] [2] Diagnostic: SnapshotCheck: CDBImplPin (cached)
[2016.11.09 17:09:00] [0000m.00s.769ms] [2] Diagnostic: SnapshotCheck: AttributesUtility (cached)
[2016.11.09 17:09:00] [0000m.00s.769ms] [2] Diagnostic: Snapshot [3:xIOPT] integrity check PASSED in [307us]
[2016.11.09 17:09:00] [0000m.00s.853ms] [2] Diagnostic: Checking snapshot [4:Main_layout_temp] integrity
[2016.11.09 17:09:00] [0000m.00s.853ms] [2] Diagnostic: SnapshotCheck: CDBImplBlock
[2016.11.09 17:09:00] [0000m.00s.853ms] [2] Diagnostic: SnapshotCheck: CDBImplComp
[2016.11.09 17:09:00] [0000m.00s.853ms] [2] Diagnostic: SnapshotCheck: DxDCompView (cached)
[2016.11.09 17:09:00] [0000m.00s.853ms] [2] Diagnostic: DxDCheck: LineDxD
[2016.11.09 17:09:00] [0000m.00s.853ms] [2] Diagnostic: DxDCheck: CircleDxD
[2016.11.09 17:09:00] [0000m.00s.853ms] [2] Diagnostic: DxDCheck: ArcDxD
[2016.11.09 17:09:00] [0000m.00s.853ms] [2] Diagnostic: DxDCheck: RectDxD
[2016.11.09 17:09:00] [0000m.00s.853ms] [2] Diagnostic: DxDCheck: TextDxD
[2016.11.09 17:09:00] [0000m.00s.853ms] [2] Diagnostic: SnapshotCheck: CDBImplGroup
[2016.11.09 17:09:00] [0000m.00s.853ms] [2] Diagnostic: SnapshotCheck: CDBImplPin (regular)
[2016.11.09 17:09:00] [0000m.00s.853ms] [2] Diagnostic: SnapshotCheck: AttributesUtility (regular)
[2016.11.09 17:09:00] [0000m.00s.853ms] [2] Diagnostic: SnapshotCheck: CDBImplPin (cached)
[2016.11.09 17:09:00] [0000m.00s.853ms] [2] Diagnostic: SnapshotCheck: AttributesUtility (cached)
[2016.11.09 17:09:00] [0000m.00s.853ms] [2] Diagnostic: Block: Schematic1
[2016.11.09 17:09:00] [0000m.00s.853ms] [2] Diagnostic: BlockCheck: CDBImplNet
[2016.11.09 17:09:00] [0000m.00s.853ms] [2] Diagnostic: BlockCheck: CDBImplBus
[2016.11.09 17:09:00] [0000m.00s.853ms] [2] Diagnostic: BlockCheck: CDBImplPin
[2016.11.09 17:09:00] [0000m.00s.853ms] [2] Diagnostic: BlockCheck: CDBImplPort
[2016.11.09 17:09:00] [0000m.00s.853ms] [2] Diagnostic: BlockCheck: CDBImplComp
[2016.11.09 17:09:00] [0000m.00s.853ms] [2] Diagnostic: BlockCheck: AttributesUtility
[2016.11.09 17:09:00] [0000m.00s.853ms] [2] Diagnostic: CesConfigCheck: CesConstraint
[2016.11.09 17:09:00] [0000m.00s.853ms] [2] Diagnostic: CesConfigCheck: CesPin
[2016.11.09 17:09:00] [0000m.00s.853ms] [2] Diagnostic: CesConfigCheck: CesFromTo
[2016.11.09 17:09:00] [0000m.00s.853ms] [2] Diagnostic: CesConfigCheck: CesPhysicalNet
[2016.11.09 17:09:00] [0000m.00s.853ms] [2] Diagnostic: CesConfigCheck: CesPinPair
[2016.11.09 17:09:00] [0000m.00s.853ms] [2] Diagnostic: CesConfigCheck: CesElectricalNet
[2016.11.09 17:09:00] [0000m.00s.853ms] [2] Diagnostic: CesConfigCheck: CesDiffPair
[2016.11.09 17:09:00] [0000m.00s.853ms] [2] Diagnostic: CesConfigCheck: CesComponent
[2016.11.09 17:09:00] [0000m.00s.853ms] [2] Diagnostic: CesConfigCheck: CesPartPin
[2016.11.09 17:09:00] [0000m.00s.853ms] [2] Diagnostic: CesConfigCheck: CesPartPinPair
[2016.11.09 17:09:00] [0000m.00s.853ms] [2] Diagnostic: CesConfigCheck: CesPart
[2016.11.09 17:09:00] [0000m.00s.853ms] [2] Diagnostic: CesConfigCheck: CesDesign
[2016.11.09 17:09:00] [0000m.00s.853ms] [2] Diagnostic: CesConfigCheck: CesLayerClearRule
[2016.11.09 17:09:00] [0000m.00s.853ms] [2] Diagnostic: CesConfigCheck: CesSchemeClearRule
[2016.11.09 17:09:00] [0000m.00s.853ms] [2] Diagnostic: CesConfigCheck: CesViaAssign
[2016.11.09 17:09:00] [0000m.00s.853ms] [2] Diagnostic: CesConfigCheck: CesLayerRule
[2016.11.09 17:09:00] [0000m.00s.853ms] [2] Diagnostic: CesConfigCheck: CesSchemeNetClassRule
[2016.11.09 17:09:00] [0000m.00s.853ms] [2] Diagnostic: CesConfigCheck: CesScheme
[2016.11.09 17:09:00] [0000m.00s.853ms] [2] Diagnostic: CesConfigCheck: CesLayer
[2016.11.09 17:09:00] [0000m.00s.853ms] [2] Diagnostic: CesConfigCheck: CesNetClass
[2016.11.09 17:09:00] [0000m.00s.853ms] [2] Diagnostic: CesConfigCheck: CesClearRule
[2016.11.09 17:09:00] [0000m.00s.853ms] [2] Diagnostic: CesConfigCheck: CesConstraintClass
[2016.11.09 17:09:00] [0000m.00s.853ms] [2] Diagnostic: CesConfigCheck: CesViaSpan
[2016.11.09 17:09:00] [0000m.00s.853ms] [2] Diagnostic: CesConfigCheck: CesGenClear
[2016.11.09 17:09:00] [0000m.00s.853ms] [2] Diagnostic: CesConfigCheck: CesPartTech
[2016.11.09 17:09:00] [0000m.00s.853ms] [2] Diagnostic: CesConfigCheck: CesConstVar
[2016.11.09 17:09:00] [0000m.00s.853ms] [2] Diagnostic: CesConfigCheck: CesC2CClearRule
[2016.11.09 17:09:00] [0000m.00s.853ms] [2] Diagnostic: CesConfigCheck: CesPkgTypeClearRule
[2016.11.09 17:09:00] [0000m.00s.853ms] [2] Diagnostic: CesConfigCheck: CesP2PClearRule
[2016.11.09 17:09:00] [0000m.00s.853ms] [2] Diagnostic: CesConfigCheck: CesParRuleSection
[2016.11.09 17:09:00] [0000m.00s.853ms] [2] Diagnostic: CesConfigCheck: CesParRuleDef
[2016.11.09 17:09:00] [0000m.00s.853ms] [2] Diagnostic: CesConfigCheck: CesNoiseRule
[2016.11.09 17:09:00] [0000m.00s.853ms] [2] Diagnostic: CesConfigCheck: CesGenObj
[2016.11.09 17:09:00] [0000m.00s.853ms] [2] Diagnostic: CesConfigCheck: CesGenCompObj
[2016.11.09 17:09:00] [0000m.00s.853ms] [2] Diagnostic: CesConfigCheck: CesGenObjType
[2016.11.09 17:09:00] [0000m.00s.853ms] [2] Diagnostic: CesConfigCheck: CesVia
[2016.11.09 17:09:00] [0000m.00s.853ms] [2] Diagnostic: CesConfigCheck: CesZAxisLayerRule
[2016.11.09 17:09:00] [0000m.00s.853ms] [2] Diagnostic: CesConfigCheck: CesZAxisClearRule
[2016.11.09 17:09:00] [0000m.00s.853ms] [2] Diagnostic: ConfigCheck: CDBImplComp
[2016.11.09 17:09:00] [0000m.00s.853ms] [2] Diagnostic: ConfigCheck: CDBImplNet
[2016.11.09 17:09:00] [0000m.00s.853ms] [2] Diagnostic: ConfigCheck: CDBImplPin
[2016.11.09 17:09:00] [0000m.00s.853ms] [2] Diagnostic: Snapshot [4:Main_layout_temp] integrity check PASSED in [4ms 875us]
[2016.11.09 17:09:00] [0000m.00s.954ms] [2] Diagnostic: Checking snapshot [5:Main] integrity
[2016.11.09 17:09:00] [0000m.00s.954ms] [2] Diagnostic: SnapshotCheck: CDBImplBlock
[2016.11.09 17:09:00] [0000m.00s.954ms] [2] Diagnostic: SnapshotCheck: CDBImplComp
[2016.11.09 17:09:00] [0000m.00s.954ms] [2] Diagnostic: SnapshotCheck: DxDCompView (cached)
[2016.11.09 17:09:00] [0000m.00s.954ms] [2] Diagnostic: DxDCheck: LineDxD
[2016.11.09 17:09:00] [0000m.00s.954ms] [2] Diagnostic: DxDCheck: CircleDxD
[2016.11.09 17:09:00] [0000m.00s.954ms] [2] Diagnostic: DxDCheck: ArcDxD
[2016.11.09 17:09:00] [0000m.00s.954ms] [2] Diagnostic: DxDCheck: RectDxD
[2016.11.09 17:09:00] [0000m.00s.954ms] [2] Diagnostic: DxDCheck: TextDxD
[2016.11.09 17:09:00] [0000m.00s.954ms] [2] Diagnostic: SnapshotCheck: CDBImplGroup
[2016.11.09 17:09:00] [0000m.00s.954ms] [2] Diagnostic: SnapshotCheck: CDBImplPin (regular)
[2016.11.09 17:09:00] [0000m.00s.954ms] [2] Diagnostic: SnapshotCheck: AttributesUtility (regular)
[2016.11.09 17:09:00] [0000m.00s.954ms] [2] Diagnostic: SnapshotCheck: CDBImplPin (cached)
[2016.11.09 17:09:00] [0000m.00s.954ms] [2] Diagnostic: SnapshotCheck: AttributesUtility (cached)
[2016.11.09 17:09:00] [0000m.00s.954ms] [2] Diagnostic: Block: Schematic1
[2016.11.09 17:09:00] [0000m.00s.954ms] [2] Diagnostic: BlockCheck: CDBImplNet
[2016.11.09 17:09:00] [0000m.00s.954ms] [2] Diagnostic: BlockCheck: CDBImplBus
[2016.11.09 17:09:00] [0000m.00s.954ms] [2] Diagnostic: BlockCheck: CDBImplPin
[2016.11.09 17:09:00] [0000m.00s.954ms] [2] Diagnostic: BlockCheck: CDBImplPort
[2016.11.09 17:09:00] [0000m.00s.954ms] [2] Diagnostic: BlockCheck: CDBImplComp
[2016.11.09 17:09:00] [0000m.00s.954ms] [2] Diagnostic: BlockCheck: AttributesUtility
[2016.11.09 17:09:00] [0000m.00s.954ms] [2] Diagnostic: CesConfigCheck: CesConstraint
[2016.11.09 17:09:00] [0000m.00s.954ms] [2] Diagnostic: CesConfigCheck: CesPin
[2016.11.09 17:09:00] [0000m.00s.954ms] [2] Diagnostic: CesConfigCheck: CesFromTo
[2016.11.09 17:09:00] [0000m.00s.954ms] [2] Diagnostic: CesConfigCheck: CesPhysicalNet
[2016.11.09 17:09:00] [0000m.00s.954ms] [2] Diagnostic: CesConfigCheck: CesPinPair
[2016.11.09 17:09:00] [0000m.00s.954ms] [2] Diagnostic: CesConfigCheck: CesElectricalNet
[2016.11.09 17:09:00] [0000m.00s.954ms] [2] Diagnostic: CesConfigCheck: CesDiffPair
[2016.11.09 17:09:00] [0000m.00s.954ms] [2] Diagnostic: CesConfigCheck: CesComponent
[2016.11.09 17:09:00] [0000m.00s.954ms] [2] Diagnostic: CesConfigCheck: CesPartPin
[2016.11.09 17:09:00] [0000m.00s.954ms] [2] Diagnostic: CesConfigCheck: CesPartPinPair
[2016.11.09 17:09:00] [0000m.00s.954ms] [2] Diagnostic: CesConfigCheck: CesPart
[2016.11.09 17:09:00] [0000m.00s.954ms] [2] Diagnostic: CesConfigCheck: CesDesign
[2016.11.09 17:09:00] [0000m.00s.954ms] [2] Diagnostic: CesConfigCheck: CesLayerClearRule
[2016.11.09 17:09:00] [0000m.00s.954ms] [2] Diagnostic: CesConfigCheck: CesSchemeClearRule
[2016.11.09 17:09:00] [0000m.00s.954ms] [2] Diagnostic: CesConfigCheck: CesViaAssign
[2016.11.09 17:09:00] [0000m.00s.954ms] [2] Diagnostic: CesConfigCheck: CesLayerRule
[2016.11.09 17:09:00] [0000m.00s.954ms] [2] Diagnostic: CesConfigCheck: CesSchemeNetClassRule
[2016.11.09 17:09:00] [0000m.00s.954ms] [2] Diagnostic: CesConfigCheck: CesScheme
[2016.11.09 17:09:00] [0000m.00s.954ms] [2] Diagnostic: CesConfigCheck: CesLayer
[2016.11.09 17:09:00] [0000m.00s.954ms] [2] Diagnostic: CesConfigCheck: CesNetClass
[2016.11.09 17:09:00] [0000m.00s.954ms] [2] Diagnostic: CesConfigCheck: CesClearRule
[2016.11.09 17:09:00] [0000m.00s.954ms] [2] Diagnostic: CesConfigCheck: CesConstraintClass
[2016.11.09 17:09:00] [0000m.00s.954ms] [2] Diagnostic: CesConfigCheck: CesViaSpan
[2016.11.09 17:09:00] [0000m.00s.954ms] [2] Diagnostic: CesConfigCheck: CesGenClear
[2016.11.09 17:09:00] [0000m.00s.954ms] [2] Diagnostic: CesConfigCheck: CesPartTech
[2016.11.09 17:09:00] [0000m.00s.954ms] [2] Diagnostic: CesConfigCheck: CesConstVar
[2016.11.09 17:09:00] [0000m.00s.954ms] [2] Diagnostic: CesConfigCheck: CesC2CClearRule
[2016.11.09 17:09:00] [0000m.00s.954ms] [2] Diagnostic: CesConfigCheck: CesPkgTypeClearRule
[2016.11.09 17:09:00] [0000m.00s.954ms] [2] Diagnostic: CesConfigCheck: CesP2PClearRule
[2016.11.09 17:09:00] [0000m.00s.954ms] [2] Diagnostic: CesConfigCheck: CesParRuleSection
[2016.11.09 17:09:00] [0000m.00s.954ms] [2] Diagnostic: CesConfigCheck: CesParRuleDef
[2016.11.09 17:09:00] [0000m.00s.954ms] [2] Diagnostic: CesConfigCheck: CesNoiseRule
[2016.11.09 17:09:00] [0000m.00s.954ms] [2] Diagnostic: CesConfigCheck: CesGenObj
[2016.11.09 17:09:00] [0000m.00s.954ms] [2] Diagnostic: CesConfigCheck: CesGenCompObj
[2016.11.09 17:09:00] [0000m.00s.954ms] [2] Diagnostic: CesConfigCheck: CesGenObjType
[2016.11.09 17:09:00] [0000m.00s.954ms] [2] Diagnostic: CesConfigCheck: CesVia
[2016.11.09 17:09:00] [0000m.00s.954ms] [2] Diagnostic: CesConfigCheck: CesZAxisLayerRule
[2016.11.09 17:09:00] [0000m.00s.954ms] [2] Diagnostic: CesConfigCheck: CesZAxisClearRule
[2016.11.09 17:09:00] [0000m.00s.954ms] [2] Diagnostic: ConfigCheck: CDBImplComp
[2016.11.09 17:09:00] [0000m.00s.954ms] [2] Diagnostic: ConfigCheck: CDBImplNet
[2016.11.09 17:09:00] [0000m.00s.954ms] [2] Diagnostic: ConfigCheck: CDBImplPin
[2016.11.09 17:09:00] [0000m.00s.954ms] [2] Diagnostic: Snapshot [5:Main] integrity check PASSED in [4ms 673us]
[2016.11.09 17:09:00] [0000m.01s.054ms] [2] Diagnostic: Checking snapshot [6:Main_RefSync] integrity
[2016.11.09 17:09:00] [0000m.01s.054ms] [2] Diagnostic: SnapshotCheck: CDBImplBlock
[2016.11.09 17:09:00] [0000m.01s.054ms] [2] Diagnostic: SnapshotCheck: CDBImplComp
[2016.11.09 17:09:00] [0000m.01s.054ms] [2] Diagnostic: SnapshotCheck: DxDCompView (cached)
[2016.11.09 17:09:00] [0000m.01s.054ms] [2] Diagnostic: DxDCheck: LineDxD
[2016.11.09 17:09:00] [0000m.01s.054ms] [2] Diagnostic: DxDCheck: CircleDxD
[2016.11.09 17:09:00] [0000m.01s.054ms] [2] Diagnostic: DxDCheck: ArcDxD
[2016.11.09 17:09:00] [0000m.01s.054ms] [1] Diagnostic: Warning: {[ArcDxD] [4] } --> UID does not exist
[2016.11.09 17:09:00] [0000m.01s.054ms] [2] Diagnostic: DxDCheck: RectDxD
[2016.11.09 17:09:00] [0000m.01s.054ms] [2] Diagnostic: DxDCheck: TextDxD
[2016.11.09 17:09:00] [0000m.01s.054ms] [2] Diagnostic: SnapshotCheck: CDBImplGroup
[2016.11.09 17:09:00] [0000m.01s.054ms] [2] Diagnostic: SnapshotCheck: CDBImplPin (regular)
[2016.11.09 17:09:00] [0000m.01s.054ms] [2] Diagnostic: SnapshotCheck: AttributesUtility (regular)
[2016.11.09 17:09:00] [0000m.01s.054ms] [2] Diagnostic: SnapshotCheck: CDBImplPin (cached)
[2016.11.09 17:09:00] [0000m.01s.054ms] [2] Diagnostic: SnapshotCheck: AttributesUtility (cached)
[2016.11.09 17:09:00] [0000m.01s.054ms] [2] Diagnostic: Block: Schematic1
[2016.11.09 17:09:00] [0000m.01s.054ms] [2] Diagnostic: BlockCheck: CDBImplNet
[2016.11.09 17:09:00] [0000m.01s.054ms] [2] Diagnostic: BlockCheck: CDBImplBus
[2016.11.09 17:09:00] [0000m.01s.054ms] [2] Diagnostic: BlockCheck: CDBImplPin
[2016.11.09 17:09:00] [0000m.01s.054ms] [2] Diagnostic: BlockCheck: CDBImplPort
[2016.11.09 17:09:00] [0000m.01s.054ms] [2] Diagnostic: BlockCheck: CDBImplComp
[2016.11.09 17:09:00] [0000m.01s.054ms] [2] Diagnostic: BlockCheck: AttributesUtility
[2016.11.09 17:09:00] [0000m.01s.054ms] [2] Diagnostic: BlockCheck: CDBImplBlockViewDxD
[2016.11.09 17:09:00] [0000m.01s.054ms] [2] Diagnostic: BlockViewDxDCheck: CDBImplNetDxD
[2016.11.09 17:09:00] [0000m.01s.054ms] [2] Diagnostic: BlockViewDxDCheck: CDBImplRipperDxD
[2016.11.09 17:09:00] [0000m.01s.054ms] [2] Diagnostic: CesConfigCheck: CesConstraint
[2016.11.09 17:09:00] [0000m.01s.054ms] [2] Diagnostic: CesConfigCheck: CesPin
[2016.11.09 17:09:00] [0000m.01s.054ms] [2] Diagnostic: CesConfigCheck: CesFromTo
[2016.11.09 17:09:00] [0000m.01s.054ms] [2] Diagnostic: CesConfigCheck: CesPhysicalNet
[2016.11.09 17:09:00] [0000m.01s.054ms] [2] Diagnostic: CesConfigCheck: CesPinPair
[2016.11.09 17:09:00] [0000m.01s.054ms] [2] Diagnostic: CesConfigCheck: CesElectricalNet
[2016.11.09 17:09:00] [0000m.01s.054ms] [2] Diagnostic: CesConfigCheck: CesDiffPair
[2016.11.09 17:09:00] [0000m.01s.054ms] [2] Diagnostic: CesConfigCheck: CesComponent
[2016.11.09 17:09:00] [0000m.01s.054ms] [2] Diagnostic: CesConfigCheck: CesPartPin
[2016.11.09 17:09:00] [0000m.01s.054ms] [2] Diagnostic: CesConfigCheck: CesPartPinPair
[2016.11.09 17:09:00] [0000m.01s.054ms] [2] Diagnostic: CesConfigCheck: CesPart
[2016.11.09 17:09:00] [0000m.01s.054ms] [2] Diagnostic: CesConfigCheck: CesDesign
[2016.11.09 17:09:00] [0000m.01s.054ms] [2] Diagnostic: CesConfigCheck: CesLayerClearRule
[2016.11.09 17:09:00] [0000m.01s.054ms] [2] Diagnostic: CesConfigCheck: CesSchemeClearRule
[2016.11.09 17:09:00] [0000m.01s.054ms] [2] Diagnostic: CesConfigCheck: CesViaAssign
[2016.11.09 17:09:00] [0000m.01s.054ms] [2] Diagnostic: CesConfigCheck: CesLayerRule
[2016.11.09 17:09:00] [0000m.01s.054ms] [2] Diagnostic: CesConfigCheck: CesSchemeNetClassRule
[2016.11.09 17:09:00] [0000m.01s.054ms] [2] Diagnostic: CesConfigCheck: CesScheme
[2016.11.09 17:09:00] [0000m.01s.054ms] [2] Diagnostic: CesConfigCheck: CesLayer
[2016.11.09 17:09:00] [0000m.01s.054ms] [2] Diagnostic: CesConfigCheck: CesNetClass
[2016.11.09 17:09:00] [0000m.01s.054ms] [2] Diagnostic: CesConfigCheck: CesClearRule
[2016.11.09 17:09:00] [0000m.01s.054ms] [2] Diagnostic: CesConfigCheck: CesConstraintClass
[2016.11.09 17:09:00] [0000m.01s.054ms] [2] Diagnostic: CesConfigCheck: CesViaSpan
[2016.11.09 17:09:00] [0000m.01s.054ms] [2] Diagnostic: CesConfigCheck: CesGenClear
[2016.11.09 17:09:00] [0000m.01s.054ms] [2] Diagnostic: CesConfigCheck: CesPartTech
[2016.11.09 17:09:00] [0000m.01s.054ms] [2] Diagnostic: CesConfigCheck: CesConstVar
[2016.11.09 17:09:00] [0000m.01s.054ms] [2] Diagnostic: CesConfigCheck: CesC2CClearRule
[2016.11.09 17:09:00] [0000m.01s.054ms] [2] Diagnostic: CesConfigCheck: CesPkgTypeClearRule
[2016.11.09 17:09:00] [0000m.01s.054ms] [2] Diagnostic: CesConfigCheck: CesP2PClearRule
[2016.11.09 17:09:00] [0000m.01s.054ms] [2] Diagnostic: CesConfigCheck: CesParRuleSection
[2016.11.09 17:09:00] [0000m.01s.054ms] [2] Diagnostic: CesConfigCheck: CesParRuleDef
[2016.11.09 17:09:00] [0000m.01s.054ms] [2] Diagnostic: CesConfigCheck: CesNoiseRule
[2016.11.09 17:09:00] [0000m.01s.054ms] [2] Diagnostic: CesConfigCheck: CesGenObj
[2016.11.09 17:09:00] [0000m.01s.054ms] [2] Diagnostic: CesConfigCheck: CesGenCompObj
[2016.11.09 17:09:00] [0000m.01s.054ms] [2] Diagnostic: CesConfigCheck: CesGenObjType
[2016.11.09 17:09:00] [0000m.01s.054ms] [2] Diagnostic: CesConfigCheck: CesVia
[2016.11.09 17:09:00] [0000m.01s.054ms] [2] Diagnostic: CesConfigCheck: CesZAxisLayerRule
[2016.11.09 17:09:00] [0000m.01s.054ms] [2] Diagnostic: CesConfigCheck: CesZAxisClearRule
[2016.11.09 17:09:00] [0000m.01s.054ms] [2] Diagnostic: ConfigCheck: CDBImplComp
[2016.11.09 17:09:00] [0000m.01s.054ms] [2] Diagnostic: ConfigCheck: CDBImplNet
[2016.11.09 17:09:00] [0000m.01s.054ms] [2] Diagnostic: ConfigCheck: CDBImplPin
[2016.11.09 17:09:00] [0000m.01s.054ms] [1] Diagnostic: Snapshot [6:Main_RefSync] integrity check FAILED
[2016.11.09 17:09:00] [0000m.01s.154ms] [2] Diagnostic: Checking snapshot [7:Main_LDDTemp] integrity
[2016.11.09 17:09:00] [0000m.01s.154ms] [2] Diagnostic: SnapshotCheck: CDBImplBlock
[2016.11.09 17:09:00] [0000m.01s.154ms] [2] Diagnostic: SnapshotCheck: CDBImplComp
[2016.11.09 17:09:00] [0000m.01s.154ms] [2] Diagnostic: SnapshotCheck: DxDCompView (cached)
[2016.11.09 17:09:00] [0000m.01s.154ms] [2] Diagnostic: DxDCheck: LineDxD
[2016.11.09 17:09:00] [0000m.01s.154ms] [2] Diagnostic: DxDCheck: CircleDxD
[2016.11.09 17:09:00] [0000m.01s.154ms] [2] Diagnostic: DxDCheck: ArcDxD
[2016.11.09 17:09:00] [0000m.01s.154ms] [1] Diagnostic: Warning: {[ArcDxD] [4] } --> UID does not exist
[2016.11.09 17:09:00] [0000m.01s.154ms] [2] Diagnostic: DxDCheck: RectDxD
[2016.11.09 17:09:00] [0000m.01s.154ms] [2] Diagnostic: DxDCheck: TextDxD
[2016.11.09 17:09:00] [0000m.01s.154ms] [2] Diagnostic: SnapshotCheck: CDBImplGroup
[2016.11.09 17:09:00] [0000m.01s.154ms] [2] Diagnostic: SnapshotCheck: CDBImplPin (regular)
[2016.11.09 17:09:00] [0000m.01s.154ms] [2] Diagnostic: SnapshotCheck: AttributesUtility (regular)
[2016.11.09 17:09:00] [0000m.01s.154ms] [2] Diagnostic: SnapshotCheck: CDBImplPin (cached)
[2016.11.09 17:09:00] [0000m.01s.154ms] [2] Diagnostic: SnapshotCheck: AttributesUtility (cached)
[2016.11.09 17:09:00] [0000m.01s.154ms] [2] Diagnostic: Block: Schematic1
[2016.11.09 17:09:00] [0000m.01s.154ms] [2] Diagnostic: BlockCheck: CDBImplNet
[2016.11.09 17:09:00] [0000m.01s.154ms] [2] Diagnostic: BlockCheck: CDBImplBus
[2016.11.09 17:09:00] [0000m.01s.154ms] [2] Diagnostic: BlockCheck: CDBImplPin
[2016.11.09 17:09:00] [0000m.01s.154ms] [2] Diagnostic: BlockCheck: CDBImplPort
[2016.11.09 17:09:00] [0000m.01s.154ms] [2] Diagnostic: BlockCheck: CDBImplComp
[2016.11.09 17:09:00] [0000m.01s.154ms] [2] Diagnostic: BlockCheck: AttributesUtility
[2016.11.09 17:09:00] [0000m.01s.154ms] [2] Diagnostic: BlockCheck: CDBImplBlockViewDxD
[2016.11.09 17:09:00] [0000m.01s.154ms] [2] Diagnostic: BlockViewDxDCheck: CDBImplNetDxD
[2016.11.09 17:09:00] [0000m.01s.154ms] [2] Diagnostic: BlockViewDxDCheck: CDBImplRipperDxD
[2016.11.09 17:09:00] [0000m.01s.154ms] [2] Diagnostic: CesConfigCheck: CesConstraint
[2016.11.09 17:09:00] [0000m.01s.154ms] [2] Diagnostic: CesConfigCheck: CesPin
[2016.11.09 17:09:00] [0000m.01s.154ms] [2] Diagnostic: CesConfigCheck: CesFromTo
[2016.11.09 17:09:00] [0000m.01s.154ms] [2] Diagnostic: CesConfigCheck: CesPhysicalNet
[2016.11.09 17:09:00] [0000m.01s.154ms] [2] Diagnostic: CesConfigCheck: CesPinPair
[2016.11.09 17:09:00] [0000m.01s.154ms] [2] Diagnostic: CesConfigCheck: CesElectricalNet
[2016.11.09 17:09:00] [0000m.01s.154ms] [2] Diagnostic: CesConfigCheck: CesDiffPair
[2016.11.09 17:09:00] [0000m.01s.154ms] [2] Diagnostic: CesConfigCheck: CesComponent
[2016.11.09 17:09:00] [0000m.01s.154ms] [2] Diagnostic: CesConfigCheck: CesPartPin
[2016.11.09 17:09:00] [0000m.01s.154ms] [2] Diagnostic: CesConfigCheck: CesPartPinPair
[2016.11.09 17:09:00] [0000m.01s.154ms] [2] Diagnostic: CesConfigCheck: CesPart
[2016.11.09 17:09:00] [0000m.01s.154ms] [2] Diagnostic: CesConfigCheck: CesDesign
[2016.11.09 17:09:00] [0000m.01s.154ms] [2] Diagnostic: CesConfigCheck: CesLayerClearRule
[2016.11.09 17:09:00] [0000m.01s.154ms] [2] Diagnostic: CesConfigCheck: CesSchemeClearRule
[2016.11.09 17:09:00] [0000m.01s.154ms] [2] Diagnostic: CesConfigCheck: CesViaAssign
[2016.11.09 17:09:00] [0000m.01s.154ms] [2] Diagnostic: CesConfigCheck: CesLayerRule
[2016.11.09 17:09:00] [0000m.01s.154ms] [2] Diagnostic: CesConfigCheck: CesSchemeNetClassRule
[2016.11.09 17:09:00] [0000m.01s.154ms] [2] Diagnostic: CesConfigCheck: CesScheme
[2016.11.09 17:09:00] [0000m.01s.154ms] [2] Diagnostic: CesConfigCheck: CesLayer
[2016.11.09 17:09:00] [0000m.01s.154ms] [2] Diagnostic: CesConfigCheck: CesNetClass
[2016.11.09 17:09:00] [0000m.01s.154ms] [2] Diagnostic: CesConfigCheck: CesClearRule
[2016.11.09 17:09:00] [0000m.01s.154ms] [2] Diagnostic: CesConfigCheck: CesConstraintClass
[2016.11.09 17:09:00] [0000m.01s.154ms] [2] Diagnostic: CesConfigCheck: CesViaSpan
[2016.11.09 17:09:00] [0000m.01s.154ms] [2] Diagnostic: CesConfigCheck: CesGenClear
[2016.11.09 17:09:00] [0000m.01s.154ms] [2] Diagnostic: CesConfigCheck: CesPartTech
[2016.11.09 17:09:00] [0000m.01s.154ms] [2] Diagnostic: CesConfigCheck: CesConstVar
[2016.11.09 17:09:00] [0000m.01s.154ms] [2] Diagnostic: CesConfigCheck: CesC2CClearRule
[2016.11.09 17:09:00] [0000m.01s.154ms] [2] Diagnostic: CesConfigCheck: CesPkgTypeClearRule
[2016.11.09 17:09:00] [0000m.01s.154ms] [2] Diagnostic: CesConfigCheck: CesP2PClearRule
[2016.11.09 17:09:00] [0000m.01s.154ms] [2] Diagnostic: CesConfigCheck: CesParRuleSection
[2016.11.09 17:09:00] [0000m.01s.154ms] [2] Diagnostic: CesConfigCheck: CesParRuleDef
[2016.11.09 17:09:00] [0000m.01s.154ms] [2] Diagnostic: CesConfigCheck: CesNoiseRule
[2016.11.09 17:09:00] [0000m.01s.154ms] [2] Diagnostic: CesConfigCheck: CesGenObj
[2016.11.09 17:09:00] [0000m.01s.154ms] [2] Diagnostic: CesConfigCheck: CesGenCompObj
[2016.11.09 17:09:00] [0000m.01s.154ms] [2] Diagnostic: CesConfigCheck: CesGenObjType
[2016.11.09 17:09:00] [0000m.01s.154ms] [2] Diagnostic: CesConfigCheck: CesVia
[2016.11.09 17:09:00] [0000m.01s.154ms] [2] Diagnostic: CesConfigCheck: CesZAxisLayerRule
[2016.11.09 17:09:00] [0000m.01s.154ms] [2] Diagnostic: CesConfigCheck: CesZAxisClearRule
[2016.11.09 17:09:00] [0000m.01s.154ms] [2] Diagnostic: ConfigCheck: CDBImplComp
[2016.11.09 17:09:00] [0000m.01s.154ms] [2] Diagnostic: ConfigCheck: CDBImplNet
[2016.11.09 17:09:00] [0000m.01s.154ms] [2] Diagnostic: ConfigCheck: CDBImplPin
[2016.11.09 17:09:00] [0000m.01s.154ms] [1] Diagnostic: Snapshot [7:Main_LDDTemp] integrity check FAILED
[2016.11.09 17:09:00] [0000m.01s.170ms] [0] Diagnostic: FINISH
[2016.11.09 17:09:00] [0000m.01s.170ms] [0] .
