--------------------------------------------------------------------------------
 Project integration - START (2016-10-13 14:06:10) 
--------------------------------------------------------------------------------
FE snapshot name: DxD
BE snapshot name: Main_layout_temp
Top level block: (2-1-5)
Parameters: FAConnectivity,FAConstraints,FEWin,
--------------------------------------------------------------------------------
[OK] - Full snapshot copy 20.00 [ms]
--------------------------------------------------------------------------------
 Project integration - END (2016-10-13 14:06:10) 
--------------------------------------------------------------------------------
