[2016.12.09 01:50:00] [0000m.00s.039ms] [0] WELCOME
[2016.12.09 01:50:00] [0000m.00s.039ms] [1] iCDB Server ver.2.200, jmoSXI5tfcQi0m1NxN3JKg, build:5060443 created 2016-08-17 14:30:24, sources stamp:jmoSXI5tfcQi0m1NxN3JKg
[2016.12.09 01:50:00] [0000m.00s.039ms] [1] Copyright 2016 Mentor Graphics Corporation.  All Rights Reserved.
[2016.12.09 01:50:00] [0000m.00s.039ms] [1] Base flow version [VX.2]
[2016.12.09 01:50:00] [0000m.00s.039ms] [1] Install Id [1409847], Flow Id [PADS Professional VX.2], Full Flow Name [PADS Professional VX.2], Exact Access Date [2016/05/01]
[2016.12.09 01:50:00] [0000m.00s.040ms] [1] Machine [DESKTOP-TJKR3AR]  User [branden.sheffield]  PID [21020]
[2016.12.09 01:50:00] [0000m.00s.040ms] [1] Operating system [Microsoft Enterprise Edition, 64-bit (build 9200)]
[2016.12.09 01:50:00] [0000m.00s.040ms] [1] Current working dir [C:\pd_repo\pd\_CITADEL\Mentor\Citadel\PCB]
[2016.12.09 01:50:00] [0000m.00s.040ms] [1] PATH [C:\MentorGraphics\PADSProVX.2\SDD_HOME\common\win32\bin;C:\MentorGraphics\PADSProVX.2\SDD_HOME\common\win32\lib;C:\MentorGraphics\PADSProVX.2\MGC_HOME.ixn\bin;C:\MentorGraphics\PADSProVX.2\MGC_HOME.ixn\lib;C:\MentorGraphics\PADSProVX.2\SDD_HOME\wg\win32\lib;C:\MentorGraphics\PADSProVX.2\SDD_HOME\common\win32\bin;C:\MentorGraphics\PADSProVX.2\SDD_HOME\common\win32\lib;C:\MentorGraphics\PADSProVX.2\MGC_HOME.ixn\bin;C:\MentorGraphics\PADSProVX.2\MGC_HOME.ixn\lib;C:\MentorGraphics\PADSProVX.2\SDD_HOME\wv\win32\bin;C:\Program Files (x86)\CSR\BlueSuite 2.5.8\DFU Tools;C:\Program Files (x86)\NVIDIA Corporation\PhysX\Common;C:\ProgramData\Oracle\Java\javapath;C:\WINDOWS\system32;C:\WINDOWS;C:\WINDOWS\System32\Wbem;C:\WINDOWS\System32\WindowsPowerShell\v1.0\;C:\Program Files (x86)\Skype\Phone\;C:\Program Files (x86)\Windows Kits\8.1\Windows Performance Toolkit\;C:\Program Files\TortoiseSVN\bin;C:\Users\branden.sheffield\AppData\Local\Microsoft\WindowsApps;C:\MentorGraphics\PADSProVX.2\SDD_HOME\common\win32\lib;C:\MentorGraphics\PADSProVX.2\SDD_HOME\common\win32\bin;C:\MentorGraphics\PADSProVX.2\SDD_HOME\layout3d\win32\lib]
[2016.12.09 01:50:00] [0000m.00s.040ms] [1] SDD_HOME [C:\MentorGraphics\PADSProVX.2\SDD_HOME] on file system [NTFS]
[2016.12.09 01:50:00] [0000m.00s.040ms] [1] SDD_PLATFORM [win32]
[2016.12.09 01:50:00] [0000m.00s.040ms] [1] WDIR [C:\WDIR\PADSProVX.2;C:\MentorGraphics\PADSProVX.2\SDD_HOME\standard;]
[2016.12.09 01:50:00] [0000m.00s.040ms] [1] Local iCDB working dir [C:\WDIR\PADSProVX.2\iCDB] on file system [NTFS]
[2016.12.09 01:50:00] [0000m.00s.040ms] [2] S: Loading config files
[2016.12.09 01:50:00] [0000m.00s.048ms] [1] Config file [C:\pd_repo\pd\_CITADEL\Mentor\Citadel\database\cdbsvr\Server.cfg] not found
[2016.12.09 01:50:00] [0000m.00s.050ms] [3] S: Config loaded
[2016.12.09 01:50:00] [0000m.00s.057ms] [0] S: Project path [C:\pd_repo\pd\_CITADEL\Mentor\Citadel\database] on file system [NTFS]
[2016.12.09 01:50:00] [0000m.00s.058ms] [0] S: Project file (.prj) path [C:\pd_repo\pd\_CITADEL\Mentor\Citadel\Citadel.prj] on file system [NTFS]
[2016.12.09 01:50:00] [0000m.00s.058ms] [1] S: WARNING: Database auto-repair support DISABLED
[2016.12.09 01:50:00] [0000m.00s.058ms] [0] S: Multi-user mode (config)
[2016.12.09 01:50:00] [0000m.00s.058ms] [0] S: Event polling mode autodetection
[2016.12.09 01:50:00] [0000m.00s.066ms] [0] S: Started up automatically by iCDB Client: DESKTOP-TJKR3AR:branden.sheffield:11568
[2016.12.09 01:50:00] [0000m.00s.066ms] [0] S: Auto close mode
[2016.12.09 01:50:00] [0000m.00s.066ms] [0] S: Database ID [3edb-f997-378d-3d57-11a5-2286-1a52-2850-5ff3-9382-b182-04a8]
[2016.12.09 01:50:00] [0000m.00s.066ms] [0] PathTranslator: BEGIN dumping
[2016.12.09 01:50:00] [0000m.00s.066ms] [0] PathTranslator: Local -> global path prefix list
[2016.12.09 01:50:00] [0000m.00s.066ms] [0] PathTranslator: [R:\] -> [\\underground.skullcandy.com@SSL\DavWWWRoot\departments\pd\ACE\]
[2016.12.09 01:50:00] [0000m.00s.066ms] [0] PathTranslator: [X:\] -> [\\underground.skullcandy.com@SSL\DavWWWRoot\departments\pd\PD Projects\]
[2016.12.09 01:50:00] [0000m.00s.066ms] [0] PathTranslator: [Z:\] -> [\\izombie\shares\pd\]
[2016.12.09 01:50:00] [0000m.00s.066ms] [0] PathTranslator: Global -> local path prefix list
[2016.12.09 01:50:00] [0000m.00s.066ms] [0] PathTranslator: [\\underground.skullcandy.com@SSL\DavWWWRoot\departments\pd\PD Projects\] -> [X:\]
[2016.12.09 01:50:00] [0000m.00s.066ms] [0] PathTranslator: [\\underground.skullcandy.com@SSL\DavWWWRoot\departments\pd\ACE\] -> [R:\]
[2016.12.09 01:50:00] [0000m.00s.066ms] [0] PathTranslator: [\\izombie\shares\pd\] -> [Z:\]
[2016.12.09 01:50:00] [0000m.00s.066ms] [0] PathTranslator: END dumping
[2016.12.09 01:50:00] [0000m.00s.066ms] [0] S: START
[2016.12.09 01:50:00] [0000m.00s.066ms] [0] S: Server startup lock file created
[2016.12.09 01:50:00] [0000m.00s.067ms] [0] S: Listening for client connections on port [10001]
[2016.12.09 01:50:00] [0000m.00s.068ms] [0] S: Server network ID [DESKTOP-TJKR3AR:192.168.11.103,192.168.5.107,DESKTOP-TJKR3AR,DESKTOP-TJKR3AR.skullcandy.local:10001]
[2016.12.09 01:50:00] [0000m.00s.068ms] [0] S: Server GUID [77d5-56ff-3f05-bcfb-8307-a48d-307a-4850-e20e-9998-18e5-348b]
[2016.12.09 01:50:00] [0000m.00s.068ms] [0] S: Project GUID [3edb-f997-378d-3d57-11a5-2286-1a52-2850-5ff3-9382-b182-04a8]
[2016.12.09 01:50:00] [0000m.00s.073ms] [0] S: Wrote data to server address file
[2016.12.09 01:50:00] [0000m.00s.073ms] [0] S: Server startup lock file removed
[2016.12.09 01:50:00] [0000m.00s.073ms] [1] ProjectBackupManager: Setting project file (.prj) path: [C:\pd_repo\pd\_CITADEL\Mentor\Citadel\Citadel.prj]
[2016.12.09 01:50:00] [0000m.00s.148ms] [0] S: Plugins loaded: [PIM] [ENetGen70] 
[2016.12.09 01:50:00] [0000m.00s.148ms] [0] S: Local disc access time: 30 us
[2016.12.09 01:50:00] [0000m.00s.148ms] [0] S: File server access time: 32 us
[2016.12.09 01:50:00] [0000m.00s.148ms] [0] Single file [C:\pd_repo\pd\_CITADEL\Mentor\Citadel\database\icdb.dat] size [1054160 (1.0 MB)]
[2016.12.09 01:50:00] [0000m.00s.149ms] [1] Single file [C:\pd_repo\pd\_CITADEL\Mentor\Citadel\database\icdb.dat] opened in read-write mode
[2016.12.09 01:50:00] [0000m.00s.149ms] [0] SingleFile: [0000-0000-0000-0000] SFI header version check [1009] [1009]
[2016.12.09 01:50:00] [0000m.00s.149ms] [0] Database GUARD OK: [1054160]
[2016.12.09 01:50:00] [0000m.00s.149ms] [0] SingleFile: [0000-0000-0000-0000] SFI header version check [1009] [1009]
[2016.12.09 01:50:00] [0000m.00s.149ms] [0] Database GUARD OK: [1054160]
[2016.12.09 01:50:00] [0000m.00s.150ms] [0] SingleFile: [0000-0000-0000-0000] SFI header version check [1009] [1009]
[2016.12.09 01:50:00] [0000m.00s.150ms] [0] Database GUARD OK: [1054160]
[2016.12.09 01:50:00] [0000m.00s.150ms] [0] SingleFile: [0000-0000-0000-0000] SFI header version check [1009] [1009]
[2016.12.09 01:50:00] [0000m.00s.150ms] [0] Database GUARD OK: [1054160]
[2016.12.09 01:50:00] [0000m.00s.150ms] [0] SingleFile: [0000-0000-0000-0000] SFI header version check [1009] [1009]
[2016.12.09 01:50:00] [0000m.00s.150ms] [0] Database GUARD OK: [1054160]
[2016.12.09 01:50:00] [0000m.00s.150ms] [0] SingleFile: [9e75-bf90-0362-6950] SFI version check [1009] [1009]
[2016.12.09 01:50:00] [0000m.00s.158ms] [0] SingleFile: [9e75-bf90-0362-6950] Database SFI header has been read in [8ms 97us]
[2016.12.09 01:50:00] [0000m.00s.165ms] [0] iCDB Server PI: Server & plugin session [2986]
[2016.12.09 01:50:00] [0000m.00s.165ms] [0] iCDB Server PI: Opening database [C:\pd_repo\pd\_CITADEL\Mentor\Citadel\database]
[2016.12.09 01:50:00] [0000m.00s.165ms] [0] iCDB Server PI: Database [C:\pd_repo\pd\_CITADEL\Mentor\Citadel\database] opened
[2016.12.09 01:50:00] [0000m.00s.176ms] [0] iCDB Database: Checking existence of constraint definitions
[2016.12.09 01:50:00] [0000m.00s.176ms] [0] iCDB Database: Checking constraint definitions version
[2016.12.09 01:50:00] [0000m.00s.200ms] [1] iCDB Database: Constraint definitions version [ce_ee.cns=7.10.56] up to date
[2016.12.09 01:50:00] [0000m.00s.215ms] [0] iCDB Server PI: Initializing plugins
[2016.12.09 01:50:00] [0000m.00s.215ms] [0] iCDB Server PI: Plugins initialized
[2016.12.09 01:50:00] [0000m.00s.215ms] [0] S: iCDB database loaded
[2016.12.09 01:50:00] [0000m.00s.215ms] [0] S: Starting threads
[2016.12.09 01:50:00] [0000m.00s.215ms] [0] BT: Listening for broadcast messages on port [10000]
[2016.12.09 01:50:00] [0000m.00s.215ms] [1] CMT: There are no clients - waiting [10 seconds]
[2016.12.09 01:50:00] [0000m.00s.215ms] [0] IT: Session [2987] for host [DESKTOP-TJKR3AR] user [branden.sheffield] with process ID [11568] created
[2016.12.09 01:50:00] [0000m.00s.215ms] [1] SC[2987]: Registered sub-client [Expedition PE_1788511937] with ID [1] for session ID [2987] host [DESKTOP-TJKR3AR] user [branden.sheffield] process ID [11568]
[2016.12.09 01:50:00] [0000m.00s.215ms] [0] MWT: WindowProc: WM_NCCREATE
[2016.12.09 01:50:00] [0000m.00s.234ms] [0] IT: iCDB Server Monitor session [1] for host [DESKTOP-TJKR3AR] user [branden.sheffield] with process ID [6668] created
[2016.12.09 01:50:00] [0000m.00s.235ms] [1] DMT: There are [1] iCDB Server Monitor connected now
[2016.12.09 01:50:00] [0000m.00s.321ms] [1] CMT: There are [1] clients now: 2987
[2016.12.09 01:50:00] [0000m.00s.447ms] [1] SC[2987]: Registered sub-client [ExpeditionCrossProber] with ID [2] for session ID [2987] host [DESKTOP-TJKR3AR] user [branden.sheffield] process ID [11568]
[2016.12.09 01:50:30] [0000m.29s.638ms] [0] DFAMT: File server access time: 147 us
[2016.12.09 01:50:58] [0000m.58s.011ms] [1] SC[2987]: Registered sub-client [EEVM_EEVM_1696440] with ID [3] for session ID [2987] host [DESKTOP-TJKR3AR] user [branden.sheffield] process ID [11568]
[2016.12.09 01:50:58] [0000m.58s.011ms] [1] SC[2987]: UnRegistered sub-client [EEVM_EEVM_1696440] with ID [3] for session ID [2987] host [DESKTOP-TJKR3AR] user [branden.sheffield] process ID [11568]
[2016.12.09 01:50:58] [0000m.58s.339ms] [0] IT: Session [2988] for host [DESKTOP-TJKR3AR] user [branden.sheffield] with process ID [16704] created
[2016.12.09 01:50:58] [0000m.58s.340ms] [1] SC[2988]: Registered sub-client [Expedition_1788570234] with ID [1] for session ID [2988] host [DESKTOP-TJKR3AR] user [branden.sheffield] process ID [16704]
[2016.12.09 01:50:58] [0000m.58s.346ms] [1] CMT: There are [2] clients now: 2987, 2988
[2016.12.09 01:50:58] [0000m.58s.568ms] [1] SC[2988]: UnRegistered sub-client [Expedition_1788570234] with ID [1] for session ID [2988] host [DESKTOP-TJKR3AR] user [branden.sheffield] process ID [16704]
[2016.12.09 01:50:59] [0000m.58s.648ms] [1] CMT: Removed client [2988]
[2016.12.09 01:50:59] [0000m.58s.648ms] [1] CMT: There are [1] clients now: 2987
[2016.12.09 02:10:03] [0020m.03s.573ms] [1] SC[2987]: UnRegistered sub-client [ExpeditionCrossProber] with ID [2] for session ID [2987] host [DESKTOP-TJKR3AR] user [branden.sheffield] process ID [11568]
[2016.12.09 02:10:10] [0020m.10s.329ms] [1] SC[2987]: UnRegistered sub-client [Expedition PE_1788511937] with ID [1] for session ID [2987] host [DESKTOP-TJKR3AR] user [branden.sheffield] process ID [11568]
[2016.12.09 02:10:10] [0020m.10s.416ms] [1] CMT: Removed client [2987]
[2016.12.09 02:10:10] [0020m.10s.416ms] [1] CMT: There are no clients left - waiting [1 seconds]
[2016.12.09 02:10:10] [0020m.10s.487ms] [1] SDL: The last connected iCDB Server Monitor [1] is waiting for server close
[2016.12.09 02:10:12] [0020m.11s.668ms] [0] CMT: Starting server auto-close
[2016.12.09 02:10:12] [0020m.11s.762ms] [0] S: Closing server
[2016.12.09 02:10:12] [0020m.11s.880ms] [0] iCDB Server PI: Closing plugins
[2016.12.09 02:10:12] [0020m.11s.880ms] [0] iCDB Server PI: Plugins closed
[2016.12.09 02:10:12] [0020m.11s.880ms] [0] iCDB Server PI: Unloading database
[2016.12.09 02:10:12] [0020m.11s.880ms] [0] iCDB Server PI: Saving storage
[2016.12.09 02:10:12] [0020m.11s.880ms] [0] iCDB Server PI: Closing database
[2016.12.09 02:10:12] [0020m.11s.885ms] [1] iCDB Server PI: Stats: Database defragmentation: max[3] avg[1] holes[2%] data[98%]
[2016.12.09 02:10:12] [0020m.11s.885ms] [1] iCDB Server PI: Stats: Database file size [1058528 (1.0 MB)]
[2016.12.09 02:10:12] [0020m.11s.889ms] [0] iCDB Server PI: Database closed
[2016.12.09 02:10:12] [0020m.11s.889ms] [1] iCDB Server PI: Stats: Total iCDB execution time: [47883] ticks
[2016.12.09 02:10:12] [0020m.11s.889ms] [1] iCDB Server PI: Stats: Total iCDB execution time: [17461] microseconds
[2016.12.09 02:10:12] [0020m.11s.889ms] [1] iCDB Server PI: Stats: Total iCDB commands count: [19]
[2016.12.09 02:10:12] [0020m.11s.889ms] [1] iCDB Server PI: Stats: Average iCDB speed:        [1088] commands per second
[2016.12.09 02:10:12] [0020m.11s.893ms] [0] Single file [C:\pd_repo\pd\_CITADEL\Mentor\Citadel\database\icdb.dat] closed with size [1058528 (1.0 MB)]
[2016.12.09 02:10:12] [0020m.11s.963ms] [1] SD[1]: Removing the last connected iCDB Server Monitor [1]
[2016.12.09 02:10:12] [0020m.12s.159ms] [0] MWT: Destroy the shutdown block reason.
[2016.12.09 02:10:12] [0020m.12s.160ms] [0] MWT: STOP
[2016.12.09 02:10:12] [0020m.12s.161ms] [0] S: STOP
