=======================================================================
PADS Professional Layout - Version 2015.0.678.963
=======================================================================

RELOAD CELLS

Job Directory:  C:\Users\branden.sheffield\Documents\RedPeril\Mentor\RedPeril\PCB\


Design Units:(mm)

Replace Cell Log:   repCellLog60.txt

Thu Oct 13 14:27:27 2016

Reference Designator            Cell Name                         New Cell Name
===============================================================================


---------------  RELOAD CELLS  Thu Oct 13 14:27:27 2016  ---------------




---------------    Thu Oct 13 14:27:27 2016  ---------------




---------------    Thu Oct 13 14:28:18 2016  ---------------




---------------    Thu Oct 13 14:28:24 2016  ---------------


