=======================================================================
PADS Professional Layout - Version 2015.0.678.963
=======================================================================

RELOAD CELLS

Job Directory:  C:\Users\branden.sheffield\Documents\Crusher3.0\Mentor\CrusherMain\PCB\


Design Units:(mm)

Replace Cell Log:   repCellLog42.txt

Mon Apr 04 10:13:53 2016

Reference Designator            Cell Name                         New Cell Name
===============================================================================


---------------  RELOAD CELLS  Mon Apr 04 10:13:53 2016  ---------------




---------------  RELOAD CELLS TMP  Mon Apr 04 10:13:53 2016  ---------------


U5                              MAX98303                          MAX98303                        
U8                              W25Q16DW_BY                       W25Q16DW_BY                     


---------------    Mon Apr 04 10:13:53 2016  ---------------




---------------    Mon Apr 04 10:13:53 2016  ---------------




---------------  RELOAD CELLS  Mon Apr 04 10:14:37 2016  ---------------




---------------    Mon Apr 04 10:14:37 2016  ---------------




---------------  RELOAD CELLS  Mon Apr 04 10:28:36 2016  ---------------




---------------    Mon Apr 04 10:28:36 2016  ---------------




---------------  RELOAD CELLS  Mon Apr 04 10:38:26 2016  ---------------




---------------  RELOAD CELLS TMP  Mon Apr 04 10:38:26 2016  ---------------




---------------    Mon Apr 04 10:38:26 2016  ---------------


CONN1                           PJ-3674AD                         PJ-3674AD                       


---------------    Mon Apr 04 10:38:26 2016  ---------------




---------------    Mon Apr 04 10:38:26 2016  ---------------


