=======================================================================
PADS Professional Layout - Version 116.0.506.1217
=======================================================================

RELOAD CELLS

Job Directory:  C:\pd_repo\pd\_CITADEL\Mentor\Citadel\PCB\


Design Units:(mm)

Replace Cell Log:   repCellLog73.txt

Thu Dec 08 11:14:28 2016

Reference Designator            Cell Name                         New Cell Name
===============================================================================


---------------  RELOAD CELLS  Thu Dec 08 11:14:28 2016  ---------------




---------------    Thu Dec 08 11:14:28 2016  ---------------


