=======================================================================
PADS Professional Layout - Version 2015.0.678.963
=======================================================================

RELOAD CELLS

Job Directory:  C:\Users\branden.sheffield\Documents\Crusher3.0\Mentor\CrusherMain\PCB\


Design Units:(mm)

Replace Cell Log:   repCellLog48.txt

Wed May 25 02:08:22 2016

Reference Designator            Cell Name                         New Cell Name
===============================================================================


---------------  RELOAD CELLS  Wed May 25 02:08:22 2016  ---------------




---------------    Wed May 25 02:08:22 2016  ---------------


