=======================================================================
PADS Professional Layout - Version 2015.0.678.963
=======================================================================

RELOAD CELLS

Job Directory:  C:\Users\branden.sheffield\Documents\Crusher3.0\Mentor\CrusherMain\PCB\


Design Units:(mm)

Replace Cell Log:   repCellLog26.txt

Wed Jan 27 14:03:12 2016

Reference Designator            Cell Name                         New Cell Name
===============================================================================


---------------  RELOAD CELLS  Wed Jan 27 14:03:12 2016  ---------------




---------------    Wed Jan 27 14:03:12 2016  ---------------




---------------    Wed Jan 27 14:03:35 2016  ---------------




---------------    Wed Jan 27 14:04:23 2016  ---------------




---------------    Wed Jan 27 14:04:45 2016  ---------------




---------------    Wed Jan 27 14:04:51 2016  ---------------




---------------    Wed Jan 27 14:05:03 2016  ---------------




---------------    Wed Jan 27 14:05:12 2016  ---------------




---------------    Wed Jan 27 14:05:18 2016  ---------------




---------------    Wed Jan 27 14:05:25 2016  ---------------




---------------    Wed Jan 27 14:05:31 2016  ---------------




---------------    Wed Jan 27 14:05:37 2016  ---------------




---------------    Wed Jan 27 14:05:44 2016  ---------------




---------------  RELOAD CELLS  Wed Jan 27 14:36:38 2016  ---------------




---------------  RELOAD CELLS TMP  Wed Jan 27 14:36:38 2016  ---------------


CONN1                           USB_micro_UR1-069AB50-NAZP        USB_micro_UR1-069AB50-NAZP      


---------------    Wed Jan 27 14:36:39 2016  ---------------




---------------    Wed Jan 27 14:36:39 2016  ---------------




---------------  RELOAD CELLS  Wed Jan 27 15:57:34 2016  ---------------




---------------  RELOAD CELLS TMP  Wed Jan 27 15:57:34 2016  ---------------




---------------    Wed Jan 27 15:57:34 2016  ---------------


CONN2                           CUI_3_5mm_SJ3506                  CUI_3_5mm_SJ3506                


---------------    Wed Jan 27 15:57:34 2016  ---------------




---------------    Wed Jan 27 15:57:34 2016  ---------------


