=======================================================================
PADS Professional Layout - Version 2015.0.678.963
=======================================================================

RELOAD CELLS

Job Directory:  C:\Users\branden.sheffield\Documents\Crusher3.0\Mentor\CrusherMain\PCB\


Design Units:(mm)

Replace Cell Log:   repCellLog44.txt

Mon Apr 11 10:18:52 2016

Reference Designator            Cell Name                         New Cell Name
===============================================================================


---------------  RELOAD CELLS  Mon Apr 11 10:18:52 2016  ---------------




---------------  RELOAD CELLS TMP  Mon Apr 11 10:18:52 2016  ---------------


TP1                             TP0.8x1.2                         TP0.8x1.2                       
TP2                             TP0.8x1.2                         TP0.8x1.2                       
TP3                             TP0.8x1.2                         TP0.8x1.2                       


---------------    Mon Apr 11 10:18:52 2016  ---------------




---------------    Mon Apr 11 10:18:52 2016  ---------------




---------------  RELOAD CELLS  Mon Apr 11 10:24:49 2016  ---------------




---------------    Mon Apr 11 10:24:49 2016  ---------------




---------------  RELOAD CELLS  Mon Apr 11 10:27:32 2016  ---------------




---------------    Mon Apr 11 10:27:32 2016  ---------------




---------------  RELOAD CELLS  Mon Apr 11 10:34:36 2016  ---------------




---------------  RELOAD CELLS TMP  Mon Apr 11 10:34:36 2016  ---------------




---------------    Mon Apr 11 10:34:36 2016  ---------------




---------------    Mon Apr 11 10:34:36 2016  ---------------


TP17                            TP0.8x1.2                         TP0.8x1.2                       
TP3                             TP0.8x1.2                         TP0.8x1.2                       
TP5                             TP0.8x1.2                         TP0.8x1.2                       
TP6                             TP0.8x1.2                         TP0.8x1.2                       
TP7                             TP0.8x1.2                         TP0.8x1.2                       
TP8                             TP0.8x1.2                         TP0.8x1.2                       
TP9                             TP0.8x1.2                         TP0.8x1.2                       
TP15                            TP0.8x1.2                         TP0.8x1.2                       
TP16                            TP0.8x1.2                         TP0.8x1.2                       


---------------    Mon Apr 11 10:34:36 2016  ---------------




---------------    Mon Apr 11 10:34:36 2016  ---------------




---------------  RELOAD CELLS  Mon Apr 11 10:37:39 2016  ---------------




---------------    Mon Apr 11 10:37:39 2016  ---------------




---------------  RELOAD CELLS  Mon Apr 11 11:28:11 2016  ---------------




---------------    Mon Apr 11 11:28:11 2016  ---------------




---------------    Mon Apr 11 11:28:28 2016  ---------------




---------------    Mon Apr 11 13:18:53 2016  ---------------


