=======================================================================
PADS Professional Layout - Version 116.0.506.1217
=======================================================================

RELOAD CELLS

Job Directory:  C:\pd_repo\pd\_CITADEL\Mentor\Citadel\PCB\


Design Units:(mm)

Replace Cell Log:   repCellLog91.txt

Wed Dec 14 16:46:36 2016

Reference Designator            Cell Name                         New Cell Name
===============================================================================


---------------  RELOAD CELLS  Wed Dec 14 16:46:36 2016  ---------------




---------------    Wed Dec 14 16:46:36 2016  ---------------




---------------    Wed Dec 14 16:47:33 2016  ---------------




---------------    Wed Dec 14 16:55:55 2016  ---------------




---------------    Wed Dec 14 17:06:05 2016  ---------------


