=======================================================================
PADS Professional Layout - Version 116.0.506.1217
=======================================================================

RELOAD CELLS

Job Directory:  C:\pd_repo\pd\_CITADEL\Mentor\Citadel\PCB\


Design Units:(mm)

Replace Cell Log:   repCellLog75.txt

Thu Dec 08 11:51:43 2016

Reference Designator            Cell Name                         New Cell Name
===============================================================================


---------------  RELOAD CELLS  Thu Dec 08 11:51:43 2016  ---------------




---------------    Thu Dec 08 11:51:43 2016  ---------------




---------------    Thu Dec 08 12:21:29 2016  ---------------




---------------    Thu Dec 08 12:21:29 2016  ---------------




---------------    Thu Dec 08 12:21:29 2016  ---------------




---------------    Thu Dec 08 12:21:29 2016  ---------------




---------------    Thu Dec 08 12:21:29 2016  ---------------


