=======================================================================
PADS Professional Layout - Version 2015.0.678.963
=======================================================================

RELOAD CELLS

Job Directory:  C:\Users\branden.sheffield\Documents\Crusher3.0\Mentor\CrusherMain\PCB\


Design Units:(mm)

Replace Cell Log:   repCellLog39.txt

Mon Mar 07 09:30:36 2016

Reference Designator            Cell Name                         New Cell Name
===============================================================================


---------------  RELOAD CELLS  Mon Mar 07 09:30:36 2016  ---------------




---------------    Mon Mar 07 09:30:36 2016  ---------------




---------------    Mon Mar 07 09:32:02 2016  ---------------


