--------------------------------------------------------------------------------
 Project integration - START (2016-01-15 15:29:09) 
--------------------------------------------------------------------------------
FE snapshot name: DxD
BE snapshot name: Main_layout_temp
Top level block: (2-1-5)
Parameters: FAConnectivity,FAConstraints,FEWin,
--------------------------------------------------------------------------------
[OK] - Full snapshot copy 30.00 [ms]
--------------------------------------------------------------------------------
 Project integration - END (2016-01-15 15:29:09) 
--------------------------------------------------------------------------------
