[2016.12.06 10:31:30] [0000m.00s.036ms] [0] WELCOME
[2016.12.06 10:31:30] [0000m.00s.037ms] [1] iCDB Server ver.2.200, jmoSXI5tfcQi0m1NxN3JKg, build:5060443 created 2016-08-17 14:30:24, sources stamp:jmoSXI5tfcQi0m1NxN3JKg
[2016.12.06 10:31:30] [0000m.00s.037ms] [1] Copyright 2016 Mentor Graphics Corporation.  All Rights Reserved.
[2016.12.06 10:31:30] [0000m.00s.037ms] [1] Base flow version [VX.2]
[2016.12.06 10:31:30] [0000m.00s.037ms] [1] Install Id [1409847], Flow Id [PADS Professional VX.2], Full Flow Name [PADS Professional VX.2], Exact Access Date [2016/05/01]
[2016.12.06 10:31:30] [0000m.00s.037ms] [1] Machine [DESKTOP-TJKR3AR]  User [branden.sheffield]  PID [2008]
[2016.12.06 10:31:30] [0000m.00s.037ms] [1] Operating system [Microsoft Enterprise Edition, 64-bit (build 9200)]
[2016.12.06 10:31:30] [0000m.00s.037ms] [1] Current working dir [C:\pd_repo\pd\_CITADEL\Mentor\Citadel]
[2016.12.06 10:31:30] [0000m.00s.037ms] [1] PATH [C:\MentorGraphics\PADSProVX.2\SDD_HOME\common\win32\bin;C:\MentorGraphics\PADSProVX.2\SDD_HOME\common\win32\lib;C:\MentorGraphics\PADSProVX.2\MGC_HOME.ixn\bin;C:\MentorGraphics\PADSProVX.2\MGC_HOME.ixn\lib;C:\MentorGraphics\PADSProVX.2\SDD_HOME\wv\win32\bin;C:\Program Files (x86)\CSR\BlueSuite 2.5.8\DFU Tools;C:\Program Files (x86)\NVIDIA Corporation\PhysX\Common;C:\ProgramData\Oracle\Java\javapath;C:\WINDOWS\system32;C:\WINDOWS;C:\WINDOWS\System32\Wbem;C:\WINDOWS\System32\WindowsPowerShell\v1.0\;C:\Program Files (x86)\Skype\Phone\;C:\Program Files (x86)\Windows Kits\8.1\Windows Performance Toolkit\;C:\Program Files\TortoiseSVN\bin;C:\Users\branden.sheffield\AppData\Local\Microsoft\WindowsApps;]
[2016.12.06 10:31:30] [0000m.00s.038ms] [1] SDD_HOME [C:\MentorGraphics\PADSProVX.2\SDD_HOME] on file system [NTFS]
[2016.12.06 10:31:30] [0000m.00s.038ms] [1] SDD_PLATFORM [win32]
[2016.12.06 10:31:30] [0000m.00s.038ms] [1] WDIR [C:\WDIR\PADSProVX.2;C:\MentorGraphics\PADSProVX.2\SDD_HOME\standard;]
[2016.12.06 10:31:30] [0000m.00s.038ms] [1] Local iCDB working dir [C:\WDIR\PADSProVX.2\iCDB] on file system [NTFS]
[2016.12.06 10:31:30] [0000m.00s.038ms] [2] S: Loading config files
[2016.12.06 10:31:30] [0000m.00s.044ms] [1] Config file [C:\pd_repo\pd\_CITADEL\Mentor\Citadel\database\cdbsvr\Server.cfg] not found
[2016.12.06 10:31:30] [0000m.00s.046ms] [3] S: Config loaded
[2016.12.06 10:31:30] [0000m.00s.056ms] [0] S: Project path [C:\pd_repo\pd\_CITADEL\Mentor\Citadel\database] on file system [NTFS]
[2016.12.06 10:31:30] [0000m.00s.056ms] [0] S: Project file (.prj) path [C:\pd_repo\pd\_CITADEL\Mentor\Citadel\Citadel.prj] on file system [NTFS]
[2016.12.06 10:31:30] [0000m.00s.057ms] [1] S: WARNING: Database auto-repair support DISABLED
[2016.12.06 10:31:30] [0000m.00s.057ms] [0] S: Multi-user mode (config)
[2016.12.06 10:31:30] [0000m.00s.057ms] [0] S: Event polling mode autodetection
[2016.12.06 10:31:30] [0000m.00s.063ms] [0] S: Started up automatically by iCDB Client: DESKTOP-TJKR3AR:branden.sheffield:17596
[2016.12.06 10:31:30] [0000m.00s.063ms] [0] S: Auto close mode
[2016.12.06 10:31:30] [0000m.00s.063ms] [0] S: Database ID [3edb-f997-378d-3d57-11a5-2286-1a52-2850-5ff3-9382-b182-04a8]
[2016.12.06 10:31:30] [0000m.00s.063ms] [0] PathTranslator: BEGIN dumping
[2016.12.06 10:31:30] [0000m.00s.063ms] [0] PathTranslator: Local -> global path prefix list
[2016.12.06 10:31:30] [0000m.00s.064ms] [0] PathTranslator: [R:\] -> [\\underground.skullcandy.com@SSL\DavWWWRoot\departments\pd\ACE\]
[2016.12.06 10:31:30] [0000m.00s.064ms] [0] PathTranslator: [X:\] -> [\\underground.skullcandy.com@SSL\DavWWWRoot\departments\pd\PD Projects\]
[2016.12.06 10:31:30] [0000m.00s.064ms] [0] PathTranslator: [Z:\] -> [\\izombie\shares\pd\]
[2016.12.06 10:31:30] [0000m.00s.064ms] [0] PathTranslator: Global -> local path prefix list
[2016.12.06 10:31:30] [0000m.00s.064ms] [0] PathTranslator: [\\underground.skullcandy.com@SSL\DavWWWRoot\departments\pd\PD Projects\] -> [X:\]
[2016.12.06 10:31:30] [0000m.00s.064ms] [0] PathTranslator: [\\underground.skullcandy.com@SSL\DavWWWRoot\departments\pd\ACE\] -> [R:\]
[2016.12.06 10:31:30] [0000m.00s.064ms] [0] PathTranslator: [\\izombie\shares\pd\] -> [Z:\]
[2016.12.06 10:31:30] [0000m.00s.064ms] [0] PathTranslator: END dumping
[2016.12.06 10:31:30] [0000m.00s.064ms] [0] S: START
[2016.12.06 10:31:30] [0000m.00s.064ms] [0] S: Server startup lock file created
[2016.12.06 10:31:30] [0000m.00s.064ms] [0] S: Listening for client connections on port [10001]
[2016.12.06 10:31:30] [0000m.00s.065ms] [0] S: Server network ID [DESKTOP-TJKR3AR:192.168.200.217,DESKTOP-TJKR3AR,DESKTOP-TJKR3AR.skullcandy.local:10001]
[2016.12.06 10:31:30] [0000m.00s.066ms] [0] S: Server GUID [d3d3-86ea-b748-38e5-2f5f-6487-f5f6-4850-9826-8382-b162-24a8]
[2016.12.06 10:31:30] [0000m.00s.066ms] [0] S: Project GUID [3edb-f997-378d-3d57-11a5-2286-1a52-2850-5ff3-9382-b182-04a8]
[2016.12.06 10:31:30] [0000m.00s.069ms] [0] S: Wrote data to server address file
[2016.12.06 10:31:30] [0000m.00s.070ms] [0] S: Server startup lock file removed
[2016.12.06 10:31:30] [0000m.00s.070ms] [1] ProjectBackupManager: Setting project file (.prj) path: [C:\pd_repo\pd\_CITADEL\Mentor\Citadel\Citadel.prj]
[2016.12.06 10:31:31] [0000m.00s.384ms] [0] S: Plugins loaded: [PIM] [ENetGen70] 
[2016.12.06 10:31:31] [0000m.00s.384ms] [0] S: Local disc access time: 46 us
[2016.12.06 10:31:31] [0000m.00s.384ms] [0] S: File server access time: 33 us
[2016.12.06 10:31:31] [0000m.00s.392ms] [0] Single file [C:\pd_repo\pd\_CITADEL\Mentor\Citadel\database\icdb.dat] size [1111888 (1.1 MB)]
[2016.12.06 10:31:31] [0000m.00s.392ms] [1] Single file [C:\pd_repo\pd\_CITADEL\Mentor\Citadel\database\icdb.dat] opened in read-write mode
[2016.12.06 10:31:31] [0000m.00s.392ms] [0] SingleFile: [0000-0000-0000-0000] SFI header version check [1009] [1009]
[2016.12.06 10:31:31] [0000m.00s.393ms] [0] Database GUARD OK: [1111888]
[2016.12.06 10:31:31] [0000m.00s.393ms] [0] SingleFile: [0000-0000-0000-0000] SFI header version check [1009] [1009]
[2016.12.06 10:31:31] [0000m.00s.393ms] [0] Database GUARD OK: [1111888]
[2016.12.06 10:31:31] [0000m.00s.394ms] [0] SingleFile: [0000-0000-0000-0000] SFI header version check [1009] [1009]
[2016.12.06 10:31:31] [0000m.00s.394ms] [0] Database GUARD OK: [1111888]
[2016.12.06 10:31:31] [0000m.00s.394ms] [0] SingleFile: [0000-0000-0000-0000] SFI header version check [1009] [1009]
[2016.12.06 10:31:31] [0000m.00s.394ms] [0] Database GUARD OK: [1111888]
[2016.12.06 10:31:31] [0000m.00s.394ms] [0] SingleFile: [0000-0000-0000-0000] SFI header version check [1009] [1009]
[2016.12.06 10:31:31] [0000m.00s.394ms] [0] Database GUARD OK: [1111888]
[2016.12.06 10:31:31] [0000m.00s.394ms] [0] SingleFile: [9e75-bf90-0362-6950] SFI version check [1009] [1009]
[2016.12.06 10:31:31] [0000m.00s.402ms] [0] SingleFile: [9e75-bf90-0362-6950] Database SFI header has been read in [8ms 59us]
[2016.12.06 10:31:31] [0000m.00s.406ms] [0] iCDB Server PI: Server & plugin session [2863]
[2016.12.06 10:31:31] [0000m.00s.406ms] [0] iCDB Server PI: Opening database [C:\pd_repo\pd\_CITADEL\Mentor\Citadel\database]
[2016.12.06 10:31:31] [0000m.00s.406ms] [0] iCDB Server PI: Database [C:\pd_repo\pd\_CITADEL\Mentor\Citadel\database] opened
[2016.12.06 10:31:31] [0000m.00s.456ms] [0] iCDB Database: Checking existence of constraint definitions
[2016.12.06 10:31:31] [0000m.00s.456ms] [0] iCDB Database: Checking constraint definitions version
[2016.12.06 10:31:31] [0000m.00s.488ms] [1] iCDB Database: Constraint definitions version [ce_ee.cns=7.10.56] up to date
[2016.12.06 10:31:31] [0000m.00s.494ms] [0] iCDB Server PI: Initializing plugins
[2016.12.06 10:31:31] [0000m.00s.495ms] [0] iCDB Server PI: Plugins initialized
[2016.12.06 10:31:31] [0000m.00s.495ms] [0] S: iCDB database loaded
[2016.12.06 10:31:31] [0000m.00s.496ms] [0] S: Starting threads
[2016.12.06 10:31:31] [0000m.00s.496ms] [0] BT: Listening for broadcast messages on port [10000]
[2016.12.06 10:31:31] [0000m.00s.496ms] [1] CMT: There are no clients - waiting [10 seconds]
[2016.12.06 10:31:31] [0000m.00s.498ms] [0] IT: Session [2864] for host [DESKTOP-TJKR3AR] user [branden.sheffield] with process ID [17596] created
[2016.12.06 10:31:31] [0000m.00s.500ms] [1] SC[2864]: Registered sub-client [DxD] with ID [1] for session ID [2864] host [DESKTOP-TJKR3AR] user [branden.sheffield] process ID [17596]
[2016.12.06 10:31:31] [0000m.00s.503ms] [0] MWT: WindowProc: WM_NCCREATE
[2016.12.06 10:31:31] [0000m.00s.514ms] [1] DMT: There are [1] iCDB Server Monitor connected now
[2016.12.06 10:31:31] [0000m.00s.514ms] [0] IT: iCDB Server Monitor session [1] for host [DESKTOP-TJKR3AR] user [branden.sheffield] with process ID [6668] created
[2016.12.06 10:31:31] [0000m.00s.601ms] [1] CMT: There are [1] clients now: 2864
[2016.12.06 10:31:31] [0000m.00s.622ms] [1] SC[2864]: Registered sub-client [TransactionRollbackSubClient] with ID [2] for session ID [2864] host [DESKTOP-TJKR3AR] user [branden.sheffield] process ID [17596]
[2016.12.06 10:31:31] [0000m.00s.626ms] [1] SC[2864]: Registered sub-client [xprob] with ID [3] for session ID [2864] host [DESKTOP-TJKR3AR] user [branden.sheffield] process ID [17596]
[2016.12.06 10:31:33] [0000m.03s.183ms] [1] SC[2864]: Registered sub-client [SymbolEditor] with ID [4] for session ID [2864] host [DESKTOP-TJKR3AR] user [branden.sheffield] process ID [17596]
[2016.12.06 10:31:33] [0000m.03s.189ms] [1] SC[2864]: Registered sub-client [SelectionHolder] with ID [5] for session ID [2864] host [DESKTOP-TJKR3AR] user [branden.sheffield] process ID [17596]
[2016.12.06 10:31:33] [0000m.03s.228ms] [1] SC[2864]: Registered sub-client [EEVM_EEVM_288928612] with ID [6] for session ID [2864] host [DESKTOP-TJKR3AR] user [branden.sheffield] process ID [17596]
[2016.12.06 10:31:33] [0000m.03s.229ms] [1] SC[2864]: UnRegistered sub-client [EEVM_EEVM_288928612] with ID [6] for session ID [2864] host [DESKTOP-TJKR3AR] user [branden.sheffield] process ID [17596]
[2016.12.06 10:31:33] [0000m.03s.235ms] [1] SC[2864]: Registered sub-client [EEVM_EEVM_288928612] with ID [7] for session ID [2864] host [DESKTOP-TJKR3AR] user [branden.sheffield] process ID [17596]
[2016.12.06 10:31:33] [0000m.03s.273ms] [1] SC[2864]: UnRegistered sub-client [EEVM_EEVM_288928612] with ID [7] for session ID [2864] host [DESKTOP-TJKR3AR] user [branden.sheffield] process ID [17596]
[2016.12.06 10:31:33] [0000m.03s.277ms] [1] SC[2864]: Registered sub-client [EEVM_EEVM_288934564] with ID [8] for session ID [2864] host [DESKTOP-TJKR3AR] user [branden.sheffield] process ID [17596]
[2016.12.06 10:31:33] [0000m.03s.277ms] [1] SC[2864]: UnRegistered sub-client [EEVM_EEVM_288934564] with ID [8] for session ID [2864] host [DESKTOP-TJKR3AR] user [branden.sheffield] process ID [17596]
[2016.12.06 10:31:33] [0000m.03s.281ms] [1] SC[2864]: Registered sub-client [EEVM_EEVM_288934564] with ID [9] for session ID [2864] host [DESKTOP-TJKR3AR] user [branden.sheffield] process ID [17596]
[2016.12.06 10:31:33] [0000m.03s.317ms] [1] SC[2864]: UnRegistered sub-client [EEVM_EEVM_288934564] with ID [9] for session ID [2864] host [DESKTOP-TJKR3AR] user [branden.sheffield] process ID [17596]
[2016.12.06 10:31:34] [0000m.03s.981ms] [1] SC[2864]: Registered sub-client [SystemDesignDll] with ID [10] for session ID [2864] host [DESKTOP-TJKR3AR] user [branden.sheffield] process ID [17596]
[2016.12.06 10:31:34] [0000m.04s.008ms] [1] SC[2864]: UnRegistered sub-client [SystemDesignDll] with ID [10] for session ID [2864] host [DESKTOP-TJKR3AR] user [branden.sheffield] process ID [17596]
[2016.12.06 10:31:34] [0000m.04s.012ms] [1] SC[2864]: Registered sub-client [SystemDesignDll] with ID [11] for session ID [2864] host [DESKTOP-TJKR3AR] user [branden.sheffield] process ID [17596]
[2016.12.06 10:31:38] [0000m.08s.083ms] [1] SC[2864]: Registered sub-client [DesignSearcher2] with ID [12] for session ID [2864] host [DESKTOP-TJKR3AR] user [branden.sheffield] process ID [17596]
[2016.12.06 10:31:38] [0000m.08s.108ms] [1] SC[2864]: Registered sub-client [HdlProject] with ID [13] for session ID [2864] host [DESKTOP-TJKR3AR] user [branden.sheffield] process ID [17596]
[2016.12.06 10:31:38] [0000m.08s.119ms] [1] SC[2864]: Registered sub-client [Navigator] with ID [14] for session ID [2864] host [DESKTOP-TJKR3AR] user [branden.sheffield] process ID [17596]
[2016.12.06 10:31:38] [0000m.08s.140ms] [1] SC[2864]: Registered sub-client [OutputWindow] with ID [15] for session ID [2864] host [DESKTOP-TJKR3AR] user [branden.sheffield] process ID [17596]
[2016.12.06 10:31:38] [0000m.08s.144ms] [1] SC[2864]: Registered sub-client [PlaceDevice] with ID [16] for session ID [2864] host [DESKTOP-TJKR3AR] user [branden.sheffield] process ID [17596]
[2016.12.06 10:31:38] [0000m.08s.321ms] [1] SC[2864]: Registered sub-client [LocalSymbolsDataProvider] with ID [17] for session ID [2864] host [DESKTOP-TJKR3AR] user [branden.sheffield] process ID [17596]
[2016.12.06 10:31:38] [0000m.08s.337ms] [1] SC[2864]: Registered sub-client [FFSearch_Controller_0] with ID [18] for session ID [2864] host [DESKTOP-TJKR3AR] user [branden.sheffield] process ID [17596]
[2016.12.06 10:31:39] [0000m.08s.495ms] [1] SC[2864]: Registered sub-client [FFSearch_Controller_1] with ID [19] for session ID [2864] host [DESKTOP-TJKR3AR] user [branden.sheffield] process ID [17596]
[2016.12.06 10:31:39] [0000m.08s.722ms] [1] SC[2864]: Registered sub-client [FFSearch_Controller_2] with ID [20] for session ID [2864] host [DESKTOP-TJKR3AR] user [branden.sheffield] process ID [17596]
[2016.12.06 10:31:39] [0000m.08s.865ms] [1] SC[2864]: Registered sub-client [FFSearch_Controller_3] with ID [21] for session ID [2864] host [DESKTOP-TJKR3AR] user [branden.sheffield] process ID [17596]
[2016.12.06 10:31:39] [0000m.09s.013ms] [1] SC[2864]: Registered sub-client [FFSearch_Controller_4] with ID [22] for session ID [2864] host [DESKTOP-TJKR3AR] user [branden.sheffield] process ID [17596]
[2016.12.06 10:31:39] [0000m.09s.163ms] [1] SC[2864]: Registered sub-client [SAE] with ID [23] for session ID [2864] host [DESKTOP-TJKR3AR] user [branden.sheffield] process ID [17596]
[2016.12.06 10:31:39] [0000m.09s.167ms] [1] SC[2864]: Registered sub-client [CCZAddin] with ID [24] for session ID [2864] host [DESKTOP-TJKR3AR] user [branden.sheffield] process ID [17596]
[2016.12.06 10:31:39] [0000m.09s.171ms] [1] SC[2864]: Registered sub-client [DxThumbnails] with ID [25] for session ID [2864] host [DESKTOP-TJKR3AR] user [branden.sheffield] process ID [17596]
[2016.12.06 10:31:39] [0000m.09s.174ms] [1] SC[2864]: Registered sub-client [MyParts] with ID [26] for session ID [2864] host [DESKTOP-TJKR3AR] user [branden.sheffield] process ID [17596]
[2016.12.06 10:31:39] [0000m.09s.201ms] [1] SC[2864]: Registered sub-client [PinsList] with ID [27] for session ID [2864] host [DESKTOP-TJKR3AR] user [branden.sheffield] process ID [17596]
[2016.12.06 10:31:40] [0000m.09s.423ms] [1] SC[2864]: Registered sub-client [toolboxes] with ID [28] for session ID [2864] host [DESKTOP-TJKR3AR] user [branden.sheffield] process ID [17596]
[2016.12.06 10:31:40] [0000m.09s.462ms] [1] SC[2864]: Registered sub-client [ProjectIntegrationIcdbCacheDxD:294059832] with ID [29] for session ID [2864] host [DESKTOP-TJKR3AR] user [branden.sheffield] process ID [17596]
[2016.12.06 10:31:40] [0000m.09s.557ms] [1] SC[2864]: Registered sub-client [SheetConnectorsCacheDxD:1481045500] with ID [30] for session ID [2864] host [DESKTOP-TJKR3AR] user [branden.sheffield] process ID [17596]
[2016.12.06 10:31:40] [0000m.09s.635ms] [1] SC[2864]: Registered sub-client [NetsNamesCollectorDxD:1481045500] with ID [31] for session ID [2864] host [DESKTOP-TJKR3AR] user [branden.sheffield] process ID [17596]
[2016.12.06 10:31:40] [0000m.09s.660ms] [1] SC[2864]: Registered sub-client [PartReplaceUtils] with ID [32] for session ID [2864] host [DESKTOP-TJKR3AR] user [branden.sheffield] process ID [17596]
[2016.12.06 10:31:42] [0000m.11s.456ms] [1] SC[2864]: Registered sub-client [ObjectHolder_298595712] with ID [33] for session ID [2864] host [DESKTOP-TJKR3AR] user [branden.sheffield] process ID [17596]
[2016.12.06 10:31:42] [0000m.11s.459ms] [1] SC[2864]: Registered sub-client [BlockCacheDxD:502703864] with ID [34] for session ID [2864] host [DESKTOP-TJKR3AR] user [branden.sheffield] process ID [17596]
[2016.12.06 10:31:42] [0000m.11s.463ms] [1] SC[2864]: Registered sub-client [GlobalNetAliasUpdater_298595816] with ID [35] for session ID [2864] host [DESKTOP-TJKR3AR] user [branden.sheffield] process ID [17596]
[2016.12.06 10:31:42] [0000m.11s.467ms] [1] SC[2864]: Registered sub-client [IcdbNetProcessorSubClientDxD:303252056] with ID [36] for session ID [2864] host [DESKTOP-TJKR3AR] user [branden.sheffield] process ID [17596]
[2016.12.06 10:31:43] [0000m.12s.477ms] [1] SC[2864]: Registered sub-client [DxDbSearch] with ID [37] for session ID [2864] host [DESKTOP-TJKR3AR] user [branden.sheffield] process ID [17596]
[2016.12.06 10:31:46] [0000m.16s.278ms] [1] SC[2864]: Registered sub-client [Dx2Exp_1560620546] with ID [38] for session ID [2864] host [DESKTOP-TJKR3AR] user [branden.sheffield] process ID [17596]
[2016.12.06 10:31:46] [0000m.16s.278ms] [1] SC[2864]: UnRegistered sub-client [Dx2Exp_1560620546] with ID [38] for session ID [2864] host [DESKTOP-TJKR3AR] user [branden.sheffield] process ID [17596]
[2016.12.06 10:32:00] [0000m.30s.104ms] [0] DFAMT: File server access time: 53 us
[2016.12.06 10:32:11] [0000m.40s.743ms] [0] IT: Session [2865] for host [DESKTOP-TJKR3AR] user [branden.sheffield] with process ID [9176] created
[2016.12.06 10:32:11] [0000m.40s.745ms] [1] SC[2865]: Registered sub-client [Expedition PE_1560645000] with ID [1] for session ID [2865] host [DESKTOP-TJKR3AR] user [branden.sheffield] process ID [9176]
[2016.12.06 10:32:11] [0000m.40s.776ms] [1] CMT: There are [2] clients now: 2864, 2865
[2016.12.06 10:32:11] [0000m.40s.851ms] [1] SC[2865]: Registered sub-client [EEVM_EEVM_454506164] with ID [2] for session ID [2865] host [DESKTOP-TJKR3AR] user [branden.sheffield] process ID [9176]
[2016.12.06 10:32:11] [0000m.40s.879ms] [1] SC[2865]: UnRegistered sub-client [EEVM_EEVM_454506164] with ID [2] for session ID [2865] host [DESKTOP-TJKR3AR] user [branden.sheffield] process ID [9176]
[2016.12.06 10:32:11] [0000m.40s.883ms] [1] SC[2865]: Registered sub-client [EEVM_EEVM_454506164] with ID [3] for session ID [2865] host [DESKTOP-TJKR3AR] user [branden.sheffield] process ID [9176]
[2016.12.06 10:32:11] [0000m.40s.919ms] [1] SC[2865]: UnRegistered sub-client [EEVM_EEVM_454506164] with ID [3] for session ID [2865] host [DESKTOP-TJKR3AR] user [branden.sheffield] process ID [9176]
[2016.12.06 10:32:11] [0000m.41s.236ms] [1] SC[2865]: Registered sub-client [JobPrefsDBPI_1560645546] with ID [4] for session ID [2865] host [DESKTOP-TJKR3AR] user [branden.sheffield] process ID [9176]
[2016.12.06 10:32:11] [0000m.41s.253ms] [1] SC[2865]: UnRegistered sub-client [JobPrefsDBPI_1560645546] with ID [4] for session ID [2865] host [DESKTOP-TJKR3AR] user [branden.sheffield] process ID [9176]
[2016.12.06 10:32:17] [0000m.47s.138ms] [1] SC[2865]: Registered sub-client [ExpeditionCrossProber] with ID [5] for session ID [2865] host [DESKTOP-TJKR3AR] user [branden.sheffield] process ID [9176]
[2016.12.06 10:41:49] [0010m.18s.604ms] [1] SC[2865]: Registered sub-client [3DView_1561222937] with ID [6] for session ID [2865] host [DESKTOP-TJKR3AR] user [branden.sheffield] process ID [9176]
[2016.12.06 10:41:49] [0010m.18s.605ms] [1] SC[2865]: UnRegistered sub-client [3DView_1561222937] with ID [6] for session ID [2865] host [DESKTOP-TJKR3AR] user [branden.sheffield] process ID [9176]
[2016.12.06 11:36:38] [0065m.07s.560ms] [1] PrjBackupMgr: Successfully created Project Backup [C:\pd_repo\pd\_CITADEL\Mentor\Citadel\ProjectBackup\backups\2016-12-06 11.36.36 - auto.zip] with GUID [8b5c-f9fb-81bc-610c-4350-7489-3507-4850-d676-8382-b162-24a8]
[2016.12.06 11:36:38] [0065m.07s.564ms] [0] PrjBackupMgr: Removing excessive backup:  BackupGUID[a238-d490-37f3-2488-42ba-1489-2ba1-4850-9994-9382-a192-e3a8] CreationTime[Friday, December 02, 2016 17:11:00] Type[Autosave] Creator[iCDB Server (2016-12-02 10.10.54-21348)] ApplicationName[iCDB Server (2016-12-02 10.10.54-21348)] UserName[branden.sheffield] MachineName[DESKTOP-TJKR3AR] Description[Autosave] FullFlowName[PADS Professional VX.2] FlowId[PADSProVX.2] GBSInstallId[1409847] GBSBuildId[5060443] IcdbVersion[3100] ReferenceLogFilePath[] BackupFilePath[C:\pd_repo\pd\_CITADEL\Mentor\Citadel\ProjectBackup\backups\2016-12-02 10.11.00 - auto.zip] BackupFileSize[7068000] Persistent[FALSE]
[2016.12.06 11:36:38] [0065m.07s.568ms] [0] PrjBackupMgr: Project Backup file [C:\pd_repo\pd\_CITADEL\Mentor\Citadel\ProjectBackup\backups\2016-12-02 10.11.00 - auto.zip] with GUID [a238-d490-37f3-2488-42ba-1489-2ba1-4850-9994-9382-a192-e3a8] removed
[2016.12.06 11:36:38] [0065m.07s.570ms] [0] PrjBackupEngine: Successfully created backup:  BackupGUID[8b5c-f9fb-81bc-610c-4350-7489-3507-4850-d676-8382-b162-24a8] CreationTime[Tuesday, December 06, 2016 18:36:36] Type[Autosave] Creator[iCDB Server (2016-12-06 10.31.30-2008)] ApplicationName[iCDB Server (2016-12-06 10.31.30-2008)] UserName[branden.sheffield] MachineName[DESKTOP-TJKR3AR] Description[Autosave] FullFlowName[PADS Professional VX.2] FlowId[PADSProVX.2] GBSInstallId[1409847] GBSBuildId[5060443] IcdbVersion[3100] ReferenceLogFilePath[] BackupFilePath[C:\pd_repo\pd\_CITADEL\Mentor\Citadel\ProjectBackup\backups\2016-12-06 11.36.36 - auto.zip] BackupFileSize[9033107] Persistent[FALSE]
[2016.12.06 12:08:40] [0097m.10s.202ms] [1] PrjBackupMgr: Successfully created Project Backup [C:\pd_repo\pd\_CITADEL\Mentor\Citadel\ProjectBackup\backups\2016-12-06 12.08.39 - symUpd.zip] with GUID [8f13-16fa-f583-759d-7bc0-748c-bc07-4850-d783-8382-b162-24a8]
[2016.12.06 12:08:40] [0097m.10s.207ms] [0] PrjBackupMgr: Removing excessive backup:  BackupGUID[de06-d082-329e-b65b-bace-3380-bce3-3850-e22c-99c8-3846-348b] CreationTime[Tuesday, November 22, 2016 06:58:51] Type[SymbolUpdate] Creator[iCDB Server (2016-11-21 23.20.51-756)] ApplicationName[PADS DX Designer] UserName[branden.sheffield] MachineName[DESKTOP-TJKR3AR] Description[Before Symbol Update] FullFlowName[PADS Professional VX.2] FlowId[PADSProVX.2] GBSInstallId[1409847] GBSBuildId[5060443] IcdbVersion[3100] ReferenceLogFilePath[] BackupFilePath[C:\pd_repo\pd\_CITADEL\Mentor\Citadel\ProjectBackup\backups\2016-11-21 23.58.51 - symUpd.zip] BackupFileSize[4760091] Persistent[FALSE]
[2016.12.06 12:08:40] [0097m.10s.211ms] [0] PrjBackupMgr: Project Backup file [C:\pd_repo\pd\_CITADEL\Mentor\Citadel\ProjectBackup\backups\2016-11-21 23.58.51 - symUpd.zip] with GUID [de06-d082-329e-b65b-bace-3380-bce3-3850-e22c-99c8-3846-348b] removed
[2016.12.06 12:08:40] [0097m.10s.214ms] [0] PrjBackupEngine: Successfully created backup:  BackupGUID[8f13-16fa-f583-759d-7bc0-748c-bc07-4850-d783-8382-b162-24a8] CreationTime[Tuesday, December 06, 2016 19:08:39] Type[SymbolUpdate] Creator[iCDB Server (2016-12-06 10.31.30-2008)] ApplicationName[PADS DX Designer] UserName[branden.sheffield] MachineName[DESKTOP-TJKR3AR] Description[Before Symbol Update] FullFlowName[PADS Professional VX.2] FlowId[PADSProVX.2] GBSInstallId[1409847] GBSBuildId[5060443] IcdbVersion[3100] ReferenceLogFilePath[] BackupFilePath[C:\pd_repo\pd\_CITADEL\Mentor\Citadel\ProjectBackup\backups\2016-12-06 12.08.39 - symUpd.zip] BackupFileSize[9016392] Persistent[FALSE]
[2016.12.06 12:21:30] [0109m.59s.911ms] [1] SC[2865]: Registered sub-client [EEVM_branden.sheffield_PID_9176_542592652] with ID [7] for session ID [2865] host [DESKTOP-TJKR3AR] user [branden.sheffield] process ID [9176]
[2016.12.06 12:21:54] [0110m.23s.608ms] [1] SC[2865]: UnRegistered sub-client [EEVM_branden.sheffield_PID_9176_542592652] with ID [7] for session ID [2865] host [DESKTOP-TJKR3AR] user [branden.sheffield] process ID [9176]
[2016.12.06 12:42:14] [0130m.44s.047ms] [1] SC[2865]: Registered sub-client [JobPrefsDBPI_1568448500] with ID [8] for session ID [2865] host [DESKTOP-TJKR3AR] user [branden.sheffield] process ID [9176]
[2016.12.06 12:42:22] [0130m.51s.713ms] [0] IT: Session [2866] for host [DESKTOP-TJKR3AR] user [branden.sheffield] with process ID [236] created
[2016.12.06 12:42:22] [0130m.51s.714ms] [1] SC[2866]: Registered sub-client [JobPrefsDBPI_1568456078] with ID [1] for session ID [2866] host [DESKTOP-TJKR3AR] user [branden.sheffield] process ID [236]
[2016.12.06 12:42:22] [0130m.51s.728ms] [1] CMT: There are [3] clients now: 2864, 2865, 2866
[2016.12.06 12:42:22] [0130m.51s.779ms] [1] SC[2866]: Registered sub-client [JobPrefsDBPI_1568456218] with ID [2] for session ID [2866] host [DESKTOP-TJKR3AR] user [branden.sheffield] process ID [236]
[2016.12.06 12:42:22] [0130m.51s.784ms] [1] SC[2866]: UnRegistered sub-client [JobPrefsDBPI_1568456078] with ID [1] for session ID [2866] host [DESKTOP-TJKR3AR] user [branden.sheffield] process ID [236]
[2016.12.06 12:42:24] [0130m.53s.518ms] [1] SC[2866]: UnRegistered sub-client [JobPrefsDBPI_1568456218] with ID [2] for session ID [2866] host [DESKTOP-TJKR3AR] user [branden.sheffield] process ID [236]
[2016.12.06 12:42:24] [0130m.53s.580ms] [1] CMT: Removed client [2866]
[2016.12.06 12:42:24] [0130m.53s.580ms] [1] CMT: There are [2] clients now: 2864, 2865
[2016.12.06 12:42:26] [0130m.55s.406ms] [1] SC[2865]: UnRegistered sub-client [JobPrefsDBPI_1568448500] with ID [8] for session ID [2865] host [DESKTOP-TJKR3AR] user [branden.sheffield] process ID [9176]
[2016.12.06 13:45:19] [0193m.48s.495ms] [1] SC[2865]: Registered sub-client [3DView_1572233000] with ID [9] for session ID [2865] host [DESKTOP-TJKR3AR] user [branden.sheffield] process ID [9176]
[2016.12.06 13:45:19] [0193m.48s.503ms] [1] SC[2865]: UnRegistered sub-client [3DView_1572233000] with ID [9] for session ID [2865] host [DESKTOP-TJKR3AR] user [branden.sheffield] process ID [9176]
[2016.12.06 14:00:35] [0209m.04s.770ms] [0] SC[2865]: ERROR: Receiving command: Socket Exception: Category[Socket] Error[ReceiveFailed] Description[Could not receive data from peer; ECONNRESET - Connection reset by peer.] Message[Receiving network command with timeout]
[2016.12.06 14:00:35] [0209m.04s.770ms] [0] SC[2865]: Setting status to OFFLINE
[2016.12.06 14:00:35] [0209m.04s.876ms] [1] CMT: Trying to remove local offline client [2865]
[2016.12.06 14:00:35] [0209m.04s.877ms] [0] CRT[2865]: EXIT: Because of client death
[2016.12.06 14:00:35] [0209m.04s.917ms] [1] CMT: Removed local offline client [2865]
[2016.12.06 14:00:35] [0209m.04s.917ms] [1] CMT: There are [1] clients now: 2864
[2016.12.06 14:02:00] [0210m.29s.418ms] [1] SC[2864]: Registered sub-client [Dx2Exp_1573233968] with ID [39] for session ID [2864] host [DESKTOP-TJKR3AR] user [branden.sheffield] process ID [17596]
[2016.12.06 14:02:00] [0210m.29s.420ms] [1] SC[2864]: UnRegistered sub-client [Dx2Exp_1573233968] with ID [39] for session ID [2864] host [DESKTOP-TJKR3AR] user [branden.sheffield] process ID [17596]
[2016.12.06 14:02:51] [0211m.20s.855ms] [0] IT: Session [2867] for host [DESKTOP-TJKR3AR] user [branden.sheffield] with process ID [14020] created
[2016.12.06 14:02:51] [0211m.20s.857ms] [1] SC[2867]: Registered sub-client [Expedition PE_1573285359] with ID [1] for session ID [2867] host [DESKTOP-TJKR3AR] user [branden.sheffield] process ID [14020]
[2016.12.06 14:02:51] [0211m.20s.882ms] [1] CMT: There are [2] clients now: 2864, 2867
[2016.12.06 14:02:51] [0211m.20s.988ms] [1] SC[2867]: Registered sub-client [EEVM_EEVM_424979244] with ID [2] for session ID [2867] host [DESKTOP-TJKR3AR] user [branden.sheffield] process ID [14020]
[2016.12.06 14:02:51] [0211m.21s.024ms] [1] SC[2867]: UnRegistered sub-client [EEVM_EEVM_424979244] with ID [2] for session ID [2867] host [DESKTOP-TJKR3AR] user [branden.sheffield] process ID [14020]
[2016.12.06 14:02:51] [0211m.21s.027ms] [1] SC[2867]: Registered sub-client [EEVM_EEVM_424979244] with ID [3] for session ID [2867] host [DESKTOP-TJKR3AR] user [branden.sheffield] process ID [14020]
[2016.12.06 14:02:51] [0211m.21s.070ms] [1] SC[2867]: UnRegistered sub-client [EEVM_EEVM_424979244] with ID [3] for session ID [2867] host [DESKTOP-TJKR3AR] user [branden.sheffield] process ID [14020]
[2016.12.06 14:02:54] [0211m.24s.206ms] [1] SC[2867]: Registered sub-client [JobPrefsDBPI_1573288750] with ID [4] for session ID [2867] host [DESKTOP-TJKR3AR] user [branden.sheffield] process ID [14020]
[2016.12.06 14:02:54] [0211m.24s.221ms] [1] SC[2867]: UnRegistered sub-client [JobPrefsDBPI_1573288750] with ID [4] for session ID [2867] host [DESKTOP-TJKR3AR] user [branden.sheffield] process ID [14020]
[2016.12.06 14:02:55] [0211m.25s.075ms] [1] SC[2867]: Registered sub-client [JobPrefsDBPI_1573289625] with ID [5] for session ID [2867] host [DESKTOP-TJKR3AR] user [branden.sheffield] process ID [14020]
[2016.12.06 14:02:55] [0211m.25s.078ms] [1] SC[2867]: UnRegistered sub-client [JobPrefsDBPI_1573289625] with ID [5] for session ID [2867] host [DESKTOP-TJKR3AR] user [branden.sheffield] process ID [14020]
[2016.12.06 14:03:01] [0211m.31s.044ms] [1] SC[2867]: Registered sub-client [ExpeditionCrossProber] with ID [6] for session ID [2867] host [DESKTOP-TJKR3AR] user [branden.sheffield] process ID [14020]
[2016.12.06 14:04:57] [0213m.26s.376ms] [1] SC[2867]: Registered sub-client [3DView_1573410921] with ID [7] for session ID [2867] host [DESKTOP-TJKR3AR] user [branden.sheffield] process ID [14020]
[2016.12.06 14:04:57] [0213m.26s.377ms] [1] SC[2867]: UnRegistered sub-client [3DView_1573410921] with ID [7] for session ID [2867] host [DESKTOP-TJKR3AR] user [branden.sheffield] process ID [14020]
[2016.12.06 15:01:16] [0269m.45s.404ms] [1] SC[2867]: UnRegistered sub-client [ExpeditionCrossProber] with ID [6] for session ID [2867] host [DESKTOP-TJKR3AR] user [branden.sheffield] process ID [14020]
[2016.12.06 15:01:18] [0269m.47s.724ms] [1] SC[2867]: UnRegistered sub-client [Expedition PE_1573285359] with ID [1] for session ID [2867] host [DESKTOP-TJKR3AR] user [branden.sheffield] process ID [14020]
[2016.12.06 15:01:18] [0269m.47s.752ms] [1] CMT: Removed client [2867]
[2016.12.06 15:01:18] [0269m.47s.752ms] [1] CMT: There are [1] clients now: 2864
[2016.12.06 15:01:24] [0269m.54s.210ms] [1] SC[2864]: UnRegistered sub-client [SystemDesignDll] with ID [11] for session ID [2864] host [DESKTOP-TJKR3AR] user [branden.sheffield] process ID [17596]
[2016.12.06 15:01:25] [0269m.54s.561ms] [1] SC[2864]: UnRegistered sub-client [DesignSearcher2] with ID [12] for session ID [2864] host [DESKTOP-TJKR3AR] user [branden.sheffield] process ID [17596]
[2016.12.06 15:01:25] [0269m.54s.869ms] [1] SC[2864]: UnRegistered sub-client [GlobalNetAliasUpdater_298595816] with ID [35] for session ID [2864] host [DESKTOP-TJKR3AR] user [branden.sheffield] process ID [17596]
[2016.12.06 15:01:25] [0269m.54s.879ms] [1] SC[2864]: UnRegistered sub-client [BlockCacheDxD:502703864] with ID [34] for session ID [2864] host [DESKTOP-TJKR3AR] user [branden.sheffield] process ID [17596]
[2016.12.06 15:01:25] [0269m.54s.880ms] [1] SC[2864]: UnRegistered sub-client [ObjectHolder_298595712] with ID [33] for session ID [2864] host [DESKTOP-TJKR3AR] user [branden.sheffield] process ID [17596]
[2016.12.06 15:01:25] [0269m.54s.881ms] [1] SC[2864]: UnRegistered sub-client [IcdbNetProcessorSubClientDxD:303252056] with ID [36] for session ID [2864] host [DESKTOP-TJKR3AR] user [branden.sheffield] process ID [17596]
[2016.12.06 15:01:25] [0269m.54s.986ms] [1] SC[2864]: UnRegistered sub-client [Navigator] with ID [14] for session ID [2864] host [DESKTOP-TJKR3AR] user [branden.sheffield] process ID [17596]
[2016.12.06 15:01:25] [0269m.55s.003ms] [1] SC[2864]: UnRegistered sub-client [LocalSymbolsDataProvider] with ID [17] for session ID [2864] host [DESKTOP-TJKR3AR] user [branden.sheffield] process ID [17596]
[2016.12.06 15:01:25] [0269m.55s.006ms] [1] SC[2864]: UnRegistered sub-client [FFSearch_Controller_0] with ID [18] for session ID [2864] host [DESKTOP-TJKR3AR] user [branden.sheffield] process ID [17596]
[2016.12.06 15:01:25] [0269m.55s.007ms] [1] SC[2864]: UnRegistered sub-client [FFSearch_Controller_1] with ID [19] for session ID [2864] host [DESKTOP-TJKR3AR] user [branden.sheffield] process ID [17596]
[2016.12.06 15:01:25] [0269m.55s.008ms] [1] SC[2864]: UnRegistered sub-client [FFSearch_Controller_2] with ID [20] for session ID [2864] host [DESKTOP-TJKR3AR] user [branden.sheffield] process ID [17596]
[2016.12.06 15:01:25] [0269m.55s.009ms] [1] SC[2864]: UnRegistered sub-client [FFSearch_Controller_3] with ID [21] for session ID [2864] host [DESKTOP-TJKR3AR] user [branden.sheffield] process ID [17596]
[2016.12.06 15:01:25] [0269m.55s.011ms] [1] SC[2864]: UnRegistered sub-client [FFSearch_Controller_4] with ID [22] for session ID [2864] host [DESKTOP-TJKR3AR] user [branden.sheffield] process ID [17596]
[2016.12.06 15:01:27] [0269m.56s.435ms] [1] SC[2864]: UnRegistered sub-client [MyParts] with ID [26] for session ID [2864] host [DESKTOP-TJKR3AR] user [branden.sheffield] process ID [17596]
[2016.12.06 15:01:27] [0269m.56s.442ms] [1] SC[2864]: UnRegistered sub-client [toolboxes] with ID [28] for session ID [2864] host [DESKTOP-TJKR3AR] user [branden.sheffield] process ID [17596]
[2016.12.06 15:01:31] [0270m.00s.511ms] [0] MWT: PBT_APMSTANDBY || PBT_APMSUSPEND
[2016.12.06 15:01:31] [0270m.00s.511ms] [0] MWT: Requesting emergency server stop: System goes to SLEEP
[2016.12.06 15:01:31] [0270m.00s.511ms] [0] Removing server address file.
[2016.12.06 15:01:31] [0270m.00s.574ms] [0] S: Closing server
[2016.12.06 15:01:31] [0270m.00s.574ms] [4] SMCL: Distributing notify to registered [General] iCDB Server Manager clients [NotifyServerStatus @ Version[1] # Id[Sender GUID[d3d3-86ea-b748-38e5-2f5f-6487-f5f6-4850-9826-8382-b162-24a8] Command number[1188434]] # Proxy[EMPTY] # RequestId[Sender GUID[0000-0000-0000-0000-0000-0000-0000-0000-0000-0000-0000-0000] Command number[0]] # ReplyPort[10001] # Status [Closing]]
[2016.12.06 15:01:31] [0270m.00s.574ms] [3] IT: FREE
[2016.12.06 15:01:31] [0270m.00s.575ms] [4] IT: Waiting for finish
[2016.12.06 15:01:31] [0270m.00s.575ms] [4] IT: Empty client connection popped from the waiting queue
[2016.12.06 15:01:31] [0270m.00s.575ms] [2] IT: STOP
[2016.12.06 15:01:31] [0270m.00s.575ms] [3] ET: Suspend request
[2016.12.06 15:01:31] [0270m.00s.575ms] [3] ET: Suspend request finished
[2016.12.06 15:01:31] [0270m.00s.575ms] [2] ET: SUSPENDED
[2016.12.06 15:01:31] [0270m.00s.575ms] [2] SCL: Removing all clients
[2016.12.06 15:01:31] [0270m.00s.575ms] [3] SC[2864]: FREE
[2016.12.06 15:01:31] [0270m.00s.575ms] [4] SMCL: Distributing notify to registered [ClientList] iCDB Server Manager clients [NotifyServerClientRemove @ Version[1] # Id[Sender GUID[d3d3-86ea-b748-38e5-2f5f-6487-f5f6-4850-9826-8382-b162-24a8] Command number[1188435]] # Proxy[EMPTY] # RequestId[Sender GUID[0000-0000-0000-0000-0000-0000-0000-0000-0000-0000-0000-0000] Command number[0]] # ReplyPort[10001] # Client [Address[DESKTOP-TJKR3AR] User[branden.sheffield] PID[17596] Session[2864] Status[Active] Dead elapsed time sec[0] Version[2.200] Sub-clients[ ( Sub-client[Name[DxD] Id[1]], Sub-client[Name[TransactionRollbackSubClient] Id[2]], Sub-client[Name[xprob] Id[3]], Sub-client[Name[SymbolEditor] Id[4]], Sub-client[Name[SelectionHolder] Id[5]], Sub-client[Name[HdlProject] Id[13]], Sub-client[Name[OutputWindow] Id[15]], Sub-client[Name[PlaceDevice] Id[16]], Sub-client[Name[SAE] Id[23]], Sub-client[Name[CCZAddin] Id[24]], Sub-client[Name[DxThumbnails] Id[25]], Sub-client[Name[PinsList] Id[27]], Sub-client[Name[ProjectIntegrationIcdbCacheDxD:294059832] Id[29]], Sub-client[Name[SheetConnectorsCacheDxD:1481045500] Id[30]], Sub-client[Name[NetsNamesCollectorDxD:1481045500] Id[31]], Sub-client[Name[PartReplaceUtils] Id[32]], Sub-client[Name[DxDbSearch] Id[37]])]]]
[2016.12.06 15:01:31] [0270m.00s.576ms] [3] CRT[2864]: FREE
[2016.12.06 15:01:31] [0270m.00s.576ms] [4] CRT[2864]: Waiting for finish
[2016.12.06 15:01:31] [0270m.00s.627ms] [2] CRT[2864]: STOP
[2016.12.06 15:01:31] [0270m.00s.627ms] [3] CST[2864]: FREE
[2016.12.06 15:01:31] [0270m.00s.627ms] [4] CST[2864]: Waiting for finish
[2016.12.06 15:01:31] [0270m.00s.627ms] [2] CST[2864]: STOP
[2016.12.06 15:01:31] [0270m.00s.627ms] [1] SC[2864]: WARNING: Session is still active while destroying
[2016.12.06 15:01:31] [0270m.00s.627ms] [2] SC[2864]: Disconnecting from peer
[2016.12.06 15:01:31] [0270m.00s.627ms] [6] iCDB Server PI: ReleaseOpenSnapshotRefCount [1]: 0
[2016.12.06 15:01:31] [0270m.00s.627ms] [3] iCDB Server PI: No one is using snapshot [1] - removing from cache
[2016.12.06 15:01:31] [0270m.00s.627ms] [6] iCDB Storage Server: Checking existence of file [C:\pd_repo\pd\_CITADEL\Mentor\Citadel\database\s1\cdbblks\2000000010000050.blk\rbcatl.v]
[2016.12.06 15:01:31] [0270m.00s.627ms] [6] iCDB Storage Server: File [C:\pd_repo\pd\_CITADEL\Mentor\Citadel\database\s1\cdbblks\2000000010000050.blk\rbcatl.v] doesn't exist
[2016.12.06 15:01:31] [0270m.00s.678ms] [0] SD[1]: ERROR: Receiving command: Socket Exception: Category[Socket] Error[ConnectionClosed] Description[Connection closed] Message[]
[2016.12.06 15:01:31] [0270m.00s.678ms] [2] SD[1]: Setting status to FINISHED
[2016.12.06 15:01:31] [0270m.00s.678ms] [7] SD[1]: Sending logout notify: SvrNotifyLogout @ Version[VX.2.0] # Id[14475]
[2016.12.06 15:01:31] [0270m.00s.678ms] [2] SD[1]: Disconnecting from peer
[2016.12.06 15:01:31] [0270m.00s.678ms] [2] DRT[1]: STOP
[2016.12.06 15:01:31] [0270m.00s.678ms] [4] DMT: Dispatching command [DiagFinished # Diag Id [1]]
[2016.12.06 15:01:31] [0270m.00s.678ms] [5] DMT: Trying to remove iCDB Server Monitor [1]
[2016.12.06 15:01:31] [0270m.00s.678ms] [4] SDL: Removing iCDB Server Monitor [1]
[2016.12.06 15:01:31] [0270m.00s.678ms] [3] SD[1]: FREE
[2016.12.06 15:01:31] [0270m.00s.678ms] [3] DRT[1]: FREE
[2016.12.06 15:01:31] [0270m.00s.678ms] [4] DRT[1]: Waiting for finish
[2016.12.06 15:01:31] [0270m.00s.678ms] [3] DST[1]: FREE
[2016.12.06 15:01:31] [0270m.00s.678ms] [4] DST[1]: Waiting for finish
[2016.12.06 15:01:31] [0270m.00s.678ms] [2] DST[1]: EXIT graceful
[2016.12.06 15:01:31] [0270m.00s.679ms] [2] DST[1]: STOP
[2016.12.06 15:01:31] [0270m.00s.679ms] [4] SDL: iCDB Server Monitor [1] removed
[2016.12.06 15:01:31] [0270m.00s.679ms] [1] DMT: Removed iCDB Server Monitor [1]
[2016.12.06 15:01:31] [0270m.00s.681ms] [6] iCDB Storage Server: Checking existence of file [C:\pd_repo\pd\_CITADEL\Mentor\Citadel\database\s1\uids]
[2016.12.06 15:01:31] [0270m.00s.681ms] [6] iCDB Storage Server: File [C:\pd_repo\pd\_CITADEL\Mentor\Citadel\database\s1\uids] exists
[2016.12.06 15:01:31] [0270m.00s.681ms] [6] ServerObserverSnapshot: OnDestruct SnapshotID[1]
[2016.12.06 15:01:31] [0270m.00s.681ms] [6] iCDB Storage Server: Saving all modified files
[2016.12.06 15:01:31] [0270m.00s.681ms] [6] ServerObserverSnapshot: OnDestruct Finish
[2016.12.06 15:01:31] [0270m.00s.681ms] [6] iCDB Storage Server: Unloading directory [C:\pd_repo\pd\_CITADEL\Mentor\Citadel\database\s1]
[2016.12.06 15:01:31] [0270m.00s.681ms] [6] iCDB Storage Server: Unloading file [C:\pd_repo\pd\_CITADEL\Mentor\Citadel\database\s1\cdbblks\2000000010000050.blk\blk_obj_state]
[2016.12.06 15:01:31] [0270m.00s.681ms] [6] iCDB Storage Server: Unloading file [C:\pd_repo\pd\_CITADEL\Mentor\Citadel\database\s1\cdbblks\2000000010000050.blk\blkatl.v]
[2016.12.06 15:01:31] [0270m.00s.681ms] [6] iCDB Storage Server: Unloading file [C:\pd_repo\pd\_CITADEL\Mentor\Citadel\database\s1\cdbblks\2000000010000050.blk\dxdatl.v]
[2016.12.06 15:01:31] [0270m.00s.681ms] [6] iCDB Storage Server: Unloading file [C:\pd_repo\pd\_CITADEL\Mentor\Citadel\database\s1\cdbcatlg\catlgatl.v]
[2016.12.06 15:01:31] [0270m.00s.681ms] [6] iCDB Storage Server: Unloading file [C:\pd_repo\pd\_CITADEL\Mentor\Citadel\database\s1\cdbcatlg\grpatl.v]
[2016.12.06 15:01:31] [0270m.00s.681ms] [6] iCDB Storage Server: Unloading file [C:\pd_repo\pd\_CITADEL\Mentor\Citadel\database\s1\cdbcatlg\grpobj]
[2016.12.06 15:01:31] [0270m.00s.681ms] [6] iCDB Storage Server: Unloading file [C:\pd_repo\pd\_CITADEL\Mentor\Citadel\database\s1\cdbcmpcache\cmp_obj_state]
[2016.12.06 15:01:31] [0270m.00s.681ms] [6] iCDB Storage Server: Unloading file [C:\pd_repo\pd\_CITADEL\Mentor\Citadel\database\s1\cdbcmpcache\cmpatl.v]
[2016.12.06 15:01:31] [0270m.00s.681ms] [6] iCDB Storage Server: Unloading file [C:\pd_repo\pd\_CITADEL\Mentor\Citadel\database\s1\cdbcmpcache\dxdatl.v]
[2016.12.06 15:01:31] [0270m.00s.681ms] [6] iCDB Storage Server: Unloading file [C:\pd_repo\pd\_CITADEL\Mentor\Citadel\database\s1\cdbcmps\cmpatl.v]
[2016.12.06 15:01:31] [0270m.00s.681ms] [6] iCDB Storage Server: Unloading file [C:\pd_repo\pd\_CITADEL\Mentor\Citadel\database\s1\cdbcnfgs\2000000010000050.blk\ces_obj_state]
[2016.12.06 15:01:31] [0270m.00s.681ms] [6] iCDB Storage Server: Unloading file [C:\pd_repo\pd\_CITADEL\Mentor\Citadel\database\s1\cdbcnfgs\2000000010000050.blk\cesatl.v]
[2016.12.06 15:01:31] [0270m.00s.681ms] [6] iCDB Storage Server: Unloading file [C:\pd_repo\pd\_CITADEL\Mentor\Citadel\database\s1\cdbcnfgs\2000000010000050.blk\cnfg_obj_state]
[2016.12.06 15:01:31] [0270m.00s.681ms] [6] iCDB Storage Server: Unloading file [C:\pd_repo\pd\_CITADEL\Mentor\Citadel\database\s1\cdbcnfgs\2000000010000050.blk\cnfgatl.v]
[2016.12.06 15:01:31] [0270m.00s.681ms] [6] iCDB Storage Server: Unloading file [C:\pd_repo\pd\_CITADEL\Mentor\Citadel\database\s1\cdbcnfgs\2000000010000050.blk\var_obj_state]
[2016.12.06 15:01:31] [0270m.00s.681ms] [6] iCDB Storage Server: Unloading file [C:\pd_repo\pd\_CITADEL\Mentor\Citadel\database\s1\cdbcnfgs\2000000010000050.blk\varatl.v]
[2016.12.06 15:01:31] [0270m.00s.681ms] [6] iCDB Storage Server: Unloading file [C:\pd_repo\pd\_CITADEL\Mentor\Citadel\database\s1\dsgn_obj_state]
[2016.12.06 15:01:31] [0270m.00s.681ms] [6] iCDB Storage Server: Unloading file [C:\pd_repo\pd\_CITADEL\Mentor\Citadel\database\s1\oryg]
[2016.12.06 15:01:31] [0270m.00s.681ms] [6] iCDB Storage Server: Unloading file [C:\pd_repo\pd\_CITADEL\Mentor\Citadel\database\s1\params]
[2016.12.06 15:01:31] [0270m.00s.681ms] [6] iCDB Storage Server: Unloading file [C:\pd_repo\pd\_CITADEL\Mentor\Citadel\database\s1\uids]
[2016.12.06 15:01:31] [0270m.00s.681ms] [5] iCDB Server PI: Snapshot [1] removed from cache
[2016.12.06 15:01:31] [0270m.00s.681ms] [6] iCDB Server PI: ReleaseOpenSnapshotRefCount [2]: 0
[2016.12.06 15:01:31] [0270m.00s.681ms] [3] iCDB Server PI: No one is using snapshot [2] - removing from cache
[2016.12.06 15:01:31] [0270m.00s.681ms] [6] ServerObserverSnapshot: OnDestruct SnapshotID[2]
[2016.12.06 15:01:31] [0270m.00s.681ms] [6] iCDB Storage Server: Saving all modified files
[2016.12.06 15:01:31] [0270m.00s.681ms] [6] iCDB Storage Server: Checking existence of file [C:\pd_repo\pd\_CITADEL\Mentor\Citadel\database\s2\uids]
[2016.12.06 15:01:31] [0270m.00s.681ms] [6] iCDB Storage Server: File [C:\pd_repo\pd\_CITADEL\Mentor\Citadel\database\s2\uids] exists
[2016.12.06 15:01:31] [0270m.00s.681ms] [6] iCDB Storage Server: Unloading directory [C:\pd_repo\pd\_CITADEL\Mentor\Citadel\database\s2]
[2016.12.06 15:01:31] [0270m.00s.681ms] [6] iCDB Storage Server: Unloading file [C:\pd_repo\pd\_CITADEL\Mentor\Citadel\database\s2\cdbcatlg\catlgatl.v]
[2016.12.06 15:01:31] [0270m.00s.681ms] [6] iCDB Storage Server: Unloading file [C:\pd_repo\pd\_CITADEL\Mentor\Citadel\database\s2\cdbcatlg\grpatl.v]
[2016.12.06 15:01:31] [0270m.00s.681ms] [6] iCDB Storage Server: Unloading file [C:\pd_repo\pd\_CITADEL\Mentor\Citadel\database\s2\cdbcatlg\grpobj]
[2016.12.06 15:01:31] [0270m.00s.681ms] [6] iCDB Storage Server: Unloading file [C:\pd_repo\pd\_CITADEL\Mentor\Citadel\database\s2\cdbcmpcache\cmpatl.v]
[2016.12.06 15:01:31] [0270m.00s.681ms] [6] iCDB Storage Server: Unloading file [C:\pd_repo\pd\_CITADEL\Mentor\Citadel\database\s2\cdbcmps\cmpatl.v]
[2016.12.06 15:01:31] [0270m.00s.681ms] [6] iCDB Storage Server: Unloading file [C:\pd_repo\pd\_CITADEL\Mentor\Citadel\database\s2\oryg]
[2016.12.06 15:01:31] [0270m.00s.681ms] [6] iCDB Storage Server: Unloading file [C:\pd_repo\pd\_CITADEL\Mentor\Citadel\database\s2\params]
[2016.12.06 15:01:31] [0270m.00s.681ms] [6] iCDB Storage Server: Unloading file [C:\pd_repo\pd\_CITADEL\Mentor\Citadel\database\s2\uids]
[2016.12.06 15:01:31] [0270m.00s.681ms] [6] ServerObserverSnapshot: OnDestruct Finish
[2016.12.06 15:01:31] [0270m.00s.681ms] [5] iCDB Server PI: Snapshot [2] removed from cache
[2016.12.06 15:01:31] [0270m.00s.681ms] [3] ET: Discarding pending commands
[2016.12.06 15:01:31] [0270m.00s.681ms] [3] ET: Resume request
[2016.12.06 15:01:31] [0270m.00s.681ms] [3] ET: Resume request finished
[2016.12.06 15:01:31] [0270m.00s.681ms] [2] ET: RESUMED
[2016.12.06 15:01:31] [0270m.00s.696ms] [2] PrjBackupEngine: STOP
[2016.12.06 15:01:31] [0270m.00s.696ms] [3] PrjBackupEngine: FREE
[2016.12.06 15:01:31] [0270m.00s.696ms] [4] PrjBackupEngine: Waiting for finish
[2016.12.06 15:01:31] [0270m.00s.696ms] [3] ET: FREE
[2016.12.06 15:01:31] [0270m.00s.696ms] [4] ET: Waiting for finish
[2016.12.06 15:01:31] [0270m.00s.696ms] [2] ET: STOP
[2016.12.06 15:01:31] [0270m.00s.696ms] [2] SCL: Stopping all send threads
[2016.12.06 15:01:31] [0270m.00s.696ms] [3] CMT: FREE
[2016.12.06 15:01:31] [0270m.00s.696ms] [4] CMT: Waiting for finish
[2016.12.06 15:01:31] [0270m.00s.775ms] [2] CMT: STOP
[2016.12.06 15:01:31] [0270m.00s.775ms] [3] DMT: FREE
[2016.12.06 15:01:31] [0270m.00s.776ms] [2] DMT: STOP
[2016.12.06 15:01:31] [0270m.00s.776ms] [4] DMT: Waiting for finish
[2016.12.06 15:01:31] [0270m.00s.776ms] [3] DFAMT: FREE
[2016.12.06 15:01:31] [0270m.00s.776ms] [4] DFAMT: Waiting for finish
[2016.12.06 15:01:31] [0270m.00s.797ms] [2] DFAMT: Filer project path [C:\pd_repo\pd\_CITADEL\Mentor\Citadel\database] access monitoring ended
[2016.12.06 15:01:31] [0270m.00s.797ms] [2] DFAMT: STOP
[2016.12.06 15:01:31] [0270m.00s.797ms] [4] DFAMT: FINISHED
[2016.12.06 15:01:31] [0270m.00s.797ms] [3] DiagSystemMemoryMonitorThread: FREE
[2016.12.06 15:01:31] [0270m.00s.797ms] [4] DiagSystemMemoryMonitorThread: Waiting for finish
[2016.12.06 15:01:31] [0270m.00s.812ms] [2] DiagSystemMemoryMonitorThread: System memory usage monitoring ended
[2016.12.06 15:01:31] [0270m.00s.812ms] [2] DiagSystemMemoryMonitorThread: STOP
[2016.12.06 15:01:31] [0270m.00s.812ms] [4] DiagSystemMemoryMonitorThread: FINISHED
[2016.12.06 15:01:31] [0270m.00s.812ms] [4] DMT: FINISHED
[2016.12.06 15:01:31] [0270m.00s.812ms] [2] SCL: Removing all clients
[2016.12.06 15:01:31] [0270m.00s.812ms] [2] iCDB Server PI: Unloading observers
[2016.12.06 15:01:31] [0270m.00s.812ms] [2] iCDB Server PI: Observers unloaded
[2016.12.06 15:01:31] [0270m.00s.812ms] [0] iCDB Server PI: Closing plugins
[2016.12.06 15:01:31] [0270m.00s.812ms] [2] iCDB Server PI: Closing PIM plugin
[2016.12.06 15:01:31] [0270m.00s.812ms] [5] iCDB PIM Wrapper: FREE
[2016.12.06 15:01:31] [0270m.00s.812ms] [2] iCDB Server PI: Closing ENetGen plugin
[2016.12.06 15:01:31] [0270m.00s.812ms] [5] iCDB ENetGen Wrapper: FREE
[2016.12.06 15:01:31] [0270m.00s.812ms] [0] iCDB Server PI: Plugins closed
[2016.12.06 15:01:31] [0270m.00s.812ms] [0] iCDB Server PI: Unloading database
[2016.12.06 15:01:31] [0270m.00s.812ms] [7] DCM: CDBCesDefConstraintManager::LoadVersionInfo(force[0] cumulativesaveVersion[00000000] transporter[00000000]) -- isModified[0] upgradeFlag[0]
[2016.12.06 15:01:31] [0270m.00s.812ms] [6] iCDB Storage Server: Saving all modified files
[2016.12.06 15:01:31] [0270m.00s.812ms] [0] iCDB Server PI: Saving storage
[2016.12.06 15:01:31] [0270m.00s.812ms] [6] iCDB Storage Server: Saving all modified files
[2016.12.06 15:01:31] [0270m.00s.812ms] [0] iCDB Server PI: Closing database
[2016.12.06 15:01:31] [0270m.00s.812ms] [7] Holes::writing holes [4] prev [0] from [1596604] 
[2016.12.06 15:01:31] [0270m.00s.812ms] [7] Holes::write <679148,683243>
[2016.12.06 15:01:31] [0270m.00s.812ms] [7] Holes::write <687340,692651>
[2016.12.06 15:01:31] [0270m.00s.812ms] [7] Holes::write <1111676,1111867>
[2016.12.06 15:01:31] [0270m.00s.812ms] [7] Holes::write <1120252,1403835>
[2016.12.06 15:01:31] [0270m.00s.812ms] [7] Holes have been successfully saved 4 CRC [3981253577]
[2016.12.06 15:01:31] [0270m.00s.812ms] [1] iCDB Server PI: Stats: Database defragmentation: max[4] avg[1] holes[11%] data[99%]
[2016.12.06 15:01:31] [0270m.00s.812ms] [1] iCDB Server PI: Stats: Database file size [1596640 (1.5 MB)]
[2016.12.06 15:01:31] [0270m.00s.812ms] [7] Holes::writing holes [4] prev [4] from [1596636] 
[2016.12.06 15:01:31] [0270m.00s.812ms] [7] Holes::write <679148,683243>
[2016.12.06 15:01:31] [0270m.00s.812ms] [7] Holes::write <687340,692651>
[2016.12.06 15:01:31] [0270m.00s.812ms] [7] Holes::write <1111676,1111867>
[2016.12.06 15:01:31] [0270m.00s.812ms] [7] Holes::write <1120252,1403835>
[2016.12.06 15:01:31] [0270m.00s.812ms] [7] Holes have been successfully saved 4 CRC [3981253577]
[2016.12.06 15:01:31] [0270m.00s.812ms] [7] DCM: CDBCesDefConstraintManager::UnLoad()
[2016.12.06 15:01:31] [0270m.00s.812ms] [3] iCDB Storage Server: FREE
[2016.12.06 15:01:31] [0270m.00s.812ms] [3] iCDB Storage Server Save Thread: FREE
[2016.12.06 15:01:31] [0270m.00s.812ms] [4] iCDB Storage Server Save Thread: Waiting for finish
[2016.12.06 15:01:31] [0270m.00s.812ms] [2] iCDB Storage Server Save Thread: STOP
[2016.12.06 15:01:31] [0270m.00s.812ms] [3] iCDB Storage Server Backup Thread: FREE
[2016.12.06 15:01:31] [0270m.00s.812ms] [4] iCDB Storage Server Backup Thread: Waiting for finish
[2016.12.06 15:01:31] [0270m.00s.812ms] [2] iCDB Storage Server Backup Thread: STOP
[2016.12.06 15:01:31] [0270m.00s.812ms] [3] SingleFile: [0000-0000-0000-0000] Modification time updated for file [C:\pd_repo\pd\_CITADEL\Mentor\Citadel\database\icdb.dat]
[2016.12.06 15:01:31] [0270m.00s.812ms] [3] SingleFile: [0000-0000-0000-0000] Closing file [C:\pd_repo\pd\_CITADEL\Mentor\Citadel\database\icdb.dat] restrained
[2016.12.06 15:01:31] [0270m.00s.812ms] [0] iCDB Server PI: Database closed
[2016.12.06 15:01:31] [0270m.00s.812ms] [1] iCDB Server PI: Stats: Total iCDB execution time: [411000] ticks
[2016.12.06 15:01:31] [0270m.00s.812ms] [1] iCDB Server PI: Stats: Total iCDB execution time: [149879] microseconds
[2016.12.06 15:01:31] [0270m.00s.812ms] [1] iCDB Server PI: Stats: Total iCDB commands count: [339]
[2016.12.06 15:01:31] [0270m.00s.812ms] [1] iCDB Server PI: Stats: Average iCDB speed:        [2261] commands per second
[2016.12.06 15:01:31] [0270m.00s.828ms] [0] Single file [C:\pd_repo\pd\_CITADEL\Mentor\Citadel\database\icdb.dat] closed with size [1596640 (1.5 MB)]
[2016.12.06 15:01:31] [0270m.00s.828ms] [2] SDL: Removing all connected iCDB Server Monitor
[2016.12.06 15:01:31] [0270m.00s.828ms] [2] S: Unloading ENetGen plugin from file [C:\MentorGraphics\PADSProVX.2\SDD_HOME\common\win32\bin\..\lib\ENetGen70.dll]
[2016.12.06 15:01:31] [0270m.00s.828ms] [2] S: Unloading PIM plugin from file [C:\MentorGraphics\PADSProVX.2\SDD_HOME\common\win32\bin\..\lib\PIM.dll]
[2016.12.06 15:01:31] [0270m.00s.844ms] [3] ST: FREE
[2016.12.06 15:01:31] [0270m.00s.844ms] [4] ST: Waiting for finish
[2016.12.06 15:01:31] [0270m.00s.844ms] [2] ST: STOP
[2016.12.06 15:01:31] [0270m.00s.844ms] [3] MET: FREE
[2016.12.06 15:01:31] [0270m.00s.844ms] [4] MET: Waiting for finish
[2016.12.06 15:01:31] [0270m.00s.844ms] [2] MET: STOP
[2016.12.06 15:01:31] [0270m.00s.844ms] [3] MCE: FREE
[2016.12.06 15:01:31] [0270m.00s.844ms] [3] ELMT: FREE
[2016.12.06 15:01:31] [0270m.00s.844ms] [4] ELMT: Waiting for finish
[2016.12.06 15:01:31] [0270m.00s.844ms] [2] ELMT: STOP
[2016.12.06 15:01:31] [0270m.00s.859ms] [3] EventLogDataFile: EventLog data file [C:\pd_repo\pd\_CITADEL\Mentor\Citadel\database\cdbsvr\events\events.dat] closed
[2016.12.06 15:01:31] [0270m.00s.859ms] [3] EventLogIndexFile: EventLog index file [C:\pd_repo\pd\_CITADEL\Mentor\Citadel\database\cdbsvr\events\events.idx] closed
[2016.12.06 15:01:31] [0270m.00s.859ms] [4] ELMT: FINISHED
[2016.12.06 15:01:31] [0270m.00s.859ms] [3] AT: FREE
[2016.12.06 15:01:31] [0270m.00s.859ms] [4] AT: Waiting for finish
[2016.12.06 15:01:31] [0270m.00s.897ms] [2] AT: Removing server address file [C:\pd_repo\pd\_CITADEL\Mentor\Citadel\database\cdbsvr\sAddress.adr]
[2016.12.06 15:01:31] [0270m.00s.897ms] [0] AT: ERROR: Could not remove server address file [C:\pd_repo\pd\_CITADEL\Mentor\Citadel\database\cdbsvr\sAddress.adr]
[2016.12.06 15:01:31] [0270m.00s.897ms] [2] AT: STOP
[2016.12.06 15:01:31] [0270m.00s.897ms] [3] BT: FREE
[2016.12.06 15:01:31] [0270m.00s.897ms] [4] BT: Waiting for finish
[2016.12.06 15:01:31] [0270m.00s.928ms] [4] BT: Sending broadcast on port [10000]: NotifyProjectGlobalStatus @ Version[1] # Id[Sender GUID[d3d3-86ea-b748-38e5-2f5f-6487-f5f6-4850-9826-8382-b162-24a8] Command number[1188438]] # Proxy[EMPTY] # RequestId[Sender GUID[0000-0000-0000-0000-0000-0000-0000-0000-0000-0000-0000-0000] Command number[0]] # ReplyPort[0] # ProjectId [GUID[3edb-f997-378d-3d57-11a5-2286-1a52-2850-5ff3-9382-b182-04a8] Address[Host[DESKTOP-TJKR3AR] Port[10001]] IsLauncher[FALSE] Launcher[GUID[0000-0000-0000-0000-0000-0000-0000-0000-0000-0000-0000-0000] Address[Host[] Port[0]]] Path[C:\pd_repo\pd\_CITADEL\Mentor\Citadel\database] ReadOnly[FALSE] Server GUID[d3d3-86ea-b748-38e5-2f5f-6487-f5f6-4850-9826-8382-b162-24a8]] # Status [Shutdown]
[2016.12.06 15:01:31] [0270m.00s.928ms] [2] BT: STOP
[2016.12.06 15:01:31] [0270m.00s.928ms] [3] MWT: FREE
[2016.12.06 15:01:31] [0270m.00s.928ms] [4] MWT: Waiting for finish
[2016.12.06 15:01:31] [0270m.00s.928ms] [0] MWT: Destroy the shutdown block reason.
[2016.12.06 15:01:31] [0270m.00s.928ms] [0] MWT: STOP
[2016.12.06 15:01:31] [0270m.00s.928ms] [0] S: STOP
[2016.12.06 15:01:31] [0270m.00s.928ms] [3] S: FREE
[2016.12.06 15:01:31] [0270m.00s.928ms] [3] S: FREE: Server implementation
[2016.12.06 15:01:31] [0270m.00s.928ms] [3] SDSM: FREE
[2016.12.06 15:01:31] [0270m.00s.928ms] [3] SDL: FREE
[2016.12.06 15:01:31] [0270m.00s.928ms] [3] SCL: FREE
[2016.12.06 15:01:31] [0270m.00s.928ms] [6] SSM: FREE
[2016.12.06 15:01:31] [0270m.00s.928ms] [3] SMCL: FREE
[2016.12.06 15:01:31] [0270m.00s.928ms] [3] SS: FREE
[2016.12.06 15:01:31] [0270m.00s.928ms] [3] SM: FREE
[2016.12.06 15:01:31] [0270m.00s.928ms] [3] SingleMessageSender: Send thread: FREE
[2016.12.06 15:01:31] [0270m.00s.928ms] [4] SingleMessageSender: Send thread: Waiting for finish
[2016.12.06 15:01:31] [0270m.00s.928ms] [2] SingleMessageSender: Send thread: STOP
[2016.12.06 15:01:31] [0270m.00s.928ms] [4] SingleMessageSender: Send thread: FINISHED
[2016.12.06 15:01:31] [0270m.00s.928ms] [3] SCQ: FREE
[2016.12.06 15:01:31] [0270m.00s.928ms] [3] MCQ: FREE
