[2016.02.01 18:18:52] [0000m.17s.007ms] [0] WELCOME
[2016.02.01 18:18:52] [0000m.17s.008ms] [1] iCDB Database ver.2.101, 3UDjJHMiCHg78unffLJcEw, build:673008 created 2015-03-11 13:21:12, sources stamp:3UDjJHMiCHg78unffLJcEw
[2016.02.01 18:18:52] [0000m.17s.009ms] [1] Copyright 2015 Mentor Graphics Corporation. All Rights Reserved.
[2016.02.01 18:18:52] [0000m.17s.009ms] [1] Base flow version [VX.1.1]
[2016.02.01 18:18:52] [0000m.17s.009ms] [1] GBS Install Id [43430], Flow Id [PADS-Pro VX.1.1], Full Flow Name [PADS Professional VX.1.1], Exact Access Date [Feb 1 2015]
[2016.02.01 18:18:52] [0000m.17s.009ms] [1] Machine [PC-ENG2LJDFJKDS]  User [branden.sheffield]  PID [2636]
[2016.02.01 18:18:52] [0000m.17s.009ms] [1] Operating system [Microsoft Windows 7 Enterprise Edition, 64-bit Service Pack 1 (build 7601)]
[2016.02.01 18:18:52] [0000m.17s.010ms] [1] Current working dir [C:\Users\branden.sheffield\Documents\Crusher3.0\Mentor\CrusherMain]
[2016.02.01 18:18:52] [0000m.17s.010ms] [1] PATH [C:\MentorGraphics\PADSProVX.1.1\SDD_HOME\common\win32\bin;C:\MentorGraphics\PADSProVX.1.1\SDD_HOME\common\win32\lib;C:\MentorGraphics\PADSProVX.1.1\MGC_HOME.ixn\bin;C:\MentorGraphics\PADSProVX.1.1\MGC_HOME.ixn\lib;C:\MentorGraphics\PADSProVX.1.1\SDD_HOME\wv\win32\bin;C:\Program Files (x86)\CSR\BlueSuite 2.5.8\DFU Tools;C:\ProgramData\Oracle\Java\javapath;C:\Program Files (x86)\NVIDIA Corporation\PhysX\Common;C:\Windows\system32;C:\Windows;C:\Windows\System32\Wbem;C:\Windows\System32\WindowsPowerShell\v1.0\;C:\Program Files (x86)\Skype\Phone\;C:\Program Files (x86)\MATLAB\MATLAB Compiler Runtime\v716\runtime\win32]
[2016.02.01 18:18:52] [0000m.17s.010ms] [1] SDD_HOME [C:\MentorGraphics\PADSProVX.1.1\SDD_HOME] on file system [NTFS]
[2016.02.01 18:18:52] [0000m.17s.010ms] [1] SDD_PLATFORM [win32]
[2016.02.01 18:18:52] [0000m.17s.010ms] [1] WDIR [C:\WDIR\PADSProVX.1.1;C:\MentorGraphics\PADSProVX.1.1\SDD_HOME\standard;]
[2016.02.01 18:18:52] [0000m.17s.010ms] [1] Local iCDB working dir [C:\WDIR\PADSProVX.1.1\iCDB] on file system [NTFS]
[2016.02.01 18:18:52] [0000m.17s.010ms] [3] WARNING: Database [C:\Users\branden.sheffield\Documents\Crusher3.0\Mentor\CrusherMain\database\icdb.dat] was manually copied
[2016.02.01 18:18:52] [0000m.17s.010ms] [3] File change time:        [2016-02-01 14.08.47]
[2016.02.01 18:18:52] [0000m.17s.010ms] [3] File modification time:  [2016-02-01 15.16.20]
[2016.02.01 18:18:52] [0000m.17s.010ms] [3] Last change time:        [2016-02-01 14.09.09]
[2016.02.01 18:18:52] [0000m.17s.010ms] [3] Last database open information:
[2016.02.01 18:18:52] [0000m.17s.011ms] [3] Time:             [2016-02-01 14.09.09]
[2016.02.01 18:18:52] [0000m.17s.011ms] [3] Location:         [C:\Users\branden.sheffield\Documents\Crusher3.0\Mentor\CrusherMain\database\icdb.dat]
[2016.02.01 18:18:52] [0000m.17s.011ms] [3] Machine:          [PC-ENG2LJDFJKDS]
[2016.02.01 18:18:52] [0000m.17s.011ms] [3] User:             [branden.sheffield]
[2016.02.01 18:18:52] [0000m.17s.011ms] [3] PID:              [7612]
[2016.02.01 18:18:52] [0000m.17s.011ms] [3] Application:      [iCDB Server]
[2016.02.01 18:18:52] [0000m.17s.011ms] [3] Operating system: [Microsoft Windows 7 Enterprise Edition, 64-bit Service Pack 1 (build 7601)]
[2016.02.01 18:18:52] [0000m.17s.011ms] [3] WARNING: Regenerating database GUID
[2016.02.01 18:18:52] [0000m.17s.011ms] [3] Previous database GUID [dc38-804a-5d3c-dd5e-68d5-a36b-8d5a-3650-3ae7-e2a5-c646-649c]
[2016.02.01 18:18:52] [0000m.17s.012ms] [3] Current database GUID  [88cc-5579-384d-6fdd-cf30-0b61-0400-b650-fcd7-d2a5-d616-449c]
[2016.02.01 18:18:52] [0000m.17s.012ms] [0] .
