 ----------------------------
|       BOM Output Log       |
|          Started           |
|  Wed May 25 11:45:20 2016  |
 ----------------------------


 Extracting Package cell information...

 Extracting Mechanical cell information...


 Generating BOM for all components.



 ---------------------------
|       BOM Output Log       |
|          Finished          |
|  Wed May 25 11:45:21 2016  |
 ----------------------------
