
                                PLANES PROCESSOR
                                ----------------

                      05:27 PM Tuesday, September 22, 2015
Job Name: C:\Users\branden.sheffield\Documents\Crusher3.0\Mentor\CrusherMain\PCB\Main.pcb

