=======================================================================
PADS Professional Layout - Version 2015.0.678.963
=======================================================================

RELOAD CELLS

Job Directory:  C:\Users\branden.sheffield\Documents\Crusher3.0\Mentor\CrusherMain\PCB\


Design Units:(mm)

Replace Cell Log:   repCellLog16.txt

Fri Sep 25 15:17:34 2015

Reference Designator            Cell Name                         New Cell Name
===============================================================================


---------------  RELOAD CELLS  Fri Sep 25 15:17:34 2015  ---------------




---------------    Fri Sep 25 15:17:34 2015  ---------------


