=======================================================================
PADS Professional Layout - Version 2015.0.678.963
=======================================================================

RELOAD CELLS

Job Directory:  C:\Users\branden.sheffield\Documents\Crusher3.0\Mentor\CrusherMain\PCB\


Design Units:(mm)

Replace Cell Log:   repCellLog47.txt

Mon May 23 10:12:57 2016

Reference Designator            Cell Name                         New Cell Name
===============================================================================


---------------  RELOAD CELLS  Mon May 23 10:12:57 2016  ---------------




---------------    Mon May 23 10:12:57 2016  ---------------




---------------  RELOAD CELLS  Mon May 23 10:39:54 2016  ---------------




---------------  RELOAD CELLS TMP  Mon May 23 10:39:54 2016  ---------------




---------------    Mon May 23 10:39:54 2016  ---------------




---------------    Mon May 23 10:39:54 2016  ---------------




---------------    Mon May 23 10:39:54 2016  ---------------




---------------    Mon May 23 10:39:54 2016  ---------------




---------------    Mon May 23 10:39:54 2016  ---------------




---------------    Mon May 23 10:39:54 2016  ---------------




---------------    Mon May 23 10:39:54 2016  ---------------




---------------    Mon May 23 10:39:54 2016  ---------------




---------------    Mon May 23 10:39:54 2016  ---------------




---------------    Mon May 23 10:39:54 2016  ---------------




---------------    Mon May 23 10:39:54 2016  ---------------




---------------    Mon May 23 10:39:54 2016  ---------------




---------------    Mon May 23 10:39:54 2016  ---------------




---------------    Mon May 23 10:39:54 2016  ---------------




---------------    Mon May 23 10:39:54 2016  ---------------




---------------    Mon May 23 10:39:54 2016  ---------------




---------------    Mon May 23 10:39:54 2016  ---------------




---------------    Mon May 23 10:39:54 2016  ---------------




---------------    Mon May 23 10:39:54 2016  ---------------




---------------    Mon May 23 10:39:54 2016  ---------------




---------------    Mon May 23 10:39:54 2016  ---------------




---------------    Mon May 23 10:39:54 2016  ---------------




---------------    Mon May 23 10:39:54 2016  ---------------




---------------    Mon May 23 10:39:54 2016  ---------------




---------------    Mon May 23 10:39:54 2016  ---------------




---------------    Mon May 23 10:39:54 2016  ---------------




---------------    Mon May 23 10:39:54 2016  ---------------




---------------    Mon May 23 10:39:54 2016  ---------------




---------------    Mon May 23 10:39:54 2016  ---------------




---------------    Mon May 23 10:39:54 2016  ---------------




---------------    Mon May 23 10:39:54 2016  ---------------




---------------    Mon May 23 10:39:54 2016  ---------------




---------------    Mon May 23 10:39:54 2016  ---------------




---------------    Mon May 23 10:39:54 2016  ---------------




---------------    Mon May 23 10:39:54 2016  ---------------




---------------    Mon May 23 10:39:54 2016  ---------------




---------------    Mon May 23 10:39:54 2016  ---------------




---------------    Mon May 23 10:39:54 2016  ---------------




---------------    Mon May 23 10:39:54 2016  ---------------




---------------    Mon May 23 10:39:54 2016  ---------------




---------------    Mon May 23 10:39:54 2016  ---------------




---------------    Mon May 23 10:39:54 2016  ---------------




---------------    Mon May 23 10:39:54 2016  ---------------




---------------    Mon May 23 10:39:54 2016  ---------------




---------------    Mon May 23 10:39:54 2016  ---------------




---------------    Mon May 23 10:39:54 2016  ---------------




---------------    Mon May 23 10:39:54 2016  ---------------




---------------    Mon May 23 10:39:54 2016  ---------------




---------------    Mon May 23 10:39:54 2016  ---------------




---------------    Mon May 23 10:39:54 2016  ---------------




---------------    Mon May 23 10:39:54 2016  ---------------




---------------    Mon May 23 10:39:54 2016  ---------------




---------------    Mon May 23 10:39:54 2016  ---------------




---------------    Mon May 23 10:39:54 2016  ---------------




---------------    Mon May 23 10:39:54 2016  ---------------




---------------    Mon May 23 10:39:54 2016  ---------------




---------------    Mon May 23 10:39:54 2016  ---------------




---------------    Mon May 23 10:39:54 2016  ---------------




---------------    Mon May 23 10:39:54 2016  ---------------




---------------    Mon May 23 10:39:54 2016  ---------------




---------------    Mon May 23 10:39:54 2016  ---------------




---------------    Mon May 23 10:39:54 2016  ---------------




---------------    Mon May 23 10:39:54 2016  ---------------




---------------    Mon May 23 10:39:54 2016  ---------------




---------------    Mon May 23 10:39:54 2016  ---------------




---------------    Mon May 23 10:39:54 2016  ---------------




---------------    Mon May 23 10:39:54 2016  ---------------


R41                             0201                              0201                            
L5                              0603                              0603                            
C45                             0603                              0603                            
R56                             0402                              0402                            
R5                              0402                              0402                            
R42                             0201                              0201                            
C46                             0402                              0402                            
R61                             0402                              0402                            
R43                             0201                              0201                            
R62                             0402                              0402                            
C47                             0402                              0402                            
R63                             0402                              0402                            
C6                              0201                              0201                            
R44                             0201                              0201                            
R64                             0402                              0402                            
C50                             0402                              0402                            
R65                             0402                              0402                            
C48                             0402                              0402                            
R66                             0402                              0402                            
L6                              0603                              0603                            
R45                             0402                              0402                            
R67                             0402                              0402                            
R6                              0402                              0402                            
C49                             0402                              0402                            
R70                             0402                              0402                            
C51                             0402                              0402                            
R68                             0402                              0402                            
C7                              0402                              0402                            
R46                             0402                              0402                            
R71                             0402                              0402                            
C10                             0201                              0201                            
C52                             0402                              0402                            
R69                             0402                              0402                            
D7                              0402                              0402                            
R47                             0402                              0402                            
C53                             0402                              0402                            
R72                             0402                              0402                            
C11                             0201                              0201                            
R48                             0402                              0402                            
R50                             0402                              0402                            
R73                             0402                              0402                            
C12                             0402                              0402                            
C54                             0402                              0402                            
L7                              0402                              0402                            
R51                             0201                              0201                            
L10                             0402                              0402                            
R49                             0402                              0402                            
R74                             0402                              0402                            
C55                             0603                              0603                            
R52                             0402                              0402                            
R75                             0402                              0402                            
C13                             0402                              0402                            
C56                             0603                              0603                            
L11                             0402                              0402                            
R53                             0402                              0402                            
R76                             0402                              0402                            
C57                             0402                              0402                            
R54                             0402                              0402                            
R77                             0402                              0402                            
R10                             0402                              0402                            
C60                             0402                              0402                            
R7                              0402                              0402                            
C58                             0603                              0603                            
R80                             0402                              0402                            
C14                             0402                              0402                            
R55                             0402                              0402                            
R78                             0402                              0402                            
C59                             0402                              0402                            
R79                             0402                              0402                            
L12                             0402                              0402                            
C61                             0402                              0402                            
R81                             0402                              0402                            
R82                             0402                              0402                            
R11                             0402                              0402                            
R83                             0402                              0402                            
R84                             0402                              0402                            
R85                             0402                              0402                            
R12                             0402                              0402                            
C16                             0402                              0402                            
R13                             0402                              0402                            
C17                             0402                              0402                            
R14                             0402                              0402                            
C8                              0201                              0201                            
C20                             0603                              0603                            
C18                             0402                              0402                            
D8                              0402                              0402                            
R15                             0402                              0402                            
C21                             0603                              0603                            
C19                             0402                              0402                            
R16                             1210                              1210                            
C22                             0603                              0603                            
L8                              0402                              0402                            
R17                             0805                              0805                            
C23                             0603                              0603                            
R8                              0402                              0402                            
R18                             0402                              0402                            
R20                             0402                              0402                            
C24                             0402                              0402                            
U8                              W25Q16DW_BY                       W25Q16DW_BY                     
R19                             0402                              0402                            
C25                             0402                              0402                            
C1                              0402                              0402                            
C26                             0402                              0402                            
D1                              0402                              0402                            
C27                             0402                              0402                            
L1                              0603                              0603                            
C9                              0402                              0402                            
C28                             0402                              0402                            
R1                              0402                              0402                            
C30                             0402                              0402                            
C29                             0603                              0603                            
C31                             0402                              0402                            
C32                             0402                              0402                            
C2                              0402                              0402                            
L9                              0402                              0402                            
D2                              0402                              0402                            
C33                             0402                              0402                            
R9                              0402                              0402                            
L2                              0603                              0603                            
C34                             0402                              0402                            
Q2                              RE1C002UNTCL                      RE1C002UNTCL                    
R2                              0402                              0402                            
C35                             0402                              0402                            
U2                              SGM4917                           SGM4917                         
C3                              0402                              0402                            
C36                             0402                              0402                            
D3                              0402                              0402                            
C37                             0402                              0402                            
L3                              0603                              0603                            
C40                             0402                              0402                            
C38                             0603                              0603                            
R3                              0402                              0402                            
U3                              transistor_3904                   transistor_3904                 
C41                             0402                              0402                            
C39                             0603                              0603                            
C4                              0402                              0402                            
D4                              0402                              0402                            
C42                             0402                              0402                            
L4                              0603                              0603                            
C43                             0402                              0402                            
R4                              0201                              0201                            
R38                             0402                              0402                            
C44                             0402                              0402                            
C5                              0201                              0201                            
R39                             0402                              0402                            


---------------    Mon May 23 10:39:54 2016  ---------------




---------------    Mon May 23 10:39:54 2016  ---------------




---------------  RELOAD CELLS  Mon May 23 15:44:55 2016  ---------------




---------------    Mon May 23 15:44:55 2016  ---------------


