=======================================================================
PADS Professional Layout - Version 2015.0.678.963
=======================================================================

RELOAD CELLS

Job Directory:  C:\Users\branden.sheffield\Documents\Crusher3.0\Mentor\CrusherMain\PCB\


Design Units:(mm)

Replace Cell Log:   repCellLog18.txt

Tue Sep 29 10:07:30 2015

Reference Designator            Cell Name                         New Cell Name
===============================================================================


---------------  RELOAD CELLS  Tue Sep 29 10:07:30 2015  ---------------




---------------  RELOAD CELLS TMP  Tue Sep 29 10:07:30 2015  ---------------


U1                              CSR8640                           CSR8640                         
FL1                             LFB21_0805                        LFB21_0805                      


---------------    Tue Sep 29 10:07:30 2015  ---------------




---------------    Tue Sep 29 10:07:30 2015  ---------------


