=======================================================================
PADS Professional Layout - Version 2015.0.678.963
=======================================================================

RELOAD CELLS

Job Directory:  C:\Users\branden.sheffield\Documents\RedPeril\Mentor\RedPeril\PCB\


Design Units:(mm)

Replace Cell Log:   repCellLog57.txt

Tue Oct 11 12:52:33 2016

Reference Designator            Cell Name                         New Cell Name
===============================================================================


---------------  RELOAD CELLS  Tue Oct 11 12:52:33 2016  ---------------




---------------    Tue Oct 11 12:52:33 2016  ---------------




---------------    Tue Oct 11 15:34:14 2016  ---------------


