=======================================================================
PADS Professional Layout - Version 2015.0.678.963
=======================================================================

RELOAD CELLS

Job Directory:  C:\Users\branden.sheffield\Documents\LE30BT\Mentor\LE30BT\PCB\


Design Units:(mm)

Replace Cell Log:   repCellLog50.txt

Mon Aug 22 17:24:15 2016

Reference Designator            Cell Name                         New Cell Name
===============================================================================


---------------  RELOAD CELLS  Mon Aug 22 17:24:15 2016  ---------------




---------------    Mon Aug 22 17:24:15 2016  ---------------


