=======================================================================
PADS Professional Layout - Version 2015.0.678.963
=======================================================================

RELOAD CELLS

Job Directory:  C:\Users\branden.sheffield\Documents\Crusher3.0\Mentor\CrusherMain\PCB\


Design Units:(mm)

Replace Cell Log:   repCellLog22.txt

Mon Nov 09 12:26:24 2015

Reference Designator            Cell Name                         New Cell Name
===============================================================================


---------------  RELOAD CELLS  Mon Nov 09 12:26:24 2015  ---------------




---------------    Mon Nov 09 12:26:24 2015  ---------------




---------------    Mon Nov 09 12:27:13 2015  ---------------




---------------    Mon Nov 09 12:27:20 2015  ---------------




---------------  RELOAD CELLS  Mon Nov 09 12:28:25 2015  ---------------




---------------    Mon Nov 09 12:28:25 2015  ---------------




---------------    Mon Nov 09 12:28:46 2015  ---------------




---------------    Mon Nov 09 12:28:53 2015  ---------------




---------------    Mon Nov 09 12:29:04 2015  ---------------




---------------    Mon Nov 09 12:29:12 2015  ---------------




---------------    Mon Nov 09 12:29:13 2015  ---------------




---------------    Mon Nov 09 12:29:20 2015  ---------------




---------------    Mon Nov 09 12:29:22 2015  ---------------




---------------    Mon Nov 09 12:29:46 2015  ---------------




---------------    Mon Nov 09 12:31:50 2015  ---------------




---------------    Mon Nov 09 12:32:07 2015  ---------------




---------------    Mon Nov 09 12:32:17 2015  ---------------




---------------    Mon Nov 09 12:32:42 2015  ---------------




---------------    Mon Nov 09 12:32:50 2015  ---------------




---------------    Mon Nov 09 12:33:04 2015  ---------------




---------------    Mon Nov 09 12:33:08 2015  ---------------




---------------    Mon Nov 09 12:35:59 2015  ---------------




---------------    Mon Nov 09 12:36:11 2015  ---------------




---------------    Mon Nov 09 12:36:14 2015  ---------------




---------------    Mon Nov 09 12:36:42 2015  ---------------




---------------    Mon Nov 09 12:36:50 2015  ---------------




---------------    Mon Nov 09 12:37:02 2015  ---------------




---------------    Mon Nov 09 12:37:32 2015  ---------------




---------------    Mon Nov 09 12:37:47 2015  ---------------




---------------    Mon Nov 09 12:37:55 2015  ---------------




---------------    Mon Nov 09 12:38:06 2015  ---------------




---------------    Mon Nov 09 12:38:22 2015  ---------------




---------------    Mon Nov 09 12:50:30 2015  ---------------




---------------  RELOAD CELLS  Mon Nov 09 13:05:39 2015  ---------------




---------------    Mon Nov 09 13:05:39 2015  ---------------




---------------  RELOAD CELLS  Mon Nov 09 13:25:43 2015  ---------------




---------------    Mon Nov 09 13:25:43 2015  ---------------




---------------  RELOAD CELLS  Mon Nov 09 13:26:35 2015  ---------------




---------------    Mon Nov 09 13:26:35 2015  ---------------




---------------    Mon Nov 09 13:29:21 2015  ---------------




---------------    Mon Nov 09 13:31:14 2015  ---------------




---------------    Mon Nov 09 15:02:45 2015  ---------------




---------------    Mon Nov 09 15:03:17 2015  ---------------




---------------    Mon Nov 09 15:03:27 2015  ---------------




---------------    Mon Nov 09 15:04:10 2015  ---------------




---------------  RELOAD CELLS  Mon Nov 09 15:30:58 2015  ---------------




---------------    Mon Nov 09 15:30:58 2015  ---------------


