=======================================================================
PADS Professional Layout - Version 116.0.506.1217
=======================================================================

RELOAD CELLS

Job Directory:  C:\pd_repo\pd\_CITADEL\Mentor\Citadel_MicFB\PCB\


Design Units:(mm)

Replace Cell Log:   repCellLog84.txt

Mon Jan 09 15:15:38 2017

Reference Designator            Cell Name                         New Cell Name
===============================================================================


---------------  RELOAD CELLS  Mon Jan 09 15:15:38 2017  ---------------




---------------  RELOAD CELLS TMP  Mon Jan 09 15:15:38 2017  ---------------


C2                              0402                              0402                            
M2                              CS7154B                           CS7154B                         


---------------    Mon Jan 09 15:15:38 2017  ---------------




---------------    Mon Jan 09 15:15:38 2017  ---------------


