[2016.08.22 17:23:57] [0000m.00s.048ms] [0] WELCOME
[2016.08.22 17:23:57] [0000m.00s.049ms] [1] iCDB Server ver.2.101, 3UDjJHMiCHg78unffLJcEw, build:673008 created 2015-03-11 13:21:12, sources stamp:3UDjJHMiCHg78unffLJcEw
[2016.08.22 17:23:57] [0000m.00s.049ms] [1] Copyright 2015 Mentor Graphics Corporation. All Rights Reserved.
[2016.08.22 17:23:57] [0000m.00s.049ms] [1] Base flow version [VX.1.1]
[2016.08.22 17:23:57] [0000m.00s.049ms] [1] GBS Install Id [43430], Flow Id [PADS-Pro VX.1.1], Full Flow Name [PADS Professional VX.1.1], Exact Access Date [Feb 1 2015]
[2016.08.22 17:23:57] [0000m.00s.049ms] [1] Machine [DESKTOP-TJKR3AR]  User [branden.sheffield]  PID [6536]
[2016.08.22 17:23:57] [0000m.00s.049ms] [1] Operating system [Microsoft Enterprise Edition, 64-bit (build 9200)]
[2016.08.22 17:23:57] [0000m.00s.049ms] [1] Current working dir [C:\Users\branden.sheffield\Documents\LE30BT\Mentor\LE30BT\PCB]
[2016.08.22 17:23:57] [0000m.00s.049ms] [1] PATH [C:\MentorGraphics\PADSProVX.1.1\SDD_HOME\common\win32\bin;C:\MentorGraphics\PADSProVX.1.1\SDD_HOME\common\win32\lib;C:\MentorGraphics\PADSProVX.1.1\MGC_HOME.ixn\bin;C:\MentorGraphics\PADSProVX.1.1\MGC_HOME.ixn\lib;C:\MentorGraphics\PADSProVX.1.1\SDD_HOME\wg\win32\lib;C:\MentorGraphics\PADSProVX.1.1\SDD_HOME\common\win32\bin;C:\MentorGraphics\PADSProVX.1.1\SDD_HOME\common\win32\lib;C:\MentorGraphics\PADSProVX.1.1\MGC_HOME.ixn\bin;C:\MentorGraphics\PADSProVX.1.1\MGC_HOME.ixn\lib;C:\MentorGraphics\PADSProVX.1.1\SDD_HOME\wv\win32\bin;C:\Program Files (x86)\CSR\BlueSuite 2.5.8\DFU Tools;C:\Program Files (x86)\NVIDIA Corporation\PhysX\Common;C:\ProgramData\Oracle\Java\javapath;C:\Windows\system32;C:\Windows;C:\Windows\System32\Wbem;C:\Windows\System32\WindowsPowerShell\v1.0\;C:\Program Files (x86)\Skype\Phone\;C:\Program Files (x86)\Windows Kits\8.1\Windows Performance Toolkit\;C:\Program Files\TortoiseSVN\bin;C:\MentorGraphics\PADSProVX.1.1\SDD_HOME\common\win32\lib;C:\MentorGraphics\PADSProVX.1.1\SDD_HOME\common\win32\bin]
[2016.08.22 17:23:57] [0000m.00s.049ms] [1] SDD_HOME [C:\MentorGraphics\PADSProVX.1.1\SDD_HOME] on file system [NTFS]
[2016.08.22 17:23:57] [0000m.00s.049ms] [1] SDD_PLATFORM [win32]
[2016.08.22 17:23:57] [0000m.00s.049ms] [1] WDIR [C:\WDIR\PADSProVX.1.1;C:\MentorGraphics\PADSProVX.1.1\SDD_HOME\standard;]
[2016.08.22 17:23:57] [0000m.00s.049ms] [1] Local iCDB working dir [C:\WDIR\PADSProVX.1.1\iCDB] on file system [NTFS]
[2016.08.22 17:23:57] [0000m.00s.049ms] [2] S: Loading config files
[2016.08.22 17:23:57] [0000m.00s.056ms] [1] Config file [C:\Users\branden.sheffield\Documents\LE30BT\Mentor\LE30BT\keyin.icdb\cdbsvr\Server.cfg] not found
[2016.08.22 17:23:57] [0000m.00s.058ms] [3] S: Config loaded
[2016.08.22 17:23:57] [0000m.00s.064ms] [0] S: Project path [C:\Users\branden.sheffield\Documents\LE30BT\Mentor\LE30BT\keyin.icdb] on file system [NTFS]
[2016.08.22 17:23:57] [0000m.00s.064ms] [1] S: WARNING: No project file (.prj) path specified
[2016.08.22 17:23:57] [0000m.00s.065ms] [1] S: WARNING: Database auto-repair support DISABLED
[2016.08.22 17:23:57] [0000m.00s.065ms] [0] S: Multi-user mode (config)
[2016.08.22 17:23:57] [0000m.00s.065ms] [0] S: Event polling mode autodetection
[2016.08.22 17:23:57] [0000m.00s.070ms] [0] S: Started up automatically by iCDB Client: DESKTOP-TJKR3AR:branden.sheffield:11208
[2016.08.22 17:23:57] [0000m.00s.070ms] [0] S: Auto close mode
[2016.08.22 17:23:57] [0000m.00s.070ms] [0] S: Database ID [46e8-cace-da11-674c-d898-bb72-998b-b750-17e3-9382-b182-d3a8]
[2016.08.22 17:23:57] [0000m.00s.070ms] [0] PathTranslator: BEGIN dumping
[2016.08.22 17:23:57] [0000m.00s.070ms] [0] PathTranslator: Local -> global path prefix list
[2016.08.22 17:23:57] [0000m.00s.070ms] [0] PathTranslator: [R:\] -> [\\underground.skullcandy.com@SSL\DavWWWRoot\departments\pd\ACE\]
[2016.08.22 17:23:57] [0000m.00s.070ms] [0] PathTranslator: [T:\] -> [\\underground.skullcandy.com@SSL\DavWWWRoot\departments\pd\Packaging\]
[2016.08.22 17:23:57] [0000m.00s.070ms] [0] PathTranslator: [U:\] -> [\\underground.skullcandy.com@SSL\DavWWWRoot\departments\pd\PD Reference Library\]
[2016.08.22 17:23:57] [0000m.00s.070ms] [0] PathTranslator: [W:\] -> [\\underground.skullcandy.com@SSL\DavWWWRoot\departments\pd\Quality\]
[2016.08.22 17:23:57] [0000m.00s.070ms] [0] PathTranslator: [X:\] -> [\\underground.skullcandy.com@SSL\DavWWWRoot\departments\pd\PD Projects\]
[2016.08.22 17:23:57] [0000m.00s.070ms] [0] PathTranslator: [Z:\] -> [\\izombie\shares\pd\]
[2016.08.22 17:23:57] [0000m.00s.070ms] [0] PathTranslator: Global -> local path prefix list
[2016.08.22 17:23:57] [0000m.00s.070ms] [0] PathTranslator: [\\underground.skullcandy.com@SSL\DavWWWRoot\departments\pd\PD Reference Library\] -> [U:\]
[2016.08.22 17:23:57] [0000m.00s.070ms] [0] PathTranslator: [\\underground.skullcandy.com@SSL\DavWWWRoot\departments\pd\PD Projects\] -> [X:\]
[2016.08.22 17:23:57] [0000m.00s.070ms] [0] PathTranslator: [\\underground.skullcandy.com@SSL\DavWWWRoot\departments\pd\Packaging\] -> [T:\]
[2016.08.22 17:23:57] [0000m.00s.070ms] [0] PathTranslator: [\\underground.skullcandy.com@SSL\DavWWWRoot\departments\pd\Quality\] -> [W:\]
[2016.08.22 17:23:57] [0000m.00s.070ms] [0] PathTranslator: [\\underground.skullcandy.com@SSL\DavWWWRoot\departments\pd\ACE\] -> [R:\]
[2016.08.22 17:23:57] [0000m.00s.070ms] [0] PathTranslator: [\\izombie\shares\pd\] -> [Z:\]
[2016.08.22 17:23:57] [0000m.00s.070ms] [0] PathTranslator: END dumping
[2016.08.22 17:23:57] [0000m.00s.070ms] [0] S: START
[2016.08.22 17:23:57] [0000m.00s.071ms] [0] S: Server startup lock file created
[2016.08.22 17:23:57] [0000m.00s.071ms] [0] S: Listening for client connections on port [10002]
[2016.08.22 17:23:57] [0000m.00s.072ms] [0] S: Server network ID [DESKTOP-TJKR3AR:192.168.201.232,DESKTOP-TJKR3AR,DESKTOP-TJKR3AR.skullcandy.local:10002]
[2016.08.22 17:23:57] [0000m.00s.072ms] [0] S: Server GUID [5a80-d723-40f8-c712-d898-bb72-998b-b750-97b5-9382-b182-d3a8]
[2016.08.22 17:23:57] [0000m.00s.072ms] [0] S: Project GUID [46e8-cace-da11-674c-d898-bb72-998b-b750-17e3-9382-b182-d3a8]
[2016.08.22 17:23:57] [0000m.00s.076ms] [0] S: Wrote data to server address file
[2016.08.22 17:23:57] [0000m.00s.076ms] [0] S: Server startup lock file removed
[2016.08.22 17:23:57] [0000m.00s.076ms] [0] ProjectBackupManager: WARNING: Could not create Project Backup - functionality not initialized
[2016.08.22 17:23:57] [0000m.00s.101ms] [0] S: Plugins loaded: [PIM] [ENetGen70] 
[2016.08.22 17:23:57] [0000m.00s.101ms] [0] S: Local disc access time: 29 us
[2016.08.22 17:23:57] [0000m.00s.101ms] [0] S: File server access time: 30 us
[2016.08.22 17:23:57] [0000m.00s.103ms] [0] Single file [C:\Users\branden.sheffield\Documents\LE30BT\Mentor\LE30BT\keyin.icdb\icdb.dat] not exists
[2016.08.22 17:23:57] [0000m.00s.104ms] [1] Single file [C:\Users\branden.sheffield\Documents\LE30BT\Mentor\LE30BT\keyin.icdb\icdb.dat] created
[2016.08.22 17:23:57] [0000m.00s.108ms] [0] iCDB Server PI: Server & plugin session [1]
[2016.08.22 17:23:57] [0000m.00s.108ms] [0] iCDB Server PI: Opening database [C:\Users\branden.sheffield\Documents\LE30BT\Mentor\LE30BT\keyin.icdb]
[2016.08.22 17:23:57] [0000m.00s.108ms] [0] iCDB Server PI: Database [C:\Users\branden.sheffield\Documents\LE30BT\Mentor\LE30BT\keyin.icdb] opened
[2016.08.22 17:23:57] [0000m.00s.129ms] [0] iCDB Database: Checking existence of constraint definitions
[2016.08.22 17:23:57] [0000m.00s.129ms] [0] iCDB Database: Loading constraint definitions into database
[2016.08.22 17:23:57] [0000m.00s.175ms] [0] iCDB Database: Constraint definitions version [ce_ee.cns=7.10.35] loaded
[2016.08.22 17:23:57] [0000m.00s.192ms] [0] iCDB Server PI: Initializing plugins
[2016.08.22 17:23:57] [0000m.00s.192ms] [0] iCDB Server PI: Plugins initialized
[2016.08.22 17:23:57] [0000m.00s.192ms] [0] S: iCDB database loaded
[2016.08.22 17:23:57] [0000m.00s.193ms] [0] S: Starting threads
[2016.08.22 17:23:57] [0000m.00s.193ms] [0] BT: Listening for broadcast messages on port [10000]
[2016.08.22 17:23:57] [0000m.00s.193ms] [0] ProjectBackupManager: WARNING: Could not startup Project Backup engine - functionality not initialized
[2016.08.22 17:23:57] [0000m.00s.193ms] [1] CMT: There are no clients - waiting [10 seconds]
[2016.08.22 17:23:57] [0000m.00s.194ms] [0] IT: Session [2] for host [DESKTOP-TJKR3AR] user [branden.sheffield] with process ID [11208] created
[2016.08.22 17:23:57] [0000m.00s.196ms] [1] SC[2]: Registered sub-client [KeyinConversion] with ID [1] for session ID [2] host [DESKTOP-TJKR3AR] user [branden.sheffield] process ID [11208]
[2016.08.22 17:23:57] [0000m.00s.204ms] [0] IT: iCDB Server Monitor session [1] for host [DESKTOP-TJKR3AR] user [branden.sheffield] with process ID [4408] created
[2016.08.22 17:23:57] [0000m.00s.204ms] [1] DMT: There are [1] iCDB Server Monitor connected now
[2016.08.22 17:23:57] [0000m.00s.294ms] [1] CMT: There are [1] clients now: 2
[2016.08.22 17:23:57] [0000m.00s.337ms] [1] SC[2]: UnRegistered sub-client [KeyinConversion] with ID [1] for session ID [2] host [DESKTOP-TJKR3AR] user [branden.sheffield] process ID [11208]
[2016.08.22 17:23:57] [0000m.00s.337ms] [1] SCL: WARNING: Sub-client [1] of client [2] has locked objects while trying to unregister - auto unlocking
[2016.08.22 17:23:57] [0000m.00s.337ms] [1] SC[2]: WARNING: Trying to get data for non existing sub-client [1]
[2016.08.22 17:23:57] [0000m.00s.410ms] [1] CMT: Removed client [2]
[2016.08.22 17:23:57] [0000m.00s.410ms] [1] CMT: There are no clients left - waiting [1 seconds]
[2016.08.22 17:23:57] [0000m.00s.713ms] [1] SDL: The last connected iCDB Server Monitor [1] is waiting for server close
[2016.08.22 17:23:57] [0000m.00s.729ms] [1] IT: Server stop request received from host [DESKTOP-TJKR3AR] user [branden.sheffield] with process ID [11208]
[2016.08.22 17:23:57] [0000m.00s.744ms] [1] IT: Server stop request accepted
[2016.08.22 17:23:58] [0000m.00s.838ms] [0] S: Closing server
[2016.08.22 17:23:58] [0000m.00s.838ms] [0] ProjectBackupManager: WARNING: Could not shutdown Project Backup engine - not started yet
[2016.08.22 17:23:58] [0000m.00s.963ms] [0] iCDB Server PI: Closing plugins
[2016.08.22 17:23:58] [0000m.00s.963ms] [0] iCDB Server PI: Plugins closed
[2016.08.22 17:23:58] [0000m.00s.963ms] [0] iCDB Server PI: Unloading database
[2016.08.22 17:23:58] [0000m.00s.963ms] [0] iCDB Server PI: Saving storage
[2016.08.22 17:23:58] [0000m.00s.963ms] [0] iCDB Server PI: Closing database
[2016.08.22 17:23:58] [0000m.00s.963ms] [1] iCDB Server PI: Stats: Database defragmentation: max[2] avg[1] holes[0%] data[79%]
[2016.08.22 17:23:58] [0000m.00s.963ms] [1] iCDB Server PI: Stats: Database file size [57968 (56.6 kB)]
[2016.08.22 17:23:58] [0000m.00s.963ms] [0] iCDB Server PI: Database closed
[2016.08.22 17:23:58] [0000m.00s.963ms] [1] iCDB Server PI: Stats: Total iCDB execution time: [81565] ticks
[2016.08.22 17:23:58] [0000m.00s.963ms] [1] iCDB Server PI: Stats: Total iCDB execution time: [29744] microseconds
[2016.08.22 17:23:58] [0000m.00s.963ms] [1] iCDB Server PI: Stats: Total iCDB commands count: [9]
[2016.08.22 17:23:58] [0000m.00s.963ms] [1] iCDB Server PI: Stats: Average iCDB speed:        [302] commands per second
[2016.08.22 17:23:58] [0000m.00s.963ms] [0] Single file [C:\Users\branden.sheffield\Documents\LE30BT\Mentor\LE30BT\keyin.icdb\icdb.dat] closed with size [57968 (56.6 kB)]
[2016.08.22 17:23:58] [0000m.01s.048ms] [1] SD[1]: Removing the last connected iCDB Server Monitor [1]
[2016.08.22 17:23:58] [0000m.01s.049ms] [0] ProjectBackupManager: WARNING: Could not create Project Backup - functionality not initialized
[2016.08.22 17:23:58] [0000m.01s.238ms] [0] S: STOP
