
                                Autosave Log File
                                -----------------

                      07:23 PM Wednesday, December 09, 2015
Job Name: C:\Users\branden.sheffield\Documents\Crusher3.0\Mentor\CrusherMain\PCB\Panel\Main\Main.pnl


                               Autosave log closed
                               -------------------

                      07:23 PM Wednesday, December 09, 2015
Job Name: C:\Users\branden.sheffield\Documents\Crusher3.0\Mentor\CrusherMain\PCB\Panel\Main\Main.pnl

