[2017.01.05 21:34:22] [0000m.00s.037ms] [0] WELCOME
[2017.01.05 21:34:22] [0000m.00s.037ms] [1] iCDB Server ver.2.200, jmoSXI5tfcQi0m1NxN3JKg, build:5060443 created 2016-08-17 14:30:24, sources stamp:jmoSXI5tfcQi0m1NxN3JKg
[2017.01.05 21:34:22] [0000m.00s.037ms] [1] Copyright 2016 Mentor Graphics Corporation.  All Rights Reserved.
[2017.01.05 21:34:22] [0000m.00s.037ms] [1] Base flow version [VX.2]
[2017.01.05 21:34:22] [0000m.00s.037ms] [1] Install Id [1409847], Flow Id [PADS Professional VX.2], Full Flow Name [PADS Professional VX.2], Exact Access Date [2016/05/01]
[2017.01.05 21:34:22] [0000m.00s.037ms] [1] Machine [DESKTOP-TJKR3AR]  User [branden.sheffield]  PID [1508]
[2017.01.05 21:34:22] [0000m.00s.037ms] [1] Operating system [Microsoft Enterprise Edition, 64-bit (build 9200)]
[2017.01.05 21:34:22] [0000m.00s.037ms] [1] Current working dir [C:\pd_repo\pd\_CITADEL\Mentor\Citadel_Right]
[2017.01.05 21:34:22] [0000m.00s.037ms] [1] PATH [C:\MentorGraphics\PADSProVX.2\SDD_HOME\common\win32\bin;C:\MentorGraphics\PADSProVX.2\SDD_HOME\common\win32\lib;C:\MentorGraphics\PADSProVX.2\MGC_HOME.ixn\bin;C:\MentorGraphics\PADSProVX.2\MGC_HOME.ixn\lib;C:\MentorGraphics\PADSProVX.2\SDD_HOME\wv\win32\bin;C:\Program Files (x86)\CSR\BlueSuite 2.5.8\DFU Tools;C:\Program Files (x86)\NVIDIA Corporation\PhysX\Common;C:\ProgramData\Oracle\Java\javapath;C:\WINDOWS\system32;C:\WINDOWS;C:\WINDOWS\System32\Wbem;C:\WINDOWS\System32\WindowsPowerShell\v1.0\;C:\Program Files (x86)\Skype\Phone\;C:\Program Files (x86)\Windows Kits\8.1\Windows Performance Toolkit\;C:\Program Files\TortoiseSVN\bin;C:\Users\branden.sheffield\AppData\Local\Microsoft\WindowsApps;]
[2017.01.05 21:34:22] [0000m.00s.037ms] [1] SDD_HOME [C:\MentorGraphics\PADSProVX.2\SDD_HOME] on file system [NTFS]
[2017.01.05 21:34:22] [0000m.00s.037ms] [1] SDD_PLATFORM [win32]
[2017.01.05 21:34:22] [0000m.00s.037ms] [1] WDIR [C:\WDIR\PADSProVX.2;C:\MentorGraphics\PADSProVX.2\SDD_HOME\standard;]
[2017.01.05 21:34:22] [0000m.00s.037ms] [1] Local iCDB working dir [C:\WDIR\PADSProVX.2\iCDB] on file system [NTFS]
[2017.01.05 21:34:22] [0000m.00s.037ms] [2] S: Loading config files
[2017.01.05 21:34:22] [0000m.00s.037ms] [1] Config file [C:\pd_repo\pd\_CITADEL\Mentor\Citadel_Right\database\cdbsvr\Server.cfg] not found
[2017.01.05 21:34:22] [0000m.00s.037ms] [3] S: Config loaded
[2017.01.05 21:34:22] [0000m.00s.053ms] [0] S: Project path [C:\pd_repo\pd\_CITADEL\Mentor\Citadel_Right\database] on file system [NTFS]
[2017.01.05 21:34:22] [0000m.00s.053ms] [0] S: Project file (.prj) path [C:\pd_repo\pd\_CITADEL\Mentor\Citadel_Right\Citadel_Right.prj] on file system [NTFS]
[2017.01.05 21:34:22] [0000m.00s.053ms] [1] S: WARNING: Database auto-repair support DISABLED
[2017.01.05 21:34:22] [0000m.00s.053ms] [0] S: Multi-user mode (config)
[2017.01.05 21:34:22] [0000m.00s.053ms] [0] S: Event polling mode autodetection
[2017.01.05 21:34:22] [0000m.00s.053ms] [0] S: Started up automatically by iCDB Client: DESKTOP-TJKR3AR:branden.sheffield:4100
[2017.01.05 21:34:22] [0000m.00s.053ms] [0] S: Auto close mode
[2017.01.05 21:34:22] [0000m.00s.053ms] [0] S: Database ID [2ca7-2038-c061-b6ba-8ae2-b48d-ae2b-4850-a8ad-99a8-a7e5-348b]
[2017.01.05 21:34:22] [0000m.00s.053ms] [0] PathTranslator: BEGIN dumping
[2017.01.05 21:34:22] [0000m.00s.053ms] [0] PathTranslator: Local -> global path prefix list
[2017.01.05 21:34:22] [0000m.00s.053ms] [0] PathTranslator: [Z:\] -> [\\izombie\shares\pd\]
[2017.01.05 21:34:22] [0000m.00s.053ms] [0] PathTranslator: Global -> local path prefix list
[2017.01.05 21:34:22] [0000m.00s.053ms] [0] PathTranslator: [\\izombie\shares\pd\] -> [Z:\]
[2017.01.05 21:34:22] [0000m.00s.053ms] [0] PathTranslator: END dumping
[2017.01.05 21:34:22] [0000m.00s.053ms] [0] S: START
[2017.01.05 21:34:22] [0000m.00s.053ms] [0] S: Server startup lock file created
[2017.01.05 21:34:22] [0000m.00s.053ms] [0] S: Listening for client connections on port [10001]
[2017.01.05 21:34:22] [0000m.00s.053ms] [0] S: Server network ID [DESKTOP-TJKR3AR:10.8.195.26,192.168.5.114,DESKTOP-TJKR3AR,DESKTOP-TJKR3AR.skullcandy.local:10001]
[2017.01.05 21:34:22] [0000m.00s.053ms] [0] S: Server GUID [d44e-518f-716a-fac5-e4e1-f683-5e1f-6850-70d9-d936-b462-44fb]
[2017.01.05 21:34:22] [0000m.00s.053ms] [0] S: Project GUID [2ca7-2038-c061-b6ba-8ae2-b48d-ae2b-4850-a8ad-99a8-a7e5-348b]
[2017.01.05 21:34:22] [0000m.00s.069ms] [0] S: Wrote data to server address file
[2017.01.05 21:34:22] [0000m.00s.069ms] [0] S: Server startup lock file removed
[2017.01.05 21:34:22] [0000m.00s.069ms] [1] ProjectBackupManager: Setting project file (.prj) path: [C:\pd_repo\pd\_CITADEL\Mentor\Citadel_Right\Citadel_Right.prj]
[2017.01.05 21:34:22] [0000m.00s.338ms] [0] S: Plugins loaded: [PIM] [ENetGen70] 
[2017.01.05 21:34:22] [0000m.00s.338ms] [0] S: Local disc access time: 33 us
[2017.01.05 21:34:22] [0000m.00s.338ms] [0] S: File server access time: 36 us
[2017.01.05 21:34:22] [0000m.00s.338ms] [0] Single file [C:\pd_repo\pd\_CITADEL\Mentor\Citadel_Right\database\icdb.dat] size [889248 (868.4 kB)]
[2017.01.05 21:34:22] [0000m.00s.338ms] [1] Single file [C:\pd_repo\pd\_CITADEL\Mentor\Citadel_Right\database\icdb.dat] opened in read-write mode
[2017.01.05 21:34:22] [0000m.00s.338ms] [0] SingleFile: [0000-0000-0000-0000] SFI header version check [1009] [1009]
[2017.01.05 21:34:22] [0000m.00s.338ms] [0] Database GUARD OK: [889248]
[2017.01.05 21:34:22] [0000m.00s.338ms] [0] SingleFile: [0000-0000-0000-0000] SFI header version check [1009] [1009]
[2017.01.05 21:34:22] [0000m.00s.338ms] [0] Database GUARD OK: [889248]
[2017.01.05 21:34:22] [0000m.00s.338ms] [0] SingleFile: [0000-0000-0000-0000] SFI header version check [1009] [1009]
[2017.01.05 21:34:22] [0000m.00s.338ms] [0] Database GUARD OK: [889248]
[2017.01.05 21:34:22] [0000m.00s.338ms] [0] SingleFile: [0000-0000-0000-0000] SFI header version check [1009] [1009]
[2017.01.05 21:34:22] [0000m.00s.338ms] [0] Database GUARD OK: [889248]
[2017.01.05 21:34:22] [0000m.00s.338ms] [0] SingleFile: [0000-0000-0000-0000] SFI header version check [1009] [1009]
[2017.01.05 21:34:22] [0000m.00s.338ms] [0] Database GUARD OK: [889248]
[2017.01.05 21:34:22] [0000m.00s.338ms] [0] SingleFile: [4f38-7e5e-1772-3396] SFI version check [1009] [1009]
[2017.01.05 21:34:22] [0000m.00s.354ms] [0] SingleFile: [4f38-7e5e-1772-3396] Database SFI header has been read in [8ms 653us]
[2017.01.05 21:34:22] [0000m.00s.354ms] [0] iCDB Server PI: Server & plugin session [3069]
[2017.01.05 21:34:22] [0000m.00s.354ms] [0] iCDB Server PI: Opening database [C:\pd_repo\pd\_CITADEL\Mentor\Citadel_Right\database]
[2017.01.05 21:34:22] [0000m.00s.354ms] [0] iCDB Server PI: Database [C:\pd_repo\pd\_CITADEL\Mentor\Citadel_Right\database] opened
[2017.01.05 21:34:22] [0000m.00s.401ms] [0] iCDB Database: Checking existence of constraint definitions
[2017.01.05 21:34:22] [0000m.00s.401ms] [0] iCDB Database: Checking constraint definitions version
[2017.01.05 21:34:22] [0000m.00s.454ms] [1] iCDB Database: Constraint definitions version [ce_ee.cns=7.10.56] up to date
[2017.01.05 21:34:22] [0000m.00s.454ms] [0] iCDB Server PI: Initializing plugins
[2017.01.05 21:34:22] [0000m.00s.454ms] [0] iCDB Server PI: Plugins initialized
[2017.01.05 21:34:22] [0000m.00s.454ms] [0] S: iCDB database loaded
[2017.01.05 21:34:22] [0000m.00s.469ms] [0] S: Starting threads
[2017.01.05 21:34:22] [0000m.00s.469ms] [0] BT: Listening for broadcast messages on port [10000]
[2017.01.05 21:34:22] [0000m.00s.469ms] [1] CMT: There are no clients - waiting [10 seconds]
[2017.01.05 21:34:22] [0000m.00s.469ms] [0] MWT: WindowProc: WM_NCCREATE
[2017.01.05 21:34:22] [0000m.00s.469ms] [0] IT: Session [3070] for host [DESKTOP-TJKR3AR] user [branden.sheffield] with process ID [4100] created
[2017.01.05 21:34:22] [0000m.00s.469ms] [1] SC[3070]: Registered sub-client [DxD] with ID [1] for session ID [3070] host [DESKTOP-TJKR3AR] user [branden.sheffield] process ID [4100]
[2017.01.05 21:34:22] [0000m.00s.485ms] [0] IT: iCDB Server Monitor session [1] for host [DESKTOP-TJKR3AR] user [branden.sheffield] with process ID [9620] created
[2017.01.05 21:34:22] [0000m.00s.485ms] [1] DMT: There are [1] iCDB Server Monitor connected now
[2017.01.05 21:34:22] [0000m.00s.585ms] [1] CMT: There are [1] clients now: 3070
[2017.01.05 21:34:22] [0000m.00s.585ms] [1] SC[3070]: Registered sub-client [TransactionRollbackSubClient] with ID [2] for session ID [3070] host [DESKTOP-TJKR3AR] user [branden.sheffield] process ID [4100]
[2017.01.05 21:34:22] [0000m.00s.585ms] [1] SC[3070]: Registered sub-client [xprob] with ID [3] for session ID [3070] host [DESKTOP-TJKR3AR] user [branden.sheffield] process ID [4100]
[2017.01.05 21:34:24] [0000m.02s.488ms] [1] SC[3070]: Registered sub-client [SymbolEditor] with ID [4] for session ID [3070] host [DESKTOP-TJKR3AR] user [branden.sheffield] process ID [4100]
[2017.01.05 21:34:24] [0000m.02s.503ms] [1] SC[3070]: Registered sub-client [SelectionHolder] with ID [5] for session ID [3070] host [DESKTOP-TJKR3AR] user [branden.sheffield] process ID [4100]
[2017.01.05 21:34:24] [0000m.02s.503ms] [1] SC[3070]: Registered sub-client [EEVM_EEVM_493658732] with ID [6] for session ID [3070] host [DESKTOP-TJKR3AR] user [branden.sheffield] process ID [4100]
[2017.01.05 21:34:24] [0000m.02s.519ms] [1] SC[3070]: UnRegistered sub-client [EEVM_EEVM_493658732] with ID [6] for session ID [3070] host [DESKTOP-TJKR3AR] user [branden.sheffield] process ID [4100]
[2017.01.05 21:34:24] [0000m.02s.523ms] [1] SC[3070]: Registered sub-client [EEVM_EEVM_493658732] with ID [7] for session ID [3070] host [DESKTOP-TJKR3AR] user [branden.sheffield] process ID [4100]
[2017.01.05 21:34:24] [0000m.02s.525ms] [1] SC[3070]: UnRegistered sub-client [EEVM_EEVM_493658732] with ID [7] for session ID [3070] host [DESKTOP-TJKR3AR] user [branden.sheffield] process ID [4100]
[2017.01.05 21:34:24] [0000m.02s.541ms] [1] SC[3070]: Registered sub-client [EEVM_EEVM_493660220] with ID [8] for session ID [3070] host [DESKTOP-TJKR3AR] user [branden.sheffield] process ID [4100]
[2017.01.05 21:34:24] [0000m.02s.541ms] [1] SC[3070]: UnRegistered sub-client [EEVM_EEVM_493660220] with ID [8] for session ID [3070] host [DESKTOP-TJKR3AR] user [branden.sheffield] process ID [4100]
[2017.01.05 21:34:24] [0000m.02s.541ms] [1] SC[3070]: Registered sub-client [EEVM_EEVM_493660220] with ID [9] for session ID [3070] host [DESKTOP-TJKR3AR] user [branden.sheffield] process ID [4100]
[2017.01.05 21:34:24] [0000m.02s.557ms] [1] SC[3070]: UnRegistered sub-client [EEVM_EEVM_493660220] with ID [9] for session ID [3070] host [DESKTOP-TJKR3AR] user [branden.sheffield] process ID [4100]
[2017.01.05 21:34:26] [0000m.03s.704ms] [1] SC[3070]: Registered sub-client [SystemDesignDll] with ID [10] for session ID [3070] host [DESKTOP-TJKR3AR] user [branden.sheffield] process ID [4100]
[2017.01.05 21:34:26] [0000m.03s.727ms] [1] SC[3070]: UnRegistered sub-client [SystemDesignDll] with ID [10] for session ID [3070] host [DESKTOP-TJKR3AR] user [branden.sheffield] process ID [4100]
[2017.01.05 21:34:26] [0000m.03s.727ms] [1] SC[3070]: Registered sub-client [SystemDesignDll] with ID [11] for session ID [3070] host [DESKTOP-TJKR3AR] user [branden.sheffield] process ID [4100]
[2017.01.05 21:34:28] [0000m.05s.929ms] [1] SC[3070]: Registered sub-client [DesignSearcher2] with ID [12] for session ID [3070] host [DESKTOP-TJKR3AR] user [branden.sheffield] process ID [4100]
[2017.01.05 21:34:28] [0000m.05s.945ms] [1] SC[3070]: Registered sub-client [HdlProject] with ID [13] for session ID [3070] host [DESKTOP-TJKR3AR] user [branden.sheffield] process ID [4100]
[2017.01.05 21:34:28] [0000m.05s.945ms] [1] SC[3070]: Registered sub-client [Navigator] with ID [14] for session ID [3070] host [DESKTOP-TJKR3AR] user [branden.sheffield] process ID [4100]
[2017.01.05 21:34:28] [0000m.05s.960ms] [1] SC[3070]: Registered sub-client [OutputWindow] with ID [15] for session ID [3070] host [DESKTOP-TJKR3AR] user [branden.sheffield] process ID [4100]
[2017.01.05 21:34:28] [0000m.05s.960ms] [1] SC[3070]: Registered sub-client [PlaceDevice] with ID [16] for session ID [3070] host [DESKTOP-TJKR3AR] user [branden.sheffield] process ID [4100]
[2017.01.05 21:34:28] [0000m.06s.561ms] [1] SC[3070]: Registered sub-client [LocalSymbolsDataProvider] with ID [17] for session ID [3070] host [DESKTOP-TJKR3AR] user [branden.sheffield] process ID [4100]
[2017.01.05 21:34:28] [0000m.06s.577ms] [1] SC[3070]: Registered sub-client [FFSearch_Controller_0] with ID [18] for session ID [3070] host [DESKTOP-TJKR3AR] user [branden.sheffield] process ID [4100]
[2017.01.05 21:34:28] [0000m.06s.693ms] [1] SC[3070]: Registered sub-client [FFSearch_Controller_1] with ID [19] for session ID [3070] host [DESKTOP-TJKR3AR] user [branden.sheffield] process ID [4100]
[2017.01.05 21:34:29] [0000m.06s.809ms] [1] SC[3070]: Registered sub-client [FFSearch_Controller_2] with ID [20] for session ID [3070] host [DESKTOP-TJKR3AR] user [branden.sheffield] process ID [4100]
[2017.01.05 21:34:29] [0000m.06s.893ms] [1] SC[3070]: Registered sub-client [FFSearch_Controller_3] with ID [21] for session ID [3070] host [DESKTOP-TJKR3AR] user [branden.sheffield] process ID [4100]
[2017.01.05 21:34:29] [0000m.06s.962ms] [1] PrjBackupMgr: Successfully created Project Backup [C:\pd_repo\pd\_CITADEL\Mentor\Citadel_Right\ProjectBackup\backups\2017-01-05 21.34.27 - auto.zip] with GUID [1955-8fc0-bd86-1567-35e1-f688-5e1f-6850-77ea-d936-b462-44fb]
[2017.01.05 21:34:29] [0000m.06s.978ms] [0] PrjBackupMgr: Removing excessive backup:  BackupGUID[098d-15fe-1712-5e28-053f-a485-53fa-4850-2e8c-99a8-a7e5-348b] CreationTime[Friday, December 09, 2016 18:09:20] Type[Autosave] Creator[iCDB Server (2016-12-09 10.04.15-15404)] ApplicationName[iCDB Server (2016-12-09 10.04.15-15404)] UserName[branden.sheffield] MachineName[DESKTOP-TJKR3AR] Description[Autosave] FullFlowName[PADS Professional VX.2] FlowId[PADSProVX.2] GBSInstallId[1409847] GBSBuildId[5060443] IcdbVersion[3100] ReferenceLogFilePath[] BackupFilePath[C:\pd_repo\pd\_CITADEL\Mentor\Citadel_Right\ProjectBackup\backups\2016-12-09 11.09.20 - auto.zip] BackupFileSize[9232619] Persistent[FALSE]
[2017.01.05 21:34:29] [0000m.06s.978ms] [0] PrjBackupMgr: Project Backup file [C:\pd_repo\pd\_CITADEL\Mentor\Citadel_Right\ProjectBackup\backups\2016-12-09 11.09.20 - auto.zip] with GUID [098d-15fe-1712-5e28-053f-a485-53fa-4850-2e8c-99a8-a7e5-348b] removed
[2017.01.05 21:34:29] [0000m.06s.978ms] [0] PrjBackupEngine: Successfully created backup:  BackupGUID[1955-8fc0-bd86-1567-35e1-f688-5e1f-6850-77ea-d936-b462-44fb] CreationTime[Friday, January 06, 2017 04:34:27] Type[Autosave] Creator[iCDB Server (2017-01-05 21.34.22-1508)] ApplicationName[iCDB Server (2017-01-05 21.34.22-1508)] UserName[branden.sheffield] MachineName[DESKTOP-TJKR3AR] Description[Autosave] FullFlowName[PADS Professional VX.2] FlowId[PADSProVX.2] GBSInstallId[1409847] GBSBuildId[5060443] IcdbVersion[3100] ReferenceLogFilePath[] BackupFilePath[C:\pd_repo\pd\_CITADEL\Mentor\Citadel_Right\ProjectBackup\backups\2017-01-05 21.34.27 - auto.zip] BackupFileSize[5768292] Persistent[FALSE]
[2017.01.05 21:34:29] [0000m.06s.994ms] [1] SC[3070]: Registered sub-client [FFSearch_Controller_4] with ID [22] for session ID [3070] host [DESKTOP-TJKR3AR] user [branden.sheffield] process ID [4100]
[2017.01.05 21:34:29] [0000m.07s.110ms] [1] SC[3070]: Registered sub-client [SAE] with ID [23] for session ID [3070] host [DESKTOP-TJKR3AR] user [branden.sheffield] process ID [4100]
[2017.01.05 21:34:29] [0000m.07s.110ms] [1] SC[3070]: Registered sub-client [CCZAddin] with ID [24] for session ID [3070] host [DESKTOP-TJKR3AR] user [branden.sheffield] process ID [4100]
[2017.01.05 21:34:29] [0000m.07s.110ms] [1] SC[3070]: Registered sub-client [DxThumbnails] with ID [25] for session ID [3070] host [DESKTOP-TJKR3AR] user [branden.sheffield] process ID [4100]
[2017.01.05 21:34:29] [0000m.07s.110ms] [1] SC[3070]: Registered sub-client [MyParts] with ID [26] for session ID [3070] host [DESKTOP-TJKR3AR] user [branden.sheffield] process ID [4100]
[2017.01.05 21:34:29] [0000m.07s.147ms] [1] SC[3070]: Registered sub-client [PinsList] with ID [27] for session ID [3070] host [DESKTOP-TJKR3AR] user [branden.sheffield] process ID [4100]
[2017.01.05 21:34:29] [0000m.07s.594ms] [1] SC[3070]: Registered sub-client [toolboxes] with ID [28] for session ID [3070] host [DESKTOP-TJKR3AR] user [branden.sheffield] process ID [4100]
[2017.01.05 21:34:30] [0000m.08s.310ms] [1] SC[3070]: Registered sub-client [ProjectIntegrationIcdbCacheDxD:491031616] with ID [29] for session ID [3070] host [DESKTOP-TJKR3AR] user [branden.sheffield] process ID [4100]
[2017.01.05 21:34:30] [0000m.08s.363ms] [1] SC[3070]: Registered sub-client [SheetConnectorsCacheDxD:1483677270] with ID [30] for session ID [3070] host [DESKTOP-TJKR3AR] user [branden.sheffield] process ID [4100]
[2017.01.05 21:34:30] [0000m.08s.379ms] [1] SC[3070]: Registered sub-client [NetsNamesCollectorDxD:1483677270] with ID [31] for session ID [3070] host [DESKTOP-TJKR3AR] user [branden.sheffield] process ID [4100]
[2017.01.05 21:34:30] [0000m.08s.410ms] [1] SC[3070]: Registered sub-client [PartReplaceUtils] with ID [32] for session ID [3070] host [DESKTOP-TJKR3AR] user [branden.sheffield] process ID [4100]
[2017.01.05 21:34:38] [0000m.15s.884ms] [1] SC[3070]: Registered sub-client [ObjectHolder_496676432] with ID [33] for session ID [3070] host [DESKTOP-TJKR3AR] user [branden.sheffield] process ID [4100]
[2017.01.05 21:34:38] [0000m.15s.884ms] [1] SC[3070]: Registered sub-client [BlockCacheDxD:272033632] with ID [34] for session ID [3070] host [DESKTOP-TJKR3AR] user [branden.sheffield] process ID [4100]
[2017.01.05 21:34:38] [0000m.15s.884ms] [1] SC[3070]: Registered sub-client [GlobalNetAliasUpdater_496676536] with ID [35] for session ID [3070] host [DESKTOP-TJKR3AR] user [branden.sheffield] process ID [4100]
[2017.01.05 21:34:38] [0000m.15s.884ms] [1] SC[3070]: Registered sub-client [IcdbNetProcessorSubClientDxD:490096184] with ID [36] for session ID [3070] host [DESKTOP-TJKR3AR] user [branden.sheffield] process ID [4100]
[2017.01.05 21:34:39] [0000m.17s.338ms] [1] SC[3070]: Registered sub-client [DxDbSearch] with ID [37] for session ID [3070] host [DESKTOP-TJKR3AR] user [branden.sheffield] process ID [4100]
[2017.01.05 21:34:57] [0000m.35s.147ms] [0] DFAMT: File server access time: 160 us
[2017.01.05 21:45:18] [0010m.55s.929ms] [1] SC[3070]: Registered sub-client [Dx2Exp_202937796] with ID [38] for session ID [3070] host [DESKTOP-TJKR3AR] user [branden.sheffield] process ID [4100]
[2017.01.05 21:45:18] [0010m.55s.929ms] [1] SC[3070]: UnRegistered sub-client [Dx2Exp_202937796] with ID [38] for session ID [3070] host [DESKTOP-TJKR3AR] user [branden.sheffield] process ID [4100]
[2017.01.05 21:45:32] [0011m.10s.643ms] [0] IT: Session [3071] for host [DESKTOP-TJKR3AR] user [branden.sheffield] with process ID [12392] created
[2017.01.05 21:45:32] [0011m.10s.643ms] [1] SC[3071]: Registered sub-client [Expedition PE_202952484] with ID [1] for session ID [3071] host [DESKTOP-TJKR3AR] user [branden.sheffield] process ID [12392]
[2017.01.05 21:45:32] [0011m.10s.697ms] [1] SC[3071]: Registered sub-client [EEVM_EEVM_253568212] with ID [2] for session ID [3071] host [DESKTOP-TJKR3AR] user [branden.sheffield] process ID [12392]
[2017.01.05 21:45:33] [0011m.10s.713ms] [1] CMT: There are [2] clients now: 3070, 3071
[2017.01.05 21:45:33] [0011m.10s.713ms] [1] SC[3071]: UnRegistered sub-client [EEVM_EEVM_253568212] with ID [2] for session ID [3071] host [DESKTOP-TJKR3AR] user [branden.sheffield] process ID [12392]
[2017.01.05 21:45:33] [0011m.10s.713ms] [1] SC[3071]: Registered sub-client [EEVM_EEVM_253568212] with ID [3] for session ID [3071] host [DESKTOP-TJKR3AR] user [branden.sheffield] process ID [12392]
[2017.01.05 21:45:33] [0011m.10s.728ms] [1] SC[3071]: UnRegistered sub-client [EEVM_EEVM_253568212] with ID [3] for session ID [3071] host [DESKTOP-TJKR3AR] user [branden.sheffield] process ID [12392]
[2017.01.05 21:45:33] [0011m.10s.975ms] [1] SC[3071]: Registered sub-client [JobPrefsDBPI_202952828] with ID [4] for session ID [3071] host [DESKTOP-TJKR3AR] user [branden.sheffield] process ID [12392]
[2017.01.05 21:45:33] [0011m.10s.990ms] [1] SC[3071]: UnRegistered sub-client [JobPrefsDBPI_202952828] with ID [4] for session ID [3071] host [DESKTOP-TJKR3AR] user [branden.sheffield] process ID [12392]
[2017.01.05 21:45:35] [0011m.12s.898ms] [1] SC[3071]: Registered sub-client [ExpeditionCrossProber] with ID [5] for session ID [3071] host [DESKTOP-TJKR3AR] user [branden.sheffield] process ID [12392]
[2017.01.05 22:13:01] [0038m.38s.939ms] [1] SC[3071]: Registered sub-client [JobPrefsDBPI_204600812] with ID [6] for session ID [3071] host [DESKTOP-TJKR3AR] user [branden.sheffield] process ID [12392]
[2017.01.05 22:13:01] [0038m.38s.943ms] [1] SC[3071]: UnRegistered sub-client [JobPrefsDBPI_204600812] with ID [6] for session ID [3071] host [DESKTOP-TJKR3AR] user [branden.sheffield] process ID [12392]
[2017.01.05 22:13:34] [0039m.11s.750ms] [1] SC[3071]: Registered sub-client [JobPrefsDBPI_204633640] with ID [7] for session ID [3071] host [DESKTOP-TJKR3AR] user [branden.sheffield] process ID [12392]
[2017.01.05 22:13:34] [0039m.11s.765ms] [1] SC[3071]: UnRegistered sub-client [JobPrefsDBPI_204633640] with ID [7] for session ID [3071] host [DESKTOP-TJKR3AR] user [branden.sheffield] process ID [12392]
[2017.01.05 22:15:11] [0040m.49s.142ms] [1] SC[3071]: Registered sub-client [EEVM_EEVM_1696440] with ID [8] for session ID [3071] host [DESKTOP-TJKR3AR] user [branden.sheffield] process ID [12392]
[2017.01.05 22:15:11] [0040m.49s.142ms] [1] SC[3071]: UnRegistered sub-client [EEVM_EEVM_1696440] with ID [8] for session ID [3071] host [DESKTOP-TJKR3AR] user [branden.sheffield] process ID [12392]
[2017.01.05 22:15:11] [0040m.49s.442ms] [0] IT: Session [3072] for host [DESKTOP-TJKR3AR] user [branden.sheffield] with process ID [7356] created
[2017.01.05 22:15:11] [0040m.49s.442ms] [1] SC[3072]: Registered sub-client [Expedition_204731265] with ID [1] for session ID [3072] host [DESKTOP-TJKR3AR] user [branden.sheffield] process ID [7356]
[2017.01.05 22:15:11] [0040m.49s.526ms] [1] CMT: There are [3] clients now: 3070, 3071, 3072
[2017.01.05 22:15:11] [0040m.49s.526ms] [1] SC[3072]: UnRegistered sub-client [Expedition_204731265] with ID [1] for session ID [3072] host [DESKTOP-TJKR3AR] user [branden.sheffield] process ID [7356]
[2017.01.05 22:15:11] [0040m.49s.627ms] [1] CMT: Removed client [3072]
[2017.01.05 22:15:11] [0040m.49s.627ms] [1] CMT: There are [2] clients now: 3070, 3071
[2017.01.05 22:23:38] [0049m.16s.468ms] [1] SC[3071]: Registered sub-client [EEVM_EEVM_1696440] with ID [9] for session ID [3071] host [DESKTOP-TJKR3AR] user [branden.sheffield] process ID [12392]
[2017.01.05 22:23:38] [0049m.16s.468ms] [1] SC[3071]: UnRegistered sub-client [EEVM_EEVM_1696440] with ID [9] for session ID [3071] host [DESKTOP-TJKR3AR] user [branden.sheffield] process ID [12392]
[2017.01.05 22:23:38] [0049m.16s.685ms] [0] IT: Session [3073] for host [DESKTOP-TJKR3AR] user [branden.sheffield] with process ID [1580] created
[2017.01.05 22:23:38] [0049m.16s.685ms] [1] SC[3073]: Registered sub-client [Expedition_205238515] with ID [1] for session ID [3073] host [DESKTOP-TJKR3AR] user [branden.sheffield] process ID [1580]
[2017.01.05 22:23:39] [0049m.16s.700ms] [1] CMT: There are [3] clients now: 3070, 3071, 3073
[2017.01.05 22:23:39] [0049m.16s.738ms] [1] SC[3073]: UnRegistered sub-client [Expedition_205238515] with ID [1] for session ID [3073] host [DESKTOP-TJKR3AR] user [branden.sheffield] process ID [1580]
[2017.01.05 22:23:39] [0049m.16s.823ms] [1] CMT: Removed client [3073]
[2017.01.05 22:23:39] [0049m.16s.823ms] [1] CMT: There are [2] clients now: 3070, 3071
[2017.01.05 22:25:30] [0051m.08s.537ms] [1] SC[3071]: Registered sub-client [EEVM_EEVM_1696440] with ID [10] for session ID [3071] host [DESKTOP-TJKR3AR] user [branden.sheffield] process ID [12392]
[2017.01.05 22:25:30] [0051m.08s.537ms] [1] SC[3071]: UnRegistered sub-client [EEVM_EEVM_1696440] with ID [10] for session ID [3071] host [DESKTOP-TJKR3AR] user [branden.sheffield] process ID [12392]
[2017.01.05 22:25:31] [0051m.08s.753ms] [0] IT: Session [3074] for host [DESKTOP-TJKR3AR] user [branden.sheffield] with process ID [13584] created
[2017.01.05 22:25:31] [0051m.08s.753ms] [1] SC[3074]: Registered sub-client [Expedition_205350593] with ID [1] for session ID [3074] host [DESKTOP-TJKR3AR] user [branden.sheffield] process ID [13584]
[2017.01.05 22:25:31] [0051m.08s.800ms] [1] CMT: There are [3] clients now: 3070, 3071, 3074
[2017.01.05 22:25:31] [0051m.08s.821ms] [1] SC[3074]: UnRegistered sub-client [Expedition_205350593] with ID [1] for session ID [3074] host [DESKTOP-TJKR3AR] user [branden.sheffield] process ID [13584]
[2017.01.05 22:25:31] [0051m.08s.916ms] [1] CMT: Removed client [3074]
[2017.01.05 22:25:31] [0051m.08s.916ms] [1] CMT: There are [2] clients now: 3070, 3071
[2017.01.05 22:26:01] [0051m.39s.353ms] [1] SC[3070]: UnRegistered sub-client [SystemDesignDll] with ID [11] for session ID [3070] host [DESKTOP-TJKR3AR] user [branden.sheffield] process ID [4100]
[2017.01.05 22:26:01] [0051m.39s.600ms] [1] SC[3070]: UnRegistered sub-client [DesignSearcher2] with ID [12] for session ID [3070] host [DESKTOP-TJKR3AR] user [branden.sheffield] process ID [4100]
[2017.01.05 22:26:01] [0051m.39s.669ms] [1] SC[3070]: UnRegistered sub-client [GlobalNetAliasUpdater_496676536] with ID [35] for session ID [3070] host [DESKTOP-TJKR3AR] user [branden.sheffield] process ID [4100]
[2017.01.05 22:26:01] [0051m.39s.669ms] [1] SC[3070]: UnRegistered sub-client [BlockCacheDxD:272033632] with ID [34] for session ID [3070] host [DESKTOP-TJKR3AR] user [branden.sheffield] process ID [4100]
[2017.01.05 22:26:01] [0051m.39s.669ms] [1] SC[3070]: UnRegistered sub-client [ObjectHolder_496676432] with ID [33] for session ID [3070] host [DESKTOP-TJKR3AR] user [branden.sheffield] process ID [4100]
[2017.01.05 22:26:01] [0051m.39s.669ms] [1] SC[3070]: UnRegistered sub-client [IcdbNetProcessorSubClientDxD:490096184] with ID [36] for session ID [3070] host [DESKTOP-TJKR3AR] user [branden.sheffield] process ID [4100]
[2017.01.05 22:26:02] [0051m.39s.701ms] [1] SC[3070]: UnRegistered sub-client [Navigator] with ID [14] for session ID [3070] host [DESKTOP-TJKR3AR] user [branden.sheffield] process ID [4100]
[2017.01.05 22:26:02] [0051m.39s.716ms] [1] SC[3070]: UnRegistered sub-client [LocalSymbolsDataProvider] with ID [17] for session ID [3070] host [DESKTOP-TJKR3AR] user [branden.sheffield] process ID [4100]
[2017.01.05 22:26:02] [0051m.39s.716ms] [1] SC[3070]: UnRegistered sub-client [FFSearch_Controller_0] with ID [18] for session ID [3070] host [DESKTOP-TJKR3AR] user [branden.sheffield] process ID [4100]
[2017.01.05 22:26:02] [0051m.39s.716ms] [1] SC[3070]: UnRegistered sub-client [FFSearch_Controller_1] with ID [19] for session ID [3070] host [DESKTOP-TJKR3AR] user [branden.sheffield] process ID [4100]
[2017.01.05 22:26:02] [0051m.39s.716ms] [1] SC[3070]: UnRegistered sub-client [FFSearch_Controller_2] with ID [20] for session ID [3070] host [DESKTOP-TJKR3AR] user [branden.sheffield] process ID [4100]
[2017.01.05 22:26:02] [0051m.39s.716ms] [1] SC[3070]: UnRegistered sub-client [FFSearch_Controller_3] with ID [21] for session ID [3070] host [DESKTOP-TJKR3AR] user [branden.sheffield] process ID [4100]
[2017.01.05 22:26:02] [0051m.39s.716ms] [1] SC[3070]: UnRegistered sub-client [FFSearch_Controller_4] with ID [22] for session ID [3070] host [DESKTOP-TJKR3AR] user [branden.sheffield] process ID [4100]
[2017.01.05 22:26:02] [0051m.40s.169ms] [1] SC[3071]: UnRegistered sub-client [ExpeditionCrossProber] with ID [5] for session ID [3071] host [DESKTOP-TJKR3AR] user [branden.sheffield] process ID [12392]
[2017.01.05 22:26:02] [0051m.40s.169ms] [1] SC[3070]: UnRegistered sub-client [MyParts] with ID [26] for session ID [3070] host [DESKTOP-TJKR3AR] user [branden.sheffield] process ID [4100]
[2017.01.05 22:26:02] [0051m.40s.169ms] [1] SC[3070]: UnRegistered sub-client [toolboxes] with ID [28] for session ID [3070] host [DESKTOP-TJKR3AR] user [branden.sheffield] process ID [4100]
[2017.01.05 22:26:03] [0051m.41s.153ms] [1] SC[3070]: UnRegistered sub-client [SelectionHolder] with ID [5] for session ID [3070] host [DESKTOP-TJKR3AR] user [branden.sheffield] process ID [4100]
[2017.01.05 22:26:03] [0051m.41s.153ms] [1] SC[3070]: UnRegistered sub-client [PartReplaceUtils] with ID [32] for session ID [3070] host [DESKTOP-TJKR3AR] user [branden.sheffield] process ID [4100]
[2017.01.05 22:26:03] [0051m.41s.686ms] [1] SC[3070]: UnRegistered sub-client [ProjectIntegrationIcdbCacheDxD:491031616] with ID [29] for session ID [3070] host [DESKTOP-TJKR3AR] user [branden.sheffield] process ID [4100]
[2017.01.05 22:26:03] [0051m.41s.686ms] [1] SC[3070]: UnRegistered sub-client [SheetConnectorsCacheDxD:1483677270] with ID [30] for session ID [3070] host [DESKTOP-TJKR3AR] user [branden.sheffield] process ID [4100]
[2017.01.05 22:26:03] [0051m.41s.686ms] [1] SC[3070]: UnRegistered sub-client [NetsNamesCollectorDxD:1483677270] with ID [31] for session ID [3070] host [DESKTOP-TJKR3AR] user [branden.sheffield] process ID [4100]
[2017.01.05 22:26:03] [0051m.41s.686ms] [1] SC[3070]: UnRegistered sub-client [TransactionRollbackSubClient] with ID [2] for session ID [3070] host [DESKTOP-TJKR3AR] user [branden.sheffield] process ID [4100]
[2017.01.05 22:26:03] [0051m.41s.686ms] [1] SC[3070]: UnRegistered sub-client [DxD] with ID [1] for session ID [3070] host [DESKTOP-TJKR3AR] user [branden.sheffield] process ID [4100]
[2017.01.05 22:26:04] [0051m.41s.701ms] [1] SC[3070]: UnRegistered sub-client [xprob] with ID [3] for session ID [3070] host [DESKTOP-TJKR3AR] user [branden.sheffield] process ID [4100]
[2017.01.05 22:26:04] [0051m.41s.701ms] [1] SC[3070]: UnRegistered sub-client [SymbolEditor] with ID [4] for session ID [3070] host [DESKTOP-TJKR3AR] user [branden.sheffield] process ID [4100]
[2017.01.05 22:26:04] [0051m.41s.701ms] [1] SC[3070]: UnRegistered sub-client [OutputWindow] with ID [15] for session ID [3070] host [DESKTOP-TJKR3AR] user [branden.sheffield] process ID [4100]
[2017.01.05 22:26:04] [0051m.41s.717ms] [1] SC[3070]: UnRegistered sub-client [DxDbSearch] with ID [37] for session ID [3070] host [DESKTOP-TJKR3AR] user [branden.sheffield] process ID [4100]
[2017.01.05 22:26:04] [0051m.41s.786ms] [1] SC[3070]: UnRegistered sub-client [SAE] with ID [23] for session ID [3070] host [DESKTOP-TJKR3AR] user [branden.sheffield] process ID [4100]
[2017.01.05 22:26:04] [0051m.41s.801ms] [1] SC[3070]: UnRegistered sub-client [CCZAddin] with ID [24] for session ID [3070] host [DESKTOP-TJKR3AR] user [branden.sheffield] process ID [4100]
[2017.01.05 22:26:04] [0051m.41s.801ms] [1] SC[3070]: UnRegistered sub-client [DxThumbnails] with ID [25] for session ID [3070] host [DESKTOP-TJKR3AR] user [branden.sheffield] process ID [4100]
[2017.01.05 22:26:04] [0051m.42s.002ms] [1] SC[3071]: UnRegistered sub-client [Expedition PE_202952484] with ID [1] for session ID [3071] host [DESKTOP-TJKR3AR] user [branden.sheffield] process ID [12392]
[2017.01.05 22:26:04] [0051m.42s.086ms] [1] CMT: Removed client [3071]
[2017.01.05 22:26:04] [0051m.42s.086ms] [1] CMT: There are [1] clients now: 3070
[2017.01.05 22:26:07] [0051m.44s.805ms] [1] SC[3070]: UnRegistered sub-client [PinsList] with ID [27] for session ID [3070] host [DESKTOP-TJKR3AR] user [branden.sheffield] process ID [4100]
[2017.01.05 22:26:07] [0051m.44s.889ms] [1] SC[3070]: UnRegistered sub-client [PlaceDevice] with ID [16] for session ID [3070] host [DESKTOP-TJKR3AR] user [branden.sheffield] process ID [4100]
[2017.01.05 22:26:07] [0051m.44s.904ms] [1] SC[3070]: UnRegistered sub-client [HdlProject] with ID [13] for session ID [3070] host [DESKTOP-TJKR3AR] user [branden.sheffield] process ID [4100]
[2017.01.05 22:26:07] [0051m.44s.936ms] [1] CMT: Removed client [3070]
[2017.01.05 22:26:07] [0051m.44s.936ms] [1] CMT: There are no clients left - waiting [1 seconds]
[2017.01.05 22:26:07] [0051m.45s.089ms] [1] SDL: The last connected iCDB Server Monitor [1] is waiting for server close
[2017.01.05 22:26:09] [0051m.46s.810ms] [0] CMT: Starting server auto-close
[2017.01.05 22:26:09] [0051m.46s.857ms] [0] S: Closing server
[2017.01.05 22:26:09] [0051m.46s.979ms] [0] iCDB Server PI: Closing plugins
[2017.01.05 22:26:09] [0051m.46s.979ms] [0] iCDB Server PI: Plugins closed
[2017.01.05 22:26:09] [0051m.46s.979ms] [0] iCDB Server PI: Unloading database
[2017.01.05 22:26:09] [0051m.46s.979ms] [0] iCDB Server PI: Saving storage
[2017.01.05 22:26:09] [0051m.46s.979ms] [0] iCDB Server PI: Closing database
[2017.01.05 22:26:09] [0051m.46s.979ms] [1] iCDB Server PI: Stats: Database defragmentation: max[3] avg[1] holes[12%] data[96%]
[2017.01.05 22:26:09] [0051m.46s.979ms] [1] iCDB Server PI: Stats: Database file size [889280 (868.4 kB)]
[2017.01.05 22:26:09] [0051m.46s.995ms] [0] iCDB Server PI: Database closed
[2017.01.05 22:26:09] [0051m.46s.995ms] [1] iCDB Server PI: Stats: Total iCDB execution time: [122089] ticks
[2017.01.05 22:26:09] [0051m.46s.995ms] [1] iCDB Server PI: Stats: Total iCDB execution time: [44522] microseconds
[2017.01.05 22:26:09] [0051m.46s.995ms] [1] iCDB Server PI: Stats: Total iCDB commands count: [70]
[2017.01.05 22:26:09] [0051m.46s.995ms] [1] iCDB Server PI: Stats: Average iCDB speed:        [1572] commands per second
[2017.01.05 22:26:09] [0051m.47s.010ms] [0] Single file [C:\pd_repo\pd\_CITADEL\Mentor\Citadel_Right\database\icdb.dat] closed with size [889280 (868.4 kB)]
[2017.01.05 22:26:09] [0051m.47s.026ms] [1] SD[1]: Removing the last connected iCDB Server Monitor [1]
[2017.01.05 22:26:09] [0051m.47s.179ms] [0] MWT: Destroy the shutdown block reason.
[2017.01.05 22:26:09] [0051m.47s.179ms] [0] MWT: STOP
[2017.01.05 22:26:09] [0051m.47s.179ms] [0] S: STOP
