
                                    Packager
                                    --------

                       10:52 PM Thursday, January 05, 2017
     Job Name: C:\pd_repo\pd\_CITADEL\Mentor\Citadel_MicFF\Citadel_MicFF.prj


     Packager     Version: 020806.00

        Commandline is: ""C:\MentorGraphics\PADSProVX.2\SDD_HOME\wg\win32\bin\package.exe"  -jC:\pd_repo\pd\_CITADEL\Mentor\Citadel_MicFF\Citadel_MicFF.prj -nMain -Add -NoFill"

     The Common Database is at "C:\pd_repo\pd\_CITADEL\Mentor\Citadel_MicFF\database".

     The Root of this design is "Schematic1".

     The Front End Snapshot of this design is "DxD".

     The PCB Design Path of this design is at "C:\pd_repo\pd\_CITADEL\Mentor\Citadel_MicFF\PCB\Main.pcb".

     The Central Library is at "Z:\MentorGraphics\Library\Xpedition_PE_Library\Xpedition_PE.lmc".

     Unable to determine the Disable Repackage status.
     !Repackaging will be allowed!

     The PDBs listed in the project file will be searched to satisfy the parts
      requirements of the iCDB only for parts not already found in the
      Target PDB.

     The AllowAlphaRefDes status indicates that reference
      designators containing all alpha characters should be deleted
      and the relevant symbols repackaged.

     The cross mapping of symbol pin names to Part Number pin
      numbers will be checked for packaged symbols and mapped correctly
      for unpackaged symbols.

     Properties that have been checked off in the Property Definition Editor
      found at Library Manager/Common Properties will be checked for value
      differences between the PartsDB and the non-null properties on symbols.
     Those properties checked off (other than Part Number)
      will not be transferred from the PartsDB to symbols.
     The following properties were checked off in the Property Definition Editor:
       "PinLabel"
       "System Component"
       "Pkg Group"
       "Connector Mating Part"
       "Connector Gender"
       "EPFIXEDWIDTH"
       "EPFIXEDLENGTH"
       "Term"
       "SIM_MODEL"
       "SIM_MODEL_FILE"
       "Array Component"
       "ICX_PART_MODEL"
       "Use Verilog"
       "Order"
       "Parametric"
       "Value2"
       "Tech"
       "PKG_TYPE"
       "Power"
       "Drawing Project"
       "Drawing Number Vertical"
       "Variant Number"
       "Datasheet"
       "Variant Description"
       "Variant Name"
       "Drawing_PDF_Number"
       "Voltage"
       "IBIS"
       "Part Label"
       "VHDL Model"
       "Verilog Model"
       "Tolerance"
       "Part Number"
       "Value"
       "Part Name"

	Checking for errors in the ICDB...

	No errors found.  Proceeding with packaging...



     Common Data Base has been read

     Target PDB Name: Integration\LocalPartsDB.pdb

     Number of Part Numbers: 3
          Part Numb: cap_0402 -> Vend Part: cap_0402 
          Part Numb: CS7154B -> Vend Part: CS7154B 
          Part Numb: TP0.8x1.2 -> Vend Part: TP0.8x1.2 

     Number of Part Names: 0

     Number of Part Labels: 0


     Checking for value differences between non-null symbol properties and PartsDB properties,
      but only for those properties checked off in the Property Definition Editor

     Checking the validity of the packaging of prepackaged schematic
      symbols.  Only the first error in symbols having the same
      Reference Designator will be reported.

     The packaging of all prepackaged schematic symbols is consistent
      with the Parts DataBase data for the cross mapping of
      symbol pin names to Part Number pin numbers.
      Symbols that were not prepackaged will now be packaged correctly.
      
     No errors in Existing Schematic Packaging.

     The Common DataBase has been read and will be packaged.
     Clustering 5 Symbols:
               5  ****
     Clustering is Complete

     Packager Assignments successfully completed



     3 nets were found containing 8 pins
     5 components were found

     Parsed netlist - Augmenting..

     Augmented - Adding phantom pins....

     Numbering Nets....

     Checking Pins....

     Packaging has been successfully tested with no errors or warnings.

     Updating the Common DataBase

     A BAM WasIs List: Integration\CDBBackAnno.bam has been created.

The Common DataBase has been successfully updated.

     Packager finished successfully.
     !THE iCDB IS UP-TO-DATE!
     
     An unused pin and gate report has been written to Integration\UnusedPins.txt
     An unused gate report for gates not in schematic has been written to Integration\UnusedGates.txt
     An augmented pin report has been written to Integration\AugmentedPins.txt.
