
                                Autosave Log File
                                -----------------

                       11:33 AM Tuesday, January 10, 2017
 Job Name: C:\pd_repo\pd\_CITADEL\Mentor\Citadel_MicFB\PCB\Drawing\Main\Main.mdf


                               Autosave log closed
                               -------------------

                       12:11 PM Tuesday, January 10, 2017
 Job Name: C:\pd_repo\pd\_CITADEL\Mentor\Citadel_MicFB\PCB\Drawing\Main\Main.mdf

