
                                Autosave Log File
                                -----------------

                        02:43 PM Monday, January 09, 2017
Job Name: C:\pd_repo\pd\_CITADEL\Mentor\Citadel_Right\PCB\Drawing\Main\Work\CellEditorFiles\CellDB\A2_DWG_Page_1.pcb


                               Autosave log closed
                               -------------------

                        02:44 PM Monday, January 09, 2017
Job Name: C:\pd_repo\pd\_CITADEL\Mentor\Citadel_Right\PCB\Drawing\Main\Work\CellEditorFiles\CellDB\A2_DWG_Page_1.pcb

