[2016.08.12 13:17:41] [0006m.33s.353ms] [0] WELCOME
[2016.08.12 13:17:41] [0006m.33s.353ms] [1] iCDB Database ver.2.101, 3UDjJHMiCHg78unffLJcEw, build:673008 created 2015-03-11 13:21:12, sources stamp:3UDjJHMiCHg78unffLJcEw
[2016.08.12 13:17:41] [0006m.33s.353ms] [1] Copyright 2015 Mentor Graphics Corporation. All Rights Reserved.
[2016.08.12 13:17:41] [0006m.33s.353ms] [1] Base flow version [VX.1.1]
[2016.08.12 13:17:41] [0006m.33s.353ms] [1] GBS Install Id [43430], Flow Id [PADS-Pro VX.1.1], Full Flow Name [PADS Professional VX.1.1], Exact Access Date [Feb 1 2015]
[2016.08.12 13:17:41] [0006m.33s.353ms] [1] Machine [DESKTOP-TJKR3AR]  User [branden.sheffield]  PID [8128]
[2016.08.12 13:17:41] [0006m.33s.353ms] [1] Operating system [Microsoft Enterprise Edition, 64-bit (build 9200)]
[2016.08.12 13:17:41] [0006m.33s.353ms] [1] Current working dir [C:\Users\branden.sheffield\Documents\Crusher3.0\Mentor\CrusherMain]
[2016.08.12 13:17:41] [0006m.33s.353ms] [1] PATH [C:\MentorGraphics\PADSProVX.1.1\SDD_HOME\common\win32\bin;C:\MentorGraphics\PADSProVX.1.1\SDD_HOME\common\win32\lib;C:\MentorGraphics\PADSProVX.1.1\MGC_HOME.ixn\bin;C:\MentorGraphics\PADSProVX.1.1\MGC_HOME.ixn\lib;C:\MentorGraphics\PADSProVX.1.1\SDD_HOME\wv\win32\bin;C:\Program Files (x86)\CSR\BlueSuite 2.5.8\DFU Tools;C:\Program Files (x86)\NVIDIA Corporation\PhysX\Common;C:\ProgramData\Oracle\Java\javapath;C:\Windows\system32;C:\Windows;C:\Windows\System32\Wbem;C:\Windows\System32\WindowsPowerShell\v1.0\;C:\Program Files (x86)\Skype\Phone\;C:\Program Files (x86)\Windows Kits\8.1\Windows Performance Toolkit\;C:\Program Files\TortoiseSVN\bin]
[2016.08.12 13:17:41] [0006m.33s.353ms] [1] SDD_HOME [C:\MentorGraphics\PADSProVX.1.1\SDD_HOME] on file system [NTFS]
[2016.08.12 13:17:41] [0006m.33s.353ms] [1] SDD_PLATFORM [win32]
[2016.08.12 13:17:41] [0006m.33s.353ms] [1] WDIR [C:\WDIR\PADSProVX.1.1;C:\MentorGraphics\PADSProVX.1.1\SDD_HOME\standard;]
[2016.08.12 13:17:41] [0006m.33s.353ms] [1] Local iCDB working dir [C:\WDIR\PADSProVX.1.1\iCDB] on file system [NTFS]
[2016.08.12 13:17:41] [0006m.33s.353ms] [3] WARNING: Database [C:\Users\branden.sheffield\Documents\Crusher3.0\Mentor\CrusherMain\database\icdb.dat] was manually copied
[2016.08.12 13:17:41] [0006m.33s.353ms] [3] File change time:        [2016-08-12 13.17.12]
[2016.08.12 13:17:41] [0006m.33s.353ms] [3] File modification time:  [2016-07-20 18.10.16]
[2016.08.12 13:17:41] [0006m.33s.353ms] [3] Last change time:        [2016-07-20 18.10.15]
[2016.08.12 13:17:41] [0006m.33s.353ms] [3] Last database open information:
[2016.08.12 13:17:41] [0006m.33s.353ms] [3] Time:             [2016-07-20 17.59.32]
[2016.08.12 13:17:41] [0006m.33s.353ms] [3] Location:         [C:\Users\branden.sheffield\Documents\Crusher3.0\Mentor\CrusherMain\database\icdb.dat]
[2016.08.12 13:17:41] [0006m.33s.353ms] [3] Machine:          [PC-ENG2LJDFJKDS]
[2016.08.12 13:17:41] [0006m.33s.353ms] [3] User:             [branden.sheffield]
[2016.08.12 13:17:41] [0006m.33s.353ms] [3] PID:              [428]
[2016.08.12 13:17:41] [0006m.33s.353ms] [3] Application:      [iCDB Server]
[2016.08.12 13:17:41] [0006m.33s.353ms] [3] Operating system: [Microsoft Windows 7 Enterprise Edition, 64-bit Service Pack 1 (build 7601)]
[2016.08.12 13:17:41] [0006m.33s.353ms] [3] WARNING: Regenerating database GUID
[2016.08.12 13:17:41] [0006m.33s.353ms] [3] Previous database GUID [fdc6-89fd-087f-7393-0a47-3375-a473-3750-3937-e2a5-d616-e39c]
[2016.08.12 13:17:41] [0006m.33s.353ms] [3] Current database GUID  [b845-2e76-cf6f-13d0-5d02-ea7a-d02e-a750-5613-9382-0262-b0a8]
[2016.08.12 13:17:41] [0006m.33s.353ms] [0] .
