=======================================================================
PADS Professional Layout - Version 2015.0.678.963
=======================================================================

RELOAD CELLS

Job Directory:  C:\Users\branden.sheffield\Documents\Crusher3.0\Mentor\CrusherMain\PCB\


Design Units:(mm)

Replace Cell Log:   repCellLog27.txt

Fri Jan 29 11:12:07 2016

Reference Designator            Cell Name                         New Cell Name
===============================================================================


---------------  RELOAD CELLS  Fri Jan 29 11:12:07 2016  ---------------




---------------    Fri Jan 29 11:12:07 2016  ---------------




---------------    Fri Jan 29 11:12:26 2016  ---------------




---------------    Fri Jan 29 11:13:25 2016  ---------------


