		-----Replace Padstack Log-----
		------------------------------
		12:07:43 PM Jan 04, 2017

The following Padstacks were replaced because the local padstack DB was updated.

Padstack Name		Old Timestamp		New Timestamp
-------------		-------------		-------------
o-1.2		<12/13/2016 12:08:43>		<01/04/2017 12:05:29>
