[2016.11.02 22:32:36] [0000m.00s.046ms] [0] WELCOME
[2016.11.02 22:32:36] [0000m.00s.047ms] [1] iCDB Server ver.2.101, 3UDjJHMiCHg78unffLJcEw, build:673008 created 2015-03-11 13:21:12, sources stamp:3UDjJHMiCHg78unffLJcEw
[2016.11.02 22:32:36] [0000m.00s.047ms] [1] Copyright 2015 Mentor Graphics Corporation. All Rights Reserved.
[2016.11.02 22:32:36] [0000m.00s.047ms] [1] Base flow version [VX.1.1]
[2016.11.02 22:32:36] [0000m.00s.047ms] [1] GBS Install Id [43430], Flow Id [PADS-Pro VX.1.1], Full Flow Name [PADS Professional VX.1.1], Exact Access Date [Feb 1 2015]
[2016.11.02 22:32:36] [0000m.00s.047ms] [1] Machine [DESKTOP-TJKR3AR]  User [branden.sheffield]  PID [6396]
[2016.11.02 22:32:36] [0000m.00s.048ms] [1] Operating system [Microsoft Enterprise Edition, 64-bit (build 9200)]
[2016.11.02 22:32:36] [0000m.00s.048ms] [1] Current working dir [C:\pd_repo\pd\_CITADEL\Mentor\Citadel]
[2016.11.02 22:32:36] [0000m.00s.048ms] [1] PATH [C:\MentorGraphics\PADSProVX.1.1\SDD_HOME\common\win32\bin;C:\MentorGraphics\PADSProVX.1.1\SDD_HOME\common\win32\lib;C:\MentorGraphics\PADSProVX.1.1\MGC_HOME.ixn\bin;C:\MentorGraphics\PADSProVX.1.1\MGC_HOME.ixn\lib;C:\MentorGraphics\PADSVX.2\SDD_HOME\wv\win32\bin;C:\Program Files (x86)\Google\Chrome\Application;C:\Program Files (x86)\CSR\BlueSuite 2.5.8\DFU Tools;C:\Program Files (x86)\NVIDIA Corporation\PhysX\Common;C:\ProgramData\Oracle\Java\javapath;C:\WINDOWS\system32;C:\WINDOWS;C:\WINDOWS\System32\Wbem;C:\WINDOWS\System32\WindowsPowerShell\v1.0\;C:\Program Files (x86)\Skype\Phone\;C:\Program Files (x86)\Windows Kits\8.1\Windows Performance Toolkit\;C:\Program Files\TortoiseSVN\bin;C:\Users\branden.sheffield\AppData\Local\Microsoft\WindowsApps;]
[2016.11.02 22:32:36] [0000m.00s.048ms] [1] SDD_HOME [C:\MentorGraphics\PADSProVX.1.1\SDD_HOME] on file system [NTFS]
[2016.11.02 22:32:36] [0000m.00s.048ms] [1] SDD_PLATFORM [win32]
[2016.11.02 22:32:36] [0000m.00s.048ms] [1] WDIR [C:\WDIR\PADSProVX.1.1;C:\MentorGraphics\PADSProVX.1.1\SDD_HOME\standard;]
[2016.11.02 22:32:36] [0000m.00s.048ms] [1] Local iCDB working dir [C:\WDIR\PADSProVX.1.1\iCDB] on file system [NTFS]
[2016.11.02 22:32:36] [0000m.00s.049ms] [2] S: Loading config files
[2016.11.02 22:32:36] [0000m.00s.060ms] [1] Config file [C:\pd_repo\pd\_CITADEL\Mentor\Citadel\database\cdbsvr\Server.cfg] not found
[2016.11.02 22:32:36] [0000m.00s.061ms] [3] S: Config loaded
[2016.11.02 22:32:36] [0000m.00s.068ms] [0] S: Project path [C:\pd_repo\pd\_CITADEL\Mentor\Citadel\database] on file system [NTFS]
[2016.11.02 22:32:36] [0000m.00s.068ms] [0] S: Project file (.prj) path [C:\pd_repo\pd\_CITADEL\Mentor\Citadel\Citadel.prj] on file system [NTFS]
[2016.11.02 22:32:36] [0000m.00s.068ms] [1] S: WARNING: Database auto-repair support DISABLED
[2016.11.02 22:32:36] [0000m.00s.068ms] [0] S: Multi-user mode (config)
[2016.11.02 22:32:36] [0000m.00s.068ms] [0] S: Event polling mode autodetection
[2016.11.02 22:32:36] [0000m.00s.075ms] [0] S: Started up automatically by iCDB Client: DESKTOP-TJKR3AR:branden.sheffield:10824
[2016.11.02 22:32:36] [0000m.00s.075ms] [0] S: Auto close mode
[2016.11.02 22:32:36] [0000m.00s.075ms] [0] S: Database ID [df0c-946c-e1b8-9fee-e103-a183-203a-1850-dff4-8382-e1c2-b0a8]
[2016.11.02 22:32:36] [0000m.00s.075ms] [0] PathTranslator: BEGIN dumping
[2016.11.02 22:32:36] [0000m.00s.075ms] [0] PathTranslator: Local -> global path prefix list
[2016.11.02 22:32:36] [0000m.00s.075ms] [0] PathTranslator: [R:\] -> [\\underground.skullcandy.com@SSL\DavWWWRoot\departments\pd\ACE\]
[2016.11.02 22:32:36] [0000m.00s.075ms] [0] PathTranslator: [Z:\] -> [\\izombie\shares\pd\]
[2016.11.02 22:32:36] [0000m.00s.075ms] [0] PathTranslator: Global -> local path prefix list
[2016.11.02 22:32:36] [0000m.00s.075ms] [0] PathTranslator: [\\underground.skullcandy.com@SSL\DavWWWRoot\departments\pd\ACE\] -> [R:\]
[2016.11.02 22:32:36] [0000m.00s.075ms] [0] PathTranslator: [\\izombie\shares\pd\] -> [Z:\]
[2016.11.02 22:32:36] [0000m.00s.075ms] [0] PathTranslator: END dumping
[2016.11.02 22:32:36] [0000m.00s.075ms] [0] S: START
[2016.11.02 22:32:36] [0000m.00s.076ms] [0] S: Server startup lock file created
[2016.11.02 22:32:36] [0000m.00s.077ms] [0] S: Listening for client connections on port [10000]
[2016.11.02 22:32:36] [0000m.00s.079ms] [0] S: Server network ID [DESKTOP-TJKR3AR:192.168.11.109,192.168.5.134,DESKTOP-TJKR3AR,DESKTOP-TJKR3AR.skullcandy.local:10000]
[2016.11.02 22:32:36] [0000m.00s.079ms] [0] S: Server GUID [56ab-521b-999d-fe1e-4edb-a189-edba-1850-aa8c-99c8-e746-348b]
[2016.11.02 22:32:36] [0000m.00s.079ms] [0] S: Project GUID [df0c-946c-e1b8-9fee-e103-a183-203a-1850-dff4-8382-e1c2-b0a8]
[2016.11.02 22:32:36] [0000m.00s.083ms] [0] S: Wrote data to server address file
[2016.11.02 22:32:36] [0000m.00s.084ms] [0] S: Server startup lock file removed
[2016.11.02 22:32:36] [0000m.00s.085ms] [1] ProjectBackupManager: Setting project file (.prj) path: [C:\pd_repo\pd\_CITADEL\Mentor\Citadel\Citadel.prj]
[2016.11.02 22:32:36] [0000m.00s.335ms] [0] S: Plugins loaded: [PIM] [ENetGen70] 
[2016.11.02 22:32:36] [0000m.00s.335ms] [0] S: Local disc access time: 29 us
[2016.11.02 22:32:36] [0000m.00s.335ms] [0] S: File server access time: 28 us
[2016.11.02 22:32:36] [0000m.00s.348ms] [0] Single file [C:\pd_repo\pd\_CITADEL\Mentor\Citadel\database\icdb.dat] size [657488 (642.1 kB)]
[2016.11.02 22:32:36] [0000m.00s.348ms] [1] Single file [C:\pd_repo\pd\_CITADEL\Mentor\Citadel\database\icdb.dat] opened in read-write mode
[2016.11.02 22:32:36] [0000m.00s.349ms] [0] SingleFile: [0000-0000-0000-0000] SFI header version check [1009] [1009]
[2016.11.02 22:32:36] [0000m.00s.349ms] [0] Database GUARD OK: [657488]
[2016.11.02 22:32:36] [0000m.00s.353ms] [0] SingleFile: [0000-0000-0000-0000] SFI header version check [1009] [1009]
[2016.11.02 22:32:36] [0000m.00s.353ms] [0] Database GUARD OK: [657488]
[2016.11.02 22:32:36] [0000m.00s.353ms] [0] SingleFile: [8114-c962-f3a5-68e7] SFI version check [1009] [1009]
[2016.11.02 22:32:36] [0000m.00s.358ms] [0] SingleFile: [8114-c962-f3a5-68e7] Database SFI header has been read in [5ms 997us]
[2016.11.02 22:32:36] [0000m.00s.366ms] [0] iCDB Server PI: Server & plugin session [2612]
[2016.11.02 22:32:36] [0000m.00s.366ms] [0] iCDB Server PI: Opening database [C:\pd_repo\pd\_CITADEL\Mentor\Citadel\database]
[2016.11.02 22:32:36] [0000m.00s.366ms] [0] iCDB Server PI: Database [C:\pd_repo\pd\_CITADEL\Mentor\Citadel\database] opened
[2016.11.02 22:32:36] [0000m.00s.415ms] [0] iCDB Database: Checking existence of constraint definitions
[2016.11.02 22:32:36] [0000m.00s.415ms] [0] iCDB Database: Checking constraint definitions version
[2016.11.02 22:32:36] [0000m.00s.465ms] [1] iCDB Database: Constraint definitions version [ce_ee.cns=7.10.35] up to date
[2016.11.02 22:32:36] [0000m.00s.487ms] [0] iCDB Server PI: Initializing plugins
[2016.11.02 22:32:36] [0000m.00s.488ms] [0] iCDB Server PI: Plugins initialized
[2016.11.02 22:32:36] [0000m.00s.488ms] [0] S: iCDB database loaded
[2016.11.02 22:32:36] [0000m.00s.491ms] [0] S: Starting threads
[2016.11.02 22:32:36] [0000m.00s.492ms] [0] BT: Listening for broadcast messages on port [10000]
[2016.11.02 22:32:36] [0000m.00s.493ms] [1] CMT: There are no clients - waiting [10 seconds]
[2016.11.02 22:32:36] [0000m.00s.501ms] [0] IT: Session [2613] for host [DESKTOP-TJKR3AR] user [branden.sheffield] with process ID [10824] created
[2016.11.02 22:32:36] [0000m.00s.503ms] [1] SC[2613]: Registered sub-client [DxD] with ID [1] for session ID [2613] host [DESKTOP-TJKR3AR] user [branden.sheffield] process ID [10824]
[2016.11.02 22:32:37] [0000m.00s.576ms] [1] SC[2613]: Registered sub-client [TransactionRollbackSubClient] with ID [2] for session ID [2613] host [DESKTOP-TJKR3AR] user [branden.sheffield] process ID [10824]
[2016.11.02 22:32:37] [0000m.00s.582ms] [1] SC[2613]: Registered sub-client [xprob] with ID [3] for session ID [2613] host [DESKTOP-TJKR3AR] user [branden.sheffield] process ID [10824]
[2016.11.02 22:32:37] [0000m.00s.608ms] [1] CMT: There are [1] clients now: 2613
[2016.11.02 22:32:38] [0000m.02s.430ms] [1] SC[2613]: Registered sub-client [SelectionHolder] with ID [4] for session ID [2613] host [DESKTOP-TJKR3AR] user [branden.sheffield] process ID [10824]
[2016.11.02 22:32:39] [0000m.02s.710ms] [1] SC[2613]: Registered sub-client [SymbolEditor] with ID [5] for session ID [2613] host [DESKTOP-TJKR3AR] user [branden.sheffield] process ID [10824]
[2016.11.02 22:32:39] [0000m.02s.716ms] [1] SC[2613]: Registered sub-client [EEVM_EEVM_185705708] with ID [6] for session ID [2613] host [DESKTOP-TJKR3AR] user [branden.sheffield] process ID [10824]
[2016.11.02 22:32:39] [0000m.02s.717ms] [1] SC[2613]: UnRegistered sub-client [EEVM_EEVM_185705708] with ID [6] for session ID [2613] host [DESKTOP-TJKR3AR] user [branden.sheffield] process ID [10824]
[2016.11.02 22:32:39] [0000m.02s.721ms] [1] SC[2613]: Registered sub-client [EEVM_EEVM_185705708] with ID [7] for session ID [2613] host [DESKTOP-TJKR3AR] user [branden.sheffield] process ID [10824]
[2016.11.02 22:32:39] [0000m.02s.736ms] [1] SC[2613]: UnRegistered sub-client [EEVM_EEVM_185705708] with ID [7] for session ID [2613] host [DESKTOP-TJKR3AR] user [branden.sheffield] process ID [10824]
[2016.11.02 22:32:39] [0000m.02s.740ms] [1] SC[2613]: Registered sub-client [EEVM_EEVM_200333132] with ID [8] for session ID [2613] host [DESKTOP-TJKR3AR] user [branden.sheffield] process ID [10824]
[2016.11.02 22:32:39] [0000m.02s.741ms] [1] SC[2613]: UnRegistered sub-client [EEVM_EEVM_200333132] with ID [8] for session ID [2613] host [DESKTOP-TJKR3AR] user [branden.sheffield] process ID [10824]
[2016.11.02 22:32:39] [0000m.02s.744ms] [1] SC[2613]: Registered sub-client [EEVM_EEVM_200333132] with ID [9] for session ID [2613] host [DESKTOP-TJKR3AR] user [branden.sheffield] process ID [10824]
[2016.11.02 22:32:39] [0000m.02s.763ms] [1] SC[2613]: UnRegistered sub-client [EEVM_EEVM_200333132] with ID [9] for session ID [2613] host [DESKTOP-TJKR3AR] user [branden.sheffield] process ID [10824]
[2016.11.02 22:32:40] [0000m.03s.832ms] [1] SC[2613]: Registered sub-client [SystemDesignDll] with ID [10] for session ID [2613] host [DESKTOP-TJKR3AR] user [branden.sheffield] process ID [10824]
[2016.11.02 22:32:40] [0000m.03s.919ms] [1] SC[2613]: UnRegistered sub-client [SystemDesignDll] with ID [10] for session ID [2613] host [DESKTOP-TJKR3AR] user [branden.sheffield] process ID [10824]
[2016.11.02 22:32:40] [0000m.03s.922ms] [1] SC[2613]: Registered sub-client [SystemDesignDll] with ID [11] for session ID [2613] host [DESKTOP-TJKR3AR] user [branden.sheffield] process ID [10824]
[2016.11.02 22:32:43] [0000m.07s.044ms] [1] SC[2613]: Registered sub-client [HdlProject] with ID [12] for session ID [2613] host [DESKTOP-TJKR3AR] user [branden.sheffield] process ID [10824]
[2016.11.02 22:32:43] [0000m.07s.054ms] [1] SC[2613]: Registered sub-client [Navigator] with ID [13] for session ID [2613] host [DESKTOP-TJKR3AR] user [branden.sheffield] process ID [10824]
[2016.11.02 22:32:43] [0000m.07s.070ms] [1] SC[2613]: Registered sub-client [OutputWindow] with ID [14] for session ID [2613] host [DESKTOP-TJKR3AR] user [branden.sheffield] process ID [10824]
[2016.11.02 22:32:43] [0000m.07s.073ms] [1] SC[2613]: Registered sub-client [PlaceDevice] with ID [15] for session ID [2613] host [DESKTOP-TJKR3AR] user [branden.sheffield] process ID [10824]
[2016.11.02 22:32:44] [0000m.07s.573ms] [1] SC[2613]: Registered sub-client [SAE] with ID [16] for session ID [2613] host [DESKTOP-TJKR3AR] user [branden.sheffield] process ID [10824]
[2016.11.02 22:32:44] [0000m.07s.578ms] [1] SC[2613]: Registered sub-client [CCZAddin] with ID [17] for session ID [2613] host [DESKTOP-TJKR3AR] user [branden.sheffield] process ID [10824]
[2016.11.02 22:32:44] [0000m.07s.584ms] [1] SC[2613]: Registered sub-client [DxThumbnails] with ID [18] for session ID [2613] host [DESKTOP-TJKR3AR] user [branden.sheffield] process ID [10824]
[2016.11.02 22:32:44] [0000m.07s.589ms] [1] SC[2613]: Registered sub-client [MyParts] with ID [19] for session ID [2613] host [DESKTOP-TJKR3AR] user [branden.sheffield] process ID [10824]
[2016.11.02 22:32:44] [0000m.07s.619ms] [1] SC[2613]: Registered sub-client [PinsList] with ID [20] for session ID [2613] host [DESKTOP-TJKR3AR] user [branden.sheffield] process ID [10824]
[2016.11.02 22:32:44] [0000m.07s.791ms] [1] SC[2613]: Registered sub-client [toolboxes] with ID [21] for session ID [2613] host [DESKTOP-TJKR3AR] user [branden.sheffield] process ID [10824]
[2016.11.02 22:32:44] [0000m.07s.814ms] [1] SC[2613]: Registered sub-client [SheetConnectorsCacheDxD:1478147564] with ID [22] for session ID [2613] host [DESKTOP-TJKR3AR] user [branden.sheffield] process ID [10824]
[2016.11.02 22:32:44] [0000m.07s.837ms] [1] SC[2613]: Registered sub-client [NetsNamesCollectorDxD:1478147564] with ID [23] for session ID [2613] host [DESKTOP-TJKR3AR] user [branden.sheffield] process ID [10824]
[2016.11.02 22:32:49] [0000m.12s.949ms] [1] SC[2613]: Registered sub-client [ObjectHolder_197308208] with ID [24] for session ID [2613] host [DESKTOP-TJKR3AR] user [branden.sheffield] process ID [10824]
[2016.11.02 22:32:49] [0000m.12s.953ms] [1] SC[2613]: Registered sub-client [BlockCacheDxD:222708472] with ID [25] for session ID [2613] host [DESKTOP-TJKR3AR] user [branden.sheffield] process ID [10824]
[2016.11.02 22:32:49] [0000m.12s.957ms] [1] SC[2613]: Registered sub-client [GlobalNetAliasUpdater_197308384] with ID [26] for session ID [2613] host [DESKTOP-TJKR3AR] user [branden.sheffield] process ID [10824]
[2016.11.02 22:32:49] [0000m.12s.962ms] [1] SC[2613]: Registered sub-client [IcdbNetProcessorSubClientDxD:223936208] with ID [27] for session ID [2613] host [DESKTOP-TJKR3AR] user [branden.sheffield] process ID [10824]
[2016.11.02 22:32:51] [0000m.15s.055ms] [1] SC[2613]: Registered sub-client [DxDbSearch] with ID [28] for session ID [2613] host [DESKTOP-TJKR3AR] user [branden.sheffield] process ID [10824]
[2016.11.02 22:33:06] [0000m.30s.279ms] [0] DFAMT: File server access time: 68 us
[2016.11.02 23:37:42] [0065m.06s.258ms] [1] PrjBackupMgr: Successfully created Project Backup [C:\pd_repo\pd\_CITADEL\Mentor\Citadel\ProjectBackup\backups\2016-11-02 23.37.41 - auto.zip] with GUID [7d6d-c72c-3611-d895-52dc-a18a-2dca-1850-a69c-99c8-e746-348b]
[2016.11.02 23:37:42] [0065m.06s.262ms] [0] PrjBackupMgr: Removing excessive backup:  BackupGUID[5ce8-b433-2eea-cefc-13fb-8186-3fb8-1850-1165-8382-e1c2-b0a8] CreationTime[Tuesday, November 01, 2016 16:13:37] Type[Autosave] Creator[iCDB Server (2016-11-01 10.00.36-2572)] ApplicationName[iCDB Server (2016-11-01 10.00.36-2572)] UserName[branden.sheffield] MachineName[DESKTOP-TJKR3AR] Description[Autosave] FullFlowName[PADS Professional VX.1.1] FlowId[PADS-Pro VX.1.1] GBSInstallId[43430] GBSBuildId[673008] IcdbVersion[2900] ReferenceLogFilePath[] BackupFilePath[C:\pd_repo\pd\_CITADEL\Mentor\Citadel\ProjectBackup\backups\2016-11-01 10.13.37 - auto.zip] BackupFileSize[4551390] Persistent[FALSE]
[2016.11.02 23:37:42] [0065m.06s.265ms] [0] PrjBackupMgr: Project Backup file [C:\pd_repo\pd\_CITADEL\Mentor\Citadel\ProjectBackup\backups\2016-11-01 10.13.37 - auto.zip] with GUID [5ce8-b433-2eea-cefc-13fb-8186-3fb8-1850-1165-8382-e1c2-b0a8] removed
[2016.11.02 23:37:42] [0065m.06s.268ms] [0] PrjBackupEngine: Successfully created backup:  BackupGUID[7d6d-c72c-3611-d895-52dc-a18a-2dca-1850-a69c-99c8-e746-348b] CreationTime[Thursday, November 03, 2016 05:37:41] Type[Autosave] Creator[iCDB Server (2016-11-02 22.32.36-6396)] ApplicationName[iCDB Server (2016-11-02 22.32.36-6396)] UserName[branden.sheffield] MachineName[DESKTOP-TJKR3AR] Description[Autosave] FullFlowName[PADS Professional VX.1.1] FlowId[PADS-Pro VX.1.1] GBSInstallId[43430] GBSBuildId[673008] IcdbVersion[2900] ReferenceLogFilePath[] BackupFilePath[C:\pd_repo\pd\_CITADEL\Mentor\Citadel\ProjectBackup\backups\2016-11-02 23.37.41 - auto.zip] BackupFileSize[4616035] Persistent[FALSE]
