
Schematic Net Listing
-------------------------------- -------------------------------- --- --- ------ --- --- ------ ------ - -------------------- ---
Part                             Reference                        Sym Sub    Pin Eqv Sub   Pin     Pin Phantom    Net         Net
Number                           Designator                       Num Typ    Id  Cls Pak   Text    Num Flag       Name        Num
-------------------------------- -------------------------------- --- --- ------ --- --- ------ ------ - -------------------- ---
ESD_BI_0402                      D2                                33   1      1   1   1 1           1 0 GND                 (20-1-13)
ESD_BI_0402                      D2                                33   1      2   2   1 2           2 0 BTN_V+_RIGHT        (2674-16-13)
ESD_BI_0402                      D3                                34   1      1   1   1 1           1 0 GND                 (20-1-13)
ESD_BI_0402                      D3                                34   1      2   2   1 2           2 0 BTN_V-_RIGHT        (2674-14-13)
ESD_BI_0402                      D10                               32   1      1   1   1 1           1 0 GND                 (20-1-13)
ESD_BI_0402                      D10                               32   1      2   2   1 2           2 0 MFB_RIGHT           (2665-3-13)
TP0.8x1.2                        TP15                               2   1      1   1   1 1           1 0 BTN_V+_RIGHT        (2674-16-13)
TP0.8x1.2                        TP16                               3   1      1   1   1 1           1 0 BTN_V-_RIGHT        (2674-14-13)
TP0.8x1.2                        TP46                               4   1      1   1   1 1           1 0 GND                 (20-1-13)
TP0.8x1.2                        TP47                              16   1      1   1   1 1           1 0 GND                 (20-1-13)
TP0.8x1.2                        TP48                               1   1      1   1   1 1           1 0 MFB_RIGHT           (2665-3-13)
TP0.8x1.2                        TP49                               7   1      1   1   1 1           1 0 GND                 (20-1-13)
TP0.8x1.2                        TP144                              9   1      1   1   1 1           1 0 BAT_TS              (3030-7-13)
TP0.8x1.2                        TP145                              8   1      1   1   1 1           1 0 BAT_TS              (3030-7-13)
TP0.8x1.2                        TP146                             17   1      1   1   1 1           1 0 Mic_V+              (3030-8-13)
TP0.8x1.2                        TP147                             18   1      1   1   1 1           1 0 Mic_V+              (3030-8-13)
TP0.8x1.2                        TP148                             11   1      1   1   1 1           1 0 AGND                (24-17-13)
TP0.8x1.2                        TP149                             10   1      1   1   1 1           1 0 AGND                (24-17-13)
TP0.8x1.2                        TP150                             19   1      1   1   1 1           1 0 Mic_V+              (3030-8-13)
TP0.8x1.2                        TP151                             13   1      1   1   1 1           1 0 AGND                (24-17-13)
TP0.8x1.2                        TP152                             12   1      1   1   1 1           1 0 AGND                (24-17-13)
TP0.8x1.2                        TP153                             15   1      1   1   1 1           1 0 FF_R                (3030-9-13)
TP0.8x1.2                        TP154                             14   1      1   1   1 1           1 0 FF_R                (3030-9-13)
TP0.8x1.2                        TP155                              5   1      1   1   1 1           1 0 FB_R                (3030-10-13)
TP0.8x1.2                        TP156                              6   1      1   1   1 1           1 0 FB_R                (3030-10-13)
TP1.5                            TP157                             31   1      1   1   1 1           1 0 VBAT+               (3030-1-13)
TP1.5                            TP158                             30   1      1   1   1 1           1 0 VBAT+               (3030-1-13)
TP1.5                            TP159                             22   1      1   1   1 1           1 0 GND                 (20-1-13)
TP1.5                            TP160                             25   1      1   1   1 1           1 0 GND                 (20-1-13)
TP1.5                            TP161                             20   1      1   1   1 1           1 0 CD_R+               (3030-3-13)
TP1.5                            TP162                             21   1      1   1   1 1           1 0 CD_R+               (3030-3-13)
TP1.5                            TP163                             24   1      1   1   1 1           1 0 CD_R-               (3030-4-13)
TP1.5                            TP164                             23   1      1   1   1 1           1 0 CD_R-               (3030-4-13)
TP1.5                            TP165                             27   1      1   1   1 1           1 0 AD_R+               (3030-5-13)
TP1.5                            TP166                             26   1      1   1   1 1           1 0 AD_R+               (3030-5-13)
TP1.5                            TP167                             28   1      1   1   1 1           1 0 AD_R-               (3030-6-13)
TP1.5                            TP168                             29   1      1   1   1 1           1 0 AD_R-               (3030-6-13)
TS033W1-N35F-03                  SW2                               36   1      1   1   1 1           1 0 GND                 (20-1-13)
TS033W1-N35F-03                  SW2                               36   1      2   2   1 2           2 0 GND                 (20-1-13)
TS033W1-N35F-03                  SW2                               36   1      3   3   1 3           3 0 BTN_V+_RIGHT        (2674-16-13)
TS033W1-N35F-03                  SW2                               36   1      4   4   1 4           4 0 BTN_V+_RIGHT        (2674-16-13)
TS033W1-N35F-03                  SW2                               36   2      1   1   2 5           5 0 GND                 (20-1-13)
TS033W1-N35F-03                  SW3                               37   1      1   1   1 1           1 0 GND                 (20-1-13)
TS033W1-N35F-03                  SW3                               37   1      2   2   1 2           2 0 GND                 (20-1-13)
TS033W1-N35F-03                  SW3                               37   1      3   3   1 3           3 0 BTN_V-_RIGHT        (2674-14-13)
TS033W1-N35F-03                  SW3                               37   1      4   4   1 4           4 0 BTN_V-_RIGHT        (2674-14-13)
TS033W1-N35F-03                  SW3                               37   2      1   1   2 5           5 0 GND                 (20-1-13)
TS033W1-N35F-03                  SW6                               35   1      1   1   1 1           1 0 GND                 (20-1-13)
TS033W1-N35F-03                  SW6                               35   1      2   2   1 2           2 0 GND                 (20-1-13)
TS033W1-N35F-03                  SW6                               35   1      3   3   1 3           3 0 MFB_RIGHT           (2665-3-13)
Schematic Net Listing
-------------------------------- -------------------------------- --- --- ------ --- --- ------ ------ - -------------------- ---
Part                             Reference                        Sym Sub    Pin Eqv Sub   Pin     Pin Phantom    Net         Net
Number                           Designator                       Num Typ    Id  Cls Pak   Text    Num Flag       Name        Num
-------------------------------- -------------------------------- --- --- ------ --- --- ------ ------ - -------------------- ---
TS033W1-N35F-03                  SW6                               35   1      4   4   1 4           4 0 MFB_RIGHT           (2665-3-13)
TS033W1-N35F-03                  SW6                               35   2      1   1   2 5           5 0 GND                 (20-1-13)
