=======================================================================
PADS Professional Layout - Version 2015.0.678.963
=======================================================================

RELOAD CELLS

Job Directory:  C:\Users\branden.sheffield\Documents\RedPeril\Mentor\RedPeril\PCB\


Design Units:(mm)

Replace Cell Log:   repCellLog56.txt

Mon Oct 03 16:48:54 2016

Reference Designator            Cell Name                         New Cell Name
===============================================================================


---------------  RELOAD CELLS  Mon Oct 03 16:48:54 2016  ---------------




---------------  RELOAD CELLS TMP  Mon Oct 03 16:48:54 2016  ---------------




---------------    Mon Oct 03 16:48:54 2016  ---------------




---------------    Mon Oct 03 16:48:54 2016  ---------------




---------------    Mon Oct 03 16:48:54 2016  ---------------


SW1                             STO_Mitsumi                       STO_Mitsumi                     
SW2                             STO_Mitsumi                       STO_Mitsumi                     
SW3                             STO_Mitsumi                       STO_Mitsumi                     


---------------    Mon Oct 03 16:48:54 2016  ---------------




---------------    Mon Oct 03 16:48:54 2016  ---------------


