=======================================================================
PADS Professional Layout - Version 116.0.506.1217
=======================================================================

RELOAD CELLS

Job Directory:  C:\pd_repo\pd\_CITADEL\Mentor\Citadel\PCB\


Design Units:(mm)

Replace Cell Log:   repCellLog66.txt

Tue Nov 29 00:23:16 2016

Reference Designator            Cell Name                         New Cell Name
===============================================================================


---------------  RELOAD CELLS  Tue Nov 29 00:23:16 2016  ---------------




---------------  RELOAD CELLS TMP  Tue Nov 29 00:23:16 2016  ---------------


U6                              W25Q80BLUX                        W25Q80BLUX                      
U2                              NLAS2750                          NLAS2750                        
U3                              TPA6133A2                         TPA6133A2                       
U5                              NLAS2750                          NLAS2750                        


---------------    Tue Nov 29 00:23:16 2016  ---------------




---------------    Tue Nov 29 00:23:16 2016  ---------------




---------------    Tue Nov 29 00:27:35 2016  ---------------




---------------    Tue Nov 29 00:27:35 2016  ---------------




---------------    Tue Nov 29 00:27:35 2016  ---------------




---------------    Tue Nov 29 00:27:35 2016  ---------------




---------------    Tue Nov 29 00:27:35 2016  ---------------




---------------    Tue Nov 29 00:27:35 2016  ---------------




---------------    Tue Nov 29 00:27:35 2016  ---------------




---------------    Tue Nov 29 00:28:55 2016  ---------------




---------------    Tue Nov 29 00:29:39 2016  ---------------




---------------    Tue Nov 29 00:29:59 2016  ---------------




---------------    Tue Nov 29 00:30:17 2016  ---------------




---------------    Tue Nov 29 00:36:38 2016  ---------------


