=======================================================================
PADS Professional Layout - Version 2015.0.678.963
=======================================================================

RELOAD CELLS

Job Directory:  C:\Users\branden.sheffield\Documents\Crusher3.0\Mentor\CrusherMain\PCB\


Design Units:(mm)

Replace Cell Log:   repCellLog28.txt

Tue Feb 02 14:41:44 2016

Reference Designator            Cell Name                         New Cell Name
===============================================================================


---------------  RELOAD CELLS  Tue Feb 02 14:41:44 2016  ---------------




---------------    Tue Feb 02 14:41:44 2016  ---------------




---------------    Tue Feb 02 14:42:03 2016  ---------------




---------------    Tue Feb 02 14:42:21 2016  ---------------




---------------  RELOAD CELLS  Tue Feb 02 14:43:34 2016  ---------------




---------------    Tue Feb 02 14:43:34 2016  ---------------




---------------    Tue Feb 02 14:43:48 2016  ---------------




---------------    Tue Feb 02 14:44:03 2016  ---------------




---------------    Tue Feb 02 14:44:15 2016  ---------------




---------------    Tue Feb 02 14:44:16 2016  ---------------




---------------  RELOAD CELLS  Tue Feb 02 14:53:42 2016  ---------------




---------------    Tue Feb 02 14:53:42 2016  ---------------




---------------    Tue Feb 02 14:53:56 2016  ---------------




---------------    Tue Feb 02 14:54:00 2016  ---------------




---------------    Tue Feb 02 14:54:03 2016  ---------------




---------------    Tue Feb 02 14:54:05 2016  ---------------




---------------    Tue Feb 02 14:54:19 2016  ---------------




---------------  RELOAD CELLS  Tue Feb 02 15:04:37 2016  ---------------




---------------  RELOAD CELLS TMP  Tue Feb 02 15:04:37 2016  ---------------


CONN5                           PJ-3674AD_Custom                  PJ-3674AD_Custom                
CONN3                           PJ-3674AD_Custom                  PJ-3674AD_Custom                


---------------    Tue Feb 02 15:04:37 2016  ---------------




---------------    Tue Feb 02 15:04:37 2016  ---------------




---------------    Tue Feb 02 15:39:58 2016  ---------------




---------------  RELOAD CELLS  Tue Feb 02 23:20:52 2016  ---------------




---------------  RELOAD CELLS TMP  Tue Feb 02 23:20:52 2016  ---------------


CONN3                           PJ-3674AD_Custom                  PJ-3674AD_Custom                
CONN5                           PJ-3674AD_Custom                  PJ-3674AD_Custom                


---------------    Tue Feb 02 23:20:52 2016  ---------------




---------------    Tue Feb 02 23:20:52 2016  ---------------


