=======================================================================
PADS Professional Layout - Version 2015.0.678.963
=======================================================================

RELOAD CELLS

Job Directory:  C:\Users\branden.sheffield\Documents\Crusher3.0\Mentor\CrusherMain\PCB\


Design Units:(mm)

Replace Cell Log:   repCellLog41.txt

Thu Mar 31 16:21:05 2016

Reference Designator            Cell Name                         New Cell Name
===============================================================================


---------------  RELOAD CELLS  Thu Mar 31 16:21:05 2016  ---------------




---------------    Thu Mar 31 16:21:05 2016  ---------------




---------------    Thu Mar 31 16:21:56 2016  ---------------




---------------    Thu Mar 31 16:22:02 2016  ---------------




---------------    Thu Mar 31 16:24:50 2016  ---------------


