=======================================================================
PADS Professional Layout - Version 2015.0.678.963
=======================================================================

RELOAD CELLS

Job Directory:  C:\Users\branden.sheffield\Documents\Citadel\Mentor\Citadel\PCB\


Design Units:(mm)

Replace Cell Log:   repCellLog64.txt

Thu Oct 13 18:20:26 2016

Reference Designator            Cell Name                         New Cell Name
===============================================================================


---------------  RELOAD CELLS  Thu Oct 13 18:20:26 2016  ---------------




---------------  RELOAD CELLS TMP  Thu Oct 13 18:20:26 2016  ---------------


U10                             MCP6002dfn                        MCP6002dfn                      


---------------    Thu Oct 13 18:20:26 2016  ---------------




---------------    Thu Oct 13 18:20:26 2016  ---------------


