=======================================================================
PADS Professional Layout - Version 2015.0.678.963
=======================================================================

RELOAD CELLS

Job Directory:  C:\Users\branden.sheffield\Documents\Crusher3.0\Mentor\CrusherMain\PCB\


Design Units:(mm)

Replace Cell Log:   repCellLog02.txt

Thu Sep 17 23:39:10 2015

Reference Designator            Cell Name                         New Cell Name
===============================================================================


---------------  RELOAD CELLS  Thu Sep 17 23:39:10 2015  ---------------




---------------    Thu Sep 17 23:39:10 2015  ---------------




---------------  RELOAD CELLS  Fri Sep 18 00:21:56 2015  ---------------




---------------    Fri Sep 18 00:21:56 2015  ---------------


