=======================================================================
PADS Professional Layout - Version 116.0.506.1217
=======================================================================

RELOAD CELLS

Job Directory:  C:\pd_repo\pd\_CITADEL\Mentor\Citadel_Right\PCB\


Design Units:(mm)

Replace Cell Log:   repCellLog81.txt

Fri Dec 09 16:18:22 2016

Reference Designator            Cell Name                         New Cell Name
===============================================================================


---------------  RELOAD CELLS  Fri Dec 09 16:18:22 2016  ---------------




---------------    Fri Dec 09 16:18:22 2016  ---------------


