=======================================================================
PADS Professional Layout - Version 2015.0.678.963
=======================================================================

RELOAD CELLS

Job Directory:  C:\Users\branden.sheffield\Documents\Crusher3.0\Mentor\CrusherMain\PCB\


Design Units:(mm)

Replace Cell Log:   repCellLog49.txt

Wed May 25 10:08:36 2016

Reference Designator            Cell Name                         New Cell Name
===============================================================================


---------------  RELOAD CELLS  Wed May 25 10:08:36 2016  ---------------




---------------  RELOAD CELLS TMP  Wed May 25 10:08:36 2016  ---------------




---------------    Wed May 25 10:08:36 2016  ---------------


CONN1                           PJ-3674AD                         PJ-3674AD                       


---------------    Wed May 25 10:08:36 2016  ---------------




---------------    Wed May 25 10:08:36 2016  ---------------




---------------  RELOAD CELLS  Wed May 25 11:12:27 2016  ---------------




---------------  RELOAD CELLS TMP  Wed May 25 11:12:27 2016  ---------------


L1                              LVC201B10                         LVC201B10                       
L2                              LVC201B10                         LVC201B10                       


---------------    Wed May 25 11:12:27 2016  ---------------




---------------    Wed May 25 11:12:27 2016  ---------------


