=======================================================================
PADS Professional Layout - Version 116.0.506.1217
=======================================================================

RELOAD CELLS

Job Directory:  C:\pd_repo\pd\_CITADEL\Mentor\Citadel\PCB\


Design Units:(mm)

Replace Cell Log:   repCellLog69.txt

Thu Dec 01 14:13:00 2016

Reference Designator            Cell Name                         New Cell Name
===============================================================================


---------------  RELOAD CELLS  Thu Dec 01 14:13:00 2016  ---------------




---------------  RELOAD CELLS TMP  Thu Dec 01 14:13:00 2016  ---------------




---------------    Thu Dec 01 14:13:00 2016  ---------------




---------------    Thu Dec 01 14:13:00 2016  ---------------


