=======================================================================
PADS Professional Layout - Version 2015.0.678.963
=======================================================================

RELOAD CELLS

Job Directory:  C:\Users\branden.sheffield\Documents\Crusher3.0\Mentor\CrusherMain\PCB\


Design Units:(mm)

Replace Cell Log:   repCellLog30.txt

Fri Feb 05 01:24:18 2016

Reference Designator            Cell Name                         New Cell Name
===============================================================================


---------------  RELOAD CELLS  Fri Feb 05 01:24:18 2016  ---------------




---------------    Fri Feb 05 01:24:18 2016  ---------------




---------------    Fri Feb 05 01:24:45 2016  ---------------




---------------  RELOAD CELLS  Fri Feb 05 01:25:11 2016  ---------------




---------------    Fri Feb 05 01:25:11 2016  ---------------




---------------  RELOAD CELLS  Fri Feb 05 01:42:13 2016  ---------------




---------------    Fri Feb 05 01:42:13 2016  ---------------




---------------    Fri Feb 05 01:43:01 2016  ---------------




---------------    Fri Feb 05 01:43:23 2016  ---------------




---------------    Fri Feb 05 01:43:30 2016  ---------------




---------------    Fri Feb 05 01:43:35 2016  ---------------




---------------    Fri Feb 05 01:44:59 2016  ---------------


