=======================================================================
PADS Professional Layout - Version 2015.0.678.963
=======================================================================



Job Directory:  C:\Users\branden.sheffield\Documents\RedPeril\Mentor\RedPeril\PCB\


Design Units:(mm)

Replace Cell Log:   repCellLog61.txt

Thu Oct 13 14:33:32 2016

Reference Designator            Cell Name                         New Cell Name
===============================================================================


---------------    Thu Oct 13 14:33:32 2016  ---------------




---------------    Thu Oct 13 14:33:32 2016  ---------------




---------------    Thu Oct 13 14:33:40 2016  ---------------




---------------    Thu Oct 13 14:33:40 2016  ---------------


