=======================================================================
PADS Professional Layout - Version 2015.0.678.963
=======================================================================

RELOAD CELLS

Job Directory:  C:\Users\branden.sheffield\Documents\RedPeril\Mentor\RedPeril\PCB\


Design Units:(mm)

Replace Cell Log:   repCellLog52.txt

Fri Sep 30 12:40:50 2016

Reference Designator            Cell Name                         New Cell Name
===============================================================================


---------------  RELOAD CELLS  Fri Sep 30 12:40:50 2016  ---------------




---------------    Fri Sep 30 12:40:50 2016  ---------------


