=======================================================================
PADS Drawing Editor - Version 116.0.506.1217
=======================================================================

Job Directory:        C:\pd_repo\pd\_CITADEL\Mentor\Citadel_MicFF\PCB\Drawing\Main\

 Drawing Validation Log: C:\pd_repo\pd\_CITADEL\Mentor\Citadel_MicFF\PCB\Drawing\Main\LogFiles\DrawingValidation.txt

Mon Jan 09 14:16:44 2017

==============================================================================================================================================

Validating design: ..\..\Main.pcb [UP-TO-DATE]