============================================================ 
                   Drawing Setup log file
============================================================ 

Date: "Friday September 25 15:49:47 2015"
Job Name: "C:\Users\branden.sheffield\Documents\Crusher3.0\Mentor\CrusherMain\PCB\Drawing\Main\Main.mdf"

