=======================================================================
PADS Drawing Editor - Version 116.0.506.1217
=======================================================================

RELOAD CELLS

Job Directory:  C:\pd_repo\pd\_CITADEL\Mentor\Citadel_MicFF\PCB\Drawing\Main\


Design Units:(th)

Replace Cell Log:   repCellLog01.txt

Mon Jan 09 13:59:12 2017

Reference Designator            Cell Name                         New Cell Name
===============================================================================


---------------  RELOAD CELLS  Mon Jan 09 13:59:12 2017  ---------------




---------------  RELOAD CELLS TMP  Mon Jan 09 13:59:12 2017  ---------------


                                A2_DWG_Page_1                     A2_DWG_Page_1                   


---------------    Mon Jan 09 13:59:12 2017  ---------------




---------------    Mon Jan 09 13:59:12 2017  ---------------


